{
    "oranjestad": {
        "adm0_a3": "ABW",
        "adm0cap": "0.00000000000",
        "adm0name": "Aruba",
        "adm1name": "",
        "admin1_cod": "0.00000000000",
        "capalt": "****",
        "capin": "",
        "cca2": "AW",
        "cca3": "ABW",
        "changed": "0.00000000000",
        "checkme": "5",
        "cityalt": "",
        "compare": "0",
        "data_sources": [
            "natural"
        ],
        "diffascii": "0",
        "diffnote": "",
        "elevation": "0.00000000000",
        "feature_cl": "P",
        "feature_co": "PPL",
        "featurecla": "Admin-0 region capital",
        "geonameid": "3513426.00000000000",
        "geonamesno": "GeoNames match general.",
        "gn_ascii": "Oranjestad",
        "gn_pop": "1097",
        "gtopo30": "1.00000000000",
        "iso_a2": "AW",
        "iso_a3": "ABW",
        "label": "",
        "labelrank": "0",
        "latitude": "12.53038372700",
        "longitude": "-70.02899194510",
        "ls_match": "1",
        "ls_name": "Oranjestad",
        "max_areakm": "41.00000000000",
        "max_areami": "16.00000000000",
        "max_bbxmax": "-69.96666667000",
        "max_bbxmin": "-70.05833333000",
        "max_bbymax": "12.58333333000",
        "max_bbymin": "12.49166667000",
        "max_natsca": "20",
        "max_perkm": "49.00000000000",
        "max_permi": "31.00000000000",
        "max_pop10": "68775",
        "max_pop20": "68775",
        "max_pop50": "0",
        "max_pop300": "0",
        "max_pop310": "0",
        "mean_bbxc": "-70.01726190000",
        "mean_bbyc": "12.53120748000",
        "megacity": "0",
        "meganame": "",
        "min_areakm": "41",
        "min_areami": "16.00000000000",
        "min_bbxmax": "-69.96666667000",
        "min_bbxmin": "-70.05833333000",
        "min_bbymax": "12.58333333000",
        "min_bbymin": "12.49166667000",
        "min_perkm": "49.00000000000",
        "min_permi": "31.00000000000",
        "min_zoom": "6.7",
        "name": "Oranjestad",
        "name_ar": "",
        "name_bn": "",
        "name_de": "Oranjestad",
        "name_el": "",
        "name_en": "Oranjestad",
        "name_es": "Oranjestad",
        "name_fr": "Oranjestad",
        "name_hi": "",
        "name_hu": "",
        "name_id": "",
        "name_it": "",
        "name_ja": "",
        "name_ko": "",
        "name_nl": "",
        "name_pl": "",
        "name_pt": "Oranjestad",
        "name_ru": "\u00d0\u009e\u00d1\u0080\u00d0\u00b0\u00d0\u00bd\u00d1\u008c\u00d0\u00b5\u00d1\u0081\u00d1\u0082\u00d0\u00b0\u00d0\u00b4",
        "name_sv": "",
        "name_tr": "",
        "name_vi": "",
        "name_zh": "\u00e5\u00a5\u00a5\u00e8\u0085\u008a\u00e6\u00b6\u0085\u00e6\u0096\u00af\u00e5\u00a1\u0094\u00e5\u00be\u00b7",
        "namealt": "",
        "nameascii": "Oranjestad",
        "namediff": "0",
        "namepar": "",
        "natscale": "20",
        "ne_id": "1159146057",
        "note": "",
        "pop1950": "0.00000000000",
        "pop1955": "0.00000000000",
        "pop1960": "0.00000000000",
        "pop1965": "0.00000000000",
        "pop1970": "0.00000000000",
        "pop1975": "0.00000000000",
        "pop1980": "0.00000000000",
        "pop1985": "0.00000000000",
        "pop1990": "0.00000000000",
        "pop1995": "0.00000000000",
        "pop2000": "0.00000000000",
        "pop2005": "0.00000000000",
        "pop2010": "0.00000000000",
        "pop2015": "0.00000000000",
        "pop2020": "0.00000000000",
        "pop2025": "0.00000000000",
        "pop2050": "0.00000000000",
        "pop_max": "68775",
        "pop_min": "33000",
        "pop_other": "68775",
        "rank_max": "8",
        "rank_min": "7",
        "record_type": "city",
        "scalerank": "7",
        "sov0name": "Kingdom of the Netherlands",
        "sov_a3": "NLD",
        "timezone": "America\/Curacao",
        "un_adm0": "",
        "un_fid": "0",
        "un_lat": "0.00000000000",
        "un_long": "0.00000000000",
        "wdid_score": "4",
        "wikidataid": "Q131243",
        "wof_id": "890440111",
        "worldcity": "0.00000000000"
    }
}