{
    "mariehamn": {
        "adm0_a3": "ALD",
        "adm0cap": "0.00000000000",
        "adm0name": "Aland",
        "adm1name": "Finstr\u00c3\u00b6m",
        "admin1_cod": "1.00000000000",
        "capalt": "****",
        "capin": "",
        "cca2": "AX",
        "cca3": "ALA",
        "changed": "4.00000000000",
        "checkme": "0",
        "cityalt": "",
        "compare": "0",
        "data_sources": [
            "natural"
        ],
        "diffascii": "0",
        "diffnote": "Added missing admin-1 capital. Changed feature to Admin-0 region capital. Population from GeoNames.",
        "elevation": "0.00000000000",
        "feature_cl": "P",
        "feature_co": "PPLA",
        "featurecla": "Admin-0 region capital",
        "geonameid": "3041732.00000000000",
        "geonamesno": "GeoNames match general.",
        "gn_ascii": "Mariehamn",
        "gn_pop": "10682",
        "gtopo30": "1.00000000000",
        "iso_a2": "AX",
        "iso_a3": "ALA",
        "label": "",
        "labelrank": "8",
        "latitude": "60.09699618490",
        "longitude": "19.94900447190",
        "ls_match": "0",
        "ls_name": "",
        "max_areakm": "0.00000000000",
        "max_areami": "0.00000000000",
        "max_bbxmax": "0.00000000000",
        "max_bbxmin": "0.00000000000",
        "max_bbymax": "0.00000000000",
        "max_bbymin": "0.00000000000",
        "max_natsca": "0",
        "max_perkm": "0.00000000000",
        "max_permi": "0.00000000000",
        "max_pop10": "0",
        "max_pop20": "0",
        "max_pop50": "0",
        "max_pop300": "0",
        "max_pop310": "0",
        "mean_bbxc": "0.00000000000",
        "mean_bbyc": "0.00000000000",
        "megacity": "0",
        "meganame": "",
        "min_areakm": "0",
        "min_areami": "0.00000000000",
        "min_bbxmax": "0.00000000000",
        "min_bbxmin": "0.00000000000",
        "min_bbymax": "0.00000000000",
        "min_bbymin": "0.00000000000",
        "min_perkm": "0.00000000000",
        "min_permi": "0.00000000000",
        "min_zoom": "7.0",
        "name": "Mariehamn",
        "name_ar": "",
        "name_bn": "",
        "name_de": "Mariehamn",
        "name_el": "",
        "name_en": "Mariehamn",
        "name_es": "Mariehamn",
        "name_fr": "Mariehamn",
        "name_hi": "",
        "name_hu": "",
        "name_id": "",
        "name_it": "",
        "name_ja": "",
        "name_ko": "",
        "name_nl": "",
        "name_pl": "",
        "name_pt": "Mariehamn",
        "name_ru": "\u00d0\u009c\u00d0\u00b0\u00d1\u0080\u00d0\u00b8\u00d0\u00b5\u00d1\u0085\u00d0\u00b0\u00d0\u00bc\u00d0\u00bd",
        "name_sv": "",
        "name_tr": "",
        "name_vi": "",
        "name_zh": "\u00e7\u008e\u009b\u00e4\u00b8\u00bd\u00e6\u00b8\u00af",
        "namealt": "",
        "nameascii": "Mariehamn",
        "namediff": "1",
        "namepar": "",
        "natscale": "1",
        "ne_id": "1159119239",
        "note": "",
        "pop1950": "0.00000000000",
        "pop1955": "0.00000000000",
        "pop1960": "0.00000000000",
        "pop1965": "0.00000000000",
        "pop1970": "0.00000000000",
        "pop1975": "0.00000000000",
        "pop1980": "0.00000000000",
        "pop1985": "0.00000000000",
        "pop1990": "0.00000000000",
        "pop1995": "0.00000000000",
        "pop2000": "0.00000000000",
        "pop2005": "0.00000000000",
        "pop2010": "0.00000000000",
        "pop2015": "0.00000000000",
        "pop2020": "0.00000000000",
        "pop2025": "0.00000000000",
        "pop2050": "0.00000000000",
        "pop_max": "10682",
        "pop_min": "10682",
        "pop_other": "0",
        "rank_max": "6",
        "rank_min": "6",
        "record_type": "city",
        "scalerank": "10",
        "sov0name": "Finland",
        "sov_a3": "ALD",
        "timezone": "Europe\/Helsinki",
        "un_adm0": "",
        "un_fid": "0",
        "un_lat": "0.00000000000",
        "un_long": "0.00000000000",
        "wdid_score": "4",
        "wikidataid": "Q48329",
        "wof_id": "101815223",
        "worldcity": "0.00000000000"
    }
}