{
    "saint_john's": {
        "adm0_a3": "ATG",
        "adm0cap": "1.00000000000",
        "adm0name": "Antigua and Barbuda",
        "adm1name": "",
        "admin1_cod": "4.00000000000",
        "capalt": "****",
        "capin": "",
        "cca2": "AG",
        "cca3": "ATG",
        "changed": "4.00000000000",
        "checkme": "5",
        "cityalt": "",
        "compare": "0",
        "data_sources": [
            "natural"
        ],
        "diffascii": "0",
        "diffnote": "Changed scale rank.",
        "elevation": "0.00000000000",
        "feature_cl": "P",
        "feature_co": "PPLC",
        "featurecla": "Admin-0 capital",
        "geonameid": "3576022.00000000000",
        "geonamesno": "GeoNames match general.",
        "gn_ascii": "Saint John's",
        "gn_pop": "24226",
        "gtopo30": "1.00000000000",
        "iso_a2": "AG",
        "iso_a3": "ATG",
        "label": "",
        "labelrank": "0",
        "latitude": "17.11803651830",
        "longitude": "-61.85003381510",
        "ls_match": "1",
        "ls_name": "Saint John's",
        "max_areakm": "25.00000000000",
        "max_areami": "10.00000000000",
        "max_bbxmax": "-61.78333333000",
        "max_bbxmin": "-61.85833333000",
        "max_bbymax": "17.14166667000",
        "max_bbymin": "17.09166667000",
        "max_natsca": "100",
        "max_perkm": "38.00000000000",
        "max_permi": "24.00000000000",
        "max_pop10": "35499",
        "max_pop20": "35499",
        "max_pop50": "35499",
        "max_pop300": "35499",
        "max_pop310": "0",
        "mean_bbxc": "-61.82405914000",
        "mean_bbyc": "17.12056452000",
        "megacity": "0",
        "meganame": "",
        "min_areakm": "25",
        "min_areami": "10.00000000000",
        "min_bbxmax": "-61.78333333000",
        "min_bbxmin": "-61.85833333000",
        "min_bbymax": "17.14166667000",
        "min_bbymin": "17.09166667000",
        "min_perkm": "38.00000000000",
        "min_permi": "24.00000000000",
        "min_zoom": "5.1",
        "name": "Saint John's",
        "name_ar": "",
        "name_bn": "",
        "name_de": "Saint John\u00e2\u0080\u0099s",
        "name_el": "",
        "name_en": "St. John's",
        "name_es": "Saint John",
        "name_fr": "Saint John's",
        "name_hi": "",
        "name_hu": "",
        "name_id": "",
        "name_it": "",
        "name_ja": "",
        "name_ko": "",
        "name_nl": "",
        "name_pl": "",
        "name_pt": "Saint John's",
        "name_ru": "\u00d0\u00a1\u00d0\u00b5\u00d0\u00bd\u00d1\u0082-\u00d0\u0094\u00d0\u00b6\u00d0\u00be\u00d0\u00bd\u00d1\u0081",
        "name_sv": "",
        "name_tr": "",
        "name_vi": "",
        "name_zh": "\u00e8\u0081\u0096\u00e7\u00b4\u0084\u00e7\u00bf\u00b0",
        "namealt": "",
        "nameascii": "Saint John's",
        "namediff": "0",
        "namepar": "",
        "natscale": "50",
        "ne_id": "1159150457",
        "note": "",
        "pop1950": "0.00000000000",
        "pop1955": "0.00000000000",
        "pop1960": "0.00000000000",
        "pop1965": "0.00000000000",
        "pop1970": "0.00000000000",
        "pop1975": "0.00000000000",
        "pop1980": "0.00000000000",
        "pop1985": "0.00000000000",
        "pop1990": "0.00000000000",
        "pop1995": "0.00000000000",
        "pop2000": "0.00000000000",
        "pop2005": "0.00000000000",
        "pop2010": "0.00000000000",
        "pop2015": "0.00000000000",
        "pop2020": "0.00000000000",
        "pop2025": "0.00000000000",
        "pop2050": "0.00000000000",
        "pop_max": "35499",
        "pop_min": "24226",
        "pop_other": "0",
        "rank_max": "7",
        "rank_min": "7",
        "record_type": "city",
        "scalerank": "4",
        "sov0name": "Antigua and Barbuda",
        "sov_a3": "ATG",
        "timezone": "America\/Antigua",
        "un_adm0": "",
        "un_fid": "0",
        "un_lat": "0.00000000000",
        "un_long": "0.00000000000",
        "wdid_score": "4",
        "wikidataid": "Q36262",
        "wof_id": "890442103",
        "worldcity": "0.00000000000"
    }
}