{
    "antwerpen": {
        "adm0_a3": "BEL",
        "adm0cap": "0.00000000000",
        "adm0name": "Belgium",
        "adm1name": "Antwerp",
        "admin1_cod": "0.00000000000",
        "capalt": "****",
        "capin": "",
        "cca2": "BE",
        "cca3": "BEL",
        "changed": "0.00000000000",
        "checkme": "0",
        "cityalt": "",
        "compare": "0",
        "data_sources": [
            "natural"
        ],
        "diffascii": "0",
        "diffnote": "",
        "elevation": "0.00000000000",
        "feature_cl": "P",
        "feature_co": "PPL",
        "featurecla": "Admin-1 capital",
        "geonameid": "2803138.00000000000",
        "geonamesno": "GeoNames spatial join with similar names only.",
        "gn_ascii": "Antwerp",
        "gn_pop": "459805",
        "gtopo30": "3.00000000000",
        "iso_a2": "BE",
        "iso_a3": "BEL",
        "label": "",
        "labelrank": "8",
        "latitude": "51.22037355460",
        "longitude": "4.41501704776",
        "ls_match": "1",
        "ls_name": "Antwerpen",
        "max_areakm": "738.00000000000",
        "max_areami": "285.00000000000",
        "max_bbxmax": "4.88333333000",
        "max_bbxmin": "4.18480462000",
        "max_bbymax": "51.40833333000",
        "max_bbymin": "50.94166667000",
        "max_natsca": "20",
        "max_perkm": "940.00000000000",
        "max_permi": "584.00000000000",
        "max_pop10": "1121505",
        "max_pop20": "1121172",
        "max_pop50": "0",
        "max_pop300": "0",
        "max_pop310": "0",
        "mean_bbxc": "4.53428112000",
        "mean_bbyc": "51.14227510000",
        "megacity": "1",
        "meganame": "Antwerpen",
        "min_areakm": "737",
        "min_areami": "285.00000000000",
        "min_bbxmax": "4.88333333000",
        "min_bbxmin": "4.18480462000",
        "min_bbymax": "51.40833333000",
        "min_bbymin": "50.94166667000",
        "min_perkm": "0.00000000000",
        "min_permi": "0.00000000000",
        "min_zoom": "6.0",
        "name": "Antwerpen",
        "name_ar": "",
        "name_bn": "",
        "name_de": "Antwerpen",
        "name_el": "",
        "name_en": "Antwerp",
        "name_es": "Amberes",
        "name_fr": "Anvers",
        "name_hi": "",
        "name_hu": "",
        "name_id": "",
        "name_it": "",
        "name_ja": "",
        "name_ko": "",
        "name_nl": "",
        "name_pl": "",
        "name_pt": "Antu\u00c3\u00a9rpia",
        "name_ru": "\u00d0\u0090\u00d0\u00bd\u00d1\u0082\u00d0\u00b2\u00d0\u00b5\u00d1\u0080\u00d0\u00bf\u00d0\u00b5\u00d0\u00bd",
        "name_sv": "",
        "name_tr": "",
        "name_vi": "",
        "name_zh": "\u00e5\u00ae\u0089\u00e7\u0089\u00b9\u00e5\u008d\u00ab\u00e6\u0099\u00ae",
        "namealt": "",
        "nameascii": "Antwerpen",
        "namediff": "0",
        "namepar": "Anvers",
        "natscale": "30",
        "ne_id": "1159147705",
        "note": "",
        "pop1950": "759.00000000000",
        "pop1955": "786.00000000000",
        "pop1960": "813.00000000000",
        "pop1965": "835.00000000000",
        "pop1970": "855.00000000000",
        "pop1975": "868.00000000000",
        "pop1980": "880.00000000000",
        "pop1985": "881.00000000000",
        "pop1990": "893.00000000000",
        "pop1995": "906.00000000000",
        "pop2000": "912.00000000000",
        "pop2005": "918.00000000000",
        "pop2010": "920.00000000000",
        "pop2015": "920.00000000000",
        "pop2020": "920.00000000000",
        "pop2025": "920.00000000000",
        "pop2050": "920.00000000000",
        "pop_max": "920000",
        "pop_min": "459805",
        "pop_other": "928302",
        "rank_max": "11",
        "rank_min": "10",
        "record_type": "city",
        "scalerank": "6",
        "sov0name": "Belgium",
        "sov_a3": "BEL",
        "timezone": "Europe\/Brussels",
        "un_adm0": "Belgium",
        "un_fid": "383",
        "un_lat": "51.20000000000",
        "un_long": "4.42000000000",
        "wdid_score": "4",
        "wikidataid": "Q12892",
        "wof_id": "101748099",
        "worldcity": "0.00000000000"
    },
    "arlon": {
        "adm0_a3": "BEL",
        "adm0cap": "0.00000000000",
        "adm0name": "Belgium",
        "adm1name": "Arlon",
        "admin1_cod": "0.00000000000",
        "capalt": "****",
        "capin": "",
        "cca2": "BE",
        "cca3": "BEL",
        "changed": "4.00000000000",
        "checkme": "0",
        "cityalt": "",
        "compare": "0",
        "data_sources": [
            "natural"
        ],
        "diffascii": "0",
        "diffnote": "Added missing admin-1 capital. Population from GeoNames.",
        "elevation": "0.00000000000",
        "feature_cl": "P",
        "feature_co": "PPL",
        "featurecla": "Admin-1 capital",
        "geonameid": "2803073.00000000000",
        "geonamesno": "Geonames ascii name + lat.d + long.d matching.",
        "gn_ascii": "Arlon",
        "gn_pop": "26179",
        "gtopo30": "385.00000000000",
        "iso_a2": "BE",
        "iso_a3": "BEL",
        "label": "",
        "labelrank": "8",
        "latitude": "49.68330312690",
        "longitude": "5.81670047204",
        "ls_match": "0",
        "ls_name": "",
        "max_areakm": "0.00000000000",
        "max_areami": "0.00000000000",
        "max_bbxmax": "0.00000000000",
        "max_bbxmin": "0.00000000000",
        "max_bbymax": "0.00000000000",
        "max_bbymin": "0.00000000000",
        "max_natsca": "0",
        "max_perkm": "0.00000000000",
        "max_permi": "0.00000000000",
        "max_pop10": "0",
        "max_pop20": "0",
        "max_pop50": "0",
        "max_pop300": "0",
        "max_pop310": "0",
        "mean_bbxc": "0.00000000000",
        "mean_bbyc": "0.00000000000",
        "megacity": "0",
        "meganame": "",
        "min_areakm": "0",
        "min_areami": "0.00000000000",
        "min_bbxmax": "0.00000000000",
        "min_bbxmin": "0.00000000000",
        "min_bbymax": "0.00000000000",
        "min_bbymin": "0.00000000000",
        "min_perkm": "0.00000000000",
        "min_permi": "0.00000000000",
        "min_zoom": "9.0",
        "name": "Arlon",
        "name_ar": "",
        "name_bn": "",
        "name_de": "Arlon",
        "name_el": "",
        "name_en": "Arlon",
        "name_es": "Arlon",
        "name_fr": "Arlon",
        "name_hi": "",
        "name_hu": "",
        "name_id": "",
        "name_it": "",
        "name_ja": "",
        "name_ko": "",
        "name_nl": "",
        "name_pl": "",
        "name_pt": "Arlon",
        "name_ru": "\u00d0\u0090\u00d1\u0080\u00d0\u00bb\u00d0\u00be\u00d0\u00bd",
        "name_sv": "",
        "name_tr": "",
        "name_vi": "",
        "name_zh": "\u00e9\u0098\u00bf\u00e7\u0088\u00be\u00e9\u009a\u0086",
        "namealt": "",
        "nameascii": "Arlon",
        "namediff": "1",
        "namepar": "",
        "natscale": "1",
        "ne_id": "1159121119",
        "note": "",
        "pop1950": "0.00000000000",
        "pop1955": "0.00000000000",
        "pop1960": "0.00000000000",
        "pop1965": "0.00000000000",
        "pop1970": "0.00000000000",
        "pop1975": "0.00000000000",
        "pop1980": "0.00000000000",
        "pop1985": "0.00000000000",
        "pop1990": "0.00000000000",
        "pop1995": "0.00000000000",
        "pop2000": "0.00000000000",
        "pop2005": "0.00000000000",
        "pop2010": "0.00000000000",
        "pop2015": "0.00000000000",
        "pop2020": "0.00000000000",
        "pop2025": "0.00000000000",
        "pop2050": "0.00000000000",
        "pop_max": "26179",
        "pop_min": "26179",
        "pop_other": "0",
        "rank_max": "7",
        "rank_min": "7",
        "record_type": "city",
        "scalerank": "10",
        "sov0name": "Belgium",
        "sov_a3": "BEL",
        "timezone": "Europe\/Brussels",
        "un_adm0": "",
        "un_fid": "0",
        "un_lat": "0.00000000000",
        "un_long": "0.00000000000",
        "wdid_score": "4",
        "wikidataid": "Q675960",
        "wof_id": "101812837",
        "worldcity": "0.00000000000"
    },
    "brugge": {
        "adm0_a3": "BEL",
        "adm0cap": "0.00000000000",
        "adm0name": "Belgium",
        "adm1name": "Brugge",
        "admin1_cod": "0.00000000000",
        "capalt": "****",
        "capin": "",
        "cca2": "BE",
        "cca3": "BEL",
        "changed": "0.00000000000",
        "checkme": "0",
        "cityalt": "",
        "compare": "0",
        "data_sources": [
            "natural"
        ],
        "diffascii": "0",
        "diffnote": "",
        "elevation": "0.00000000000",
        "feature_cl": "P",
        "feature_co": "PPL",
        "featurecla": "Admin-1 capital",
        "geonameid": "2800931.00000000000",
        "geonamesno": "Geonames ascii name + lat.d + long.d matching.",
        "gn_ascii": "Brugge",
        "gn_pop": "116709",
        "gtopo30": "3.00000000000",
        "iso_a2": "BE",
        "iso_a3": "BEL",
        "label": "",
        "labelrank": "8",
        "latitude": "51.22037355460",
        "longitude": "3.23002477887",
        "ls_match": "1",
        "ls_name": "Brugge",
        "max_areakm": "95.00000000000",
        "max_areami": "36.00000000000",
        "max_bbxmax": "3.29166667000",
        "max_bbxmin": "3.11666667000",
        "max_bbymax": "51.27500000000",
        "max_bbymin": "51.07500000000",
        "max_natsca": "20",
        "max_perkm": "133.00000000000",
        "max_permi": "83.00000000000",
        "max_pop10": "146469",
        "max_pop20": "146469",
        "max_pop50": "0",
        "max_pop300": "0",
        "max_pop310": "0",
        "mean_bbxc": "3.20535714000",
        "mean_bbyc": "51.18540476000",
        "megacity": "0",
        "meganame": "",
        "min_areakm": "95",
        "min_areami": "36.00000000000",
        "min_bbxmax": "3.29166667000",
        "min_bbxmin": "3.11666667000",
        "min_bbymax": "51.27500000000",
        "min_bbymin": "51.07500000000",
        "min_perkm": "133.00000000000",
        "min_permi": "83.00000000000",
        "min_zoom": "7.0",
        "name": "Brugge",
        "name_ar": "",
        "name_bn": "",
        "name_de": "Br\u00c3\u00bcgge",
        "name_el": "",
        "name_en": "Bruges",
        "name_es": "Brujas",
        "name_fr": "Bruges",
        "name_hi": "",
        "name_hu": "",
        "name_id": "",
        "name_it": "",
        "name_ja": "",
        "name_ko": "",
        "name_nl": "",
        "name_pl": "",
        "name_pt": "Bruges",
        "name_ru": "\u00d0\u0091\u00d1\u0080\u00d1\u008e\u00d0\u00b3\u00d0\u00b3\u00d0\u00b5",
        "name_sv": "",
        "name_tr": "",
        "name_vi": "",
        "name_zh": "\u00e5\u00b8\u0083\u00e9\u00b2\u0081\u00e6\u0097\u00a5",
        "namealt": "Bruges",
        "nameascii": "Brugge",
        "namediff": "0",
        "namepar": "",
        "natscale": "20",
        "ne_id": "1159144553",
        "note": "",
        "pop1950": "0.00000000000",
        "pop1955": "0.00000000000",
        "pop1960": "0.00000000000",
        "pop1965": "0.00000000000",
        "pop1970": "0.00000000000",
        "pop1975": "0.00000000000",
        "pop1980": "0.00000000000",
        "pop1985": "0.00000000000",
        "pop1990": "0.00000000000",
        "pop1995": "0.00000000000",
        "pop2000": "0.00000000000",
        "pop2005": "0.00000000000",
        "pop2010": "0.00000000000",
        "pop2015": "0.00000000000",
        "pop2020": "0.00000000000",
        "pop2025": "0.00000000000",
        "pop2050": "0.00000000000",
        "pop_max": "146469",
        "pop_min": "116709",
        "pop_other": "143597",
        "rank_max": "9",
        "rank_min": "9",
        "record_type": "city",
        "scalerank": "7",
        "sov0name": "Belgium",
        "sov_a3": "BEL",
        "timezone": "Europe\/Brussels",
        "un_adm0": "",
        "un_fid": "0",
        "un_lat": "0.00000000000",
        "un_long": "0.00000000000",
        "wdid_score": "4",
        "wikidataid": "Q12994",
        "wof_id": "101748097",
        "worldcity": "0.00000000000"
    },
    "brussels": {
        "adm0_a3": "BEL",
        "adm0cap": "1.00000000000",
        "adm0name": "Belgium",
        "adm1name": "Brussels",
        "admin1_cod": "0.00000000000",
        "capalt": "****",
        "capin": "",
        "cca2": "BE",
        "cca3": "BEL",
        "changed": "0.00000000000",
        "checkme": "5",
        "cityalt": "Brussels",
        "compare": "0",
        "data_sources": [
            "natural"
        ],
        "diffascii": "0",
        "diffnote": "",
        "elevation": "0.00000000000",
        "feature_cl": "P",
        "feature_co": "PPLC",
        "featurecla": "Admin-0 capital",
        "geonameid": "2800866.00000000000",
        "geonamesno": "GeoNames match general.",
        "gn_ascii": "Brussels",
        "gn_pop": "1019022",
        "gtopo30": "48.00000000000",
        "iso_a2": "BE",
        "iso_a3": "BEL",
        "label": "",
        "labelrank": "8",
        "latitude": "50.83331707670",
        "longitude": "4.33331660830",
        "ls_match": "1",
        "ls_name": "Brussels",
        "max_areakm": "2344.00000000000",
        "max_areami": "905.00000000000",
        "max_bbxmax": "5.00000000000",
        "max_bbxmin": "3.98352867000",
        "max_bbymax": "51.40833333000",
        "max_bbymin": "50.65000000000",
        "max_natsca": "300",
        "max_perkm": "2982.00000000000",
        "max_permi": "1853.00000000000",
        "max_pop10": "1759840",
        "max_pop20": "1874437",
        "max_pop50": "3576473",
        "max_pop300": "3576473",
        "max_pop310": "3576473",
        "mean_bbxc": "4.32915930400",
        "mean_bbyc": "50.91955570200",
        "megacity": "1",
        "meganame": "Bruxelles-Brussel",
        "min_areakm": "900",
        "min_areami": "347.00000000000",
        "min_bbxmax": "4.66666667000",
        "min_bbxmin": "3.57500000000",
        "min_bbymax": "51.01666667000",
        "min_bbymin": "50.60000000000",
        "min_perkm": "997.00000000000",
        "min_permi": "620.00000000000",
        "min_zoom": "4.7",
        "name": "Brussels",
        "name_ar": "",
        "name_bn": "",
        "name_de": "Br\u00c3\u00bcssel",
        "name_el": "",
        "name_en": "Brussels",
        "name_es": "Bruselas",
        "name_fr": "Bruxelles",
        "name_hi": "",
        "name_hu": "",
        "name_id": "",
        "name_it": "",
        "name_ja": "",
        "name_ko": "",
        "name_nl": "",
        "name_pl": "",
        "name_pt": "Bruxelas",
        "name_ru": "\u00d0\u0091\u00d1\u0080\u00d1\u008e\u00d1\u0081\u00d1\u0081\u00d0\u00b5\u00d0\u00bb\u00d1\u008c",
        "name_sv": "",
        "name_tr": "",
        "name_vi": "",
        "name_zh": "\u00e5\u00b8\u0083\u00e9\u00b2\u0081\u00e5\u00a1\u009e\u00e5\u00b0\u0094",
        "namealt": "Bruxelles-Brussel",
        "nameascii": "Brussels",
        "namediff": "0",
        "namepar": "",
        "natscale": "200",
        "ne_id": "1159151465",
        "note": "",
        "pop1950": "1415.00000000000",
        "pop1955": "1449.00000000000",
        "pop1960": "1485.00000000000",
        "pop1965": "1525.00000000000",
        "pop1970": "1568.00000000000",
        "pop1975": "1610.00000000000",
        "pop1980": "1654.00000000000",
        "pop1985": "1654.00000000000",
        "pop1990": "1680.00000000000",
        "pop1995": "1715.00000000000",
        "pop2000": "1733.00000000000",
        "pop2005": "1742.00000000000",
        "pop2010": "1743.00000000000",
        "pop2015": "1744.00000000000",
        "pop2020": "1744.00000000000",
        "pop2025": "1744.00000000000",
        "pop2050": "1744.00000000000",
        "pop_max": "1743000",
        "pop_min": "1019022",
        "pop_other": "1490164",
        "rank_max": "12",
        "rank_min": "12",
        "record_type": "city",
        "scalerank": "2",
        "sov0name": "Belgium",
        "sov_a3": "BEL",
        "timezone": "Europe\/Brussels",
        "un_adm0": "Belgium",
        "un_fid": "384",
        "un_lat": "50.83000000000",
        "un_long": "4.36000000000",
        "wdid_score": "4",
        "wikidataid": "Q239",
        "wof_id": "101751573",
        "worldcity": "1.00000000000"
    },
    "charleroi": {
        "adm0_a3": "BEL",
        "adm0cap": "0.00000000000",
        "adm0name": "Belgium",
        "adm1name": "Charleroi",
        "admin1_cod": "0.00000000000",
        "capalt": "****",
        "capin": "",
        "cca2": "BE",
        "cca3": "BEL",
        "changed": "0.00000000000",
        "checkme": "0",
        "cityalt": "",
        "compare": "0",
        "data_sources": [
            "natural"
        ],
        "diffascii": "0",
        "diffnote": "",
        "elevation": "0.00000000000",
        "feature_cl": "P",
        "feature_co": "PPL",
        "featurecla": "Populated place",
        "geonameid": "2800481.00000000000",
        "geonamesno": "GeoNames match with ascii name + lat + long whole numbers.",
        "gn_ascii": "Charleroi",
        "gn_pop": "200132",
        "gtopo30": "121.00000000000",
        "iso_a2": "BE",
        "iso_a3": "BEL",
        "label": "",
        "labelrank": "8",
        "latitude": "50.42039654450",
        "longitude": "4.45000199242",
        "ls_match": "1",
        "ls_name": "Charleroi",
        "max_areakm": "240.00000000000",
        "max_areami": "93.00000000000",
        "max_bbxmax": "4.66139243000",
        "max_bbxmin": "4.31666667000",
        "max_bbymax": "50.50833333000",
        "max_bbymin": "50.28333333000",
        "max_natsca": "20",
        "max_perkm": "220.00000000000",
        "max_permi": "136.00000000000",
        "max_pop10": "345367",
        "max_pop20": "345367",
        "max_pop50": "0",
        "max_pop300": "0",
        "max_pop310": "0",
        "mean_bbxc": "4.47404565000",
        "mean_bbyc": "50.42287591000",
        "megacity": "0",
        "meganame": "",
        "min_areakm": "240",
        "min_areami": "93.00000000000",
        "min_bbxmax": "4.66139243000",
        "min_bbxmin": "4.31666667000",
        "min_bbymax": "50.50833333000",
        "min_bbymin": "50.28333333000",
        "min_perkm": "220.00000000000",
        "min_permi": "136.00000000000",
        "min_zoom": "6.7",
        "name": "Charleroi",
        "name_ar": "",
        "name_bn": "",
        "name_de": "Charleroi",
        "name_el": "",
        "name_en": "Charleroi",
        "name_es": "Charleroi",
        "name_fr": "Charleroi",
        "name_hi": "",
        "name_hu": "",
        "name_id": "",
        "name_it": "",
        "name_ja": "",
        "name_ko": "",
        "name_nl": "",
        "name_pl": "",
        "name_pt": "Charleroi",
        "name_ru": "\u00d0\u00a8\u00d0\u00b0\u00d1\u0080\u00d0\u00bb\u00d0\u00b5\u00d1\u0080\u00d1\u0083\u00d0\u00b0",
        "name_sv": "",
        "name_tr": "",
        "name_vi": "",
        "name_zh": "\u00e6\u00b2\u0099\u00e5\u008b\u0092\u00e7\u00bd\u0097\u00e7\u0093\u00a6",
        "namealt": "",
        "nameascii": "Charleroi",
        "namediff": "0",
        "namepar": "",
        "natscale": "20",
        "ne_id": "1159144561",
        "note": "",
        "pop1950": "0.00000000000",
        "pop1955": "0.00000000000",
        "pop1960": "0.00000000000",
        "pop1965": "0.00000000000",
        "pop1970": "0.00000000000",
        "pop1975": "0.00000000000",
        "pop1980": "0.00000000000",
        "pop1985": "0.00000000000",
        "pop1990": "0.00000000000",
        "pop1995": "0.00000000000",
        "pop2000": "0.00000000000",
        "pop2005": "0.00000000000",
        "pop2010": "0.00000000000",
        "pop2015": "0.00000000000",
        "pop2020": "0.00000000000",
        "pop2025": "0.00000000000",
        "pop2050": "0.00000000000",
        "pop_max": "345367",
        "pop_min": "200132",
        "pop_other": "355396",
        "rank_max": "10",
        "rank_min": "10",
        "record_type": "city",
        "scalerank": "7",
        "sov0name": "Belgium",
        "sov_a3": "BEL",
        "timezone": "Europe\/Brussels",
        "un_adm0": "",
        "un_fid": "0",
        "un_lat": "0.00000000000",
        "un_long": "0.00000000000",
        "wdid_score": "4",
        "wikidataid": "Q81046",
        "wof_id": "101748075",
        "worldcity": "0.00000000000"
    },
    "gent": {
        "adm0_a3": "BEL",
        "adm0cap": "0.00000000000",
        "adm0name": "Belgium",
        "adm1name": "East Flanders",
        "admin1_cod": "0.00000000000",
        "capalt": "****",
        "capin": "",
        "cca2": "BE",
        "cca3": "BEL",
        "changed": "0.00000000000",
        "checkme": "0",
        "cityalt": "",
        "compare": "0",
        "data_sources": [
            "natural"
        ],
        "diffascii": "0",
        "diffnote": "",
        "elevation": "0.00000000000",
        "feature_cl": "P",
        "feature_co": "PPL",
        "featurecla": "Admin-1 capital",
        "geonameid": "2797656.00000000000",
        "geonamesno": "Geonames ascii name + lat.d + long.d matching.",
        "gn_ascii": "Gent",
        "gn_pop": "231493",
        "gtopo30": "4.00000000000",
        "iso_a2": "BE",
        "iso_a3": "BEL",
        "label": "",
        "labelrank": "8",
        "latitude": "51.02999757800",
        "longitude": "3.70002193057",
        "ls_match": "1",
        "ls_name": "Gent",
        "max_areakm": "378.00000000000",
        "max_areami": "146.00000000000",
        "max_bbxmax": "4.03333333000",
        "max_bbxmin": "3.57500000000",
        "max_bbymax": "51.15833333000",
        "max_bbymin": "50.87500000000",
        "max_natsca": "10",
        "max_perkm": "564.00000000000",
        "max_permi": "351.00000000000",
        "max_pop10": "444336",
        "max_pop20": "0",
        "max_pop50": "0",
        "max_pop300": "0",
        "max_pop310": "0",
        "mean_bbxc": "3.78706060000",
        "mean_bbyc": "51.02089551000",
        "megacity": "0",
        "meganame": "",
        "min_areakm": "378",
        "min_areami": "146.00000000000",
        "min_bbxmax": "4.03333333000",
        "min_bbxmin": "3.57500000000",
        "min_bbymax": "51.15833333000",
        "min_bbymin": "50.87500000000",
        "min_perkm": "564.00000000000",
        "min_permi": "351.00000000000",
        "min_zoom": "7.0",
        "name": "Gent",
        "name_ar": "",
        "name_bn": "",
        "name_de": "Gent",
        "name_el": "",
        "name_en": "Ghent",
        "name_es": "Gante",
        "name_fr": "Gand",
        "name_hi": "",
        "name_hu": "",
        "name_id": "",
        "name_it": "",
        "name_ja": "",
        "name_ko": "",
        "name_nl": "",
        "name_pl": "",
        "name_pt": "Gante",
        "name_ru": "\u00d0\u0093\u00d0\u00b5\u00d0\u00bd\u00d1\u0082",
        "name_sv": "",
        "name_tr": "",
        "name_vi": "",
        "name_zh": "\u00e6\u00a0\u00b9\u00e7\u0089\u00b9",
        "namealt": "Gand",
        "nameascii": "Gent",
        "namediff": "0",
        "namepar": "",
        "natscale": "10",
        "ne_id": "1159132155",
        "note": "",
        "pop1950": "0.00000000000",
        "pop1955": "0.00000000000",
        "pop1960": "0.00000000000",
        "pop1965": "0.00000000000",
        "pop1970": "0.00000000000",
        "pop1975": "0.00000000000",
        "pop1980": "0.00000000000",
        "pop1985": "0.00000000000",
        "pop1990": "0.00000000000",
        "pop1995": "0.00000000000",
        "pop2000": "0.00000000000",
        "pop2005": "0.00000000000",
        "pop2010": "0.00000000000",
        "pop2015": "0.00000000000",
        "pop2020": "0.00000000000",
        "pop2025": "0.00000000000",
        "pop2050": "0.00000000000",
        "pop_max": "444336",
        "pop_min": "231493",
        "pop_other": "345535",
        "rank_max": "10",
        "rank_min": "10",
        "record_type": "city",
        "scalerank": "8",
        "sov0name": "Belgium",
        "sov_a3": "BEL",
        "timezone": "Europe\/Brussels",
        "un_adm0": "",
        "un_fid": "0",
        "un_lat": "0.00000000000",
        "un_long": "0.00000000000",
        "wdid_score": "4",
        "wikidataid": "Q1296",
        "wof_id": "101748093",
        "worldcity": "0.00000000000"
    },
    "hasselt": {
        "adm0_a3": "BEL",
        "adm0cap": "0.00000000000",
        "adm0name": "Belgium",
        "adm1name": "Limburg",
        "admin1_cod": "0.00000000000",
        "capalt": "****",
        "capin": "",
        "cca2": "BE",
        "cca3": "BEL",
        "changed": "4.00000000000",
        "checkme": "0",
        "cityalt": "",
        "compare": "0",
        "data_sources": [
            "natural"
        ],
        "diffascii": "0",
        "diffnote": "Added missing admin-1 capital. Population from GeoNames.",
        "elevation": "0.00000000000",
        "feature_cl": "P",
        "feature_co": "PPL",
        "featurecla": "Admin-1 capital",
        "geonameid": "2796491.00000000000",
        "geonamesno": "GeoNames match with ascii name + lat + long whole numbers.",
        "gn_ascii": "Hasselt",
        "gn_pop": "69222",
        "gtopo30": "37.00000000000",
        "iso_a2": "BE",
        "iso_a3": "BEL",
        "label": "",
        "labelrank": "8",
        "latitude": "50.96400317480",
        "longitude": "5.48399756100",
        "ls_match": "0",
        "ls_name": "",
        "max_areakm": "0.00000000000",
        "max_areami": "0.00000000000",
        "max_bbxmax": "0.00000000000",
        "max_bbxmin": "0.00000000000",
        "max_bbymax": "0.00000000000",
        "max_bbymin": "0.00000000000",
        "max_natsca": "0",
        "max_perkm": "0.00000000000",
        "max_permi": "0.00000000000",
        "max_pop10": "0",
        "max_pop20": "0",
        "max_pop50": "0",
        "max_pop300": "0",
        "max_pop310": "0",
        "mean_bbxc": "0.00000000000",
        "mean_bbyc": "0.00000000000",
        "megacity": "0",
        "meganame": "",
        "min_areakm": "0",
        "min_areami": "0.00000000000",
        "min_bbxmax": "0.00000000000",
        "min_bbxmin": "0.00000000000",
        "min_bbymax": "0.00000000000",
        "min_bbymin": "0.00000000000",
        "min_perkm": "0.00000000000",
        "min_permi": "0.00000000000",
        "min_zoom": "7.0",
        "name": "Hasselt",
        "name_ar": "",
        "name_bn": "",
        "name_de": "Hasselt",
        "name_el": "",
        "name_en": "Hasselt",
        "name_es": "Hasselt",
        "name_fr": "Hasselt",
        "name_hi": "",
        "name_hu": "",
        "name_id": "",
        "name_it": "",
        "name_ja": "",
        "name_ko": "",
        "name_nl": "",
        "name_pl": "",
        "name_pt": "Hasselt",
        "name_ru": "\u00d0\u00a5\u00d0\u00b0\u00d1\u0081\u00d1\u0081\u00d0\u00b5\u00d0\u00bb\u00d1\u0082",
        "name_sv": "",
        "name_tr": "",
        "name_vi": "",
        "name_zh": "\u00e5\u0093\u0088\u00e7\u0091\u009f\u00e5\u00b0\u0094\u00e7\u0089\u00b9",
        "namealt": "",
        "nameascii": "Hasselt",
        "namediff": "1",
        "namepar": "",
        "natscale": "1",
        "ne_id": "1159120339",
        "note": "",
        "pop1950": "0.00000000000",
        "pop1955": "0.00000000000",
        "pop1960": "0.00000000000",
        "pop1965": "0.00000000000",
        "pop1970": "0.00000000000",
        "pop1975": "0.00000000000",
        "pop1980": "0.00000000000",
        "pop1985": "0.00000000000",
        "pop1990": "0.00000000000",
        "pop1995": "0.00000000000",
        "pop2000": "0.00000000000",
        "pop2005": "0.00000000000",
        "pop2010": "0.00000000000",
        "pop2015": "0.00000000000",
        "pop2020": "0.00000000000",
        "pop2025": "0.00000000000",
        "pop2050": "0.00000000000",
        "pop_max": "69222",
        "pop_min": "69222",
        "pop_other": "0",
        "rank_max": "8",
        "rank_min": "8",
        "record_type": "city",
        "scalerank": "10",
        "sov0name": "Belgium",
        "sov_a3": "BEL",
        "timezone": "Europe\/Brussels",
        "un_adm0": "",
        "un_fid": "0",
        "un_lat": "0.00000000000",
        "un_long": "0.00000000000",
        "wdid_score": "4",
        "wikidataid": "Q58780",
        "wof_id": "101837535",
        "worldcity": "0.00000000000"
    },
    "liege": {
        "adm0_a3": "BEL",
        "adm0cap": "0.00000000000",
        "adm0name": "Belgium",
        "adm1name": "Liege",
        "admin1_cod": "0.00000000000",
        "capalt": "****",
        "capin": "",
        "cca2": "BE",
        "cca3": "BEL",
        "changed": "0.00000000000",
        "checkme": "0",
        "cityalt": "",
        "compare": "0",
        "data_sources": [
            "natural"
        ],
        "diffascii": "0",
        "diffnote": "",
        "elevation": "0.00000000000",
        "feature_cl": "P",
        "feature_co": "PPL",
        "featurecla": "Admin-1 capital",
        "geonameid": "2792413.00000000000",
        "geonamesno": "Geonames ascii name + lat.d + long.d matching.",
        "gn_ascii": "Liege",
        "gn_pop": "182597",
        "gtopo30": "63.00000000000",
        "iso_a2": "BE",
        "iso_a3": "BEL",
        "label": "",
        "labelrank": "7",
        "latitude": "50.62999615390",
        "longitude": "5.58001053734",
        "ls_match": "1",
        "ls_name": "Liege",
        "max_areakm": "523.00000000000",
        "max_areami": "202.00000000000",
        "max_bbxmax": "5.91666667000",
        "max_bbxmin": "5.33333333000",
        "max_bbymax": "50.79166667000",
        "max_bbymin": "50.50000000000",
        "max_natsca": "10",
        "max_perkm": "603.00000000000",
        "max_permi": "375.00000000000",
        "max_pop10": "626574",
        "max_pop20": "0",
        "max_pop50": "0",
        "max_pop300": "0",
        "max_pop310": "0",
        "mean_bbxc": "5.63423117000",
        "mean_bbyc": "50.62661262000",
        "megacity": "0",
        "meganame": "",
        "min_areakm": "523",
        "min_areami": "202.00000000000",
        "min_bbxmax": "5.91666667000",
        "min_bbxmin": "5.33333333000",
        "min_bbymax": "50.79166667000",
        "min_bbymin": "50.50000000000",
        "min_perkm": "603.00000000000",
        "min_permi": "375.00000000000",
        "min_zoom": "7.0",
        "name": "Li\u00c3\u00a8ge",
        "name_ar": "",
        "name_bn": "",
        "name_de": "L\u00c3\u00bcttich",
        "name_el": "",
        "name_en": "Li\u00c3\u00a8ge",
        "name_es": "Lieja",
        "name_fr": "Li\u00c3\u00a8ge",
        "name_hi": "",
        "name_hu": "",
        "name_id": "",
        "name_it": "",
        "name_ja": "",
        "name_ko": "",
        "name_nl": "",
        "name_pl": "",
        "name_pt": "Li\u00c3\u00a8ge",
        "name_ru": "\u00d0\u009b\u00d1\u008c\u00d0\u00b5\u00d0\u00b6",
        "name_sv": "",
        "name_tr": "",
        "name_vi": "",
        "name_zh": "\u00e5\u0088\u0097\u00e6\u0097\u00a5",
        "namealt": "",
        "nameascii": "Liege",
        "namediff": "0",
        "namepar": "",
        "natscale": "10",
        "ne_id": "1159132333",
        "note": "",
        "pop1950": "0.00000000000",
        "pop1955": "0.00000000000",
        "pop1960": "0.00000000000",
        "pop1965": "0.00000000000",
        "pop1970": "0.00000000000",
        "pop1975": "0.00000000000",
        "pop1980": "0.00000000000",
        "pop1985": "0.00000000000",
        "pop1990": "0.00000000000",
        "pop1995": "0.00000000000",
        "pop2000": "0.00000000000",
        "pop2005": "0.00000000000",
        "pop2010": "0.00000000000",
        "pop2015": "0.00000000000",
        "pop2020": "0.00000000000",
        "pop2025": "0.00000000000",
        "pop2050": "0.00000000000",
        "pop_max": "749110",
        "pop_min": "196496",
        "pop_other": "502778",
        "rank_max": "11",
        "rank_min": "9",
        "record_type": "city",
        "scalerank": "8",
        "sov0name": "Belgium",
        "sov_a3": "BEL",
        "timezone": "Europe\/Brussels",
        "un_adm0": "",
        "un_fid": "0",
        "un_lat": "0.00000000000",
        "un_long": "0.00000000000",
        "wdid_score": "4",
        "wikidataid": "Q3992",
        "wof_id": "101748083",
        "worldcity": "0.00000000000"
    },
    "mons": {
        "adm0_a3": "BEL",
        "adm0cap": "0.00000000000",
        "adm0name": "Belgium",
        "adm1name": "Hainaut",
        "admin1_cod": "0.00000000000",
        "capalt": "****",
        "capin": "",
        "cca2": "BE",
        "cca3": "BEL",
        "changed": "4.00000000000",
        "checkme": "0",
        "cityalt": "",
        "compare": "0",
        "data_sources": [
            "natural"
        ],
        "diffascii": "0",
        "diffnote": "Added missing admin-1 capital. Population from GeoNames.",
        "elevation": "0.00000000000",
        "feature_cl": "P",
        "feature_co": "PPL",
        "featurecla": "Admin-1 capital",
        "geonameid": "2790869.00000000000",
        "geonamesno": "GeoNames match with ascii name + lat + long whole numbers.",
        "gn_ascii": "Mons",
        "gn_pop": "91277",
        "gtopo30": "35.00000000000",
        "iso_a2": "BE",
        "iso_a3": "BEL",
        "label": "",
        "labelrank": "8",
        "latitude": "50.44599910900",
        "longitude": "3.93900356095",
        "ls_match": "0",
        "ls_name": "",
        "max_areakm": "0.00000000000",
        "max_areami": "0.00000000000",
        "max_bbxmax": "0.00000000000",
        "max_bbxmin": "0.00000000000",
        "max_bbymax": "0.00000000000",
        "max_bbymin": "0.00000000000",
        "max_natsca": "0",
        "max_perkm": "0.00000000000",
        "max_permi": "0.00000000000",
        "max_pop10": "0",
        "max_pop20": "0",
        "max_pop50": "0",
        "max_pop300": "0",
        "max_pop310": "0",
        "mean_bbxc": "0.00000000000",
        "mean_bbyc": "0.00000000000",
        "megacity": "0",
        "meganame": "",
        "min_areakm": "0",
        "min_areami": "0.00000000000",
        "min_bbxmax": "0.00000000000",
        "min_bbxmin": "0.00000000000",
        "min_bbymax": "0.00000000000",
        "min_bbymin": "0.00000000000",
        "min_perkm": "0.00000000000",
        "min_permi": "0.00000000000",
        "min_zoom": "8.0",
        "name": "Mons",
        "name_ar": "",
        "name_bn": "",
        "name_de": "Mons",
        "name_el": "",
        "name_en": "Mons",
        "name_es": "Mons",
        "name_fr": "Mons",
        "name_hi": "",
        "name_hu": "",
        "name_id": "",
        "name_it": "",
        "name_ja": "",
        "name_ko": "",
        "name_nl": "",
        "name_pl": "",
        "name_pt": "Mons",
        "name_ru": "\u00d0\u009c\u00d0\u00be\u00d0\u00bd\u00d1\u0081",
        "name_sv": "",
        "name_tr": "",
        "name_vi": "",
        "name_zh": "\u00e8\u0092\u0099\u00e6\u0096\u00af",
        "namealt": "",
        "nameascii": "Mons",
        "namediff": "1",
        "namepar": "",
        "natscale": "1",
        "ne_id": "1159120321",
        "note": "",
        "pop1950": "0.00000000000",
        "pop1955": "0.00000000000",
        "pop1960": "0.00000000000",
        "pop1965": "0.00000000000",
        "pop1970": "0.00000000000",
        "pop1975": "0.00000000000",
        "pop1980": "0.00000000000",
        "pop1985": "0.00000000000",
        "pop1990": "0.00000000000",
        "pop1995": "0.00000000000",
        "pop2000": "0.00000000000",
        "pop2005": "0.00000000000",
        "pop2010": "0.00000000000",
        "pop2015": "0.00000000000",
        "pop2020": "0.00000000000",
        "pop2025": "0.00000000000",
        "pop2050": "0.00000000000",
        "pop_max": "91277",
        "pop_min": "91277",
        "pop_other": "0",
        "rank_max": "8",
        "rank_min": "8",
        "record_type": "city",
        "scalerank": "10",
        "sov0name": "Belgium",
        "sov_a3": "BEL",
        "timezone": "Europe\/Brussels",
        "un_adm0": "",
        "un_fid": "0",
        "un_lat": "0.00000000000",
        "un_long": "0.00000000000",
        "wdid_score": "4",
        "wikidataid": "Q83407",
        "wof_id": "101748079",
        "worldcity": "0.00000000000"
    },
    "namur": {
        "adm0_a3": "BEL",
        "adm0cap": "0.00000000000",
        "adm0name": "Belgium",
        "adm1name": "Namur",
        "admin1_cod": "0.00000000000",
        "capalt": "****",
        "capin": "",
        "cca2": "BE",
        "cca3": "BEL",
        "changed": "0.00000000000",
        "checkme": "0",
        "cityalt": "",
        "compare": "0",
        "data_sources": [
            "natural"
        ],
        "diffascii": "0",
        "diffnote": "",
        "elevation": "0.00000000000",
        "feature_cl": "P",
        "feature_co": "PPLA",
        "featurecla": "Admin-1 capital",
        "geonameid": "2790471.00000000000",
        "geonamesno": "GeoNames match general.",
        "gn_ascii": "Namur",
        "gn_pop": "106284",
        "gtopo30": "120.00000000000",
        "iso_a2": "BE",
        "iso_a3": "BEL",
        "label": "",
        "labelrank": "8",
        "latitude": "50.47039349270",
        "longitude": "4.87002803409",
        "ls_match": "1",
        "ls_name": "Namur",
        "max_areakm": "93.00000000000",
        "max_areami": "36.00000000000",
        "max_bbxmax": "4.94166667000",
        "max_bbxmin": "4.72500000000",
        "max_bbymax": "50.52500000000",
        "max_bbymin": "50.38333333000",
        "max_natsca": "20",
        "max_perkm": "127.00000000000",
        "max_permi": "79.00000000000",
        "max_pop10": "88027",
        "max_pop20": "88027",
        "max_pop50": "0",
        "max_pop300": "0",
        "max_pop310": "0",
        "mean_bbxc": "4.84735294000",
        "mean_bbyc": "50.45122549000",
        "megacity": "0",
        "meganame": "",
        "min_areakm": "93",
        "min_areami": "36.00000000000",
        "min_bbxmax": "4.94166667000",
        "min_bbxmin": "4.72500000000",
        "min_bbymax": "50.52500000000",
        "min_bbymin": "50.38333333000",
        "min_perkm": "127.00000000000",
        "min_permi": "79.00000000000",
        "min_zoom": "8.0",
        "name": "Namur",
        "name_ar": "",
        "name_bn": "",
        "name_de": "Namur",
        "name_el": "",
        "name_en": "Namur",
        "name_es": "Namur",
        "name_fr": "Namur",
        "name_hi": "",
        "name_hu": "",
        "name_id": "",
        "name_it": "",
        "name_ja": "",
        "name_ko": "",
        "name_nl": "",
        "name_pl": "",
        "name_pt": "Namur",
        "name_ru": "\u00d0\u009d\u00d0\u00b0\u00d0\u00bc\u00d1\u008e\u00d1\u0080",
        "name_sv": "",
        "name_tr": "",
        "name_vi": "",
        "name_zh": "\u00e9\u0082\u00a3\u00e6\u0085\u0095\u00e7\u0088\u00be",
        "namealt": "",
        "nameascii": "Namur",
        "namediff": "0",
        "namepar": "",
        "natscale": "20",
        "ne_id": "1159144557",
        "note": "",
        "pop1950": "0.00000000000",
        "pop1955": "0.00000000000",
        "pop1960": "0.00000000000",
        "pop1965": "0.00000000000",
        "pop1970": "0.00000000000",
        "pop1975": "0.00000000000",
        "pop1980": "0.00000000000",
        "pop1985": "0.00000000000",
        "pop1990": "0.00000000000",
        "pop1995": "0.00000000000",
        "pop2000": "0.00000000000",
        "pop2005": "0.00000000000",
        "pop2010": "0.00000000000",
        "pop2015": "0.00000000000",
        "pop2020": "0.00000000000",
        "pop2025": "0.00000000000",
        "pop2050": "0.00000000000",
        "pop_max": "106284",
        "pop_min": "88027",
        "pop_other": "86326",
        "rank_max": "9",
        "rank_min": "8",
        "record_type": "city",
        "scalerank": "7",
        "sov0name": "Belgium",
        "sov_a3": "BEL",
        "timezone": "Europe\/Brussels",
        "un_adm0": "",
        "un_fid": "0",
        "un_lat": "0.00000000000",
        "un_long": "0.00000000000",
        "wdid_score": "4",
        "wikidataid": "Q134121",
        "wof_id": "101748077",
        "worldcity": "0.00000000000"
    }
}