{
    "manama": {
        "adm0_a3": "BHR",
        "adm0cap": "1.00000000000",
        "adm0name": "Bahrain",
        "adm1name": "",
        "admin1_cod": "2.00000000000",
        "capalt": "****",
        "capin": "",
        "cca2": "BH",
        "cca3": "BHR",
        "changed": "4.00000000000",
        "checkme": "5",
        "cityalt": "",
        "compare": "0",
        "data_sources": [
            "natural"
        ],
        "diffascii": "0",
        "diffnote": "Changed scale rank.",
        "elevation": "0.00000000000",
        "feature_cl": "P",
        "feature_co": "PPLC",
        "featurecla": "Admin-0 capital",
        "geonameid": "290340.00000000000",
        "geonamesno": "GeoNames match general.",
        "gn_ascii": "Manama",
        "gn_pop": "147074",
        "gtopo30": "-9999.00000000000",
        "iso_a2": "BH",
        "iso_a3": "BHR",
        "label": "",
        "labelrank": "0",
        "latitude": "26.23613629050",
        "longitude": "50.58305171590",
        "ls_match": "1",
        "ls_name": "Manama",
        "max_areakm": "178.00000000000",
        "max_areami": "69.00000000000",
        "max_bbxmax": "50.63333333000",
        "max_bbxmin": "50.44166667000",
        "max_bbymax": "26.25000000000",
        "max_bbymin": "26.05000000000",
        "max_natsca": "100",
        "max_perkm": "184.00000000000",
        "max_permi": "115.00000000000",
        "max_pop10": "563920",
        "max_pop20": "563920",
        "max_pop50": "563920",
        "max_pop300": "563920",
        "max_pop310": "0",
        "mean_bbxc": "50.54252874000",
        "mean_bbyc": "26.16476293000",
        "megacity": "0",
        "meganame": "",
        "min_areakm": "178",
        "min_areami": "69.00000000000",
        "min_bbxmax": "50.63333333000",
        "min_bbxmin": "50.44166667000",
        "min_bbymax": "26.25000000000",
        "min_bbymin": "26.05000000000",
        "min_perkm": "184.00000000000",
        "min_permi": "115.00000000000",
        "min_zoom": "5.6",
        "name": "Manama",
        "name_ar": "",
        "name_bn": "",
        "name_de": "Manama",
        "name_el": "",
        "name_en": "Manama",
        "name_es": "Manama",
        "name_fr": "Manama",
        "name_hi": "",
        "name_hu": "",
        "name_id": "",
        "name_it": "",
        "name_ja": "",
        "name_ko": "",
        "name_nl": "",
        "name_pl": "",
        "name_pt": "Manama",
        "name_ru": "\u00d0\u009c\u00d0\u00b0\u00d0\u00bd\u00d0\u00b0\u00d0\u00bc\u00d0\u00b0",
        "name_sv": "",
        "name_tr": "",
        "name_vi": "",
        "name_zh": "\u00e9\u00ba\u00a6\u00e7\u00ba\u00b3\u00e9\u00ba\u00a6",
        "namealt": "",
        "nameascii": "Manama",
        "namediff": "0",
        "namepar": "",
        "natscale": "50",
        "ne_id": "1159150451",
        "note": "",
        "pop1950": "0.00000000000",
        "pop1955": "0.00000000000",
        "pop1960": "0.00000000000",
        "pop1965": "0.00000000000",
        "pop1970": "0.00000000000",
        "pop1975": "0.00000000000",
        "pop1980": "0.00000000000",
        "pop1985": "0.00000000000",
        "pop1990": "0.00000000000",
        "pop1995": "0.00000000000",
        "pop2000": "0.00000000000",
        "pop2005": "0.00000000000",
        "pop2010": "0.00000000000",
        "pop2015": "0.00000000000",
        "pop2020": "0.00000000000",
        "pop2025": "0.00000000000",
        "pop2050": "0.00000000000",
        "pop_max": "563920",
        "pop_min": "157474",
        "pop_other": "563666",
        "rank_max": "11",
        "rank_min": "9",
        "record_type": "city",
        "scalerank": "4",
        "sov0name": "Bahrain",
        "sov_a3": "BHR",
        "timezone": "Asia\/Bahrain",
        "un_adm0": "",
        "un_fid": "0",
        "un_lat": "0.00000000000",
        "un_long": "0.00000000000",
        "wdid_score": "4",
        "wikidataid": "Q3882",
        "wof_id": "890440103",
        "worldcity": "0.00000000000"
    }
}