{
    "hamilton": {
        "adm0_a3": "BMU",
        "adm0cap": "1.00000000000",
        "adm0name": "Bermuda",
        "adm1name": "",
        "admin1_cod": "3.00000000000",
        "capalt": "****",
        "capin": "",
        "cca2": "BM",
        "cca3": "BMU",
        "changed": "0.00000000000",
        "checkme": "5",
        "cityalt": "",
        "compare": "0",
        "data_sources": [
            "natural"
        ],
        "diffascii": "0",
        "diffnote": "",
        "elevation": "0.00000000000",
        "feature_cl": "P",
        "feature_co": "PPLC",
        "featurecla": "Admin-0 region capital",
        "geonameid": "3573197.00000000000",
        "geonamesno": "GeoNames match general + researched.",
        "gn_ascii": "Hamilton",
        "gn_pop": "902",
        "gtopo30": "1.00000000000",
        "iso_a2": "BM",
        "iso_a3": "BMU",
        "label": "",
        "labelrank": "0",
        "latitude": "32.29419028630",
        "longitude": "-64.78393742030",
        "ls_match": "1",
        "ls_name": "Hamilton1",
        "max_areakm": "44.00000000000",
        "max_areami": "17.00000000000",
        "max_bbxmax": "-64.70000000000",
        "max_bbxmin": "-64.88333333000",
        "max_bbymax": "32.35833333000",
        "max_bbymin": "32.25000000000",
        "max_natsca": "100",
        "max_perkm": "82.00000000000",
        "max_permi": "51.00000000000",
        "max_pop10": "52320",
        "max_pop20": "52320",
        "max_pop50": "52320",
        "max_pop300": "52320",
        "max_pop310": "0",
        "mean_bbxc": "-64.77903005000",
        "mean_bbyc": "32.29651639000",
        "megacity": "0",
        "meganame": "",
        "min_areakm": "44",
        "min_areami": "17.00000000000",
        "min_bbxmax": "-64.70000000000",
        "min_bbxmin": "-64.88333333000",
        "min_bbymax": "32.35833333000",
        "min_bbymin": "32.25000000000",
        "min_perkm": "82.00000000000",
        "min_permi": "51.00000000000",
        "min_zoom": "5.0",
        "name": "Hamilton",
        "name_ar": "",
        "name_bn": "",
        "name_de": "Hamilton",
        "name_el": "",
        "name_en": "Hamilton",
        "name_es": "Hamilton",
        "name_fr": "Hamilton",
        "name_hi": "",
        "name_hu": "",
        "name_id": "",
        "name_it": "",
        "name_ja": "",
        "name_ko": "",
        "name_nl": "",
        "name_pl": "",
        "name_pt": "Hamilton",
        "name_ru": "\u00d0\u0093\u00d0\u00b0\u00d0\u00bc\u00d0\u00b8\u00d0\u00bb\u00d1\u008c\u00d1\u0082\u00d0\u00be\u00d0\u00bd",
        "name_sv": "",
        "name_tr": "",
        "name_vi": "",
        "name_zh": "\u00e5\u0093\u0088\u00e5\u00af\u0086\u00e5\u00b0\u0094\u00e9\u00a1\u00bf",
        "namealt": "",
        "nameascii": "Hamilton",
        "namediff": "0",
        "namepar": "",
        "natscale": "110",
        "ne_id": "1159151185",
        "note": "",
        "pop1950": "0.00000000000",
        "pop1955": "0.00000000000",
        "pop1960": "0.00000000000",
        "pop1965": "0.00000000000",
        "pop1970": "0.00000000000",
        "pop1975": "0.00000000000",
        "pop1980": "0.00000000000",
        "pop1985": "0.00000000000",
        "pop1990": "0.00000000000",
        "pop1995": "0.00000000000",
        "pop2000": "0.00000000000",
        "pop2005": "0.00000000000",
        "pop2010": "0.00000000000",
        "pop2015": "0.00000000000",
        "pop2020": "0.00000000000",
        "pop2025": "0.00000000000",
        "pop2050": "0.00000000000",
        "pop_max": "52320",
        "pop_min": "13500",
        "pop_other": "52320",
        "rank_max": "8",
        "rank_min": "6",
        "record_type": "city",
        "scalerank": "3",
        "sov0name": "United Kingdom",
        "sov_a3": "GBR",
        "timezone": "Atlantic\/Bermuda",
        "un_adm0": "",
        "un_fid": "0",
        "un_lat": "0.00000000000",
        "un_long": "0.00000000000",
        "wdid_score": "4",
        "wikidataid": "Q30985",
        "wof_id": "890442097",
        "worldcity": "0.00000000000"
    }
}