{
    "paro": {
        "adm0_a3": "BTN",
        "adm0cap": "0.00000000000",
        "adm0name": "Bhutan",
        "adm1name": "Thimphu",
        "admin1_cod": "0.00000000000",
        "capalt": "****",
        "capin": "",
        "cca2": "BT",
        "cca3": "BTN",
        "changed": "4.00000000000",
        "checkme": "0",
        "cityalt": "",
        "compare": "0",
        "data_sources": [
            "natural"
        ],
        "diffascii": "0",
        "diffnote": "Added missing admin-1 capital.",
        "elevation": "0.00000000000",
        "feature_cl": "",
        "feature_co": "",
        "featurecla": "Admin-1 capital",
        "geonameid": "-1.00000000000",
        "geonamesno": "No GeoNames match due to small population, not in GeoNames, or poor NEV placement.",
        "gn_ascii": "",
        "gn_pop": "0",
        "gtopo30": "0.00000000000",
        "iso_a2": "BT",
        "iso_a3": "BTN",
        "label": "",
        "labelrank": "8",
        "latitude": "27.38330109530",
        "longitude": "89.51670065140",
        "ls_match": "0",
        "ls_name": "",
        "max_areakm": "0.00000000000",
        "max_areami": "0.00000000000",
        "max_bbxmax": "0.00000000000",
        "max_bbxmin": "0.00000000000",
        "max_bbymax": "0.00000000000",
        "max_bbymin": "0.00000000000",
        "max_natsca": "0",
        "max_perkm": "0.00000000000",
        "max_permi": "0.00000000000",
        "max_pop10": "0",
        "max_pop20": "0",
        "max_pop50": "0",
        "max_pop300": "0",
        "max_pop310": "0",
        "mean_bbxc": "0.00000000000",
        "mean_bbyc": "0.00000000000",
        "megacity": "0",
        "meganame": "",
        "min_areakm": "0",
        "min_areami": "0.00000000000",
        "min_bbxmax": "0.00000000000",
        "min_bbxmin": "0.00000000000",
        "min_bbymax": "0.00000000000",
        "min_bbymin": "0.00000000000",
        "min_perkm": "0.00000000000",
        "min_permi": "0.00000000000",
        "min_zoom": "9.0",
        "name": "Paro",
        "name_ar": "",
        "name_bn": "",
        "name_de": "Paro",
        "name_el": "",
        "name_en": "Paro",
        "name_es": "Paro",
        "name_fr": "Paro",
        "name_hi": "",
        "name_hu": "",
        "name_id": "",
        "name_it": "",
        "name_ja": "",
        "name_ko": "",
        "name_nl": "",
        "name_pl": "",
        "name_pt": "Paro",
        "name_ru": "\u00d0\u009f\u00d0\u00b0\u00d1\u0080\u00d0\u00be",
        "name_sv": "",
        "name_tr": "",
        "name_vi": "",
        "name_zh": "\u00e5\u00b8\u0095\u00e7\u00be\u0085",
        "namealt": "",
        "nameascii": "Paro",
        "namediff": "1",
        "namepar": "",
        "natscale": "1",
        "ne_id": "1159121163",
        "note": "",
        "pop1950": "0.00000000000",
        "pop1955": "0.00000000000",
        "pop1960": "0.00000000000",
        "pop1965": "0.00000000000",
        "pop1970": "0.00000000000",
        "pop1975": "0.00000000000",
        "pop1980": "0.00000000000",
        "pop1985": "0.00000000000",
        "pop1990": "0.00000000000",
        "pop1995": "0.00000000000",
        "pop2000": "0.00000000000",
        "pop2005": "0.00000000000",
        "pop2010": "0.00000000000",
        "pop2015": "0.00000000000",
        "pop2020": "0.00000000000",
        "pop2025": "0.00000000000",
        "pop2050": "0.00000000000",
        "pop_max": "15000",
        "pop_min": "15000",
        "pop_other": "0",
        "rank_max": "6",
        "rank_min": "6",
        "record_type": "city",
        "scalerank": "10",
        "sov0name": "Bhutan",
        "sov_a3": "BTN",
        "timezone": "",
        "un_adm0": "",
        "un_fid": "0",
        "un_lat": "0.00000000000",
        "un_long": "0.00000000000",
        "wdid_score": "4",
        "wikidataid": "Q862041",
        "wof_id": "1141906197",
        "worldcity": "0.00000000000"
    },
    "punakha": {
        "adm0_a3": "BTN",
        "adm0cap": "0.00000000000",
        "adm0name": "Bhutan",
        "adm1name": "Punakha",
        "admin1_cod": "0.00000000000",
        "capalt": "****",
        "capin": "",
        "cca2": "BT",
        "cca3": "BTN",
        "changed": "4.00000000000",
        "checkme": "0",
        "cityalt": "",
        "compare": "0",
        "data_sources": [
            "natural"
        ],
        "diffascii": "0",
        "diffnote": "Added missing admin-1 capital.",
        "elevation": "0.00000000000",
        "feature_cl": "",
        "feature_co": "",
        "featurecla": "Admin-1 capital",
        "geonameid": "-1.00000000000",
        "geonamesno": "No GeoNames match due to small population, not in GeoNames, or poor NEV placement.",
        "gn_ascii": "",
        "gn_pop": "0",
        "gtopo30": "0.00000000000",
        "iso_a2": "BT",
        "iso_a3": "BTN",
        "label": "",
        "labelrank": "8",
        "latitude": "27.63330305120",
        "longitude": "89.83330266430",
        "ls_match": "0",
        "ls_name": "",
        "max_areakm": "0.00000000000",
        "max_areami": "0.00000000000",
        "max_bbxmax": "0.00000000000",
        "max_bbxmin": "0.00000000000",
        "max_bbymax": "0.00000000000",
        "max_bbymin": "0.00000000000",
        "max_natsca": "0",
        "max_perkm": "0.00000000000",
        "max_permi": "0.00000000000",
        "max_pop10": "0",
        "max_pop20": "0",
        "max_pop50": "0",
        "max_pop300": "0",
        "max_pop310": "0",
        "mean_bbxc": "0.00000000000",
        "mean_bbyc": "0.00000000000",
        "megacity": "0",
        "meganame": "",
        "min_areakm": "0",
        "min_areami": "0.00000000000",
        "min_bbxmax": "0.00000000000",
        "min_bbxmin": "0.00000000000",
        "min_bbymax": "0.00000000000",
        "min_bbymin": "0.00000000000",
        "min_perkm": "0.00000000000",
        "min_permi": "0.00000000000",
        "min_zoom": "7.0",
        "name": "Punakha",
        "name_ar": "",
        "name_bn": "",
        "name_de": "Punakha",
        "name_el": "",
        "name_en": "Punakha",
        "name_es": "Punakha",
        "name_fr": "Punakha",
        "name_hi": "",
        "name_hu": "",
        "name_id": "",
        "name_it": "",
        "name_ja": "",
        "name_ko": "",
        "name_nl": "",
        "name_pl": "",
        "name_pt": "Punakha",
        "name_ru": "\u00d0\u009f\u00d1\u0083\u00d0\u00bd\u00d0\u00b0\u00d0\u00ba\u00d1\u0085\u00d0\u00b0",
        "name_sv": "",
        "name_tr": "",
        "name_vi": "",
        "name_zh": "\u00e6\u0099\u00ae\u00e9\u0082\u00a3\u00e5\u008d\u00a1",
        "namealt": "",
        "nameascii": "Punakha",
        "namediff": "1",
        "namepar": "",
        "natscale": "1",
        "ne_id": "1159121181",
        "note": "",
        "pop1950": "0.00000000000",
        "pop1955": "0.00000000000",
        "pop1960": "0.00000000000",
        "pop1965": "0.00000000000",
        "pop1970": "0.00000000000",
        "pop1975": "0.00000000000",
        "pop1980": "0.00000000000",
        "pop1985": "0.00000000000",
        "pop1990": "0.00000000000",
        "pop1995": "0.00000000000",
        "pop2000": "0.00000000000",
        "pop2005": "0.00000000000",
        "pop2010": "0.00000000000",
        "pop2015": "0.00000000000",
        "pop2020": "0.00000000000",
        "pop2025": "0.00000000000",
        "pop2050": "0.00000000000",
        "pop_max": "5000",
        "pop_min": "5000",
        "pop_other": "0",
        "rank_max": "4",
        "rank_min": "4",
        "record_type": "city",
        "scalerank": "10",
        "sov0name": "Bhutan",
        "sov_a3": "BTN",
        "timezone": "",
        "un_adm0": "",
        "un_fid": "0",
        "un_lat": "0.00000000000",
        "un_long": "0.00000000000",
        "wdid_score": "4",
        "wikidataid": "Q826112",
        "wof_id": "1141906199",
        "worldcity": "0.00000000000"
    },
    "thimphu": {
        "adm0_a3": "BTN",
        "adm0cap": "1.00000000000",
        "adm0name": "Bhutan",
        "adm1name": "Thimphu",
        "admin1_cod": "20.00000000000",
        "capalt": "****",
        "capin": "",
        "cca2": "BT",
        "cca3": "BTN",
        "changed": "4.00000000000",
        "checkme": "0",
        "cityalt": "",
        "compare": "0",
        "data_sources": [
            "natural"
        ],
        "diffascii": "0",
        "diffnote": "Location adjusted.",
        "elevation": "2320.00000000000",
        "feature_cl": "P",
        "feature_co": "PPLC",
        "featurecla": "Admin-0 capital",
        "geonameid": "1252416.00000000000",
        "geonamesno": "GeoNames match general.",
        "gn_ascii": "Thimphu",
        "gn_pop": "98676",
        "gtopo30": "2737.00000000000",
        "iso_a2": "BT",
        "iso_a3": "BTN",
        "label": "",
        "labelrank": "8",
        "latitude": "27.47298585920",
        "longitude": "89.63901403700",
        "ls_match": "1",
        "ls_name": "Thimphu",
        "max_areakm": "38.00000000000",
        "max_areami": "15.00000000000",
        "max_bbxmax": "89.68333333000",
        "max_bbxmin": "89.59166667000",
        "max_bbymax": "27.55833333000",
        "max_bbymin": "27.40833333000",
        "max_natsca": "100",
        "max_perkm": "68.00000000000",
        "max_permi": "42.00000000000",
        "max_pop10": "274538",
        "max_pop20": "274538",
        "max_pop50": "275382",
        "max_pop300": "275382",
        "max_pop310": "0",
        "mean_bbxc": "89.63753911500",
        "mean_bbyc": "27.47794302750",
        "megacity": "0",
        "meganame": "",
        "min_areakm": "37",
        "min_areami": "14.00000000000",
        "min_bbxmax": "89.67500000000",
        "min_bbxmin": "89.59166667000",
        "min_bbymax": "27.55833333000",
        "min_bbymin": "27.40833333000",
        "min_perkm": "65.00000000000",
        "min_permi": "40.00000000000",
        "min_zoom": "5.0",
        "name": "Thimphu",
        "name_ar": "",
        "name_bn": "",
        "name_de": "Thimphu",
        "name_el": "",
        "name_en": "Thimphu",
        "name_es": "Timbu",
        "name_fr": "Thimphou",
        "name_hi": "",
        "name_hu": "",
        "name_id": "",
        "name_it": "",
        "name_ja": "",
        "name_ko": "",
        "name_nl": "",
        "name_pl": "",
        "name_pt": "Thimbu",
        "name_ru": "\u00d0\u00a2\u00d1\u0085\u00d0\u00b8\u00d0\u00bc\u00d0\u00bf\u00d1\u0085\u00d1\u0083",
        "name_sv": "",
        "name_tr": "",
        "name_vi": "",
        "name_zh": "\u00e5\u00bb\u00b7\u00e5\u00b8\u0083",
        "namealt": "",
        "nameascii": "Thimphu",
        "namediff": "0",
        "namepar": "",
        "natscale": "110",
        "ne_id": "1159151151",
        "note": "",
        "pop1950": "0.00000000000",
        "pop1955": "0.00000000000",
        "pop1960": "0.00000000000",
        "pop1965": "0.00000000000",
        "pop1970": "0.00000000000",
        "pop1975": "0.00000000000",
        "pop1980": "0.00000000000",
        "pop1985": "0.00000000000",
        "pop1990": "0.00000000000",
        "pop1995": "0.00000000000",
        "pop2000": "0.00000000000",
        "pop2005": "0.00000000000",
        "pop2010": "0.00000000000",
        "pop2015": "0.00000000000",
        "pop2020": "0.00000000000",
        "pop2025": "0.00000000000",
        "pop2050": "0.00000000000",
        "pop_max": "98676",
        "pop_min": "79185",
        "pop_other": "0",
        "rank_max": "8",
        "rank_min": "8",
        "record_type": "city",
        "scalerank": "3",
        "sov0name": "Bhutan",
        "sov_a3": "BTN",
        "timezone": "Asia\/Thimphu",
        "un_adm0": "",
        "un_fid": "0",
        "un_lat": "0.00000000000",
        "un_long": "0.00000000000",
        "wdid_score": "4",
        "wikidataid": "Q9270",
        "wof_id": "890450141",
        "worldcity": "0.00000000000"
    },
    "wangdue_prodrang": {
        "adm0_a3": "BTN",
        "adm0cap": "0.00000000000",
        "adm0name": "Bhutan",
        "adm1name": "Wangdi Phodrang",
        "admin1_cod": "0.00000000000",
        "capalt": "****",
        "capin": "",
        "cca2": "BT",
        "cca3": "BTN",
        "changed": "4.00000000000",
        "checkme": "0",
        "cityalt": "",
        "compare": "0",
        "data_sources": [
            "natural"
        ],
        "diffascii": "0",
        "diffnote": "Added missing admin-1 capital.",
        "elevation": "0.00000000000",
        "feature_cl": "",
        "feature_co": "",
        "featurecla": "Admin-1 capital",
        "geonameid": "1252395.00000000000",
        "geonamesno": "No GeoNames match due to small population, not in GeoNames, or poor NEV placement.",
        "gn_ascii": "",
        "gn_pop": "0",
        "gtopo30": "0.00000000000",
        "iso_a2": "BT",
        "iso_a3": "BTN",
        "label": "",
        "labelrank": "8",
        "latitude": "27.43329602550",
        "longitude": "89.91669666500",
        "ls_match": "0",
        "ls_name": "",
        "max_areakm": "0.00000000000",
        "max_areami": "0.00000000000",
        "max_bbxmax": "0.00000000000",
        "max_bbxmin": "0.00000000000",
        "max_bbymax": "0.00000000000",
        "max_bbymin": "0.00000000000",
        "max_natsca": "0",
        "max_perkm": "0.00000000000",
        "max_permi": "0.00000000000",
        "max_pop10": "0",
        "max_pop20": "0",
        "max_pop50": "0",
        "max_pop300": "0",
        "max_pop310": "0",
        "mean_bbxc": "0.00000000000",
        "mean_bbyc": "0.00000000000",
        "megacity": "0",
        "meganame": "",
        "min_areakm": "0",
        "min_areami": "0.00000000000",
        "min_bbxmax": "0.00000000000",
        "min_bbxmin": "0.00000000000",
        "min_bbymax": "0.00000000000",
        "min_bbymin": "0.00000000000",
        "min_perkm": "0.00000000000",
        "min_permi": "0.00000000000",
        "min_zoom": "9.0",
        "name": "Wangdue Prodrang",
        "name_ar": "",
        "name_bn": "",
        "name_de": "Wangdue Phodrang",
        "name_el": "",
        "name_en": "Wangdue Phodrang",
        "name_es": "Wangdue Phodrang",
        "name_fr": "Wangdue Phodrang",
        "name_hi": "",
        "name_hu": "",
        "name_id": "",
        "name_it": "",
        "name_ja": "",
        "name_ko": "",
        "name_nl": "",
        "name_pl": "",
        "name_pt": "Wangdue Phodrang",
        "name_ru": "\u00d0\u0092\u00d0\u00b0\u00d0\u00bd\u00d0\u00b3\u00d0\u00b4\u00d0\u00b8-\u00d0\u009f\u00d1\u0085\u00d0\u00be\u00d0\u00b4\u00d1\u0080\u00d0\u00b0\u00d0\u00bd\u00d0\u00b3",
        "name_sv": "",
        "name_tr": "",
        "name_vi": "",
        "name_zh": "\u00e6\u0097\u00ba\u00e6\u009d\u009c\u00e6\u00b3\u00a2\u00e5\u00be\u00b7\u00e6\u009c\u0097",
        "namealt": "",
        "nameascii": "Wangdue Prodrang",
        "namediff": "1",
        "namepar": "",
        "natscale": "1",
        "ne_id": "1159121217",
        "note": "",
        "pop1950": "0.00000000000",
        "pop1955": "0.00000000000",
        "pop1960": "0.00000000000",
        "pop1965": "0.00000000000",
        "pop1970": "0.00000000000",
        "pop1975": "0.00000000000",
        "pop1980": "0.00000000000",
        "pop1985": "0.00000000000",
        "pop1990": "0.00000000000",
        "pop1995": "0.00000000000",
        "pop2000": "0.00000000000",
        "pop2005": "0.00000000000",
        "pop2010": "0.00000000000",
        "pop2015": "0.00000000000",
        "pop2020": "0.00000000000",
        "pop2025": "0.00000000000",
        "pop2050": "0.00000000000",
        "pop_max": "5000",
        "pop_min": "5000",
        "pop_other": "0",
        "rank_max": "4",
        "rank_min": "4",
        "record_type": "city",
        "scalerank": "10",
        "sov0name": "Bhutan",
        "sov_a3": "BTN",
        "timezone": "",
        "un_adm0": "",
        "un_fid": "0",
        "un_lat": "0.00000000000",
        "un_long": "0.00000000000",
        "wdid_score": "4",
        "wikidataid": "Q1715095",
        "wof_id": "1141906205",
        "worldcity": "0.00000000000"
    }
}