{
    "bambari": {
        "adm0_a3": "CAF",
        "adm0cap": "0.00000000000",
        "adm0name": "Central African Republic",
        "adm1name": "Ouaka",
        "admin1_cod": "11.00000000000",
        "capalt": "****",
        "capin": "",
        "cca2": "CF",
        "cca3": "CAF",
        "changed": "0.00000000000",
        "checkme": "0",
        "cityalt": "",
        "compare": "0",
        "data_sources": [
            "natural"
        ],
        "diffascii": "0",
        "diffnote": "",
        "elevation": "0.00000000000",
        "feature_cl": "P",
        "feature_co": "PPLA",
        "featurecla": "Admin-1 capital",
        "geonameid": "240604.00000000000",
        "geonamesno": "GeoNames match general.",
        "gn_ascii": "Bambari",
        "gn_pop": "32547",
        "gtopo30": "465.00000000000",
        "iso_a2": "CF",
        "iso_a3": "CAF",
        "label": "",
        "labelrank": "7",
        "latitude": "5.76195965466",
        "longitude": "20.66720332710",
        "ls_match": "1",
        "ls_name": "Bambari",
        "max_areakm": "10.00000000000",
        "max_areami": "4.00000000000",
        "max_bbxmax": "20.69166667000",
        "max_bbxmin": "20.65000000000",
        "max_bbymax": "5.78333333000",
        "max_bbymin": "5.74166667000",
        "max_natsca": "50",
        "max_perkm": "20.00000000000",
        "max_permi": "13.00000000000",
        "max_pop10": "62098",
        "max_pop20": "62098",
        "max_pop50": "62098",
        "max_pop300": "0",
        "max_pop310": "0",
        "mean_bbxc": "20.67152778000",
        "mean_bbyc": "5.76319444000",
        "megacity": "0",
        "meganame": "",
        "min_areakm": "10",
        "min_areami": "4.00000000000",
        "min_bbxmax": "20.69166667000",
        "min_bbxmin": "20.65000000000",
        "min_bbymax": "5.78333333000",
        "min_bbymin": "5.74166667000",
        "min_perkm": "20.00000000000",
        "min_permi": "13.00000000000",
        "min_zoom": "5.6",
        "name": "Bambari",
        "name_ar": "",
        "name_bn": "",
        "name_de": "Bambari",
        "name_el": "",
        "name_en": "Bambari",
        "name_es": "Bambari",
        "name_fr": "Bambari",
        "name_hi": "",
        "name_hu": "",
        "name_id": "",
        "name_it": "",
        "name_ja": "",
        "name_ko": "",
        "name_nl": "",
        "name_pl": "",
        "name_pt": "Bambari",
        "name_ru": "\u00d0\u0091\u00d0\u00b0\u00d0\u00bc\u00d0\u00b1\u00d0\u00b0\u00d1\u0080\u00d0\u00b8",
        "name_sv": "",
        "name_tr": "",
        "name_vi": "",
        "name_zh": "\u00e7\u008f\u00ad\u00e5\u00b7\u00b4\u00e9\u0087\u008c",
        "namealt": "",
        "nameascii": "Bambari",
        "namediff": "0",
        "namepar": "",
        "natscale": "50",
        "ne_id": "1159150273",
        "note": "",
        "pop1950": "0.00000000000",
        "pop1955": "0.00000000000",
        "pop1960": "0.00000000000",
        "pop1965": "0.00000000000",
        "pop1970": "0.00000000000",
        "pop1975": "0.00000000000",
        "pop1980": "0.00000000000",
        "pop1985": "0.00000000000",
        "pop1990": "0.00000000000",
        "pop1995": "0.00000000000",
        "pop2000": "0.00000000000",
        "pop2005": "0.00000000000",
        "pop2010": "0.00000000000",
        "pop2015": "0.00000000000",
        "pop2020": "0.00000000000",
        "pop2025": "0.00000000000",
        "pop2050": "0.00000000000",
        "pop_max": "62098",
        "pop_min": "32547",
        "pop_other": "62098",
        "rank_max": "8",
        "rank_min": "7",
        "record_type": "city",
        "scalerank": "4",
        "sov0name": "Central African Republic",
        "sov_a3": "CAF",
        "timezone": "Africa\/Bangui",
        "un_adm0": "",
        "un_fid": "0",
        "un_lat": "0.00000000000",
        "un_long": "0.00000000000",
        "wdid_score": "4",
        "wikidataid": "Q805946",
        "wof_id": "421198617",
        "worldcity": "0.00000000000"
    },
    "bangassou": {
        "adm0_a3": "CAF",
        "adm0cap": "0.00000000000",
        "adm0name": "Central African Republic",
        "adm1name": "Mbomou",
        "admin1_cod": "8.00000000000",
        "capalt": "****",
        "capin": "",
        "cca2": "CF",
        "cca3": "CAF",
        "changed": "0.00000000000",
        "checkme": "0",
        "cityalt": "",
        "compare": "0",
        "data_sources": [
            "natural"
        ],
        "diffascii": "0",
        "diffnote": "",
        "elevation": "0.00000000000",
        "feature_cl": "P",
        "feature_co": "PPLA",
        "featurecla": "Admin-1 capital",
        "geonameid": "240498.00000000000",
        "geonamesno": "GeoNames match general.",
        "gn_ascii": "Bangassou",
        "gn_pop": "24361",
        "gtopo30": "458.00000000000",
        "iso_a2": "CF",
        "iso_a3": "CAF",
        "label": "",
        "labelrank": "7",
        "latitude": "4.73375368135",
        "longitude": "22.81663285190",
        "ls_match": "1",
        "ls_name": "Bangassou",
        "max_areakm": "20.00000000000",
        "max_areami": "8.00000000000",
        "max_bbxmax": "22.85000000000",
        "max_bbxmin": "22.79166667000",
        "max_bbymax": "4.76666667000",
        "max_bbymin": "4.71666667000",
        "max_natsca": "20",
        "max_perkm": "26.00000000000",
        "max_permi": "16.00000000000",
        "max_pop10": "32841",
        "max_pop20": "32841",
        "max_pop50": "0",
        "max_pop300": "0",
        "max_pop310": "0",
        "mean_bbxc": "22.82187500000",
        "mean_bbyc": "4.73854167000",
        "megacity": "0",
        "meganame": "",
        "min_areakm": "20",
        "min_areami": "8.00000000000",
        "min_bbxmax": "22.85000000000",
        "min_bbxmin": "22.79166667000",
        "min_bbymax": "4.76666667000",
        "min_bbymin": "4.71666667000",
        "min_perkm": "26.00000000000",
        "min_permi": "16.00000000000",
        "min_zoom": "6.1",
        "name": "Bangassou",
        "name_ar": "",
        "name_bn": "",
        "name_de": "Bangassou",
        "name_el": "",
        "name_en": "Bangassou",
        "name_es": "Bangassou",
        "name_fr": "Bangassou",
        "name_hi": "",
        "name_hu": "",
        "name_id": "",
        "name_it": "",
        "name_ja": "",
        "name_ko": "",
        "name_nl": "",
        "name_pl": "",
        "name_pt": "Bangassou",
        "name_ru": "\u00d0\u0091\u00d0\u00b0\u00d0\u00bd\u00d0\u00b3\u00d0\u00b0\u00d1\u0081\u00d1\u0083",
        "name_sv": "",
        "name_tr": "",
        "name_vi": "",
        "name_zh": "\u00e7\u008f\u00ad\u00e5\u008a\u00a0\u00e8\u0098\u0087",
        "namealt": "",
        "nameascii": "Bangassou",
        "namediff": "0",
        "namepar": "",
        "natscale": "20",
        "ne_id": "1159144055",
        "note": "",
        "pop1950": "0.00000000000",
        "pop1955": "0.00000000000",
        "pop1960": "0.00000000000",
        "pop1965": "0.00000000000",
        "pop1970": "0.00000000000",
        "pop1975": "0.00000000000",
        "pop1980": "0.00000000000",
        "pop1985": "0.00000000000",
        "pop1990": "0.00000000000",
        "pop1995": "0.00000000000",
        "pop2000": "0.00000000000",
        "pop2005": "0.00000000000",
        "pop2010": "0.00000000000",
        "pop2015": "0.00000000000",
        "pop2020": "0.00000000000",
        "pop2025": "0.00000000000",
        "pop2050": "0.00000000000",
        "pop_max": "32841",
        "pop_min": "24361",
        "pop_other": "32841",
        "rank_max": "7",
        "rank_min": "7",
        "record_type": "city",
        "scalerank": "7",
        "sov0name": "Central African Republic",
        "sov_a3": "CAF",
        "timezone": "Africa\/Bangui",
        "un_adm0": "",
        "un_fid": "0",
        "un_lat": "0.00000000000",
        "un_long": "0.00000000000",
        "wdid_score": "4",
        "wikidataid": "Q806478",
        "wof_id": "421166841",
        "worldcity": "0.00000000000"
    },
    "bangui": {
        "adm0_a3": "CAF",
        "adm0cap": "1.00000000000",
        "adm0name": "Central African Republic",
        "adm1name": "Bangui",
        "admin1_cod": "18.00000000000",
        "capalt": "****",
        "capin": "",
        "cca2": "CF",
        "cca3": "CAF",
        "changed": "0.00000000000",
        "checkme": "0",
        "cityalt": "",
        "compare": "0",
        "data_sources": [
            "natural"
        ],
        "diffascii": "0",
        "diffnote": "",
        "elevation": "0.00000000000",
        "feature_cl": "P",
        "feature_co": "PPLC",
        "featurecla": "Admin-0 capital",
        "geonameid": "2389853.00000000000",
        "geonamesno": "GeoNames match general.",
        "gn_ascii": "Bangui",
        "gn_pop": "542393",
        "gtopo30": "373.00000000000",
        "iso_a2": "CF",
        "iso_a3": "CAF",
        "label": "",
        "labelrank": "7",
        "latitude": "4.36664430635",
        "longitude": "18.55828812530",
        "ls_match": "1",
        "ls_name": "Bangui",
        "max_areakm": "103.00000000000",
        "max_areami": "40.00000000000",
        "max_bbxmax": "18.62500000000",
        "max_bbxmin": "18.49166667000",
        "max_bbymax": "4.48333333000",
        "max_bbymin": "4.31666667000",
        "max_natsca": "100",
        "max_perkm": "107.00000000000",
        "max_permi": "67.00000000000",
        "max_pop10": "792886",
        "max_pop20": "792886",
        "max_pop50": "831925",
        "max_pop300": "831925",
        "max_pop310": "0",
        "mean_bbxc": "18.54643556000",
        "mean_bbyc": "4.38815742000",
        "megacity": "0",
        "meganame": "",
        "min_areakm": "90",
        "min_areami": "35.00000000000",
        "min_bbxmax": "18.61465114000",
        "min_bbxmin": "18.49166667000",
        "min_bbymax": "4.48333333000",
        "min_bbymin": "4.31666667000",
        "min_perkm": "91.00000000000",
        "min_permi": "57.00000000000",
        "min_zoom": "5.0",
        "name": "Bangui",
        "name_ar": "",
        "name_bn": "",
        "name_de": "Bangui",
        "name_el": "",
        "name_en": "Bangui",
        "name_es": "Bangui",
        "name_fr": "Bangui",
        "name_hi": "",
        "name_hu": "",
        "name_id": "",
        "name_it": "",
        "name_ja": "",
        "name_ko": "",
        "name_nl": "",
        "name_pl": "",
        "name_pt": "Bangui",
        "name_ru": "\u00d0\u0091\u00d0\u00b0\u00d0\u00bd\u00d0\u00b3\u00d0\u00b8",
        "name_sv": "",
        "name_tr": "",
        "name_vi": "",
        "name_zh": "\u00e7\u008f\u00ad\u00e5\u009f\u00ba",
        "namealt": "",
        "nameascii": "Bangui",
        "namediff": "0",
        "namepar": "",
        "natscale": "110",
        "ne_id": "1159151111",
        "note": "",
        "pop1950": "0.00000000000",
        "pop1955": "0.00000000000",
        "pop1960": "0.00000000000",
        "pop1965": "0.00000000000",
        "pop1970": "0.00000000000",
        "pop1975": "0.00000000000",
        "pop1980": "0.00000000000",
        "pop1985": "0.00000000000",
        "pop1990": "0.00000000000",
        "pop1995": "0.00000000000",
        "pop2000": "0.00000000000",
        "pop2005": "0.00000000000",
        "pop2010": "0.00000000000",
        "pop2015": "0.00000000000",
        "pop2020": "0.00000000000",
        "pop2025": "0.00000000000",
        "pop2050": "0.00000000000",
        "pop_max": "831925",
        "pop_min": "622771",
        "pop_other": "782274",
        "rank_max": "11",
        "rank_min": "11",
        "record_type": "city",
        "scalerank": "3",
        "sov0name": "Central African Republic",
        "sov_a3": "CAF",
        "timezone": "Africa\/Bangui",
        "un_adm0": "",
        "un_fid": "0",
        "un_lat": "0.00000000000",
        "un_long": "0.00000000000",
        "wdid_score": "4",
        "wikidataid": "Q3832",
        "wof_id": "421181445",
        "worldcity": "0.00000000000"
    },
    "berberati": {
        "adm0_a3": "CAF",
        "adm0cap": "0.00000000000",
        "adm0name": "Central African Republic",
        "adm1name": "Mamb\u00c3\u00a9r\u00c3\u00a9-Kad\u00c3\u00a9\u00c3\u00af",
        "admin1_cod": "4.00000000000",
        "capalt": "****",
        "capin": "",
        "cca2": "CF",
        "cca3": "CAF",
        "changed": "1.00000000000",
        "checkme": "5",
        "cityalt": "",
        "compare": "0",
        "data_sources": [
            "natural"
        ],
        "diffascii": "0",
        "diffnote": "Changed scale rank.",
        "elevation": "0.00000000000",
        "feature_cl": "P",
        "feature_co": "PPLA",
        "featurecla": "Admin-1 capital",
        "geonameid": "2389086.00000000000",
        "geonamesno": "GeoNames match general.",
        "gn_ascii": "Berberati",
        "gn_pop": "61815",
        "gtopo30": "577.00000000000",
        "iso_a2": "CF",
        "iso_a3": "CAF",
        "label": "",
        "labelrank": "7",
        "latitude": "4.24995892223",
        "longitude": "15.78000809600",
        "ls_match": "1",
        "ls_name": "Berberati",
        "max_areakm": "38.00000000000",
        "max_areami": "14.00000000000",
        "max_bbxmax": "15.83333333000",
        "max_bbxmin": "15.75833333000",
        "max_bbymax": "4.28333333000",
        "max_bbymin": "4.21666667000",
        "max_natsca": "20",
        "max_perkm": "39.00000000000",
        "max_permi": "24.00000000000",
        "max_pop10": "59395",
        "max_pop20": "59395",
        "max_pop50": "0",
        "max_pop300": "0",
        "max_pop310": "0",
        "mean_bbxc": "15.79356061000",
        "mean_bbyc": "4.24715909000",
        "megacity": "0",
        "meganame": "",
        "min_areakm": "38",
        "min_areami": "14.00000000000",
        "min_bbxmax": "15.83333333000",
        "min_bbxmin": "15.75833333000",
        "min_bbymax": "4.28333333000",
        "min_bbymin": "4.21666667000",
        "min_perkm": "39.00000000000",
        "min_permi": "24.00000000000",
        "min_zoom": "6.0",
        "name": "Berb\u00c3\u00a9rati",
        "name_ar": "",
        "name_bn": "",
        "name_de": "Berb\u00c3\u00a9rati",
        "name_el": "",
        "name_en": "Berb\u00c3\u00a9rati",
        "name_es": "Berb\u00c3\u00a9rati",
        "name_fr": "Berb\u00c3\u00a9rati",
        "name_hi": "",
        "name_hu": "",
        "name_id": "",
        "name_it": "",
        "name_ja": "",
        "name_ko": "",
        "name_nl": "",
        "name_pl": "",
        "name_pt": "Berb\u00c3\u00a9rati",
        "name_ru": "\u00d0\u0091\u00d0\u00b5\u00d1\u0080\u00d0\u00b1\u00d0\u00b5\u00d1\u0080\u00d0\u00b0\u00d1\u0082\u00d0\u00b8",
        "name_sv": "",
        "name_tr": "",
        "name_vi": "",
        "name_zh": "\u00e8\u00b2\u009d\u00e8\u00b2\u009d\u00e6\u008b\u0089\u00e8\u0092\u0082",
        "namealt": "",
        "nameascii": "Berberati",
        "namediff": "0",
        "namepar": "",
        "natscale": "30",
        "ne_id": "1159148293",
        "note": "",
        "pop1950": "0.00000000000",
        "pop1955": "0.00000000000",
        "pop1960": "0.00000000000",
        "pop1965": "0.00000000000",
        "pop1970": "0.00000000000",
        "pop1975": "0.00000000000",
        "pop1980": "0.00000000000",
        "pop1985": "0.00000000000",
        "pop1990": "0.00000000000",
        "pop1995": "0.00000000000",
        "pop2000": "0.00000000000",
        "pop2005": "0.00000000000",
        "pop2010": "0.00000000000",
        "pop2015": "0.00000000000",
        "pop2020": "0.00000000000",
        "pop2025": "0.00000000000",
        "pop2050": "0.00000000000",
        "pop_max": "61815",
        "pop_min": "59395",
        "pop_other": "0",
        "rank_max": "8",
        "rank_min": "8",
        "record_type": "city",
        "scalerank": "6",
        "sov0name": "Central African Republic",
        "sov_a3": "CAF",
        "timezone": "Africa\/Bangui",
        "un_adm0": "",
        "un_fid": "0",
        "un_lat": "0.00000000000",
        "un_long": "0.00000000000",
        "wdid_score": "4",
        "wikidataid": "Q544701",
        "wof_id": "421191547",
        "worldcity": "0.00000000000"
    },
    "birao": {
        "adm0_a3": "CAF",
        "adm0cap": "0.00000000000",
        "adm0name": "Central African Republic",
        "adm1name": "Vakaga",
        "admin1_cod": "14.00000000000",
        "capalt": "****",
        "capin": "",
        "cca2": "CF",
        "cca3": "CAF",
        "changed": "0.00000000000",
        "checkme": "0",
        "cityalt": "",
        "compare": "0",
        "data_sources": [
            "natural"
        ],
        "diffascii": "0",
        "diffnote": "",
        "elevation": "0.00000000000",
        "feature_cl": "P",
        "feature_co": "PPLA",
        "featurecla": "Admin-1 capital",
        "geonameid": "240210.00000000000",
        "geonamesno": "GeoNames match general.",
        "gn_ascii": "Birao",
        "gn_pop": "10178",
        "gtopo30": "472.00000000000",
        "iso_a2": "CF",
        "iso_a3": "CAF",
        "label": "",
        "labelrank": "7",
        "latitude": "10.28369915660",
        "longitude": "22.78330155300",
        "ls_match": "1",
        "ls_name": "Birao",
        "max_areakm": "2.00000000000",
        "max_areami": "1.00000000000",
        "max_bbxmax": "22.79166667000",
        "max_bbxmin": "22.77500000000",
        "max_bbymax": "10.30000000000",
        "max_bbymin": "10.29166667000",
        "max_natsca": "20",
        "max_perkm": "6.00000000000",
        "max_permi": "3.00000000000",
        "max_pop10": "1104",
        "max_pop20": "1104",
        "max_pop50": "0",
        "max_pop300": "0",
        "max_pop310": "0",
        "mean_bbxc": "22.78333333000",
        "mean_bbyc": "10.29583333000",
        "megacity": "0",
        "meganame": "",
        "min_areakm": "2",
        "min_areami": "1.00000000000",
        "min_bbxmax": "22.79166667000",
        "min_bbxmin": "22.77500000000",
        "min_bbymax": "10.30000000000",
        "min_bbymin": "10.29166667000",
        "min_perkm": "6.00000000000",
        "min_permi": "3.00000000000",
        "min_zoom": "6.7",
        "name": "Birao",
        "name_ar": "",
        "name_bn": "",
        "name_de": "Birao",
        "name_el": "",
        "name_en": "Birao",
        "name_es": "Birao",
        "name_fr": "Birao",
        "name_hi": "",
        "name_hu": "",
        "name_id": "",
        "name_it": "",
        "name_ja": "",
        "name_ko": "",
        "name_nl": "",
        "name_pl": "",
        "name_pt": "Bir\u00c3\u00a3o",
        "name_ru": "\u00d0\u0091\u00d0\u00b8\u00d1\u0080\u00d0\u00b0\u00d0\u00be",
        "name_sv": "",
        "name_tr": "",
        "name_vi": "",
        "name_zh": "\u00e6\u00af\u0094\u00e5\u008b\u009e",
        "namealt": "",
        "nameascii": "Birao",
        "namediff": "0",
        "namepar": "",
        "natscale": "20",
        "ne_id": "1159144037",
        "note": "",
        "pop1950": "0.00000000000",
        "pop1955": "0.00000000000",
        "pop1960": "0.00000000000",
        "pop1965": "0.00000000000",
        "pop1970": "0.00000000000",
        "pop1975": "0.00000000000",
        "pop1980": "0.00000000000",
        "pop1985": "0.00000000000",
        "pop1990": "0.00000000000",
        "pop1995": "0.00000000000",
        "pop2000": "0.00000000000",
        "pop2005": "0.00000000000",
        "pop2010": "0.00000000000",
        "pop2015": "0.00000000000",
        "pop2020": "0.00000000000",
        "pop2025": "0.00000000000",
        "pop2050": "0.00000000000",
        "pop_max": "10178",
        "pop_min": "1104",
        "pop_other": "0",
        "rank_max": "6",
        "rank_min": "3",
        "record_type": "city",
        "scalerank": "7",
        "sov0name": "Central African Republic",
        "sov_a3": "CAF",
        "timezone": "Africa\/Bangui",
        "un_adm0": "",
        "un_fid": "0",
        "un_lat": "0.00000000000",
        "un_long": "0.00000000000",
        "wdid_score": "4",
        "wikidataid": "Q864999",
        "wof_id": "421189375",
        "worldcity": "0.00000000000"
    },
    "bossangoa": {
        "adm0_a3": "CAF",
        "adm0cap": "0.00000000000",
        "adm0name": "Central African Republic",
        "adm1name": "Ouham",
        "admin1_cod": "12.00000000000",
        "capalt": "****",
        "capin": "",
        "cca2": "CF",
        "cca3": "CAF",
        "changed": "0.00000000000",
        "checkme": "0",
        "cityalt": "",
        "compare": "0",
        "data_sources": [
            "natural"
        ],
        "diffascii": "0",
        "diffnote": "",
        "elevation": "0.00000000000",
        "feature_cl": "P",
        "feature_co": "PPLA",
        "featurecla": "Admin-1 capital",
        "geonameid": "2388036.00000000000",
        "geonamesno": "GeoNames match general.",
        "gn_ascii": "Bossangoa",
        "gn_pop": "27428",
        "gtopo30": "466.00000000000",
        "iso_a2": "CF",
        "iso_a3": "CAF",
        "label": "",
        "labelrank": "7",
        "latitude": "6.48372438448",
        "longitude": "17.44998368190",
        "ls_match": "1",
        "ls_name": "Bossangoa",
        "max_areakm": "26.00000000000",
        "max_areami": "10.00000000000",
        "max_bbxmax": "17.48333333000",
        "max_bbxmin": "17.42500000000",
        "max_bbymax": "6.51666667000",
        "max_bbymin": "6.45833333000",
        "max_natsca": "20",
        "max_perkm": "26.00000000000",
        "max_permi": "16.00000000000",
        "max_pop10": "63064",
        "max_pop20": "63064",
        "max_pop50": "0",
        "max_pop300": "0",
        "max_pop310": "0",
        "mean_bbxc": "17.45712366000",
        "mean_bbyc": "6.48884409000",
        "megacity": "0",
        "meganame": "",
        "min_areakm": "26",
        "min_areami": "10.00000000000",
        "min_bbxmax": "17.48333333000",
        "min_bbxmin": "17.42500000000",
        "min_bbymax": "6.51666667000",
        "min_bbymin": "6.45833333000",
        "min_perkm": "26.00000000000",
        "min_permi": "16.00000000000",
        "min_zoom": "6.1",
        "name": "Bossangoa",
        "name_ar": "",
        "name_bn": "",
        "name_de": "Bossangoa",
        "name_el": "",
        "name_en": "Bossangoa",
        "name_es": "Bossangoa",
        "name_fr": "Bossangoa",
        "name_hi": "",
        "name_hu": "",
        "name_id": "",
        "name_it": "",
        "name_ja": "",
        "name_ko": "",
        "name_nl": "",
        "name_pl": "",
        "name_pt": "Bossangoa",
        "name_ru": "\u00d0\u0091\u00d0\u00be\u00d1\u0081\u00d0\u00b0\u00d0\u00bd\u00d0\u00b3\u00d0\u00be\u00d0\u00b0",
        "name_sv": "",
        "name_tr": "",
        "name_vi": "",
        "name_zh": "\u00e5\u008d\u009a\u00e6\u00a1\u0091\u00e6\u0088\u0088\u00e9\u0098\u00bf",
        "namealt": "",
        "nameascii": "Bossangoa",
        "namediff": "0",
        "namepar": "",
        "natscale": "20",
        "ne_id": "1159144033",
        "note": "",
        "pop1950": "0.00000000000",
        "pop1955": "0.00000000000",
        "pop1960": "0.00000000000",
        "pop1965": "0.00000000000",
        "pop1970": "0.00000000000",
        "pop1975": "0.00000000000",
        "pop1980": "0.00000000000",
        "pop1985": "0.00000000000",
        "pop1990": "0.00000000000",
        "pop1995": "0.00000000000",
        "pop2000": "0.00000000000",
        "pop2005": "0.00000000000",
        "pop2010": "0.00000000000",
        "pop2015": "0.00000000000",
        "pop2020": "0.00000000000",
        "pop2025": "0.00000000000",
        "pop2050": "0.00000000000",
        "pop_max": "63064",
        "pop_min": "27428",
        "pop_other": "63064",
        "rank_max": "8",
        "rank_min": "7",
        "record_type": "city",
        "scalerank": "7",
        "sov0name": "Central African Republic",
        "sov_a3": "CAF",
        "timezone": "Africa\/Bangui",
        "un_adm0": "",
        "un_fid": "0",
        "un_lat": "0.00000000000",
        "un_long": "0.00000000000",
        "wdid_score": "4",
        "wikidataid": "Q894513",
        "wof_id": "421168993",
        "worldcity": "0.00000000000"
    },
    "bossembele": {
        "adm0_a3": "CAF",
        "adm0cap": "0.00000000000",
        "adm0name": "Central African Republic",
        "adm1name": "Bangui",
        "admin1_cod": "0.00000000000",
        "capalt": "****",
        "capin": "",
        "cca2": "CF",
        "cca3": "CAF",
        "changed": "4.00000000000",
        "checkme": "0",
        "cityalt": "",
        "compare": "0",
        "data_sources": [
            "natural"
        ],
        "diffascii": "0",
        "diffnote": "Changed scale rank.",
        "elevation": "0.00000000000",
        "feature_cl": "",
        "feature_co": "",
        "featurecla": "Populated place",
        "geonameid": "2388025.00000000000",
        "geonamesno": "No GeoNames match due to small population, not in GeoNames, or poor NEV placement.",
        "gn_ascii": "",
        "gn_pop": "0",
        "gtopo30": "0.00000000000",
        "iso_a2": "CF",
        "iso_a3": "CAF",
        "label": "",
        "labelrank": "7",
        "latitude": "5.26700278617",
        "longitude": "17.65002315130",
        "ls_match": "1",
        "ls_name": "Bossembele",
        "max_areakm": "4.00000000000",
        "max_areami": "2.00000000000",
        "max_bbxmax": "17.65833333000",
        "max_bbxmin": "17.63333333000",
        "max_bbymax": "5.27500000000",
        "max_bbymin": "5.25833333000",
        "max_natsca": "10",
        "max_perkm": "9.00000000000",
        "max_permi": "6.00000000000",
        "max_pop10": "7287",
        "max_pop20": "0",
        "max_pop50": "0",
        "max_pop300": "0",
        "max_pop310": "0",
        "mean_bbxc": "17.64416667000",
        "mean_bbyc": "5.26583333000",
        "megacity": "0",
        "meganame": "",
        "min_areakm": "4",
        "min_areami": "2.00000000000",
        "min_bbxmax": "17.65833333000",
        "min_bbxmin": "17.63333333000",
        "min_bbymax": "5.27500000000",
        "min_bbymin": "5.25833333000",
        "min_perkm": "9.00000000000",
        "min_permi": "6.00000000000",
        "min_zoom": "6.7",
        "name": "Bossemb\u00c3\u00a9l\u00c3\u00a9",
        "name_ar": "",
        "name_bn": "",
        "name_de": "",
        "name_el": "",
        "name_en": "Bossemb\u00c3\u00a9l\u00c3\u00a9",
        "name_es": "",
        "name_fr": "Bossemb\u00c3\u00a9l\u00c3\u00a9",
        "name_hi": "",
        "name_hu": "",
        "name_id": "",
        "name_it": "",
        "name_ja": "",
        "name_ko": "",
        "name_nl": "",
        "name_pl": "",
        "name_pt": "",
        "name_ru": "",
        "name_sv": "",
        "name_tr": "",
        "name_vi": "",
        "name_zh": "",
        "namealt": "",
        "nameascii": "Bossembele",
        "namediff": "0",
        "namepar": "",
        "natscale": "20",
        "ne_id": "1159144463",
        "note": "",
        "pop1950": "0.00000000000",
        "pop1955": "0.00000000000",
        "pop1960": "0.00000000000",
        "pop1965": "0.00000000000",
        "pop1970": "0.00000000000",
        "pop1975": "0.00000000000",
        "pop1980": "0.00000000000",
        "pop1985": "0.00000000000",
        "pop1990": "0.00000000000",
        "pop1995": "0.00000000000",
        "pop2000": "0.00000000000",
        "pop2005": "0.00000000000",
        "pop2010": "0.00000000000",
        "pop2015": "0.00000000000",
        "pop2020": "0.00000000000",
        "pop2025": "0.00000000000",
        "pop2050": "0.00000000000",
        "pop_max": "7287",
        "pop_min": "7287",
        "pop_other": "7287",
        "rank_max": "5",
        "rank_min": "5",
        "record_type": "city",
        "scalerank": "7",
        "sov0name": "Central African Republic",
        "sov_a3": "CAF",
        "timezone": "",
        "un_adm0": "",
        "un_fid": "0",
        "un_lat": "0.00000000000",
        "un_long": "0.00000000000",
        "wdid_score": "4",
        "wikidataid": "Q1772365",
        "wof_id": "1141908123",
        "worldcity": "0.00000000000"
    },
    "bouar": {
        "adm0_a3": "CAF",
        "adm0cap": "0.00000000000",
        "adm0name": "Central African Republic",
        "adm1name": "Nana-Mamb\u00c3\u00a9r\u00c3\u00a9",
        "admin1_cod": "9.00000000000",
        "capalt": "****",
        "capin": "",
        "cca2": "CF",
        "cca3": "CAF",
        "changed": "1.00000000000",
        "checkme": "0",
        "cityalt": "",
        "compare": "0",
        "data_sources": [
            "natural"
        ],
        "diffascii": "0",
        "diffnote": "Changed scale rank.",
        "elevation": "0.00000000000",
        "feature_cl": "P",
        "feature_co": "PPLA",
        "featurecla": "Admin-1 capital",
        "geonameid": "2387926.00000000000",
        "geonamesno": "GeoNames match general.",
        "gn_ascii": "Bouar",
        "gn_pop": "28581",
        "gtopo30": "1047.00000000000",
        "iso_a2": "CF",
        "iso_a3": "CAF",
        "label": "",
        "labelrank": "7",
        "latitude": "5.95001019177",
        "longitude": "15.59996740590",
        "ls_match": "1",
        "ls_name": "Bouar",
        "max_areakm": "24.00000000000",
        "max_areami": "9.00000000000",
        "max_bbxmax": "15.65000000000",
        "max_bbxmin": "15.57500000000",
        "max_bbymax": "5.95833333000",
        "max_bbymin": "5.90000000000",
        "max_natsca": "20",
        "max_perkm": "33.00000000000",
        "max_permi": "21.00000000000",
        "max_pop10": "34372",
        "max_pop20": "34372",
        "max_pop50": "0",
        "max_pop300": "0",
        "max_pop310": "0",
        "mean_bbxc": "15.60446429000",
        "mean_bbyc": "5.93184524000",
        "megacity": "0",
        "meganame": "",
        "min_areakm": "24",
        "min_areami": "9.00000000000",
        "min_bbxmax": "15.65000000000",
        "min_bbxmin": "15.57500000000",
        "min_bbymax": "5.95833333000",
        "min_bbymin": "5.90000000000",
        "min_perkm": "33.00000000000",
        "min_permi": "21.00000000000",
        "min_zoom": "6.0",
        "name": "Bouar",
        "name_ar": "",
        "name_bn": "",
        "name_de": "Bouar",
        "name_el": "",
        "name_en": "Bouar",
        "name_es": "Bouar",
        "name_fr": "Bouar",
        "name_hi": "",
        "name_hu": "",
        "name_id": "",
        "name_it": "",
        "name_ja": "",
        "name_ko": "",
        "name_nl": "",
        "name_pl": "",
        "name_pt": "Bouar",
        "name_ru": "\u00d0\u0091\u00d1\u0083\u00d0\u00b0\u00d1\u0080",
        "name_sv": "",
        "name_tr": "",
        "name_vi": "",
        "name_zh": "\u00e5\u00b8\u0083\u00e9\u0098\u00bf\u00e7\u0088\u00be",
        "namealt": "",
        "nameascii": "Bouar",
        "namediff": "0",
        "namepar": "",
        "natscale": "30",
        "ne_id": "1159148945",
        "note": "",
        "pop1950": "0.00000000000",
        "pop1955": "0.00000000000",
        "pop1960": "0.00000000000",
        "pop1965": "0.00000000000",
        "pop1970": "0.00000000000",
        "pop1975": "0.00000000000",
        "pop1980": "0.00000000000",
        "pop1985": "0.00000000000",
        "pop1990": "0.00000000000",
        "pop1995": "0.00000000000",
        "pop2000": "0.00000000000",
        "pop2005": "0.00000000000",
        "pop2010": "0.00000000000",
        "pop2015": "0.00000000000",
        "pop2020": "0.00000000000",
        "pop2025": "0.00000000000",
        "pop2050": "0.00000000000",
        "pop_max": "34372",
        "pop_min": "28581",
        "pop_other": "34372",
        "rank_max": "7",
        "rank_min": "7",
        "record_type": "city",
        "scalerank": "6",
        "sov0name": "Central African Republic",
        "sov_a3": "CAF",
        "timezone": "Africa\/Bangui",
        "un_adm0": "",
        "un_fid": "0",
        "un_lat": "0.00000000000",
        "un_long": "0.00000000000",
        "wdid_score": "4",
        "wikidataid": "Q512111",
        "wof_id": "421188143",
        "worldcity": "0.00000000000"
    },
    "bozoum": {
        "adm0_a3": "CAF",
        "adm0cap": "0.00000000000",
        "adm0name": "Central African Republic",
        "adm1name": "Ouham-Pend\u00c3\u00a9",
        "admin1_cod": "13.00000000000",
        "capalt": "****",
        "capin": "",
        "cca2": "CF",
        "cca3": "CAF",
        "changed": "0.00000000000",
        "checkme": "0",
        "cityalt": "",
        "compare": "0",
        "data_sources": [
            "natural"
        ],
        "diffascii": "0",
        "diffnote": "",
        "elevation": "0.00000000000",
        "feature_cl": "P",
        "feature_co": "PPLA",
        "featurecla": "Admin-1 capital",
        "geonameid": "2387546.00000000000",
        "geonamesno": "GeoNames match general.",
        "gn_ascii": "Bozoum",
        "gn_pop": "40201",
        "gtopo30": "702.00000000000",
        "iso_a2": "CF",
        "iso_a3": "CAF",
        "label": "",
        "labelrank": "7",
        "latitude": "6.31699037569",
        "longitude": "16.38333044300",
        "ls_match": "1",
        "ls_name": "Bozoum",
        "max_areakm": "11.00000000000",
        "max_areami": "4.00000000000",
        "max_bbxmax": "16.40833333000",
        "max_bbxmin": "16.36666667000",
        "max_bbymax": "6.32500000000",
        "max_bbymin": "6.29166667000",
        "max_natsca": "20",
        "max_perkm": "17.00000000000",
        "max_permi": "10.00000000000",
        "max_pop10": "10680",
        "max_pop20": "10680",
        "max_pop50": "0",
        "max_pop300": "0",
        "max_pop310": "0",
        "mean_bbxc": "16.38429487000",
        "mean_bbyc": "6.30993590000",
        "megacity": "0",
        "meganame": "",
        "min_areakm": "11",
        "min_areami": "4.00000000000",
        "min_bbxmax": "16.40833333000",
        "min_bbxmin": "16.36666667000",
        "min_bbymax": "6.32500000000",
        "min_bbymin": "6.29166667000",
        "min_perkm": "17.00000000000",
        "min_permi": "10.00000000000",
        "min_zoom": "6.7",
        "name": "Bozoum",
        "name_ar": "",
        "name_bn": "",
        "name_de": "Bozoum",
        "name_el": "",
        "name_en": "Bozoum",
        "name_es": "Bozoum",
        "name_fr": "Bozoum",
        "name_hi": "",
        "name_hu": "",
        "name_id": "",
        "name_it": "",
        "name_ja": "",
        "name_ko": "",
        "name_nl": "",
        "name_pl": "",
        "name_pt": "Bozoum",
        "name_ru": "\u00d0\u0091\u00d0\u00be\u00d0\u00b7\u00d1\u0083\u00d0\u00bc",
        "name_sv": "",
        "name_tr": "",
        "name_vi": "",
        "name_zh": "\u00e5\u008d\u009a\u00e7\u00a5\u0096\u00e5\u00a7\u0086",
        "namealt": "",
        "nameascii": "Bozoum",
        "namediff": "0",
        "namepar": "",
        "natscale": "20",
        "ne_id": "1159139437",
        "note": "",
        "pop1950": "0.00000000000",
        "pop1955": "0.00000000000",
        "pop1960": "0.00000000000",
        "pop1965": "0.00000000000",
        "pop1970": "0.00000000000",
        "pop1975": "0.00000000000",
        "pop1980": "0.00000000000",
        "pop1985": "0.00000000000",
        "pop1990": "0.00000000000",
        "pop1995": "0.00000000000",
        "pop2000": "0.00000000000",
        "pop2005": "0.00000000000",
        "pop2010": "0.00000000000",
        "pop2015": "0.00000000000",
        "pop2020": "0.00000000000",
        "pop2025": "0.00000000000",
        "pop2050": "0.00000000000",
        "pop_max": "40201",
        "pop_min": "10680",
        "pop_other": "10680",
        "rank_max": "7",
        "rank_min": "6",
        "record_type": "city",
        "scalerank": "7",
        "sov0name": "Central African Republic",
        "sov_a3": "CAF",
        "timezone": "Africa\/Bangui",
        "un_adm0": "",
        "un_fid": "0",
        "un_lat": "0.00000000000",
        "un_long": "0.00000000000",
        "wdid_score": "4",
        "wikidataid": "Q896185",
        "wof_id": "421199099",
        "worldcity": "0.00000000000"
    },
    "bria": {
        "adm0_a3": "CAF",
        "adm0cap": "0.00000000000",
        "adm0name": "Central African Republic",
        "adm1name": "Haute-Kotto",
        "admin1_cod": "3.00000000000",
        "capalt": "****",
        "capin": "",
        "cca2": "CF",
        "cca3": "CAF",
        "changed": "1.00000000000",
        "checkme": "0",
        "cityalt": "",
        "compare": "0",
        "data_sources": [
            "natural"
        ],
        "diffascii": "0",
        "diffnote": "Changed scale rank.",
        "elevation": "0.00000000000",
        "feature_cl": "P",
        "feature_co": "PPLA",
        "featurecla": "Admin-1 capital",
        "geonameid": "239899.00000000000",
        "geonamesno": "GeoNames match general.",
        "gn_ascii": "Bria",
        "gn_pop": "29027",
        "gtopo30": "558.00000000000",
        "iso_a2": "CF",
        "iso_a3": "CAF",
        "label": "",
        "labelrank": "7",
        "latitude": "6.53330792127",
        "longitude": "21.98329870470",
        "ls_match": "1",
        "ls_name": "Bria",
        "max_areakm": "10.00000000000",
        "max_areami": "4.00000000000",
        "max_bbxmax": "22.00833333000",
        "max_bbxmin": "21.97500000000",
        "max_bbymax": "6.55833333000",
        "max_bbymin": "6.51666667000",
        "max_natsca": "20",
        "max_perkm": "17.00000000000",
        "max_permi": "10.00000000000",
        "max_pop10": "20944",
        "max_pop20": "20944",
        "max_pop50": "0",
        "max_pop300": "0",
        "max_pop310": "0",
        "mean_bbxc": "21.98958333000",
        "mean_bbyc": "6.53680556000",
        "megacity": "0",
        "meganame": "",
        "min_areakm": "10",
        "min_areami": "4.00000000000",
        "min_bbxmax": "22.00833333000",
        "min_bbxmin": "21.97500000000",
        "min_bbymax": "6.55833333000",
        "min_bbymin": "6.51666667000",
        "min_perkm": "17.00000000000",
        "min_permi": "10.00000000000",
        "min_zoom": "6.0",
        "name": "Bria",
        "name_ar": "",
        "name_bn": "",
        "name_de": "Bria",
        "name_el": "",
        "name_en": "Bria",
        "name_es": "Bria",
        "name_fr": "Bria",
        "name_hi": "",
        "name_hu": "",
        "name_id": "",
        "name_it": "",
        "name_ja": "",
        "name_ko": "",
        "name_nl": "",
        "name_pl": "",
        "name_pt": "Bria",
        "name_ru": "\u00d0\u0091\u00d1\u0080\u00d0\u00b8\u00d0\u00b0",
        "name_sv": "",
        "name_tr": "",
        "name_vi": "",
        "name_zh": "\u00e5\u00b8\u0083\u00e9\u0087\u008c\u00e4\u00ba\u009e",
        "namealt": "",
        "nameascii": "Bria",
        "namediff": "0",
        "namepar": "",
        "natscale": "30",
        "ne_id": "1159148299",
        "note": "",
        "pop1950": "0.00000000000",
        "pop1955": "0.00000000000",
        "pop1960": "0.00000000000",
        "pop1965": "0.00000000000",
        "pop1970": "0.00000000000",
        "pop1975": "0.00000000000",
        "pop1980": "0.00000000000",
        "pop1985": "0.00000000000",
        "pop1990": "0.00000000000",
        "pop1995": "0.00000000000",
        "pop2000": "0.00000000000",
        "pop2005": "0.00000000000",
        "pop2010": "0.00000000000",
        "pop2015": "0.00000000000",
        "pop2020": "0.00000000000",
        "pop2025": "0.00000000000",
        "pop2050": "0.00000000000",
        "pop_max": "29027",
        "pop_min": "20944",
        "pop_other": "20944",
        "rank_max": "7",
        "rank_min": "7",
        "record_type": "city",
        "scalerank": "6",
        "sov0name": "Central African Republic",
        "sov_a3": "CAF",
        "timezone": "Africa\/Bangui",
        "un_adm0": "",
        "un_fid": "0",
        "un_lat": "0.00000000000",
        "un_long": "0.00000000000",
        "wdid_score": "4",
        "wikidataid": "Q598667",
        "wof_id": "421188141",
        "worldcity": "0.00000000000"
    },
    "carnot": {
        "adm0_a3": "CAF",
        "adm0cap": "0.00000000000",
        "adm0name": "Central African Republic",
        "adm1name": "Mamb\u00c3\u00a9r\u00c3\u00a9-Kad\u00c3\u00a9\u00c3\u00af",
        "admin1_cod": "0.00000000000",
        "capalt": "****",
        "capin": "",
        "cca2": "CF",
        "cca3": "CAF",
        "changed": "0.00000000000",
        "checkme": "0",
        "cityalt": "",
        "compare": "0",
        "data_sources": [
            "natural"
        ],
        "diffascii": "0",
        "diffnote": "",
        "elevation": "0.00000000000",
        "feature_cl": "P",
        "feature_co": "PPL",
        "featurecla": "Populated place",
        "geonameid": "2387495.00000000000",
        "geonamesno": "Geonames ascii name + lat.d + long.d matching.",
        "gn_ascii": "Carnot",
        "gn_pop": "38071",
        "gtopo30": "486.00000000000",
        "iso_a2": "CF",
        "iso_a3": "CAF",
        "label": "",
        "labelrank": "7",
        "latitude": "4.93368979789",
        "longitude": "15.86661779650",
        "ls_match": "1",
        "ls_name": "Carnot",
        "max_areakm": "14.00000000000",
        "max_areami": "5.00000000000",
        "max_bbxmax": "15.91666667000",
        "max_bbxmin": "15.85833333000",
        "max_bbymax": "4.95833333000",
        "max_bbymin": "4.91666667000",
        "max_natsca": "20",
        "max_perkm": "24.00000000000",
        "max_permi": "15.00000000000",
        "max_pop10": "26525",
        "max_pop20": "26525",
        "max_pop50": "0",
        "max_pop300": "0",
        "max_pop310": "0",
        "mean_bbxc": "15.88385417000",
        "mean_bbyc": "4.93854167000",
        "megacity": "0",
        "meganame": "",
        "min_areakm": "14",
        "min_areami": "5.00000000000",
        "min_bbxmax": "15.91666667000",
        "min_bbxmin": "15.85833333000",
        "min_bbymax": "4.95833333000",
        "min_bbymin": "4.91666667000",
        "min_perkm": "24.00000000000",
        "min_permi": "15.00000000000",
        "min_zoom": "6.7",
        "name": "Carnot",
        "name_ar": "",
        "name_bn": "",
        "name_de": "",
        "name_el": "",
        "name_en": "Carnot",
        "name_es": "",
        "name_fr": "Carnot",
        "name_hi": "",
        "name_hu": "",
        "name_id": "",
        "name_it": "",
        "name_ja": "",
        "name_ko": "",
        "name_nl": "",
        "name_pl": "",
        "name_pt": "Carnot",
        "name_ru": "\u00d0\u009a\u00d0\u00b0\u00d1\u0080\u00d0\u00bd\u00d0\u00be",
        "name_sv": "",
        "name_tr": "",
        "name_vi": "",
        "name_zh": "\u00e5\u008d\u00a1\u00e8\u00ab\u00be",
        "namealt": "",
        "nameascii": "Carnot",
        "namediff": "0",
        "namepar": "",
        "natscale": "20",
        "ne_id": "1159139433",
        "note": "",
        "pop1950": "0.00000000000",
        "pop1955": "0.00000000000",
        "pop1960": "0.00000000000",
        "pop1965": "0.00000000000",
        "pop1970": "0.00000000000",
        "pop1975": "0.00000000000",
        "pop1980": "0.00000000000",
        "pop1985": "0.00000000000",
        "pop1990": "0.00000000000",
        "pop1995": "0.00000000000",
        "pop2000": "0.00000000000",
        "pop2005": "0.00000000000",
        "pop2010": "0.00000000000",
        "pop2015": "0.00000000000",
        "pop2020": "0.00000000000",
        "pop2025": "0.00000000000",
        "pop2050": "0.00000000000",
        "pop_max": "38071",
        "pop_min": "26525",
        "pop_other": "0",
        "rank_max": "7",
        "rank_min": "7",
        "record_type": "city",
        "scalerank": "7",
        "sov0name": "Central African Republic",
        "sov_a3": "CAF",
        "timezone": "Africa\/Bangui",
        "un_adm0": "",
        "un_fid": "0",
        "un_lat": "0.00000000000",
        "un_long": "0.00000000000",
        "wdid_score": "4",
        "wikidataid": "Q521702",
        "wof_id": "890436689",
        "worldcity": "0.00000000000"
    },
    "kaga_bandoro": {
        "adm0_a3": "CAF",
        "adm0cap": "0.00000000000",
        "adm0name": "Central African Republic",
        "adm1name": "Nana-Gr\u00c3\u00a9bizi",
        "admin1_cod": "15.00000000000",
        "capalt": "****",
        "capin": "",
        "cca2": "CF",
        "cca3": "CAF",
        "changed": "0.00000000000",
        "checkme": "5",
        "cityalt": "",
        "compare": "0",
        "data_sources": [
            "natural"
        ],
        "diffascii": "0",
        "diffnote": "",
        "elevation": "0.00000000000",
        "feature_cl": "P",
        "feature_co": "PPLA",
        "featurecla": "Admin-1 capital",
        "geonameid": "2386012.00000000000",
        "geonamesno": "GeoNames match general.",
        "gn_ascii": "Kaga Bandoro",
        "gn_pop": "56520",
        "gtopo30": "412.00000000000",
        "iso_a2": "CF",
        "iso_a3": "CAF",
        "label": "",
        "labelrank": "7",
        "latitude": "6.98038657524",
        "longitude": "19.18000728220",
        "ls_match": "1",
        "ls_name": "Kaga Bandoro",
        "max_areakm": "7.00000000000",
        "max_areami": "3.00000000000",
        "max_bbxmax": "19.20000000000",
        "max_bbxmin": "19.16666667000",
        "max_bbymax": "7.00833333000",
        "max_bbymin": "6.97500000000",
        "max_natsca": "20",
        "max_perkm": "15.00000000000",
        "max_permi": "9.00000000000",
        "max_pop10": "28827",
        "max_pop20": "28827",
        "max_pop50": "0",
        "max_pop300": "0",
        "max_pop310": "0",
        "mean_bbxc": "19.18437500000",
        "mean_bbyc": "6.99479167000",
        "megacity": "0",
        "meganame": "",
        "min_areakm": "7",
        "min_areami": "3.00000000000",
        "min_bbxmax": "19.20000000000",
        "min_bbxmin": "19.16666667000",
        "min_bbymax": "7.00833333000",
        "min_bbymin": "6.97500000000",
        "min_perkm": "15.00000000000",
        "min_permi": "9.00000000000",
        "min_zoom": "6.7",
        "name": "Kaga Bandoro",
        "name_ar": "",
        "name_bn": "",
        "name_de": "Kaga-Bandoro",
        "name_el": "",
        "name_en": "Kaga-Bandoro",
        "name_es": "Kaga-Bandoro",
        "name_fr": "Kaga-Bandoro",
        "name_hi": "",
        "name_hu": "",
        "name_id": "",
        "name_it": "",
        "name_ja": "",
        "name_ko": "",
        "name_nl": "",
        "name_pl": "",
        "name_pt": "Kaga Bandoro",
        "name_ru": "\u00d0\u009a\u00d0\u00b0\u00d0\u00b3\u00d0\u00b0-\u00d0\u0091\u00d0\u00b0\u00d0\u00bd\u00d0\u00b4\u00d0\u00be\u00d1\u0080\u00d0\u00be",
        "name_sv": "",
        "name_tr": "",
        "name_vi": "",
        "name_zh": "\u00e5\u008d\u00a1\u00e5\u008a\u00a0\u00e7\u008f\u00ad\u00e5\u00a4\u009a\u00e7\u00be\u0085",
        "namealt": "",
        "nameascii": "Kaga Bandoro",
        "namediff": "0",
        "namepar": "",
        "natscale": "20",
        "ne_id": "1159139443",
        "note": "",
        "pop1950": "0.00000000000",
        "pop1955": "0.00000000000",
        "pop1960": "0.00000000000",
        "pop1965": "0.00000000000",
        "pop1970": "0.00000000000",
        "pop1975": "0.00000000000",
        "pop1980": "0.00000000000",
        "pop1985": "0.00000000000",
        "pop1990": "0.00000000000",
        "pop1995": "0.00000000000",
        "pop2000": "0.00000000000",
        "pop2005": "0.00000000000",
        "pop2010": "0.00000000000",
        "pop2015": "0.00000000000",
        "pop2020": "0.00000000000",
        "pop2025": "0.00000000000",
        "pop2050": "0.00000000000",
        "pop_max": "56520",
        "pop_min": "28827",
        "pop_other": "0",
        "rank_max": "8",
        "rank_min": "7",
        "record_type": "city",
        "scalerank": "7",
        "sov0name": "Central African Republic",
        "sov_a3": "CAF",
        "timezone": "Africa\/Bangui",
        "un_adm0": "",
        "un_fid": "0",
        "un_lat": "0.00000000000",
        "un_long": "0.00000000000",
        "wdid_score": "4",
        "wikidataid": "Q1210015",
        "wof_id": "890425733",
        "worldcity": "0.00000000000"
    },
    "mbaiki": {
        "adm0_a3": "CAF",
        "adm0cap": "0.00000000000",
        "adm0name": "Central African Republic",
        "adm1name": "Lobaye",
        "admin1_cod": "7.00000000000",
        "capalt": "****",
        "capin": "",
        "cca2": "CF",
        "cca3": "CAF",
        "changed": "0.00000000000",
        "checkme": "0",
        "cityalt": "",
        "compare": "0",
        "data_sources": [
            "natural"
        ],
        "diffascii": "0",
        "diffnote": "",
        "elevation": "0.00000000000",
        "feature_cl": "P",
        "feature_co": "PPLA",
        "featurecla": "Admin-1 capital",
        "geonameid": "2384770.00000000000",
        "geonamesno": "GeoNames match general.",
        "gn_ascii": "Mbaiki",
        "gn_pop": "67132",
        "gtopo30": "515.00000000000",
        "iso_a2": "CF",
        "iso_a3": "CAF",
        "label": "",
        "labelrank": "7",
        "latitude": "3.87042136527",
        "longitude": "17.99997595080",
        "ls_match": "1",
        "ls_name": "Mbaiki",
        "max_areakm": "3.00000000000",
        "max_areami": "1.00000000000",
        "max_bbxmax": "18.00000000000",
        "max_bbxmin": "17.97500000000",
        "max_bbymax": "3.87500000000",
        "max_bbymin": "3.85833333000",
        "max_natsca": "20",
        "max_perkm": "9.00000000000",
        "max_permi": "6.00000000000",
        "max_pop10": "4923",
        "max_pop20": "4923",
        "max_pop50": "0",
        "max_pop300": "0",
        "max_pop310": "0",
        "mean_bbxc": "17.98958333000",
        "mean_bbyc": "3.86875000000",
        "megacity": "0",
        "meganame": "",
        "min_areakm": "3",
        "min_areami": "1.00000000000",
        "min_bbxmax": "18.00000000000",
        "min_bbxmin": "17.97500000000",
        "min_bbymax": "3.87500000000",
        "min_bbymin": "3.85833333000",
        "min_perkm": "9.00000000000",
        "min_permi": "6.00000000000",
        "min_zoom": "6.7",
        "name": "Mba\u00c3\u00afki",
        "name_ar": "",
        "name_bn": "",
        "name_de": "Mbaiki",
        "name_el": "",
        "name_en": "Mba\u00c3\u00afki",
        "name_es": "Mbaiki",
        "name_fr": "Mba\u00c3\u00afki",
        "name_hi": "",
        "name_hu": "",
        "name_id": "",
        "name_it": "",
        "name_ja": "",
        "name_ko": "",
        "name_nl": "",
        "name_pl": "",
        "name_pt": "Mbaiki",
        "name_ru": "\u00d0\u009c\u00d0\u00b1\u00d0\u00b0\u00d0\u00b8\u00d0\u00ba\u00d0\u00b8",
        "name_sv": "",
        "name_tr": "",
        "name_vi": "",
        "name_zh": "\u00e5\u00a7\u0086\u00e6\u008b\u009c\u00e5\u009f\u00ba",
        "namealt": "",
        "nameascii": "Mbaiki",
        "namediff": "0",
        "namepar": "",
        "natscale": "20",
        "ne_id": "1159139429",
        "note": "",
        "pop1950": "0.00000000000",
        "pop1955": "0.00000000000",
        "pop1960": "0.00000000000",
        "pop1965": "0.00000000000",
        "pop1970": "0.00000000000",
        "pop1975": "0.00000000000",
        "pop1980": "0.00000000000",
        "pop1985": "0.00000000000",
        "pop1990": "0.00000000000",
        "pop1995": "0.00000000000",
        "pop2000": "0.00000000000",
        "pop2005": "0.00000000000",
        "pop2010": "0.00000000000",
        "pop2015": "0.00000000000",
        "pop2020": "0.00000000000",
        "pop2025": "0.00000000000",
        "pop2050": "0.00000000000",
        "pop_max": "67132",
        "pop_min": "20000",
        "pop_other": "4923",
        "rank_max": "8",
        "rank_min": "6",
        "record_type": "city",
        "scalerank": "7",
        "sov0name": "Central African Republic",
        "sov_a3": "CAF",
        "timezone": "Africa\/Bangui",
        "un_adm0": "",
        "un_fid": "0",
        "un_lat": "0.00000000000",
        "un_long": "0.00000000000",
        "wdid_score": "4",
        "wikidataid": "Q593435",
        "wof_id": "421198507",
        "worldcity": "0.00000000000"
    },
    "mobaye": {
        "adm0_a3": "CAF",
        "adm0cap": "0.00000000000",
        "adm0name": "Central African Republic",
        "adm1name": "Basse-Kotto",
        "admin1_cod": "2.00000000000",
        "capalt": "****",
        "capin": "",
        "cca2": "CF",
        "cca3": "CAF",
        "changed": "4.00000000000",
        "checkme": "0",
        "cityalt": "",
        "compare": "0",
        "data_sources": [
            "natural"
        ],
        "diffascii": "0",
        "diffnote": "Added missing admin-1 capital. Population from GeoNames.",
        "elevation": "0.00000000000",
        "feature_cl": "P",
        "feature_co": "PPLA",
        "featurecla": "Admin-1 capital",
        "geonameid": "237478.00000000000",
        "geonamesno": "GeoNames match general.",
        "gn_ascii": "Mobaye",
        "gn_pop": "19431",
        "gtopo30": "434.00000000000",
        "iso_a2": "CF",
        "iso_a3": "CAF",
        "label": "",
        "labelrank": "7",
        "latitude": "4.32000005912",
        "longitude": "21.17999753110",
        "ls_match": "0",
        "ls_name": "",
        "max_areakm": "0.00000000000",
        "max_areami": "0.00000000000",
        "max_bbxmax": "0.00000000000",
        "max_bbxmin": "0.00000000000",
        "max_bbymax": "0.00000000000",
        "max_bbymin": "0.00000000000",
        "max_natsca": "0",
        "max_perkm": "0.00000000000",
        "max_permi": "0.00000000000",
        "max_pop10": "0",
        "max_pop20": "0",
        "max_pop50": "0",
        "max_pop300": "0",
        "max_pop310": "0",
        "mean_bbxc": "0.00000000000",
        "mean_bbyc": "0.00000000000",
        "megacity": "0",
        "meganame": "",
        "min_areakm": "0",
        "min_areami": "0.00000000000",
        "min_bbxmax": "0.00000000000",
        "min_bbxmin": "0.00000000000",
        "min_bbymax": "0.00000000000",
        "min_bbymin": "0.00000000000",
        "min_perkm": "0.00000000000",
        "min_permi": "0.00000000000",
        "min_zoom": "8.0",
        "name": "Mobaye",
        "name_ar": "",
        "name_bn": "",
        "name_de": "Mobaye",
        "name_el": "",
        "name_en": "Mobaye",
        "name_es": "Mobaye",
        "name_fr": "Mobaye",
        "name_hi": "",
        "name_hu": "",
        "name_id": "",
        "name_it": "",
        "name_ja": "",
        "name_ko": "",
        "name_nl": "",
        "name_pl": "",
        "name_pt": "Mobaye",
        "name_ru": "\u00d0\u009c\u00d0\u00be\u00d0\u00b1\u00d0\u00b0\u00d0\u00b5",
        "name_sv": "",
        "name_tr": "",
        "name_vi": "",
        "name_zh": "\u00e8\u008e\u00ab\u00e5\u00b7\u00b4\u00e4\u00bc\u008a",
        "namealt": "",
        "nameascii": "Mobaye",
        "namediff": "1",
        "namepar": "",
        "natscale": "5",
        "ne_id": "1159122685",
        "note": "",
        "pop1950": "0.00000000000",
        "pop1955": "0.00000000000",
        "pop1960": "0.00000000000",
        "pop1965": "0.00000000000",
        "pop1970": "0.00000000000",
        "pop1975": "0.00000000000",
        "pop1980": "0.00000000000",
        "pop1985": "0.00000000000",
        "pop1990": "0.00000000000",
        "pop1995": "0.00000000000",
        "pop2000": "0.00000000000",
        "pop2005": "0.00000000000",
        "pop2010": "0.00000000000",
        "pop2015": "0.00000000000",
        "pop2020": "0.00000000000",
        "pop2025": "0.00000000000",
        "pop2050": "0.00000000000",
        "pop_max": "19431",
        "pop_min": "19431",
        "pop_other": "0",
        "rank_max": "6",
        "rank_min": "6",
        "record_type": "city",
        "scalerank": "9",
        "sov0name": "Central African Republic",
        "sov_a3": "CAF",
        "timezone": "Africa\/Bangui",
        "un_adm0": "",
        "un_fid": "0",
        "un_lat": "0.00000000000",
        "un_long": "0.00000000000",
        "wdid_score": "4",
        "wikidataid": "Q1025621",
        "wof_id": "421204849",
        "worldcity": "0.00000000000"
    },
    "ndele": {
        "adm0_a3": "CAF",
        "adm0cap": "0.00000000000",
        "adm0name": "Central African Republic",
        "adm1name": "Bamingui-Bangoran",
        "admin1_cod": "1.00000000000",
        "capalt": "****",
        "capin": "",
        "cca2": "CF",
        "cca3": "CAF",
        "changed": "0.00000000000",
        "checkme": "0",
        "cityalt": "",
        "compare": "0",
        "data_sources": [
            "natural"
        ],
        "diffascii": "0",
        "diffnote": "",
        "elevation": "0.00000000000",
        "feature_cl": "P",
        "feature_co": "PPLA",
        "featurecla": "Admin-1 capital",
        "geonameid": "237379.00000000000",
        "geonamesno": "GeoNames match general.",
        "gn_ascii": "Ndele",
        "gn_pop": "11764",
        "gtopo30": "587.00000000000",
        "iso_a2": "CF",
        "iso_a3": "CAF",
        "label": "",
        "labelrank": "7",
        "latitude": "8.40913657525",
        "longitude": "20.65304398470",
        "ls_match": "1",
        "ls_name": "Ndele",
        "max_areakm": "5.00000000000",
        "max_areami": "2.00000000000",
        "max_bbxmax": "20.65833333000",
        "max_bbxmin": "20.63333333000",
        "max_bbymax": "8.42500000000",
        "max_bbymin": "8.40000000000",
        "max_natsca": "100",
        "max_perkm": "11.00000000000",
        "max_permi": "7.00000000000",
        "max_pop10": "2947",
        "max_pop20": "2947",
        "max_pop50": "2947",
        "max_pop300": "2947",
        "max_pop310": "0",
        "mean_bbxc": "20.64722222000",
        "mean_bbyc": "8.41111111000",
        "megacity": "0",
        "meganame": "",
        "min_areakm": "5",
        "min_areami": "2.00000000000",
        "min_bbxmax": "20.65833333000",
        "min_bbxmin": "20.63333333000",
        "min_bbymax": "8.42500000000",
        "min_bbymin": "8.40000000000",
        "min_perkm": "11.00000000000",
        "min_permi": "7.00000000000",
        "min_zoom": "5.0",
        "name": "Ndele",
        "name_ar": "",
        "name_bn": "",
        "name_de": "Nd\u00c3\u00a9l\u00c3\u00a9",
        "name_el": "",
        "name_en": "N'D\u00c3\u00a9l\u00c3\u00a9",
        "name_es": "Ndele",
        "name_fr": "Nd\u00c3\u00a9l\u00c3\u00a9",
        "name_hi": "",
        "name_hu": "",
        "name_id": "",
        "name_it": "",
        "name_ja": "",
        "name_ko": "",
        "name_nl": "",
        "name_pl": "",
        "name_pt": "Ndele",
        "name_ru": "\u00d0\u009d\u00d0\u00b4\u00d0\u00b5\u00d0\u00bb\u00d0\u00b5",
        "name_sv": "",
        "name_tr": "",
        "name_vi": "",
        "name_zh": "\u00e6\u0081\u00a9\u00e4\u00bb\u00a3\u00e8\u0090\u008a",
        "namealt": "",
        "nameascii": "Ndele",
        "namediff": "0",
        "namepar": "",
        "natscale": "110",
        "ne_id": "1159151077",
        "note": "",
        "pop1950": "0.00000000000",
        "pop1955": "0.00000000000",
        "pop1960": "0.00000000000",
        "pop1965": "0.00000000000",
        "pop1970": "0.00000000000",
        "pop1975": "0.00000000000",
        "pop1980": "0.00000000000",
        "pop1985": "0.00000000000",
        "pop1990": "0.00000000000",
        "pop1995": "0.00000000000",
        "pop2000": "0.00000000000",
        "pop2005": "0.00000000000",
        "pop2010": "0.00000000000",
        "pop2015": "0.00000000000",
        "pop2020": "0.00000000000",
        "pop2025": "0.00000000000",
        "pop2050": "0.00000000000",
        "pop_max": "11764",
        "pop_min": "2947",
        "pop_other": "2947",
        "rank_max": "6",
        "rank_min": "4",
        "record_type": "city",
        "scalerank": "3",
        "sov0name": "Central African Republic",
        "sov_a3": "CAF",
        "timezone": "Africa\/Bangui",
        "un_adm0": "",
        "un_fid": "0",
        "un_lat": "0.00000000000",
        "un_long": "0.00000000000",
        "wdid_score": "4",
        "wikidataid": "Q612713",
        "wof_id": "421205399",
        "worldcity": "0.00000000000"
    },
    "nola": {
        "adm0_a3": "CAF",
        "adm0cap": "0.00000000000",
        "adm0name": "Central African Republic",
        "adm1name": "Sangha-Mba\u00c3\u00a9r\u00c3\u00a9",
        "admin1_cod": "16.00000000000",
        "capalt": "****",
        "capin": "",
        "cca2": "CF",
        "cca3": "CAF",
        "changed": "0.00000000000",
        "checkme": "0",
        "cityalt": "",
        "compare": "0",
        "data_sources": [
            "natural"
        ],
        "diffascii": "0",
        "diffnote": "",
        "elevation": "0.00000000000",
        "feature_cl": "P",
        "feature_co": "PPLA",
        "featurecla": "Admin-1 capital",
        "geonameid": "2383827.00000000000",
        "geonamesno": "GeoNames match general.",
        "gn_ascii": "Nola",
        "gn_pop": "26809",
        "gtopo30": "443.00000000000",
        "iso_a2": "CF",
        "iso_a3": "CAF",
        "label": "",
        "labelrank": "7",
        "latitude": "3.53369773245",
        "longitude": "16.06660558950",
        "ls_match": "1",
        "ls_name": "Nola",
        "max_areakm": "13.00000000000",
        "max_areami": "5.00000000000",
        "max_bbxmax": "16.07500000000",
        "max_bbxmin": "16.03333333000",
        "max_bbymax": "3.54166667000",
        "max_bbymin": "3.50000000000",
        "max_natsca": "20",
        "max_perkm": "18.00000000000",
        "max_permi": "11.00000000000",
        "max_pop10": "23793",
        "max_pop20": "23793",
        "max_pop50": "0",
        "max_pop300": "0",
        "max_pop310": "0",
        "mean_bbxc": "16.05361111000",
        "mean_bbyc": "3.52027778000",
        "megacity": "0",
        "meganame": "",
        "min_areakm": "13",
        "min_areami": "5.00000000000",
        "min_bbxmax": "16.07500000000",
        "min_bbxmin": "16.03333333000",
        "min_bbymax": "3.54166667000",
        "min_bbymin": "3.50000000000",
        "min_perkm": "18.00000000000",
        "min_permi": "11.00000000000",
        "min_zoom": "6.7",
        "name": "Nola",
        "name_ar": "",
        "name_bn": "",
        "name_de": "Nola",
        "name_el": "",
        "name_en": "Nola",
        "name_es": "Nola",
        "name_fr": "Nola",
        "name_hi": "",
        "name_hu": "",
        "name_id": "",
        "name_it": "",
        "name_ja": "",
        "name_ko": "",
        "name_nl": "",
        "name_pl": "",
        "name_pt": "Nola",
        "name_ru": "\u00d0\u009d\u00d0\u00be\u00d0\u00bb\u00d0\u00b0",
        "name_sv": "",
        "name_tr": "",
        "name_vi": "",
        "name_zh": "\u00e8\u00ab\u00be\u00e6\u008b\u0089",
        "namealt": "",
        "nameascii": "Nola",
        "namediff": "0",
        "namepar": "",
        "natscale": "20",
        "ne_id": "1159144019",
        "note": "",
        "pop1950": "0.00000000000",
        "pop1955": "0.00000000000",
        "pop1960": "0.00000000000",
        "pop1965": "0.00000000000",
        "pop1970": "0.00000000000",
        "pop1975": "0.00000000000",
        "pop1980": "0.00000000000",
        "pop1985": "0.00000000000",
        "pop1990": "0.00000000000",
        "pop1995": "0.00000000000",
        "pop2000": "0.00000000000",
        "pop2005": "0.00000000000",
        "pop2010": "0.00000000000",
        "pop2015": "0.00000000000",
        "pop2020": "0.00000000000",
        "pop2025": "0.00000000000",
        "pop2050": "0.00000000000",
        "pop_max": "26809",
        "pop_min": "23793",
        "pop_other": "23793",
        "rank_max": "7",
        "rank_min": "7",
        "record_type": "city",
        "scalerank": "7",
        "sov0name": "Central African Republic",
        "sov_a3": "CAF",
        "timezone": "Africa\/Bangui",
        "un_adm0": "",
        "un_fid": "0",
        "un_lat": "0.00000000000",
        "un_long": "0.00000000000",
        "wdid_score": "4",
        "wikidataid": "Q522912",
        "wof_id": "421168151",
        "worldcity": "0.00000000000"
    },
    "obo": {
        "adm0_a3": "CAF",
        "adm0cap": "0.00000000000",
        "adm0name": "Central African Republic",
        "adm1name": "Haut-Mbomou",
        "admin1_cod": "5.00000000000",
        "capalt": "****",
        "capin": "",
        "cca2": "CF",
        "cca3": "CAF",
        "changed": "0.00000000000",
        "checkme": "0",
        "cityalt": "",
        "compare": "0",
        "data_sources": [
            "natural"
        ],
        "diffascii": "0",
        "diffnote": "",
        "elevation": "0.00000000000",
        "feature_cl": "P",
        "feature_co": "PPLA",
        "featurecla": "Admin-1 capital",
        "geonameid": "236950.00000000000",
        "geonamesno": "GeoNames match general.",
        "gn_ascii": "Obo",
        "gn_pop": "12887",
        "gtopo30": "615.00000000000",
        "iso_a2": "CF",
        "iso_a3": "CAF",
        "label": "",
        "labelrank": "7",
        "latitude": "5.39999208467",
        "longitude": "26.50002559280",
        "ls_match": "1",
        "ls_name": "Obo",
        "max_areakm": "5.00000000000",
        "max_areami": "2.00000000000",
        "max_bbxmax": "26.50000000000",
        "max_bbxmin": "26.48333333000",
        "max_bbymax": "5.40833333000",
        "max_bbymin": "5.37500000000",
        "max_natsca": "100",
        "max_perkm": "11.00000000000",
        "max_permi": "7.00000000000",
        "max_pop10": "3777",
        "max_pop20": "3777",
        "max_pop50": "3777",
        "max_pop300": "3777",
        "max_pop310": "0",
        "mean_bbxc": "26.49027778000",
        "mean_bbyc": "5.39444444000",
        "megacity": "0",
        "meganame": "",
        "min_areakm": "5",
        "min_areami": "2.00000000000",
        "min_bbxmax": "26.50000000000",
        "min_bbxmin": "26.48333333000",
        "min_bbymax": "5.40833333000",
        "min_bbymin": "5.37500000000",
        "min_perkm": "11.00000000000",
        "min_permi": "7.00000000000",
        "min_zoom": "5.0",
        "name": "Obo",
        "name_ar": "",
        "name_bn": "",
        "name_de": "Obo",
        "name_el": "",
        "name_en": "Obo",
        "name_es": "Obo",
        "name_fr": "Obo",
        "name_hi": "",
        "name_hu": "",
        "name_id": "",
        "name_it": "",
        "name_ja": "",
        "name_ko": "",
        "name_nl": "",
        "name_pl": "",
        "name_pt": "Obo",
        "name_ru": "\u00d0\u009e\u00d0\u00b1\u00d0\u00be",
        "name_sv": "",
        "name_tr": "",
        "name_vi": "",
        "name_zh": "\u00e5\u00a5\u00a7\u00e5\u008d\u009a",
        "namealt": "",
        "nameascii": "Obo",
        "namediff": "0",
        "namepar": "",
        "natscale": "110",
        "ne_id": "1159151081",
        "note": "",
        "pop1950": "0.00000000000",
        "pop1955": "0.00000000000",
        "pop1960": "0.00000000000",
        "pop1965": "0.00000000000",
        "pop1970": "0.00000000000",
        "pop1975": "0.00000000000",
        "pop1980": "0.00000000000",
        "pop1985": "0.00000000000",
        "pop1990": "0.00000000000",
        "pop1995": "0.00000000000",
        "pop2000": "0.00000000000",
        "pop2005": "0.00000000000",
        "pop2010": "0.00000000000",
        "pop2015": "0.00000000000",
        "pop2020": "0.00000000000",
        "pop2025": "0.00000000000",
        "pop2050": "0.00000000000",
        "pop_max": "12887",
        "pop_min": "12787",
        "pop_other": "0",
        "rank_max": "6",
        "rank_min": "6",
        "record_type": "city",
        "scalerank": "3",
        "sov0name": "Central African Republic",
        "sov_a3": "CAF",
        "timezone": "Africa\/Bangui",
        "un_adm0": "",
        "un_fid": "0",
        "un_lat": "0.00000000000",
        "un_long": "0.00000000000",
        "wdid_score": "4",
        "wikidataid": "Q1025617",
        "wof_id": "421188145",
        "worldcity": "0.00000000000"
    },
    "ouadda": {
        "adm0_a3": "CAF",
        "adm0cap": "0.00000000000",
        "adm0name": "Central African Republic",
        "adm1name": "Haute-Kotto",
        "admin1_cod": "0.00000000000",
        "capalt": "****",
        "capin": "",
        "cca2": "CF",
        "cca3": "CAF",
        "changed": "0.00000000000",
        "checkme": "0",
        "cityalt": "",
        "compare": "0",
        "data_sources": [
            "natural"
        ],
        "diffascii": "0",
        "diffnote": "",
        "elevation": "0.00000000000",
        "feature_cl": "P",
        "feature_co": "PPL",
        "featurecla": "Populated place",
        "geonameid": "236901.00000000000",
        "geonamesno": "Geonames ascii name + lat.d + long.d matching.",
        "gn_ascii": "Ouadda",
        "gn_pop": "5434",
        "gtopo30": "682.00000000000",
        "iso_a2": "CF",
        "iso_a3": "CAF",
        "label": "",
        "labelrank": "7",
        "latitude": "8.06709026991",
        "longitude": "22.40001745470",
        "ls_match": "1",
        "ls_name": "Ouadda",
        "max_areakm": "1.00000000000",
        "max_areami": "0.00000000000",
        "max_bbxmax": "22.40000000000",
        "max_bbxmin": "22.39166667000",
        "max_bbymax": "8.07500000000",
        "max_bbymin": "8.06666667000",
        "max_natsca": "20",
        "max_perkm": "4.00000000000",
        "max_permi": "2.00000000000",
        "max_pop10": "1415",
        "max_pop20": "1415",
        "max_pop50": "0",
        "max_pop300": "0",
        "max_pop310": "0",
        "mean_bbxc": "22.39583333000",
        "mean_bbyc": "8.07083333000",
        "megacity": "0",
        "meganame": "",
        "min_areakm": "1",
        "min_areami": "0.00000000000",
        "min_bbxmax": "22.40000000000",
        "min_bbxmin": "22.39166667000",
        "min_bbymax": "8.07500000000",
        "min_bbymin": "8.06666667000",
        "min_perkm": "4.00000000000",
        "min_permi": "2.00000000000",
        "min_zoom": "6.7",
        "name": "Ouadda",
        "name_ar": "",
        "name_bn": "",
        "name_de": "",
        "name_el": "",
        "name_en": "Ouadda",
        "name_es": "",
        "name_fr": "Ouadda",
        "name_hi": "",
        "name_hu": "",
        "name_id": "",
        "name_it": "",
        "name_ja": "",
        "name_ko": "",
        "name_nl": "",
        "name_pl": "",
        "name_pt": "Ouadda",
        "name_ru": "",
        "name_sv": "",
        "name_tr": "",
        "name_vi": "",
        "name_zh": "",
        "namealt": "",
        "nameascii": "Ouadda",
        "namediff": "0",
        "namepar": "",
        "natscale": "20",
        "ne_id": "1159144051",
        "note": "",
        "pop1950": "0.00000000000",
        "pop1955": "0.00000000000",
        "pop1960": "0.00000000000",
        "pop1965": "0.00000000000",
        "pop1970": "0.00000000000",
        "pop1975": "0.00000000000",
        "pop1980": "0.00000000000",
        "pop1985": "0.00000000000",
        "pop1990": "0.00000000000",
        "pop1995": "0.00000000000",
        "pop2000": "0.00000000000",
        "pop2005": "0.00000000000",
        "pop2010": "0.00000000000",
        "pop2015": "0.00000000000",
        "pop2020": "0.00000000000",
        "pop2025": "0.00000000000",
        "pop2050": "0.00000000000",
        "pop_max": "5434",
        "pop_min": "1415",
        "pop_other": "0",
        "rank_max": "5",
        "rank_min": "3",
        "record_type": "city",
        "scalerank": "7",
        "sov0name": "Central African Republic",
        "sov_a3": "CAF",
        "timezone": "Africa\/Bangui",
        "un_adm0": "",
        "un_fid": "0",
        "un_lat": "0.00000000000",
        "un_long": "0.00000000000",
        "wdid_score": "4",
        "wikidataid": "Q2428058",
        "wof_id": "421179659",
        "worldcity": "0.00000000000"
    },
    "sibut": {
        "adm0_a3": "CAF",
        "adm0cap": "0.00000000000",
        "adm0name": "Central African Republic",
        "adm1name": "K\u00c3\u00a9mo",
        "admin1_cod": "6.00000000000",
        "capalt": "****",
        "capin": "",
        "cca2": "CF",
        "cca3": "CAF",
        "changed": "0.00000000000",
        "checkme": "0",
        "cityalt": "",
        "compare": "0",
        "data_sources": [
            "natural"
        ],
        "diffascii": "0",
        "diffnote": "",
        "elevation": "0.00000000000",
        "feature_cl": "P",
        "feature_co": "PPLA",
        "featurecla": "Admin-1 capital",
        "geonameid": "2383119.00000000000",
        "geonamesno": "GeoNames match general.",
        "gn_ascii": "Sibut",
        "gn_pop": "34267",
        "gtopo30": "400.00000000000",
        "iso_a2": "CF",
        "iso_a3": "CAF",
        "label": "",
        "labelrank": "7",
        "latitude": "5.73377016085",
        "longitude": "19.08332067740",
        "ls_match": "1",
        "ls_name": "Sibut",
        "max_areakm": "9.00000000000",
        "max_areami": "3.00000000000",
        "max_bbxmax": "19.10000000000",
        "max_bbxmin": "19.07500000000",
        "max_bbymax": "5.75000000000",
        "max_bbymin": "5.70833333000",
        "max_natsca": "20",
        "max_perkm": "15.00000000000",
        "max_permi": "9.00000000000",
        "max_pop10": "18342",
        "max_pop20": "18342",
        "max_pop50": "0",
        "max_pop300": "0",
        "max_pop310": "0",
        "mean_bbxc": "19.08416667000",
        "mean_bbyc": "5.73083333000",
        "megacity": "0",
        "meganame": "",
        "min_areakm": "9",
        "min_areami": "3.00000000000",
        "min_bbxmax": "19.10000000000",
        "min_bbxmin": "19.07500000000",
        "min_bbymax": "5.75000000000",
        "min_bbymin": "5.70833333000",
        "min_perkm": "15.00000000000",
        "min_permi": "9.00000000000",
        "min_zoom": "6.7",
        "name": "Sibut",
        "name_ar": "",
        "name_bn": "",
        "name_de": "Sibut",
        "name_el": "",
        "name_en": "Sibut",
        "name_es": "Sibut",
        "name_fr": "Sibut",
        "name_hi": "",
        "name_hu": "",
        "name_id": "",
        "name_it": "",
        "name_ja": "",
        "name_ko": "",
        "name_nl": "",
        "name_pl": "",
        "name_pt": "Sibut",
        "name_ru": "\u00d0\u00a1\u00d0\u00b8\u00d0\u00b1\u00d1\u008e",
        "name_sv": "",
        "name_tr": "",
        "name_vi": "",
        "name_zh": "\u00e9\u008c\u00ab\u00e5\u00b8\u0083",
        "namealt": "",
        "nameascii": "Sibut",
        "namediff": "0",
        "namepar": "",
        "natscale": "20",
        "ne_id": "1159144027",
        "note": "",
        "pop1950": "0.00000000000",
        "pop1955": "0.00000000000",
        "pop1960": "0.00000000000",
        "pop1965": "0.00000000000",
        "pop1970": "0.00000000000",
        "pop1975": "0.00000000000",
        "pop1980": "0.00000000000",
        "pop1985": "0.00000000000",
        "pop1990": "0.00000000000",
        "pop1995": "0.00000000000",
        "pop2000": "0.00000000000",
        "pop2005": "0.00000000000",
        "pop2010": "0.00000000000",
        "pop2015": "0.00000000000",
        "pop2020": "0.00000000000",
        "pop2025": "0.00000000000",
        "pop2050": "0.00000000000",
        "pop_max": "34267",
        "pop_min": "18342",
        "pop_other": "18342",
        "rank_max": "7",
        "rank_min": "6",
        "record_type": "city",
        "scalerank": "7",
        "sov0name": "Central African Republic",
        "sov_a3": "CAF",
        "timezone": "Africa\/Bangui",
        "un_adm0": "",
        "un_fid": "0",
        "un_lat": "0.00000000000",
        "un_long": "0.00000000000",
        "wdid_score": "4",
        "wikidataid": "Q1757279",
        "wof_id": "421175955",
        "worldcity": "0.00000000000"
    },
    "yakossi": {
        "adm0_a3": "CAF",
        "adm0cap": "0.00000000000",
        "adm0name": "Central African Republic",
        "adm1name": "Mbomou",
        "admin1_cod": "0.00000000000",
        "capalt": "****",
        "capin": "",
        "cca2": "CF",
        "cca3": "CAF",
        "changed": "0.00000000000",
        "checkme": "0",
        "cityalt": "",
        "compare": "0",
        "data_sources": [
            "natural"
        ],
        "diffascii": "0",
        "diffnote": "",
        "elevation": "0.00000000000",
        "feature_cl": "",
        "feature_co": "",
        "featurecla": "Populated place",
        "geonameid": "-1.00000000000",
        "geonamesno": "No GeoNames match due to small population, not in GeoNames, or poor NEV placement.",
        "gn_ascii": "",
        "gn_pop": "0",
        "gtopo30": "0.00000000000",
        "iso_a2": "CF",
        "iso_a3": "CAF",
        "label": "",
        "labelrank": "7",
        "latitude": "5.61700726208",
        "longitude": "23.31665401070",
        "ls_match": "0",
        "ls_name": "Yakossi",
        "max_areakm": "0.00000000000",
        "max_areami": "0.00000000000",
        "max_bbxmax": "0.00000000000",
        "max_bbxmin": "0.00000000000",
        "max_bbymax": "0.00000000000",
        "max_bbymin": "0.00000000000",
        "max_natsca": "0",
        "max_perkm": "0.00000000000",
        "max_permi": "0.00000000000",
        "max_pop10": "0",
        "max_pop20": "0",
        "max_pop50": "0",
        "max_pop300": "0",
        "max_pop310": "0",
        "mean_bbxc": "0.00000000000",
        "mean_bbyc": "0.00000000000",
        "megacity": "0",
        "meganame": "",
        "min_areakm": "0",
        "min_areami": "0.00000000000",
        "min_bbxmax": "0.00000000000",
        "min_bbxmin": "0.00000000000",
        "min_bbymax": "0.00000000000",
        "min_bbymin": "0.00000000000",
        "min_perkm": "0.00000000000",
        "min_permi": "0.00000000000",
        "min_zoom": "6.7",
        "name": "Yakossi",
        "name_ar": "",
        "name_bn": "",
        "name_de": "",
        "name_el": "",
        "name_en": "",
        "name_es": "",
        "name_fr": "",
        "name_hi": "",
        "name_hu": "",
        "name_id": "",
        "name_it": "",
        "name_ja": "",
        "name_ko": "",
        "name_nl": "",
        "name_pl": "",
        "name_pt": "",
        "name_ru": "",
        "name_sv": "",
        "name_tr": "",
        "name_vi": "",
        "name_zh": "",
        "namealt": "",
        "nameascii": "Yakossi",
        "namediff": "0",
        "namepar": "",
        "natscale": "20",
        "ne_id": "1159139577",
        "note": "",
        "pop1950": "0.00000000000",
        "pop1955": "0.00000000000",
        "pop1960": "0.00000000000",
        "pop1965": "0.00000000000",
        "pop1970": "0.00000000000",
        "pop1975": "0.00000000000",
        "pop1980": "0.00000000000",
        "pop1985": "0.00000000000",
        "pop1990": "0.00000000000",
        "pop1995": "0.00000000000",
        "pop2000": "0.00000000000",
        "pop2005": "0.00000000000",
        "pop2010": "0.00000000000",
        "pop2015": "0.00000000000",
        "pop2020": "0.00000000000",
        "pop2025": "0.00000000000",
        "pop2050": "0.00000000000",
        "pop_max": "500",
        "pop_min": "319",
        "pop_other": "0",
        "rank_max": "2",
        "rank_min": "2",
        "record_type": "city",
        "scalerank": "7",
        "sov0name": "Central African Republic",
        "sov_a3": "CAF",
        "timezone": "",
        "un_adm0": "",
        "un_fid": "0",
        "un_lat": "0.00000000000",
        "un_long": "0.00000000000",
        "wdid_score": "*",
        "wikidataid": "",
        "wof_id": "1141907529",
        "worldcity": "0.00000000000"
    },
    "zemio": {
        "adm0_a3": "CAF",
        "adm0cap": "0.00000000000",
        "adm0name": "Central African Republic",
        "adm1name": "Haut-Mbomou",
        "admin1_cod": "0.00000000000",
        "capalt": "****",
        "capin": "",
        "cca2": "CF",
        "cca3": "CAF",
        "changed": "0.00000000000",
        "checkme": "0",
        "cityalt": "",
        "compare": "0",
        "data_sources": [
            "natural"
        ],
        "diffascii": "0",
        "diffnote": "",
        "elevation": "0.00000000000",
        "feature_cl": "",
        "feature_co": "",
        "featurecla": "Populated place",
        "geonameid": "235826.00000000000",
        "geonamesno": "No GeoNames match due to small population, not in GeoNames, or poor NEV placement.",
        "gn_ascii": "",
        "gn_pop": "0",
        "gtopo30": "0.00000000000",
        "iso_a2": "CF",
        "iso_a3": "CAF",
        "label": "",
        "labelrank": "7",
        "latitude": "5.03365785616",
        "longitude": "25.13328731150",
        "ls_match": "0",
        "ls_name": "Zemio",
        "max_areakm": "0.00000000000",
        "max_areami": "0.00000000000",
        "max_bbxmax": "0.00000000000",
        "max_bbxmin": "0.00000000000",
        "max_bbymax": "0.00000000000",
        "max_bbymin": "0.00000000000",
        "max_natsca": "0",
        "max_perkm": "0.00000000000",
        "max_permi": "0.00000000000",
        "max_pop10": "0",
        "max_pop20": "0",
        "max_pop50": "0",
        "max_pop300": "0",
        "max_pop310": "0",
        "mean_bbxc": "0.00000000000",
        "mean_bbyc": "0.00000000000",
        "megacity": "0",
        "meganame": "",
        "min_areakm": "0",
        "min_areami": "0.00000000000",
        "min_bbxmax": "0.00000000000",
        "min_bbxmin": "0.00000000000",
        "min_bbymax": "0.00000000000",
        "min_bbymin": "0.00000000000",
        "min_perkm": "0.00000000000",
        "min_permi": "0.00000000000",
        "min_zoom": "6.7",
        "name": "Zemio",
        "name_ar": "",
        "name_bn": "",
        "name_de": "",
        "name_el": "",
        "name_en": "Zemio",
        "name_es": "",
        "name_fr": "Z\u00c3\u00a9mio",
        "name_hi": "",
        "name_hu": "",
        "name_id": "",
        "name_it": "",
        "name_ja": "",
        "name_ko": "",
        "name_nl": "",
        "name_pl": "",
        "name_pt": "",
        "name_ru": "",
        "name_sv": "",
        "name_tr": "",
        "name_vi": "",
        "name_zh": "",
        "namealt": "",
        "nameascii": "Zemio",
        "namediff": "0",
        "namepar": "",
        "natscale": "20",
        "ne_id": "1159139573",
        "note": "",
        "pop1950": "0.00000000000",
        "pop1955": "0.00000000000",
        "pop1960": "0.00000000000",
        "pop1965": "0.00000000000",
        "pop1970": "0.00000000000",
        "pop1975": "0.00000000000",
        "pop1980": "0.00000000000",
        "pop1985": "0.00000000000",
        "pop1990": "0.00000000000",
        "pop1995": "0.00000000000",
        "pop2000": "0.00000000000",
        "pop2005": "0.00000000000",
        "pop2010": "0.00000000000",
        "pop2015": "0.00000000000",
        "pop2020": "0.00000000000",
        "pop2025": "0.00000000000",
        "pop2050": "0.00000000000",
        "pop_max": "20000",
        "pop_min": "18478",
        "pop_other": "0",
        "rank_max": "6",
        "rank_min": "6",
        "record_type": "city",
        "scalerank": "7",
        "sov0name": "Central African Republic",
        "sov_a3": "CAF",
        "timezone": "",
        "un_adm0": "",
        "un_fid": "0",
        "un_lat": "0.00000000000",
        "un_long": "0.00000000000",
        "wdid_score": "4",
        "wikidataid": "Q1771417",
        "wof_id": "1141907527",
        "worldcity": "0.00000000000"
    }
}