{
    "labasa": {
        "adm0_a3": "FJI",
        "adm0cap": "0.00000000000",
        "adm0name": "Fiji",
        "adm1name": "Western",
        "admin1_cod": "3.00000000000",
        "capalt": "****",
        "capin": "",
        "cca2": "FJ",
        "cca3": "FJI",
        "changed": "1.00000000000",
        "checkme": "0",
        "cityalt": "",
        "compare": "0",
        "data_sources": [
            "natural"
        ],
        "diffascii": "0",
        "diffnote": "Population from GeoNames. Changed scale rank.",
        "elevation": "0.00000000000",
        "feature_cl": "P",
        "feature_co": "PPL",
        "featurecla": "Populated place",
        "geonameid": "2204582.00000000000",
        "geonamesno": "GeoNames spatial join with similar names only.",
        "gn_ascii": "Lambasa",
        "gn_pop": "24187",
        "gtopo30": "-9999.00000000000",
        "iso_a2": "FJ",
        "iso_a3": "FJI",
        "label": "",
        "labelrank": "8",
        "latitude": "-16.41658323280",
        "longitude": "179.38330358800",
        "ls_match": "0",
        "ls_name": "Labasa",
        "max_areakm": "0.00000000000",
        "max_areami": "0.00000000000",
        "max_bbxmax": "0.00000000000",
        "max_bbxmin": "0.00000000000",
        "max_bbymax": "0.00000000000",
        "max_bbymin": "0.00000000000",
        "max_natsca": "0",
        "max_perkm": "0.00000000000",
        "max_permi": "0.00000000000",
        "max_pop10": "0",
        "max_pop20": "0",
        "max_pop50": "0",
        "max_pop300": "0",
        "max_pop310": "0",
        "mean_bbxc": "0.00000000000",
        "mean_bbyc": "0.00000000000",
        "megacity": "0",
        "meganame": "",
        "min_areakm": "0",
        "min_areami": "0.00000000000",
        "min_bbxmax": "0.00000000000",
        "min_bbxmin": "0.00000000000",
        "min_bbymax": "0.00000000000",
        "min_bbymin": "0.00000000000",
        "min_perkm": "0.00000000000",
        "min_permi": "0.00000000000",
        "min_zoom": "6.0",
        "name": "Labasa",
        "name_ar": "",
        "name_bn": "",
        "name_de": "Labasa",
        "name_el": "",
        "name_en": "Labasa",
        "name_es": "Labasa",
        "name_fr": "Labasa",
        "name_hi": "",
        "name_hu": "",
        "name_id": "",
        "name_it": "",
        "name_ja": "",
        "name_ko": "",
        "name_nl": "",
        "name_pl": "",
        "name_pt": "Labasa",
        "name_ru": "",
        "name_sv": "",
        "name_tr": "",
        "name_vi": "",
        "name_zh": "\u00e6\u008b\u0089\u00e5\u00b7\u00b4\u00e8\u0090\u00a8",
        "namealt": "",
        "nameascii": "Labasa",
        "namediff": "0",
        "namepar": "",
        "natscale": "30",
        "ne_id": "1159147217",
        "note": "",
        "pop1950": "0.00000000000",
        "pop1955": "0.00000000000",
        "pop1960": "0.00000000000",
        "pop1965": "0.00000000000",
        "pop1970": "0.00000000000",
        "pop1975": "0.00000000000",
        "pop1980": "0.00000000000",
        "pop1985": "0.00000000000",
        "pop1990": "0.00000000000",
        "pop1995": "0.00000000000",
        "pop2000": "0.00000000000",
        "pop2005": "0.00000000000",
        "pop2010": "0.00000000000",
        "pop2015": "0.00000000000",
        "pop2020": "0.00000000000",
        "pop2025": "0.00000000000",
        "pop2050": "0.00000000000",
        "pop_max": "24187",
        "pop_min": "24187",
        "pop_other": "0",
        "rank_max": "7",
        "rank_min": "7",
        "record_type": "city",
        "scalerank": "6",
        "sov0name": "Fiji",
        "sov_a3": "FJI",
        "timezone": "Pacific\/Fiji",
        "un_adm0": "",
        "un_fid": "0",
        "un_lat": "0.00000000000",
        "un_long": "0.00000000000",
        "wdid_score": "4",
        "wikidataid": "Q579556",
        "wof_id": "421182685",
        "worldcity": "0.00000000000"
    },
    "lautoka": {
        "adm0_a3": "FJI",
        "adm0cap": "0.00000000000",
        "adm0name": "Fiji",
        "adm1name": "Western",
        "admin1_cod": "0.00000000000",
        "capalt": "****",
        "capin": "",
        "cca2": "FJ",
        "cca3": "FJI",
        "changed": "4.00000000000",
        "checkme": "0",
        "cityalt": "",
        "compare": "0",
        "data_sources": [
            "natural"
        ],
        "diffascii": "0",
        "diffnote": "Changed scale rank.",
        "elevation": "0.00000000000",
        "feature_cl": "",
        "feature_co": "",
        "featurecla": "Populated place",
        "geonameid": "-1.00000000000",
        "geonamesno": "No GeoNames match due to small population, not in GeoNames, or poor NEV placement.",
        "gn_ascii": "",
        "gn_pop": "0",
        "gtopo30": "0.00000000000",
        "iso_a2": "FJ",
        "iso_a3": "FJI",
        "label": "",
        "labelrank": "8",
        "latitude": "-17.61609657920",
        "longitude": "177.46662471400",
        "ls_match": "1",
        "ls_name": "Lautoka",
        "max_areakm": "22.00000000000",
        "max_areami": "9.00000000000",
        "max_bbxmax": "177.47500000000",
        "max_bbxmin": "177.42500000000",
        "max_bbymax": "-17.60000000000",
        "max_bbymin": "-17.65833333000",
        "max_natsca": "10",
        "max_perkm": "27.00000000000",
        "max_permi": "17.00000000000",
        "max_pop10": "55894",
        "max_pop20": "0",
        "max_pop50": "0",
        "max_pop300": "0",
        "max_pop310": "0",
        "mean_bbxc": "177.44953704000",
        "mean_bbyc": "-17.62700617000",
        "megacity": "0",
        "meganame": "",
        "min_areakm": "22",
        "min_areami": "9.00000000000",
        "min_bbxmax": "177.47500000000",
        "min_bbxmin": "177.42500000000",
        "min_bbymax": "-17.60000000000",
        "min_bbymin": "-17.65833333000",
        "min_perkm": "27.00000000000",
        "min_permi": "17.00000000000",
        "min_zoom": "6.1",
        "name": "Lautoka",
        "name_ar": "",
        "name_bn": "",
        "name_de": "Lautoka",
        "name_el": "",
        "name_en": "Lautoka",
        "name_es": "Lautoka",
        "name_fr": "Lautoka",
        "name_hi": "",
        "name_hu": "",
        "name_id": "",
        "name_it": "",
        "name_ja": "",
        "name_ko": "",
        "name_nl": "",
        "name_pl": "",
        "name_pt": "Lautoka",
        "name_ru": "\u00d0\u009b\u00d0\u00b0\u00d1\u0083\u00d1\u0082\u00d0\u00be\u00d0\u00ba\u00d0\u00b0",
        "name_sv": "",
        "name_tr": "",
        "name_vi": "",
        "name_zh": "\u00e5\u008a\u00b3\u00e6\u0089\u0098\u00e5\u008d\u00a1",
        "namealt": "",
        "nameascii": "Lautoka",
        "namediff": "0",
        "namepar": "",
        "natscale": "20",
        "ne_id": "1159141885",
        "note": "",
        "pop1950": "0.00000000000",
        "pop1955": "0.00000000000",
        "pop1960": "0.00000000000",
        "pop1965": "0.00000000000",
        "pop1970": "0.00000000000",
        "pop1975": "0.00000000000",
        "pop1980": "0.00000000000",
        "pop1985": "0.00000000000",
        "pop1990": "0.00000000000",
        "pop1995": "0.00000000000",
        "pop2000": "0.00000000000",
        "pop2005": "0.00000000000",
        "pop2010": "0.00000000000",
        "pop2015": "0.00000000000",
        "pop2020": "0.00000000000",
        "pop2025": "0.00000000000",
        "pop2050": "0.00000000000",
        "pop_max": "55894",
        "pop_min": "55894",
        "pop_other": "55894",
        "rank_max": "8",
        "rank_min": "8",
        "record_type": "city",
        "scalerank": "7",
        "sov0name": "Fiji",
        "sov_a3": "FJI",
        "timezone": "",
        "un_adm0": "",
        "un_fid": "0",
        "un_lat": "0.00000000000",
        "un_long": "0.00000000000",
        "wdid_score": "4",
        "wikidataid": "Q856662",
        "wof_id": "1141907795",
        "worldcity": "0.00000000000"
    },
    "nandi": {
        "adm0_a3": "FJI",
        "adm0cap": "0.00000000000",
        "adm0name": "Fiji",
        "adm1name": "Western",
        "admin1_cod": "5.00000000000",
        "capalt": "****",
        "capin": "",
        "cca2": "FJ",
        "cca3": "FJI",
        "changed": "0.00000000000",
        "checkme": "0",
        "cityalt": "",
        "compare": "0",
        "data_sources": [
            "natural"
        ],
        "diffascii": "0",
        "diffnote": "",
        "elevation": "0.00000000000",
        "feature_cl": "P",
        "feature_co": "PPL",
        "featurecla": "Populated place",
        "geonameid": "2202064.00000000000",
        "geonamesno": "Geonames ascii name + lat.d + long.d matching.",
        "gn_ascii": "Nandi",
        "gn_pop": "42284",
        "gtopo30": "2.00000000000",
        "iso_a2": "FJ",
        "iso_a3": "FJI",
        "label": "",
        "labelrank": "8",
        "latitude": "-17.79959959020",
        "longitude": "177.41660192800",
        "ls_match": "1",
        "ls_name": "Nandi",
        "max_areakm": "11.00000000000",
        "max_areami": "4.00000000000",
        "max_bbxmax": "177.45000000000",
        "max_bbxmin": "177.39166667000",
        "max_bbymax": "-17.76666667000",
        "max_bbymin": "-17.80833333000",
        "max_natsca": "20",
        "max_perkm": "22.00000000000",
        "max_permi": "14.00000000000",
        "max_pop10": "12374",
        "max_pop20": "12374",
        "max_pop50": "0",
        "max_pop300": "0",
        "max_pop310": "0",
        "mean_bbxc": "177.42142857000",
        "mean_bbyc": "-17.79107143000",
        "megacity": "0",
        "meganame": "",
        "min_areakm": "11",
        "min_areami": "4.00000000000",
        "min_bbxmax": "177.45000000000",
        "min_bbxmin": "177.39166667000",
        "min_bbymax": "-17.76666667000",
        "min_bbymin": "-17.80833333000",
        "min_perkm": "22.00000000000",
        "min_permi": "14.00000000000",
        "min_zoom": "6.1",
        "name": "Nandi",
        "name_ar": "",
        "name_bn": "",
        "name_de": "Nadi",
        "name_el": "",
        "name_en": "Nadi",
        "name_es": "Nadi",
        "name_fr": "Nadi",
        "name_hi": "",
        "name_hu": "",
        "name_id": "",
        "name_it": "",
        "name_ja": "",
        "name_ko": "",
        "name_nl": "",
        "name_pl": "",
        "name_pt": "Nadi",
        "name_ru": "\u00d0\u009d\u00d0\u00b0\u00d0\u00bd\u00d0\u00b4\u00d0\u00b8",
        "name_sv": "",
        "name_tr": "",
        "name_vi": "",
        "name_zh": "\u00e6\u00a5\u00a0\u00e8\u00bf\u00aa",
        "namealt": "",
        "nameascii": "Nandi",
        "namediff": "0",
        "namepar": "",
        "natscale": "20",
        "ne_id": "1159141881",
        "note": "",
        "pop1950": "0.00000000000",
        "pop1955": "0.00000000000",
        "pop1960": "0.00000000000",
        "pop1965": "0.00000000000",
        "pop1970": "0.00000000000",
        "pop1975": "0.00000000000",
        "pop1980": "0.00000000000",
        "pop1985": "0.00000000000",
        "pop1990": "0.00000000000",
        "pop1995": "0.00000000000",
        "pop2000": "0.00000000000",
        "pop2005": "0.00000000000",
        "pop2010": "0.00000000000",
        "pop2015": "0.00000000000",
        "pop2020": "0.00000000000",
        "pop2025": "0.00000000000",
        "pop2050": "0.00000000000",
        "pop_max": "42284",
        "pop_min": "12374",
        "pop_other": "12374",
        "rank_max": "7",
        "rank_min": "6",
        "record_type": "city",
        "scalerank": "7",
        "sov0name": "Fiji",
        "sov_a3": "FJI",
        "timezone": "Pacific\/Fiji",
        "un_adm0": "",
        "un_fid": "0",
        "un_lat": "0.00000000000",
        "un_long": "0.00000000000",
        "wdid_score": "4",
        "wikidataid": "Q619443",
        "wof_id": "421179869",
        "worldcity": "0.00000000000"
    },
    "suva": {
        "adm0_a3": "FJI",
        "adm0cap": "1.00000000000",
        "adm0name": "Fiji",
        "adm1name": "Central",
        "admin1_cod": "1.00000000000",
        "capalt": "****",
        "capin": "",
        "cca2": "FJ",
        "cca3": "FJI",
        "changed": "4.00000000000",
        "checkme": "0",
        "cityalt": "",
        "compare": "0",
        "data_sources": [
            "natural"
        ],
        "diffascii": "0",
        "diffnote": "Location adjusted.",
        "elevation": "0.00000000000",
        "feature_cl": "P",
        "feature_co": "PPLC",
        "featurecla": "Admin-0 capital",
        "geonameid": "2198148.00000000000",
        "geonamesno": "GeoNames match general.",
        "gn_ascii": "Suva",
        "gn_pop": "77366",
        "gtopo30": "-9999.00000000000",
        "iso_a2": "FJ",
        "iso_a3": "FJI",
        "label": "",
        "labelrank": "8",
        "latitude": "-18.13301593140",
        "longitude": "178.44170731500",
        "ls_match": "1",
        "ls_name": "Suva",
        "max_areakm": "53.00000000000",
        "max_areami": "20.00000000000",
        "max_bbxmax": "178.53333333000",
        "max_bbxmin": "178.42500000000",
        "max_bbymax": "-18.02500000000",
        "max_bbymin": "-18.16666667000",
        "max_natsca": "100",
        "max_perkm": "56.00000000000",
        "max_permi": "35.00000000000",
        "max_pop10": "143230",
        "max_pop20": "143230",
        "max_pop50": "143230",
        "max_pop300": "143230",
        "max_pop310": "0",
        "mean_bbxc": "178.47288462000",
        "mean_bbyc": "-18.10673077000",
        "megacity": "0",
        "meganame": "",
        "min_areakm": "53",
        "min_areami": "20.00000000000",
        "min_bbxmax": "178.53333333000",
        "min_bbxmin": "178.42500000000",
        "min_bbymax": "-18.02500000000",
        "min_bbymin": "-18.16666667000",
        "min_perkm": "56.00000000000",
        "min_permi": "35.00000000000",
        "min_zoom": "5.0",
        "name": "Suva",
        "name_ar": "",
        "name_bn": "",
        "name_de": "Suva",
        "name_el": "",
        "name_en": "Suva",
        "name_es": "Suva",
        "name_fr": "Suva",
        "name_hi": "",
        "name_hu": "",
        "name_id": "",
        "name_it": "",
        "name_ja": "",
        "name_ko": "",
        "name_nl": "",
        "name_pl": "",
        "name_pt": "Suva",
        "name_ru": "\u00d0\u00a1\u00d1\u0083\u00d0\u00b2\u00d0\u00b0",
        "name_sv": "",
        "name_tr": "",
        "name_vi": "",
        "name_zh": "\u00e8\u0098\u0087\u00e7\u0093\u00a6",
        "namealt": "",
        "nameascii": "Suva",
        "namediff": "0",
        "namepar": "",
        "natscale": "110",
        "ne_id": "1159150917",
        "note": "",
        "pop1950": "0.00000000000",
        "pop1955": "0.00000000000",
        "pop1960": "0.00000000000",
        "pop1965": "0.00000000000",
        "pop1970": "0.00000000000",
        "pop1975": "0.00000000000",
        "pop1980": "0.00000000000",
        "pop1985": "0.00000000000",
        "pop1990": "0.00000000000",
        "pop1995": "0.00000000000",
        "pop2000": "0.00000000000",
        "pop2005": "0.00000000000",
        "pop2010": "0.00000000000",
        "pop2015": "0.00000000000",
        "pop2020": "0.00000000000",
        "pop2025": "0.00000000000",
        "pop2050": "0.00000000000",
        "pop_max": "175399",
        "pop_min": "88271",
        "pop_other": "0",
        "rank_max": "9",
        "rank_min": "8",
        "record_type": "city",
        "scalerank": "3",
        "sov0name": "Fiji",
        "sov_a3": "FJI",
        "timezone": "Pacific\/Fiji",
        "un_adm0": "",
        "un_fid": "0",
        "un_lat": "0.00000000000",
        "un_long": "0.00000000000",
        "wdid_score": "4",
        "wikidataid": "Q38807",
        "wof_id": "421188977",
        "worldcity": "0.00000000000"
    }
}