{
    "bata": {
        "adm0_a3": "GNQ",
        "adm0cap": "0.00000000000",
        "adm0name": "Equatorial Guinea",
        "adm1name": "Litoral",
        "admin1_cod": "8.00000000000",
        "capalt": "****",
        "capin": "",
        "cca2": "GQ",
        "cca3": "GNQ",
        "changed": "1.00000000000",
        "checkme": "0",
        "cityalt": "",
        "compare": "0",
        "data_sources": [
            "natural"
        ],
        "diffascii": "0",
        "diffnote": "Changed scale rank.",
        "elevation": "0.00000000000",
        "feature_cl": "P",
        "feature_co": "PPLA",
        "featurecla": "Admin-1 capital",
        "geonameid": "2310046.00000000000",
        "geonamesno": "GeoNames match general.",
        "gn_ascii": "Bata",
        "gn_pop": "173046",
        "gtopo30": "531.00000000000",
        "iso_a2": "GQ",
        "iso_a3": "GNQ",
        "label": "",
        "labelrank": "8",
        "latitude": "1.87000083303",
        "longitude": "9.76998734400",
        "ls_match": "1",
        "ls_name": "Bata",
        "max_areakm": "28.00000000000",
        "max_areami": "11.00000000000",
        "max_bbxmax": "9.81666667000",
        "max_bbxmin": "9.74166667000",
        "max_bbymax": "1.90000000000",
        "max_bbymin": "1.81666667000",
        "max_natsca": "20",
        "max_perkm": "39.00000000000",
        "max_permi": "24.00000000000",
        "max_pop10": "98841",
        "max_pop20": "98841",
        "max_pop50": "0",
        "max_pop300": "0",
        "max_pop310": "0",
        "mean_bbxc": "9.77638889000",
        "mean_bbyc": "1.85542929000",
        "megacity": "0",
        "meganame": "",
        "min_areakm": "28",
        "min_areami": "11.00000000000",
        "min_bbxmax": "9.81666667000",
        "min_bbxmin": "9.74166667000",
        "min_bbymax": "1.90000000000",
        "min_bbymin": "1.81666667000",
        "min_perkm": "39.00000000000",
        "min_permi": "24.00000000000",
        "min_zoom": "6.0",
        "name": "Bata",
        "name_ar": "",
        "name_bn": "",
        "name_de": "Bata",
        "name_el": "",
        "name_en": "Bata",
        "name_es": "Bata",
        "name_fr": "Bata",
        "name_hi": "",
        "name_hu": "",
        "name_id": "",
        "name_it": "",
        "name_ja": "",
        "name_ko": "",
        "name_nl": "",
        "name_pl": "",
        "name_pt": "Bata",
        "name_ru": "\u00d0\u0091\u00d0\u00b0\u00d1\u0082\u00d0\u00b0",
        "name_sv": "",
        "name_tr": "",
        "name_vi": "",
        "name_zh": "\u00e5\u00b7\u00b4\u00e5\u00a1\u0094",
        "namealt": "",
        "nameascii": "Bata",
        "namediff": "0",
        "namepar": "",
        "natscale": "30",
        "ne_id": "1159148423",
        "note": "",
        "pop1950": "0.00000000000",
        "pop1955": "0.00000000000",
        "pop1960": "0.00000000000",
        "pop1965": "0.00000000000",
        "pop1970": "0.00000000000",
        "pop1975": "0.00000000000",
        "pop1980": "0.00000000000",
        "pop1985": "0.00000000000",
        "pop1990": "0.00000000000",
        "pop1995": "0.00000000000",
        "pop2000": "0.00000000000",
        "pop2005": "0.00000000000",
        "pop2010": "0.00000000000",
        "pop2015": "0.00000000000",
        "pop2020": "0.00000000000",
        "pop2025": "0.00000000000",
        "pop2050": "0.00000000000",
        "pop_max": "173046",
        "pop_min": "98841",
        "pop_other": "0",
        "rank_max": "9",
        "rank_min": "8",
        "record_type": "city",
        "scalerank": "6",
        "sov0name": "Equatorial Guinea",
        "sov_a3": "GNQ",
        "timezone": "Africa\/Malabo",
        "un_adm0": "",
        "un_fid": "0",
        "un_lat": "0.00000000000",
        "un_long": "0.00000000000",
        "wdid_score": "4",
        "wikidataid": "Q320792",
        "wof_id": "421168969",
        "worldcity": "0.00000000000"
    },
    "calatrava": {
        "adm0_a3": "GNQ",
        "adm0cap": "0.00000000000",
        "adm0name": "Equatorial Guinea",
        "adm1name": "Litoral",
        "admin1_cod": "0.00000000000",
        "capalt": "****",
        "capin": "",
        "cca2": "GQ",
        "cca3": "GNQ",
        "changed": "0.00000000000",
        "checkme": "0",
        "cityalt": "",
        "compare": "0",
        "data_sources": [
            "natural"
        ],
        "diffascii": "0",
        "diffnote": "",
        "elevation": "0.00000000000",
        "feature_cl": "",
        "feature_co": "",
        "featurecla": "Populated place",
        "geonameid": "-1.00000000000",
        "geonamesno": "No GeoNames match due to small population, not in GeoNames, or poor NEV placement.",
        "gn_ascii": "",
        "gn_pop": "0",
        "gtopo30": "0.00000000000",
        "iso_a2": "GQ",
        "iso_a3": "GNQ",
        "label": "",
        "labelrank": "8",
        "latitude": "1.11640342092",
        "longitude": "9.41858760442",
        "ls_match": "0",
        "ls_name": "Calatrava",
        "max_areakm": "0.00000000000",
        "max_areami": "0.00000000000",
        "max_bbxmax": "0.00000000000",
        "max_bbxmin": "0.00000000000",
        "max_bbymax": "0.00000000000",
        "max_bbymin": "0.00000000000",
        "max_natsca": "0",
        "max_perkm": "0.00000000000",
        "max_permi": "0.00000000000",
        "max_pop10": "0",
        "max_pop20": "0",
        "max_pop50": "0",
        "max_pop300": "0",
        "max_pop310": "0",
        "mean_bbxc": "0.00000000000",
        "mean_bbyc": "0.00000000000",
        "megacity": "0",
        "meganame": "",
        "min_areakm": "0",
        "min_areami": "0.00000000000",
        "min_bbxmax": "0.00000000000",
        "min_bbxmin": "0.00000000000",
        "min_bbymax": "0.00000000000",
        "min_bbymin": "0.00000000000",
        "min_perkm": "0.00000000000",
        "min_permi": "0.00000000000",
        "min_zoom": "6.7",
        "name": "Calatrava",
        "name_ar": "",
        "name_bn": "",
        "name_de": "",
        "name_el": "",
        "name_en": "",
        "name_es": "",
        "name_fr": "",
        "name_hi": "",
        "name_hu": "",
        "name_id": "",
        "name_it": "",
        "name_ja": "",
        "name_ko": "",
        "name_nl": "",
        "name_pl": "",
        "name_pt": "",
        "name_ru": "",
        "name_sv": "",
        "name_tr": "",
        "name_vi": "",
        "name_zh": "",
        "namealt": "",
        "nameascii": "Calatrava",
        "namediff": "0",
        "namepar": "",
        "natscale": "20",
        "ne_id": "1159140317",
        "note": "",
        "pop1950": "0.00000000000",
        "pop1955": "0.00000000000",
        "pop1960": "0.00000000000",
        "pop1965": "0.00000000000",
        "pop1970": "0.00000000000",
        "pop1975": "0.00000000000",
        "pop1980": "0.00000000000",
        "pop1985": "0.00000000000",
        "pop1990": "0.00000000000",
        "pop1995": "0.00000000000",
        "pop2000": "0.00000000000",
        "pop2005": "0.00000000000",
        "pop2010": "0.00000000000",
        "pop2015": "0.00000000000",
        "pop2020": "0.00000000000",
        "pop2025": "0.00000000000",
        "pop2050": "0.00000000000",
        "pop_max": "628",
        "pop_min": "628",
        "pop_other": "0",
        "rank_max": "2",
        "rank_min": "2",
        "record_type": "city",
        "scalerank": "7",
        "sov0name": "Equatorial Guinea",
        "sov_a3": "GNQ",
        "timezone": "",
        "un_adm0": "",
        "un_fid": "0",
        "un_lat": "0.00000000000",
        "un_long": "0.00000000000",
        "wdid_score": "*",
        "wikidataid": "",
        "wof_id": "1141907617",
        "worldcity": "0.00000000000"
    },
    "evinayong": {
        "adm0_a3": "GNQ",
        "adm0cap": "0.00000000000",
        "adm0name": "Equatorial Guinea",
        "adm1name": "Centro Sur",
        "admin1_cod": "6.00000000000",
        "capalt": "****",
        "capin": "",
        "cca2": "GQ",
        "cca3": "GNQ",
        "changed": "4.00000000000",
        "checkme": "0",
        "cityalt": "",
        "compare": "0",
        "data_sources": [
            "natural"
        ],
        "diffascii": "0",
        "diffnote": "Added missing admin-1 capital. Population from GeoNames.",
        "elevation": "0.00000000000",
        "feature_cl": "P",
        "feature_co": "PPLA",
        "featurecla": "Admin-1 capital",
        "geonameid": "2308994.00000000000",
        "geonamesno": "GeoNames match general.",
        "gn_ascii": "Evinayong",
        "gn_pop": "8462",
        "gtopo30": "632.00000000000",
        "iso_a2": "GQ",
        "iso_a3": "GNQ",
        "label": "",
        "labelrank": "8",
        "latitude": "1.44999908525",
        "longitude": "10.56670255150",
        "ls_match": "0",
        "ls_name": "",
        "max_areakm": "0.00000000000",
        "max_areami": "0.00000000000",
        "max_bbxmax": "0.00000000000",
        "max_bbxmin": "0.00000000000",
        "max_bbymax": "0.00000000000",
        "max_bbymin": "0.00000000000",
        "max_natsca": "0",
        "max_perkm": "0.00000000000",
        "max_permi": "0.00000000000",
        "max_pop10": "0",
        "max_pop20": "0",
        "max_pop50": "0",
        "max_pop300": "0",
        "max_pop310": "0",
        "mean_bbxc": "0.00000000000",
        "mean_bbyc": "0.00000000000",
        "megacity": "0",
        "meganame": "",
        "min_areakm": "0",
        "min_areami": "0.00000000000",
        "min_bbxmax": "0.00000000000",
        "min_bbxmin": "0.00000000000",
        "min_bbymax": "0.00000000000",
        "min_bbymin": "0.00000000000",
        "min_perkm": "0.00000000000",
        "min_permi": "0.00000000000",
        "min_zoom": "7.0",
        "name": "Evinayong",
        "name_ar": "",
        "name_bn": "",
        "name_de": "",
        "name_el": "",
        "name_en": "Evinayong",
        "name_es": "Evinayong",
        "name_fr": "Evinayong",
        "name_hi": "",
        "name_hu": "",
        "name_id": "",
        "name_it": "",
        "name_ja": "",
        "name_ko": "",
        "name_nl": "",
        "name_pl": "",
        "name_pt": "Evinayong",
        "name_ru": "\u00d0\u00ad\u00d0\u00b2\u00d0\u00b8\u00d0\u00bd\u00d0\u00b0\u00d0\u00b9\u00d0\u00be\u00d0\u00bd\u00d0\u00b3",
        "name_sv": "",
        "name_tr": "",
        "name_vi": "",
        "name_zh": "\u00e5\u009f\u0083\u00e7\u00b6\u00ad\u00e7\u00b4\u008d\u00e6\u00b0\u00b8",
        "namealt": "",
        "nameascii": "Evinayong",
        "namediff": "1",
        "namepar": "",
        "natscale": "1",
        "ne_id": "1159117991",
        "note": "",
        "pop1950": "0.00000000000",
        "pop1955": "0.00000000000",
        "pop1960": "0.00000000000",
        "pop1965": "0.00000000000",
        "pop1970": "0.00000000000",
        "pop1975": "0.00000000000",
        "pop1980": "0.00000000000",
        "pop1985": "0.00000000000",
        "pop1990": "0.00000000000",
        "pop1995": "0.00000000000",
        "pop2000": "0.00000000000",
        "pop2005": "0.00000000000",
        "pop2010": "0.00000000000",
        "pop2015": "0.00000000000",
        "pop2020": "0.00000000000",
        "pop2025": "0.00000000000",
        "pop2050": "0.00000000000",
        "pop_max": "8462",
        "pop_min": "8462",
        "pop_other": "0",
        "rank_max": "5",
        "rank_min": "5",
        "record_type": "city",
        "scalerank": "10",
        "sov0name": "Equatorial Guinea",
        "sov_a3": "GNQ",
        "timezone": "Africa\/Malabo",
        "un_adm0": "",
        "un_fid": "0",
        "un_lat": "0.00000000000",
        "un_long": "0.00000000000",
        "wdid_score": "4",
        "wikidataid": "Q1988320",
        "wof_id": "421200321",
        "worldcity": "0.00000000000"
    },
    "luba": {
        "adm0_a3": "GNQ",
        "adm0cap": "0.00000000000",
        "adm0name": "Equatorial Guinea",
        "adm1name": "Bioko Sur",
        "admin1_cod": "5.00000000000",
        "capalt": "****",
        "capin": "",
        "cca2": "GQ",
        "cca3": "GNQ",
        "changed": "4.00000000000",
        "checkme": "0",
        "cityalt": "",
        "compare": "0",
        "data_sources": [
            "natural"
        ],
        "diffascii": "0",
        "diffnote": "Added missing admin-1 capital. Population from GeoNames.",
        "elevation": "0.00000000000",
        "feature_cl": "P",
        "feature_co": "PPLA",
        "featurecla": "Admin-1 capital",
        "geonameid": "2309528.00000000000",
        "geonamesno": "GeoNames match general.",
        "gn_ascii": "Luba",
        "gn_pop": "8655",
        "gtopo30": "182.00000000000",
        "iso_a2": "GQ",
        "iso_a3": "GNQ",
        "label": "",
        "labelrank": "8",
        "latitude": "3.44999702564",
        "longitude": "8.55000052502",
        "ls_match": "0",
        "ls_name": "",
        "max_areakm": "0.00000000000",
        "max_areami": "0.00000000000",
        "max_bbxmax": "0.00000000000",
        "max_bbxmin": "0.00000000000",
        "max_bbymax": "0.00000000000",
        "max_bbymin": "0.00000000000",
        "max_natsca": "0",
        "max_perkm": "0.00000000000",
        "max_permi": "0.00000000000",
        "max_pop10": "0",
        "max_pop20": "0",
        "max_pop50": "0",
        "max_pop300": "0",
        "max_pop310": "0",
        "mean_bbxc": "0.00000000000",
        "mean_bbyc": "0.00000000000",
        "megacity": "0",
        "meganame": "",
        "min_areakm": "0",
        "min_areami": "0.00000000000",
        "min_bbxmax": "0.00000000000",
        "min_bbxmin": "0.00000000000",
        "min_bbymax": "0.00000000000",
        "min_bbymin": "0.00000000000",
        "min_perkm": "0.00000000000",
        "min_permi": "0.00000000000",
        "min_zoom": "7.0",
        "name": "Luba",
        "name_ar": "",
        "name_bn": "",
        "name_de": "Luba",
        "name_el": "",
        "name_en": "Luba",
        "name_es": "Luba",
        "name_fr": "Luba",
        "name_hi": "",
        "name_hu": "",
        "name_id": "",
        "name_it": "",
        "name_ja": "",
        "name_ko": "",
        "name_nl": "",
        "name_pl": "",
        "name_pt": "Luba",
        "name_ru": "\u00d0\u009b\u00d1\u0083\u00d0\u00b1\u00d0\u00b0",
        "name_sv": "",
        "name_tr": "",
        "name_vi": "",
        "name_zh": "\u00e7\u009b\u00a7\u00e5\u00b7\u00b4",
        "namealt": "",
        "nameascii": "Luba",
        "namediff": "1",
        "namepar": "",
        "natscale": "1",
        "ne_id": "1159118007",
        "note": "",
        "pop1950": "0.00000000000",
        "pop1955": "0.00000000000",
        "pop1960": "0.00000000000",
        "pop1965": "0.00000000000",
        "pop1970": "0.00000000000",
        "pop1975": "0.00000000000",
        "pop1980": "0.00000000000",
        "pop1985": "0.00000000000",
        "pop1990": "0.00000000000",
        "pop1995": "0.00000000000",
        "pop2000": "0.00000000000",
        "pop2005": "0.00000000000",
        "pop2010": "0.00000000000",
        "pop2015": "0.00000000000",
        "pop2020": "0.00000000000",
        "pop2025": "0.00000000000",
        "pop2050": "0.00000000000",
        "pop_max": "8655",
        "pop_min": "8655",
        "pop_other": "0",
        "rank_max": "5",
        "rank_min": "5",
        "record_type": "city",
        "scalerank": "10",
        "sov0name": "Equatorial Guinea",
        "sov_a3": "GNQ",
        "timezone": "Africa\/Malabo",
        "un_adm0": "",
        "un_fid": "0",
        "un_lat": "0.00000000000",
        "un_long": "0.00000000000",
        "wdid_score": "4",
        "wikidataid": "Q985548",
        "wof_id": "890451635",
        "worldcity": "0.00000000000"
    },
    "malabo": {
        "adm0_a3": "GNQ",
        "adm0cap": "1.00000000000",
        "adm0name": "Equatorial Guinea",
        "adm1name": "Bioko Norte",
        "admin1_cod": "4.00000000000",
        "capalt": "****",
        "capin": "",
        "cca2": "GQ",
        "cca3": "GNQ",
        "changed": "4.00000000000",
        "checkme": "0",
        "cityalt": "",
        "compare": "0",
        "data_sources": [
            "natural"
        ],
        "diffascii": "0",
        "diffnote": "Location adjusted.",
        "elevation": "0.00000000000",
        "feature_cl": "P",
        "feature_co": "PPLC",
        "featurecla": "Admin-0 capital",
        "geonameid": "2309527.00000000000",
        "geonamesno": "GeoNames match general.",
        "gn_ascii": "Malabo",
        "gn_pop": "155963",
        "gtopo30": "111.00000000000",
        "iso_a2": "GQ",
        "iso_a3": "GNQ",
        "label": "",
        "labelrank": "8",
        "latitude": "3.75001527803",
        "longitude": "8.78327754582",
        "ls_match": "1",
        "ls_name": "Malabo",
        "max_areakm": "1.00000000000",
        "max_areami": "0.00000000000",
        "max_bbxmax": "8.66666667000",
        "max_bbxmin": "8.65833333000",
        "max_bbymax": "3.35833333000",
        "max_bbymin": "3.35000000000",
        "max_natsca": "100",
        "max_perkm": "4.00000000000",
        "max_permi": "2.00000000000",
        "max_pop10": "314",
        "max_pop20": "314",
        "max_pop50": "314",
        "max_pop300": "314",
        "max_pop310": "0",
        "mean_bbxc": "8.66250000000",
        "mean_bbyc": "3.35416667000",
        "megacity": "0",
        "meganame": "",
        "min_areakm": "1",
        "min_areami": "0.00000000000",
        "min_bbxmax": "8.66666667000",
        "min_bbxmin": "8.65833333000",
        "min_bbymax": "3.35833333000",
        "min_bbymin": "3.35000000000",
        "min_perkm": "4.00000000000",
        "min_permi": "2.00000000000",
        "min_zoom": "5.0",
        "name": "Malabo",
        "name_ar": "",
        "name_bn": "",
        "name_de": "Malabo",
        "name_el": "",
        "name_en": "Malabo",
        "name_es": "Malabo",
        "name_fr": "Malabo",
        "name_hi": "",
        "name_hu": "",
        "name_id": "",
        "name_it": "",
        "name_ja": "",
        "name_ko": "",
        "name_nl": "",
        "name_pl": "",
        "name_pt": "Malabo",
        "name_ru": "\u00d0\u009c\u00d0\u00b0\u00d0\u00bb\u00d0\u00b0\u00d0\u00b1\u00d0\u00be",
        "name_sv": "",
        "name_tr": "",
        "name_vi": "",
        "name_zh": "\u00e9\u00a6\u00ac\u00e6\u008b\u0089\u00e5\u008d\u009a",
        "namealt": "",
        "nameascii": "Malabo",
        "namediff": "0",
        "namepar": "",
        "natscale": "110",
        "ne_id": "1159150867",
        "note": "",
        "pop1950": "0.00000000000",
        "pop1955": "0.00000000000",
        "pop1960": "0.00000000000",
        "pop1965": "0.00000000000",
        "pop1970": "0.00000000000",
        "pop1975": "0.00000000000",
        "pop1980": "0.00000000000",
        "pop1985": "0.00000000000",
        "pop1990": "0.00000000000",
        "pop1995": "0.00000000000",
        "pop2000": "0.00000000000",
        "pop2005": "0.00000000000",
        "pop2010": "0.00000000000",
        "pop2015": "0.00000000000",
        "pop2020": "0.00000000000",
        "pop2025": "0.00000000000",
        "pop2050": "0.00000000000",
        "pop_max": "155963",
        "pop_min": "155963",
        "pop_other": "0",
        "rank_max": "9",
        "rank_min": "9",
        "record_type": "city",
        "scalerank": "3",
        "sov0name": "Equatorial Guinea",
        "sov_a3": "GNQ",
        "timezone": "Africa\/Malabo",
        "un_adm0": "",
        "un_fid": "0",
        "un_lat": "0.00000000000",
        "un_long": "0.00000000000",
        "wdid_score": "4",
        "wikidataid": "Q3818",
        "wof_id": "421178347",
        "worldcity": "0.00000000000"
    },
    "mongomo": {
        "adm0_a3": "GNQ",
        "adm0cap": "0.00000000000",
        "adm0name": "Equatorial Guinea",
        "adm1name": "Wele-Nz\u00c3\u00a1s",
        "admin1_cod": "9.00000000000",
        "capalt": "****",
        "capin": "",
        "cca2": "GQ",
        "cca3": "GNQ",
        "changed": "0.00000000000",
        "checkme": "0",
        "cityalt": "",
        "compare": "0",
        "data_sources": [
            "natural"
        ],
        "diffascii": "0",
        "diffnote": "",
        "elevation": "0.00000000000",
        "feature_cl": "P",
        "feature_co": "PPLA",
        "featurecla": "Admin-1 capital",
        "geonameid": "2307795.00000000000",
        "geonamesno": "GeoNames match general.",
        "gn_ascii": "Mongomo",
        "gn_pop": "6393",
        "gtopo30": "544.00000000000",
        "iso_a2": "GQ",
        "iso_a3": "GNQ",
        "label": "",
        "labelrank": "8",
        "latitude": "1.63368450816",
        "longitude": "11.31655960960",
        "ls_match": "1",
        "ls_name": "Mongomo",
        "max_areakm": "5.00000000000",
        "max_areami": "2.00000000000",
        "max_bbxmax": "11.32500000000",
        "max_bbxmin": "11.30000000000",
        "max_bbymax": "1.64166667000",
        "max_bbymin": "1.61666667000",
        "max_natsca": "20",
        "max_perkm": "11.00000000000",
        "max_permi": "7.00000000000",
        "max_pop10": "6560",
        "max_pop20": "6560",
        "max_pop50": "0",
        "max_pop300": "0",
        "max_pop310": "0",
        "mean_bbxc": "11.31250000000",
        "mean_bbyc": "1.62777778000",
        "megacity": "0",
        "meganame": "",
        "min_areakm": "5",
        "min_areami": "2.00000000000",
        "min_bbxmax": "11.32500000000",
        "min_bbxmin": "11.30000000000",
        "min_bbymax": "1.64166667000",
        "min_bbymin": "1.61666667000",
        "min_perkm": "11.00000000000",
        "min_permi": "7.00000000000",
        "min_zoom": "6.7",
        "name": "Mongomo",
        "name_ar": "",
        "name_bn": "",
        "name_de": "Mongomo",
        "name_el": "",
        "name_en": "Mongomo",
        "name_es": "Mongomo",
        "name_fr": "Mongomo",
        "name_hi": "",
        "name_hu": "",
        "name_id": "",
        "name_it": "",
        "name_ja": "",
        "name_ko": "",
        "name_nl": "",
        "name_pl": "",
        "name_pt": "Mongomo",
        "name_ru": "\u00d0\u009c\u00d0\u00be\u00d0\u00bd\u00d0\u00b3\u00d0\u00be\u00d0\u00bc\u00d0\u00be",
        "name_sv": "",
        "name_tr": "",
        "name_vi": "",
        "name_zh": "\u00e8\u0092\u0099\u00e6\u0088\u0088\u00e8\u008e\u00ab",
        "namealt": "",
        "nameascii": "Mongomo",
        "namediff": "0",
        "namepar": "",
        "natscale": "20",
        "ne_id": "1159140323",
        "note": "",
        "pop1950": "0.00000000000",
        "pop1955": "0.00000000000",
        "pop1960": "0.00000000000",
        "pop1965": "0.00000000000",
        "pop1970": "0.00000000000",
        "pop1975": "0.00000000000",
        "pop1980": "0.00000000000",
        "pop1985": "0.00000000000",
        "pop1990": "0.00000000000",
        "pop1995": "0.00000000000",
        "pop2000": "0.00000000000",
        "pop2005": "0.00000000000",
        "pop2010": "0.00000000000",
        "pop2015": "0.00000000000",
        "pop2020": "0.00000000000",
        "pop2025": "0.00000000000",
        "pop2050": "0.00000000000",
        "pop_max": "6560",
        "pop_min": "6393",
        "pop_other": "6560",
        "rank_max": "5",
        "rank_min": "5",
        "record_type": "city",
        "scalerank": "7",
        "sov0name": "Equatorial Guinea",
        "sov_a3": "GNQ",
        "timezone": "Africa\/Malabo",
        "un_adm0": "",
        "un_fid": "0",
        "un_lat": "0.00000000000",
        "un_long": "0.00000000000",
        "wdid_score": "4",
        "wikidataid": "Q526539",
        "wof_id": "421168967",
        "worldcity": "0.00000000000"
    }
}