{
    "saint_george's": {
        "adm0_a3": "GRD",
        "adm0cap": "1.00000000000",
        "adm0name": "Grenada",
        "adm1name": "",
        "admin1_cod": "3.00000000000",
        "capalt": "****",
        "capin": "",
        "cca2": "GD",
        "cca3": "GRD",
        "changed": "4.00000000000",
        "checkme": "5",
        "cityalt": "",
        "compare": "0",
        "data_sources": [
            "natural"
        ],
        "diffascii": "0",
        "diffnote": "Changed scale rank.",
        "elevation": "0.00000000000",
        "feature_cl": "P",
        "feature_co": "PPLC",
        "featurecla": "Admin-0 capital",
        "geonameid": "3579925.00000000000",
        "geonamesno": "GeoNames match general.",
        "gn_ascii": "Saint George's",
        "gn_pop": "7500",
        "gtopo30": "26.00000000000",
        "iso_a2": "GD",
        "iso_a3": "GRD",
        "label": "",
        "labelrank": "0",
        "latitude": "12.05263340170",
        "longitude": "-61.74164322610",
        "ls_match": "1",
        "ls_name": "Saint Georgee\u00db\u00aas",
        "max_areakm": "10.00000000000",
        "max_areami": "4.00000000000",
        "max_bbxmax": "-61.72500000000",
        "max_bbxmin": "-61.75833333000",
        "max_bbymax": "12.06666667000",
        "max_bbymin": "12.02500000000",
        "max_natsca": "100",
        "max_perkm": "18.00000000000",
        "max_permi": "11.00000000000",
        "max_pop10": "27343",
        "max_pop20": "27343",
        "max_pop50": "27343",
        "max_pop300": "27343",
        "max_pop310": "0",
        "mean_bbxc": "-61.74583333000",
        "mean_bbyc": "12.04652778000",
        "megacity": "0",
        "meganame": "",
        "min_areakm": "10",
        "min_areami": "4.00000000000",
        "min_bbxmax": "-61.72500000000",
        "min_bbxmin": "-61.75833333000",
        "min_bbymax": "12.06666667000",
        "min_bbymin": "12.02500000000",
        "min_perkm": "18.00000000000",
        "min_permi": "11.00000000000",
        "min_zoom": "5.1",
        "name": "Saint George's",
        "name_ar": "",
        "name_bn": "",
        "name_de": "St. George\u00e2\u0080\u0099s",
        "name_el": "",
        "name_en": "St. George's",
        "name_es": "Saint George",
        "name_fr": "Saint-Georges",
        "name_hi": "",
        "name_hu": "",
        "name_id": "",
        "name_it": "",
        "name_ja": "",
        "name_ko": "",
        "name_nl": "",
        "name_pl": "",
        "name_pt": "Saint George's",
        "name_ru": "\u00d0\u00a1\u00d0\u00b5\u00d0\u00bd\u00d1\u0082-\u00d0\u0094\u00d0\u00b6\u00d0\u00be\u00d1\u0080\u00d0\u00b4\u00d0\u00b6\u00d0\u00b5\u00d1\u0081",
        "name_sv": "",
        "name_tr": "",
        "name_vi": "",
        "name_zh": "\u00e5\u009c\u00a3\u00e4\u00b9\u0094\u00e6\u00b2\u00bb",
        "namealt": "",
        "nameascii": "Saint George's",
        "namediff": "0",
        "namepar": "",
        "natscale": "50",
        "ne_id": "1159150447",
        "note": "",
        "pop1950": "0.00000000000",
        "pop1955": "0.00000000000",
        "pop1960": "0.00000000000",
        "pop1965": "0.00000000000",
        "pop1970": "0.00000000000",
        "pop1975": "0.00000000000",
        "pop1980": "0.00000000000",
        "pop1985": "0.00000000000",
        "pop1990": "0.00000000000",
        "pop1995": "0.00000000000",
        "pop2000": "0.00000000000",
        "pop2005": "0.00000000000",
        "pop2010": "0.00000000000",
        "pop2015": "0.00000000000",
        "pop2020": "0.00000000000",
        "pop2025": "0.00000000000",
        "pop2050": "0.00000000000",
        "pop_max": "33734",
        "pop_min": "27343",
        "pop_other": "27343",
        "rank_max": "7",
        "rank_min": "7",
        "record_type": "city",
        "scalerank": "4",
        "sov0name": "Grenada",
        "sov_a3": "GRD",
        "timezone": "America\/Grenada",
        "un_adm0": "",
        "un_fid": "0",
        "un_lat": "0.00000000000",
        "un_long": "0.00000000000",
        "wdid_score": "4",
        "wikidataid": "Q41547",
        "wof_id": "890451719",
        "worldcity": "0.00000000000"
    }
}