{
    "battambang": {
        "adm0_a3": "KHM",
        "adm0cap": "0.00000000000",
        "adm0name": "Cambodia",
        "adm1name": "Batd\u00c3\u00a2mb\u00c3\u00a2ng",
        "admin1_cod": "1.00000000000",
        "capalt": "****",
        "capin": "",
        "cca2": "KH",
        "cca3": "KHM",
        "changed": "0.00000000000",
        "checkme": "0",
        "cityalt": "",
        "compare": "0",
        "data_sources": [
            "natural"
        ],
        "diffascii": "0",
        "diffnote": "",
        "elevation": "0.00000000000",
        "feature_cl": "P",
        "feature_co": "PPL",
        "featurecla": "Admin-1 capital",
        "geonameid": "1831797.00000000000",
        "geonamesno": "GeoNames spatial join with similar names only.",
        "gn_ascii": "Batdambang",
        "gn_pop": "150444",
        "gtopo30": "40.00000000000",
        "iso_a2": "KH",
        "iso_a3": "KHM",
        "label": "",
        "labelrank": "8",
        "latitude": "13.10001304010",
        "longitude": "103.20004675200",
        "ls_match": "1",
        "ls_name": "Battambang",
        "max_areakm": "58.00000000000",
        "max_areami": "23.00000000000",
        "max_bbxmax": "103.25000000000",
        "max_bbxmin": "103.16666667000",
        "max_bbymax": "13.17500000000",
        "max_bbymin": "13.04166667000",
        "max_natsca": "50",
        "max_perkm": "75.00000000000",
        "max_permi": "47.00000000000",
        "max_pop10": "154773",
        "max_pop20": "154773",
        "max_pop50": "154773",
        "max_pop300": "0",
        "max_pop310": "0",
        "mean_bbxc": "103.20976190000",
        "mean_bbyc": "13.10773810000",
        "megacity": "0",
        "meganame": "",
        "min_areakm": "58",
        "min_areami": "23.00000000000",
        "min_bbxmax": "103.25000000000",
        "min_bbxmin": "103.16666667000",
        "min_bbymax": "13.17500000000",
        "min_bbymin": "13.04166667000",
        "min_perkm": "75.00000000000",
        "min_permi": "47.00000000000",
        "min_zoom": "5.6",
        "name": "Battambang",
        "name_ar": "",
        "name_bn": "",
        "name_de": "Battambang",
        "name_el": "",
        "name_en": "Battambang",
        "name_es": "Ciudad de Battambang",
        "name_fr": "Battambang",
        "name_hi": "",
        "name_hu": "",
        "name_id": "",
        "name_it": "",
        "name_ja": "",
        "name_ko": "",
        "name_nl": "",
        "name_pl": "",
        "name_pt": "Battambang",
        "name_ru": "\u00d0\u0091\u00d0\u00b0\u00d1\u0082\u00d1\u0082\u00d0\u00b0\u00d0\u00bc\u00d0\u00b1\u00d0\u00b0\u00d0\u00bd\u00d0\u00b3",
        "name_sv": "",
        "name_tr": "",
        "name_vi": "",
        "name_zh": "\u00e9\u00a9\u00ac\u00e5\u00be\u00b7\u00e6\u009c\u009b",
        "namealt": "Batdambang",
        "nameascii": "Battambang",
        "namediff": "0",
        "namepar": "",
        "natscale": "50",
        "ne_id": "1159150323",
        "note": "",
        "pop1950": "0.00000000000",
        "pop1955": "0.00000000000",
        "pop1960": "0.00000000000",
        "pop1965": "0.00000000000",
        "pop1970": "0.00000000000",
        "pop1975": "0.00000000000",
        "pop1980": "0.00000000000",
        "pop1985": "0.00000000000",
        "pop1990": "0.00000000000",
        "pop1995": "0.00000000000",
        "pop2000": "0.00000000000",
        "pop2005": "0.00000000000",
        "pop2010": "0.00000000000",
        "pop2015": "0.00000000000",
        "pop2020": "0.00000000000",
        "pop2025": "0.00000000000",
        "pop2050": "0.00000000000",
        "pop_max": "154773",
        "pop_min": "150444",
        "pop_other": "166935",
        "rank_max": "9",
        "rank_min": "9",
        "record_type": "city",
        "scalerank": "4",
        "sov0name": "Cambodia",
        "sov_a3": "KHM",
        "timezone": "Asia\/Phnom_Penh",
        "un_adm0": "",
        "un_fid": "0",
        "un_lat": "0.00000000000",
        "un_long": "0.00000000000",
        "wdid_score": "4",
        "wikidataid": "Q748336",
        "wof_id": "890412899",
        "worldcity": "0.00000000000"
    },
    "kampong_cham": {
        "adm0_a3": "KHM",
        "adm0cap": "0.00000000000",
        "adm0name": "Cambodia",
        "adm1name": "K\u00c3\u00a2mp\u00c3\u00b3ng Cham",
        "admin1_cod": "2.00000000000",
        "capalt": "****",
        "capin": "",
        "cca2": "KH",
        "cca3": "KHM",
        "changed": "0.00000000000",
        "checkme": "0",
        "cityalt": "",
        "compare": "0",
        "data_sources": [
            "natural"
        ],
        "diffascii": "0",
        "diffnote": "",
        "elevation": "0.00000000000",
        "feature_cl": "P",
        "feature_co": "PPL",
        "featurecla": "Admin-1 capital",
        "geonameid": "1831173.00000000000",
        "geonamesno": "GeoNames match with ascii name + lat + long whole numbers.",
        "gn_ascii": "Kampong Cham",
        "gn_pop": "61750",
        "gtopo30": "21.00000000000",
        "iso_a2": "KH",
        "iso_a3": "KHM",
        "label": "",
        "labelrank": "8",
        "latitude": "12.00044191380",
        "longitude": "105.45003861400",
        "ls_match": "1",
        "ls_name": "Kampong Cham",
        "max_areakm": "35.00000000000",
        "max_areami": "14.00000000000",
        "max_bbxmax": "105.48333333000",
        "max_bbxmin": "105.41666667000",
        "max_bbymax": "12.09166667000",
        "max_bbymin": "11.96666667000",
        "max_natsca": "20",
        "max_perkm": "68.00000000000",
        "max_permi": "42.00000000000",
        "max_pop10": "83233",
        "max_pop20": "83233",
        "max_pop50": "0",
        "max_pop300": "0",
        "max_pop310": "0",
        "mean_bbxc": "105.44543651000",
        "mean_bbyc": "12.02539683000",
        "megacity": "0",
        "meganame": "",
        "min_areakm": "35",
        "min_areami": "14.00000000000",
        "min_bbxmax": "105.48333333000",
        "min_bbxmin": "105.41666667000",
        "min_bbymax": "12.09166667000",
        "min_bbymin": "11.96666667000",
        "min_perkm": "68.00000000000",
        "min_permi": "42.00000000000",
        "min_zoom": "8.0",
        "name": "Kampong Cham",
        "name_ar": "",
        "name_bn": "",
        "name_de": "Kampong Cham",
        "name_el": "",
        "name_en": "Kampong Cham",
        "name_es": "Kompung Cham",
        "name_fr": "Kampong Cham",
        "name_hi": "",
        "name_hu": "",
        "name_id": "",
        "name_it": "",
        "name_ja": "",
        "name_ko": "",
        "name_nl": "",
        "name_pl": "",
        "name_pt": "Kampong Cham",
        "name_ru": "\u00d0\u009a\u00d0\u00b0\u00d0\u00bc\u00d0\u00bf\u00d0\u00be\u00d0\u00bd\u00d0\u00b3\u00d1\u0082\u00d1\u008f\u00d0\u00bc",
        "name_sv": "",
        "name_tr": "",
        "name_vi": "",
        "name_zh": "\u00e7\u00a3\u0085\u00e6\u00b9\u009b",
        "namealt": "",
        "nameascii": "Kampong Cham",
        "namediff": "0",
        "namepar": "",
        "natscale": "20",
        "ne_id": "1159144655",
        "note": "",
        "pop1950": "0.00000000000",
        "pop1955": "0.00000000000",
        "pop1960": "0.00000000000",
        "pop1965": "0.00000000000",
        "pop1970": "0.00000000000",
        "pop1975": "0.00000000000",
        "pop1980": "0.00000000000",
        "pop1985": "0.00000000000",
        "pop1990": "0.00000000000",
        "pop1995": "0.00000000000",
        "pop2000": "0.00000000000",
        "pop2005": "0.00000000000",
        "pop2010": "0.00000000000",
        "pop2015": "0.00000000000",
        "pop2020": "0.00000000000",
        "pop2025": "0.00000000000",
        "pop2050": "0.00000000000",
        "pop_max": "83233",
        "pop_min": "61750",
        "pop_other": "83233",
        "rank_max": "8",
        "rank_min": "8",
        "record_type": "city",
        "scalerank": "7",
        "sov0name": "Cambodia",
        "sov_a3": "KHM",
        "timezone": "Asia\/Phnom_Penh",
        "un_adm0": "",
        "un_fid": "0",
        "un_lat": "0.00000000000",
        "un_long": "0.00000000000",
        "wdid_score": "4",
        "wikidataid": "Q855724",
        "wof_id": "1141908141",
        "worldcity": "0.00000000000"
    },
    "kampong_spoe": {
        "adm0_a3": "KHM",
        "adm0cap": "0.00000000000",
        "adm0name": "Cambodia",
        "adm1name": "K\u00c3\u00a2mp\u00c3\u00b3ng Sp\u00c5\u0093",
        "admin1_cod": "4.00000000000",
        "capalt": "****",
        "capin": "",
        "cca2": "KH",
        "cca3": "KHM",
        "changed": "4.00000000000",
        "checkme": "0",
        "cityalt": "",
        "compare": "0",
        "data_sources": [
            "natural"
        ],
        "diffascii": "0",
        "diffnote": "Added missing admin-1 capital. Population from GeoNames.",
        "elevation": "0.00000000000",
        "feature_cl": "P",
        "feature_co": "PPL",
        "featurecla": "Admin-1 capital",
        "geonameid": "1831133.00000000000",
        "geonamesno": "GeoNames match with ascii name + lat + long whole numbers.",
        "gn_ascii": "Kampong Spoe",
        "gn_pop": "33231",
        "gtopo30": "38.00000000000",
        "iso_a2": "KH",
        "iso_a3": "KHM",
        "label": "",
        "labelrank": "8",
        "latitude": "11.45199610400",
        "longitude": "104.51899858300",
        "ls_match": "0",
        "ls_name": "",
        "max_areakm": "0.00000000000",
        "max_areami": "0.00000000000",
        "max_bbxmax": "0.00000000000",
        "max_bbxmin": "0.00000000000",
        "max_bbymax": "0.00000000000",
        "max_bbymin": "0.00000000000",
        "max_natsca": "0",
        "max_perkm": "0.00000000000",
        "max_permi": "0.00000000000",
        "max_pop10": "0",
        "max_pop20": "0",
        "max_pop50": "0",
        "max_pop300": "0",
        "max_pop310": "0",
        "mean_bbxc": "0.00000000000",
        "mean_bbyc": "0.00000000000",
        "megacity": "0",
        "meganame": "",
        "min_areakm": "0",
        "min_areami": "0.00000000000",
        "min_bbxmax": "0.00000000000",
        "min_bbxmin": "0.00000000000",
        "min_bbymax": "0.00000000000",
        "min_bbymin": "0.00000000000",
        "min_perkm": "0.00000000000",
        "min_permi": "0.00000000000",
        "min_zoom": "9.0",
        "name": "Kampong Spoe",
        "name_ar": "",
        "name_bn": "",
        "name_de": "Kampong Speu",
        "name_el": "",
        "name_en": "Kampong Speu",
        "name_es": "",
        "name_fr": "Kampong Spoe",
        "name_hi": "",
        "name_hu": "",
        "name_id": "",
        "name_it": "",
        "name_ja": "",
        "name_ko": "",
        "name_nl": "",
        "name_pl": "",
        "name_pt": "Kampong Speu",
        "name_ru": "\u00d0\u009a\u00d0\u00b0\u00d0\u00bc\u00d0\u00bf\u00d0\u00be\u00d0\u00bd\u00d0\u00b3\u00d1\u0081\u00d0\u00bf\u00d1\u008b",
        "name_sv": "",
        "name_tr": "",
        "name_vi": "",
        "name_zh": "\u00e7\u00a3\u0085\u00e5\u00a3\u00ab\u00e5\u008d\u0091",
        "namealt": "",
        "nameascii": "Kampong Spoe",
        "namediff": "1",
        "namepar": "",
        "natscale": "1",
        "ne_id": "1159120795",
        "note": "",
        "pop1950": "0.00000000000",
        "pop1955": "0.00000000000",
        "pop1960": "0.00000000000",
        "pop1965": "0.00000000000",
        "pop1970": "0.00000000000",
        "pop1975": "0.00000000000",
        "pop1980": "0.00000000000",
        "pop1985": "0.00000000000",
        "pop1990": "0.00000000000",
        "pop1995": "0.00000000000",
        "pop2000": "0.00000000000",
        "pop2005": "0.00000000000",
        "pop2010": "0.00000000000",
        "pop2015": "0.00000000000",
        "pop2020": "0.00000000000",
        "pop2025": "0.00000000000",
        "pop2050": "0.00000000000",
        "pop_max": "33231",
        "pop_min": "33231",
        "pop_other": "0",
        "rank_max": "7",
        "rank_min": "7",
        "record_type": "city",
        "scalerank": "10",
        "sov0name": "Cambodia",
        "sov_a3": "KHM",
        "timezone": "Asia\/Phnom_Penh",
        "un_adm0": "",
        "un_fid": "0",
        "un_lat": "0.00000000000",
        "un_long": "0.00000000000",
        "wdid_score": "4",
        "wikidataid": "Q2344811",
        "wof_id": "890435371",
        "worldcity": "0.00000000000"
    },
    "kampong_thum": {
        "adm0_a3": "KHM",
        "adm0cap": "0.00000000000",
        "adm0name": "Cambodia",
        "adm1name": "K\u00c3\u00a2mp\u00c3\u00b3ng Thum",
        "admin1_cod": "5.00000000000",
        "capalt": "****",
        "capin": "",
        "cca2": "KH",
        "cca3": "KHM",
        "changed": "4.00000000000",
        "checkme": "0",
        "cityalt": "",
        "compare": "0",
        "data_sources": [
            "natural"
        ],
        "diffascii": "0",
        "diffnote": "Added missing admin-1 capital. Population from GeoNames.",
        "elevation": "0.00000000000",
        "feature_cl": "P",
        "feature_co": "PPL",
        "featurecla": "Admin-1 capital",
        "geonameid": "1831125.00000000000",
        "geonamesno": "Geonames ascii name + lat.d + long.d matching.",
        "gn_ascii": "Kampong Thum",
        "gn_pop": "19951",
        "gtopo30": "11.00000000000",
        "iso_a2": "KH",
        "iso_a3": "KHM",
        "label": "",
        "labelrank": "8",
        "latitude": "12.71199613190",
        "longitude": "104.88899770500",
        "ls_match": "0",
        "ls_name": "",
        "max_areakm": "0.00000000000",
        "max_areami": "0.00000000000",
        "max_bbxmax": "0.00000000000",
        "max_bbxmin": "0.00000000000",
        "max_bbymax": "0.00000000000",
        "max_bbymin": "0.00000000000",
        "max_natsca": "0",
        "max_perkm": "0.00000000000",
        "max_permi": "0.00000000000",
        "max_pop10": "0",
        "max_pop20": "0",
        "max_pop50": "0",
        "max_pop300": "0",
        "max_pop310": "0",
        "mean_bbxc": "0.00000000000",
        "mean_bbyc": "0.00000000000",
        "megacity": "0",
        "meganame": "",
        "min_areakm": "0",
        "min_areami": "0.00000000000",
        "min_bbxmax": "0.00000000000",
        "min_bbxmin": "0.00000000000",
        "min_bbymax": "0.00000000000",
        "min_bbymin": "0.00000000000",
        "min_perkm": "0.00000000000",
        "min_permi": "0.00000000000",
        "min_zoom": "8.0",
        "name": "Kampong Thum",
        "name_ar": "",
        "name_bn": "",
        "name_de": "Kampong Thom",
        "name_el": "",
        "name_en": "Kampong Thom",
        "name_es": "Kompung Thom",
        "name_fr": "Kampong Thum",
        "name_hi": "",
        "name_hu": "",
        "name_id": "",
        "name_it": "",
        "name_ja": "",
        "name_ko": "",
        "name_nl": "",
        "name_pl": "",
        "name_pt": "Kampong Thom",
        "name_ru": "\u00d0\u009a\u00d0\u00b0\u00d0\u00bc\u00d0\u00bf\u00d0\u00be\u00d0\u00bd\u00d0\u00b3\u00d1\u0082\u00d1\u0085\u00d0\u00be\u00d0\u00bc",
        "name_sv": "",
        "name_tr": "",
        "name_vi": "",
        "name_zh": "\u00e7\u00a3\u0085\u00e5\u0090\u008c",
        "namealt": "",
        "nameascii": "Kampong Thum",
        "namediff": "1",
        "namepar": "",
        "natscale": "1",
        "ne_id": "1159120815",
        "note": "",
        "pop1950": "0.00000000000",
        "pop1955": "0.00000000000",
        "pop1960": "0.00000000000",
        "pop1965": "0.00000000000",
        "pop1970": "0.00000000000",
        "pop1975": "0.00000000000",
        "pop1980": "0.00000000000",
        "pop1985": "0.00000000000",
        "pop1990": "0.00000000000",
        "pop1995": "0.00000000000",
        "pop2000": "0.00000000000",
        "pop2005": "0.00000000000",
        "pop2010": "0.00000000000",
        "pop2015": "0.00000000000",
        "pop2020": "0.00000000000",
        "pop2025": "0.00000000000",
        "pop2050": "0.00000000000",
        "pop_max": "19951",
        "pop_min": "19951",
        "pop_other": "0",
        "rank_max": "6",
        "rank_min": "6",
        "record_type": "city",
        "scalerank": "10",
        "sov0name": "Cambodia",
        "sov_a3": "KHM",
        "timezone": "Asia\/Phnom_Penh",
        "un_adm0": "",
        "un_fid": "0",
        "un_lat": "0.00000000000",
        "un_long": "0.00000000000",
        "wdid_score": "4",
        "wikidataid": "Q976223",
        "wof_id": "890435369",
        "worldcity": "0.00000000000"
    },
    "kampot": {
        "adm0_a3": "KHM",
        "adm0cap": "0.00000000000",
        "adm0name": "Cambodia",
        "adm1name": "K\u00c3\u00a2mp\u00c3\u00b4t",
        "admin1_cod": "6.00000000000",
        "capalt": "****",
        "capin": "",
        "cca2": "KH",
        "cca3": "KHM",
        "changed": "0.00000000000",
        "checkme": "0",
        "cityalt": "",
        "compare": "0",
        "data_sources": [
            "natural"
        ],
        "diffascii": "0",
        "diffnote": "",
        "elevation": "0.00000000000",
        "feature_cl": "P",
        "feature_co": "PPL",
        "featurecla": "Admin-1 capital",
        "geonameid": "1831112.00000000000",
        "geonamesno": "Geonames ascii name + lat.d + long.d matching.",
        "gn_ascii": "Kampot",
        "gn_pop": "22691",
        "gtopo30": "7.00000000000",
        "iso_a2": "KH",
        "iso_a3": "KHM",
        "label": "",
        "labelrank": "8",
        "latitude": "10.61708965960",
        "longitude": "104.18334590600",
        "ls_match": "1",
        "ls_name": "Kampot",
        "max_areakm": "29.00000000000",
        "max_areami": "11.00000000000",
        "max_bbxmax": "104.20833333000",
        "max_bbxmin": "104.15000000000",
        "max_bbymax": "10.65833333000",
        "max_bbymin": "10.57500000000",
        "max_natsca": "20",
        "max_perkm": "50.00000000000",
        "max_permi": "31.00000000000",
        "max_pop10": "50105",
        "max_pop20": "50105",
        "max_pop50": "0",
        "max_pop300": "0",
        "max_pop310": "0",
        "mean_bbxc": "104.17990196000",
        "mean_bbyc": "10.61495098000",
        "megacity": "0",
        "meganame": "",
        "min_areakm": "29",
        "min_areami": "11.00000000000",
        "min_bbxmax": "104.20833333000",
        "min_bbxmin": "104.15000000000",
        "min_bbymax": "10.65833333000",
        "min_bbymin": "10.57500000000",
        "min_perkm": "50.00000000000",
        "min_permi": "31.00000000000",
        "min_zoom": "6.7",
        "name": "Kampot",
        "name_ar": "",
        "name_bn": "",
        "name_de": "Kampot",
        "name_el": "",
        "name_en": "Kampot",
        "name_es": "Ciudad de Kompot",
        "name_fr": "Kampot",
        "name_hi": "",
        "name_hu": "",
        "name_id": "",
        "name_it": "",
        "name_ja": "",
        "name_ko": "",
        "name_nl": "",
        "name_pl": "",
        "name_pt": "Kampot",
        "name_ru": "\u00d0\u009a\u00d0\u00b0\u00d0\u00bc\u00d0\u00bf\u00d0\u00be\u00d1\u0082",
        "name_sv": "",
        "name_tr": "",
        "name_vi": "",
        "name_zh": "\u00e8\u00b4\u00a1\u00e5\u00b8\u0083",
        "namealt": "",
        "nameascii": "Kampot",
        "namediff": "0",
        "namepar": "",
        "natscale": "20",
        "ne_id": "1159144665",
        "note": "",
        "pop1950": "0.00000000000",
        "pop1955": "0.00000000000",
        "pop1960": "0.00000000000",
        "pop1965": "0.00000000000",
        "pop1970": "0.00000000000",
        "pop1975": "0.00000000000",
        "pop1980": "0.00000000000",
        "pop1985": "0.00000000000",
        "pop1990": "0.00000000000",
        "pop1995": "0.00000000000",
        "pop2000": "0.00000000000",
        "pop2005": "0.00000000000",
        "pop2010": "0.00000000000",
        "pop2015": "0.00000000000",
        "pop2020": "0.00000000000",
        "pop2025": "0.00000000000",
        "pop2050": "0.00000000000",
        "pop_max": "50105",
        "pop_min": "22691",
        "pop_other": "76154",
        "rank_max": "8",
        "rank_min": "7",
        "record_type": "city",
        "scalerank": "7",
        "sov0name": "Cambodia",
        "sov_a3": "KHM",
        "timezone": "Asia\/Phnom_Penh",
        "un_adm0": "",
        "un_fid": "0",
        "un_lat": "0.00000000000",
        "un_long": "0.00000000000",
        "wdid_score": "4",
        "wikidataid": "Q876549",
        "wof_id": "890440165",
        "worldcity": "0.00000000000"
    },
    "kompong_chhnang": {
        "adm0_a3": "KHM",
        "adm0cap": "0.00000000000",
        "adm0name": "Cambodia",
        "adm1name": "K\u00c3\u00a2mp\u00c3\u00b3ng Chhnang",
        "admin1_cod": "3.00000000000",
        "capalt": "****",
        "capin": "",
        "cca2": "KH",
        "cca3": "KHM",
        "changed": "4.00000000000",
        "checkme": "0",
        "cityalt": "",
        "compare": "0",
        "data_sources": [
            "natural"
        ],
        "diffascii": "0",
        "diffnote": "Changed scale rank.",
        "elevation": "0.00000000000",
        "feature_cl": "P",
        "feature_co": "PPL",
        "featurecla": "Admin-1 capital",
        "geonameid": "1831167.00000000000",
        "geonamesno": "GeoNames spatial join with similar names only.",
        "gn_ascii": "Kampong Chhnang",
        "gn_pop": "75244",
        "gtopo30": "17.00000000000",
        "iso_a2": "KH",
        "iso_a3": "KHM",
        "label": "",
        "labelrank": "8",
        "latitude": "12.25047833140",
        "longitude": "104.66662390000",
        "ls_match": "1",
        "ls_name": "Kompong Chhnang",
        "max_areakm": "24.00000000000",
        "max_areami": "9.00000000000",
        "max_bbxmax": "104.68333333000",
        "max_bbxmin": "104.63333333000",
        "max_bbymax": "12.30000000000",
        "max_bbymin": "12.17500000000",
        "max_natsca": "10",
        "max_perkm": "46.00000000000",
        "max_permi": "28.00000000000",
        "max_pop10": "56390",
        "max_pop20": "0",
        "max_pop50": "0",
        "max_pop300": "0",
        "max_pop310": "0",
        "mean_bbxc": "104.66192529000",
        "mean_bbyc": "12.23951149000",
        "megacity": "0",
        "meganame": "",
        "min_areakm": "24",
        "min_areami": "9.00000000000",
        "min_bbxmax": "104.68333333000",
        "min_bbxmin": "104.63333333000",
        "min_bbymax": "12.30000000000",
        "min_bbymin": "12.17500000000",
        "min_perkm": "46.00000000000",
        "min_permi": "28.00000000000",
        "min_zoom": "6.7",
        "name": "Kompong Chhnang",
        "name_ar": "",
        "name_bn": "",
        "name_de": "Kampong Chhnang",
        "name_el": "",
        "name_en": "Kampong Chhnang",
        "name_es": "Kompung Chinang",
        "name_fr": "Kampong Chhnang",
        "name_hi": "",
        "name_hu": "",
        "name_id": "",
        "name_it": "",
        "name_ja": "",
        "name_ko": "",
        "name_nl": "",
        "name_pl": "",
        "name_pt": "Kampong Chhnang",
        "name_ru": "\u00d0\u009a\u00d0\u00b0\u00d0\u00bc\u00d0\u00bf\u00d0\u00be\u00d0\u00bd\u00d0\u00b3\u00d1\u0087\u00d0\u00bd\u00d0\u00b0\u00d0\u00bd\u00d0\u00b3",
        "name_sv": "",
        "name_tr": "",
        "name_vi": "",
        "name_zh": "\u00e7\u00a3\u0085\u00e6\u00b8\u0085\u00e6\u0089\u00ac",
        "namealt": "Kampong Chnang",
        "nameascii": "Kompong Chhnang",
        "namediff": "0",
        "namepar": "",
        "natscale": "20",
        "ne_id": "1159144661",
        "note": "",
        "pop1950": "0.00000000000",
        "pop1955": "0.00000000000",
        "pop1960": "0.00000000000",
        "pop1965": "0.00000000000",
        "pop1970": "0.00000000000",
        "pop1975": "0.00000000000",
        "pop1980": "0.00000000000",
        "pop1985": "0.00000000000",
        "pop1990": "0.00000000000",
        "pop1995": "0.00000000000",
        "pop2000": "0.00000000000",
        "pop2005": "0.00000000000",
        "pop2010": "0.00000000000",
        "pop2015": "0.00000000000",
        "pop2020": "0.00000000000",
        "pop2025": "0.00000000000",
        "pop2050": "0.00000000000",
        "pop_max": "75244",
        "pop_min": "56390",
        "pop_other": "56555",
        "rank_max": "8",
        "rank_min": "8",
        "record_type": "city",
        "scalerank": "7",
        "sov0name": "Cambodia",
        "sov_a3": "KHM",
        "timezone": "Asia\/Phnom_Penh",
        "un_adm0": "",
        "un_fid": "0",
        "un_lat": "0.00000000000",
        "un_long": "0.00000000000",
        "wdid_score": "4",
        "wikidataid": "Q1048147",
        "wof_id": "1141908143",
        "worldcity": "0.00000000000"
    },
    "kracheh": {
        "adm0_a3": "KHM",
        "adm0cap": "0.00000000000",
        "adm0name": "Cambodia",
        "adm1name": "Kr\u00c3\u00a2ch\u00c3\u00a9h",
        "admin1_cod": "9.00000000000",
        "capalt": "****",
        "capin": "",
        "cca2": "KH",
        "cca3": "KHM",
        "changed": "4.00000000000",
        "checkme": "0",
        "cityalt": "",
        "compare": "0",
        "data_sources": [
            "natural"
        ],
        "diffascii": "0",
        "diffnote": "Added missing admin-1 capital. Population from GeoNames.",
        "elevation": "0.00000000000",
        "feature_cl": "P",
        "feature_co": "PPL",
        "featurecla": "Admin-1 capital",
        "geonameid": "1830564.00000000000",
        "geonamesno": "Geonames ascii name + lat.d + long.d matching.",
        "gn_ascii": "Kracheh",
        "gn_pop": "19975",
        "gtopo30": "18.00000000000",
        "iso_a2": "KH",
        "iso_a3": "KHM",
        "label": "",
        "labelrank": "8",
        "latitude": "12.46899612060",
        "longitude": "106.02399667200",
        "ls_match": "0",
        "ls_name": "",
        "max_areakm": "0.00000000000",
        "max_areami": "0.00000000000",
        "max_bbxmax": "0.00000000000",
        "max_bbxmin": "0.00000000000",
        "max_bbymax": "0.00000000000",
        "max_bbymin": "0.00000000000",
        "max_natsca": "0",
        "max_perkm": "0.00000000000",
        "max_permi": "0.00000000000",
        "max_pop10": "0",
        "max_pop20": "0",
        "max_pop50": "0",
        "max_pop300": "0",
        "max_pop310": "0",
        "mean_bbxc": "0.00000000000",
        "mean_bbyc": "0.00000000000",
        "megacity": "0",
        "meganame": "",
        "min_areakm": "0",
        "min_areami": "0.00000000000",
        "min_bbxmax": "0.00000000000",
        "min_bbxmin": "0.00000000000",
        "min_bbymax": "0.00000000000",
        "min_bbymin": "0.00000000000",
        "min_perkm": "0.00000000000",
        "min_permi": "0.00000000000",
        "min_zoom": "8.0",
        "name": "Kracheh",
        "name_ar": "",
        "name_bn": "",
        "name_de": "Kratie",
        "name_el": "",
        "name_en": "Krati\u00c3\u00a9",
        "name_es": "",
        "name_fr": "Kratie",
        "name_hi": "",
        "name_hu": "",
        "name_id": "",
        "name_it": "",
        "name_ja": "",
        "name_ko": "",
        "name_nl": "",
        "name_pl": "",
        "name_pt": "Krati\u00c3\u00a9",
        "name_ru": "\u00d0\u009a\u00d1\u0080\u00d0\u00b0\u00d1\u0082\u00d1\u008c\u00d1\u008d\u00d1\u0085",
        "name_sv": "",
        "name_tr": "",
        "name_vi": "",
        "name_zh": "\u00e6\u00a1\u0094\u00e4\u00ba\u0095",
        "namealt": "",
        "nameascii": "Kracheh",
        "namediff": "1",
        "namepar": "",
        "natscale": "1",
        "ne_id": "1159120879",
        "note": "",
        "pop1950": "0.00000000000",
        "pop1955": "0.00000000000",
        "pop1960": "0.00000000000",
        "pop1965": "0.00000000000",
        "pop1970": "0.00000000000",
        "pop1975": "0.00000000000",
        "pop1980": "0.00000000000",
        "pop1985": "0.00000000000",
        "pop1990": "0.00000000000",
        "pop1995": "0.00000000000",
        "pop2000": "0.00000000000",
        "pop2005": "0.00000000000",
        "pop2010": "0.00000000000",
        "pop2015": "0.00000000000",
        "pop2020": "0.00000000000",
        "pop2025": "0.00000000000",
        "pop2050": "0.00000000000",
        "pop_max": "19975",
        "pop_min": "19975",
        "pop_other": "0",
        "rank_max": "6",
        "rank_min": "6",
        "record_type": "city",
        "scalerank": "10",
        "sov0name": "Cambodia",
        "sov_a3": "KHM",
        "timezone": "Asia\/Phnom_Penh",
        "un_adm0": "",
        "un_fid": "0",
        "un_lat": "0.00000000000",
        "un_long": "0.00000000000",
        "wdid_score": "4",
        "wikidataid": "Q261892",
        "wof_id": "890437827",
        "worldcity": "0.00000000000"
    },
    "krong_koh_kong": {
        "adm0_a3": "KHM",
        "adm0cap": "0.00000000000",
        "adm0name": "Cambodia",
        "adm1name": "Ka\u00c3\u00b4h Kong",
        "admin1_cod": "8.00000000000",
        "capalt": "****",
        "capin": "",
        "cca2": "KH",
        "cca3": "KHM",
        "changed": "0.00000000000",
        "checkme": "0",
        "cityalt": "",
        "compare": "0",
        "data_sources": [
            "natural"
        ],
        "diffascii": "0",
        "diffnote": "",
        "elevation": "0.00000000000",
        "feature_cl": "P",
        "feature_co": "PPL",
        "featurecla": "Admin-1 capital",
        "geonameid": "1830468.00000000000",
        "geonamesno": "GeoNames spatial join with similar names only.",
        "gn_ascii": "Krong Kaoh Kong",
        "gn_pop": "33134",
        "gtopo30": "1.00000000000",
        "iso_a2": "KH",
        "iso_a3": "KHM",
        "label": "",
        "labelrank": "8",
        "latitude": "11.61753897310",
        "longitude": "102.98493294400",
        "ls_match": "1",
        "ls_name": "Krong Koh Kong",
        "max_areakm": "9.00000000000",
        "max_areami": "4.00000000000",
        "max_bbxmax": "103.01666667000",
        "max_bbxmin": "102.97500000000",
        "max_bbymax": "11.63333333000",
        "max_bbymin": "11.60000000000",
        "max_natsca": "20",
        "max_perkm": "18.00000000000",
        "max_permi": "11.00000000000",
        "max_pop10": "27436",
        "max_pop20": "27436",
        "max_pop50": "0",
        "max_pop300": "0",
        "max_pop310": "0",
        "mean_bbxc": "102.99431818000",
        "mean_bbyc": "11.61704545000",
        "megacity": "0",
        "meganame": "",
        "min_areakm": "9",
        "min_areami": "4.00000000000",
        "min_bbxmax": "103.01666667000",
        "min_bbxmin": "102.97500000000",
        "min_bbymax": "11.63333333000",
        "min_bbymin": "11.60000000000",
        "min_perkm": "18.00000000000",
        "min_permi": "11.00000000000",
        "min_zoom": "6.7",
        "name": "Krong Koh Kong",
        "name_ar": "",
        "name_bn": "",
        "name_de": "Koh Kong",
        "name_el": "",
        "name_en": "Koh Kong",
        "name_es": "Koh Kong",
        "name_fr": "Koh Kong",
        "name_hi": "",
        "name_hu": "",
        "name_id": "",
        "name_it": "",
        "name_ja": "",
        "name_ko": "",
        "name_nl": "",
        "name_pl": "",
        "name_pt": "Koh Kong",
        "name_ru": "\u00d0\u009a\u00d0\u00be\u00d1\u0085\u00d0\u00ba\u00d0\u00be\u00d0\u00bd\u00d0\u00b3",
        "name_sv": "",
        "name_tr": "",
        "name_vi": "",
        "name_zh": "",
        "namealt": "Krong Kaoh Kong",
        "nameascii": "Krong Koh Kong",
        "namediff": "0",
        "namepar": "",
        "natscale": "20",
        "ne_id": "1159144647",
        "note": "",
        "pop1950": "0.00000000000",
        "pop1955": "0.00000000000",
        "pop1960": "0.00000000000",
        "pop1965": "0.00000000000",
        "pop1970": "0.00000000000",
        "pop1975": "0.00000000000",
        "pop1980": "0.00000000000",
        "pop1985": "0.00000000000",
        "pop1990": "0.00000000000",
        "pop1995": "0.00000000000",
        "pop2000": "0.00000000000",
        "pop2005": "0.00000000000",
        "pop2010": "0.00000000000",
        "pop2015": "0.00000000000",
        "pop2020": "0.00000000000",
        "pop2025": "0.00000000000",
        "pop2050": "0.00000000000",
        "pop_max": "33134",
        "pop_min": "27436",
        "pop_other": "27601",
        "rank_max": "7",
        "rank_min": "7",
        "record_type": "city",
        "scalerank": "7",
        "sov0name": "Cambodia",
        "sov_a3": "KHM",
        "timezone": "Asia\/Phnom_Penh",
        "un_adm0": "",
        "un_fid": "0",
        "un_lat": "0.00000000000",
        "un_long": "0.00000000000",
        "wdid_score": "4",
        "wikidataid": "Q1375645",
        "wof_id": "1141908139",
        "worldcity": "0.00000000000"
    },
    "lumphat": {
        "adm0_a3": "KHM",
        "adm0cap": "0.00000000000",
        "adm0name": "Cambodia",
        "adm1name": "R\u00c3\u00b4t\u00c3\u00a2n\u00c3\u00b4kiri",
        "admin1_cod": "15.00000000000",
        "capalt": "****",
        "capin": "",
        "cca2": "KH",
        "cca3": "KHM",
        "changed": "4.00000000000",
        "checkme": "0",
        "cityalt": "",
        "compare": "0",
        "data_sources": [
            "natural"
        ],
        "diffascii": "0",
        "diffnote": "Added missing admin-1 capital. Population from GeoNames.",
        "elevation": "0.00000000000",
        "feature_cl": "P",
        "feature_co": "PPL",
        "featurecla": "Admin-1 capital",
        "geonameid": "1830377.00000000000",
        "geonamesno": "Geonames ascii name + lat.d + long.d matching.",
        "gn_ascii": "Lumphat",
        "gn_pop": "19205",
        "gtopo30": "113.00000000000",
        "iso_a2": "KH",
        "iso_a3": "KHM",
        "label": "Lumphat",
        "labelrank": "8",
        "latitude": "13.50700213650",
        "longitude": "106.98100257400",
        "ls_match": "0",
        "ls_name": "",
        "max_areakm": "0.00000000000",
        "max_areami": "0.00000000000",
        "max_bbxmax": "0.00000000000",
        "max_bbxmin": "0.00000000000",
        "max_bbymax": "0.00000000000",
        "max_bbymin": "0.00000000000",
        "max_natsca": "0",
        "max_perkm": "0.00000000000",
        "max_permi": "0.00000000000",
        "max_pop10": "0",
        "max_pop20": "0",
        "max_pop50": "0",
        "max_pop300": "0",
        "max_pop310": "0",
        "mean_bbxc": "0.00000000000",
        "mean_bbyc": "0.00000000000",
        "megacity": "0",
        "meganame": "",
        "min_areakm": "0",
        "min_areami": "0.00000000000",
        "min_bbxmax": "0.00000000000",
        "min_bbxmin": "0.00000000000",
        "min_bbymax": "0.00000000000",
        "min_bbymin": "0.00000000000",
        "min_perkm": "0.00000000000",
        "min_permi": "0.00000000000",
        "min_zoom": "8.0",
        "name": "Lumphat",
        "name_ar": "",
        "name_bn": "",
        "name_de": "",
        "name_el": "",
        "name_en": "Lumphat District",
        "name_es": "",
        "name_fr": "Lumphat",
        "name_hi": "",
        "name_hu": "",
        "name_id": "",
        "name_it": "distretto di Lumphat",
        "name_ja": "\u00e3\u0083\u00ad\u00e3\u0083\u00a0\u00e3\u0083\u0091\u00e3\u0083\u0083\u00e3\u0083\u0088\u00e5\u009c\u00b0\u00e5\u008c\u00ba",
        "name_ko": "",
        "name_nl": "Lumphat",
        "name_pl": "Lumphat",
        "name_pt": "",
        "name_ru": "",
        "name_sv": "Lumph\u00c4\u0083t",
        "name_tr": "",
        "name_vi": "Lumphat",
        "name_zh": "",
        "namealt": "",
        "nameascii": "Lumphat",
        "namediff": "1",
        "namepar": "",
        "natscale": "1",
        "ne_id": "1159120907",
        "note": "",
        "pop1950": "0.00000000000",
        "pop1955": "0.00000000000",
        "pop1960": "0.00000000000",
        "pop1965": "0.00000000000",
        "pop1970": "0.00000000000",
        "pop1975": "0.00000000000",
        "pop1980": "0.00000000000",
        "pop1985": "0.00000000000",
        "pop1990": "0.00000000000",
        "pop1995": "0.00000000000",
        "pop2000": "0.00000000000",
        "pop2005": "0.00000000000",
        "pop2010": "0.00000000000",
        "pop2015": "0.00000000000",
        "pop2020": "0.00000000000",
        "pop2025": "0.00000000000",
        "pop2050": "0.00000000000",
        "pop_max": "19205",
        "pop_min": "19205",
        "pop_other": "0",
        "rank_max": "6",
        "rank_min": "6",
        "record_type": "city",
        "scalerank": "10",
        "sov0name": "Cambodia",
        "sov_a3": "KHM",
        "timezone": "Asia\/Phnom_Penh",
        "un_adm0": "",
        "un_fid": "0",
        "un_lat": "0.00000000000",
        "un_long": "0.00000000000",
        "wdid_score": "5",
        "wikidataid": "Q2235920",
        "wof_id": "421187885",
        "worldcity": "0.00000000000"
    },
    "phnom_penh": {
        "adm0_a3": "KHM",
        "adm0cap": "1.00000000000",
        "adm0name": "Cambodia",
        "adm1name": "Phnom Penh",
        "admin1_cod": "0.00000000000",
        "capalt": "****",
        "capin": "",
        "cca2": "KH",
        "cca3": "KHM",
        "changed": "0.00000000000",
        "checkme": "5",
        "cityalt": "Phnom Penh",
        "compare": "0",
        "data_sources": [
            "natural"
        ],
        "diffascii": "0",
        "diffnote": "",
        "elevation": "0.00000000000",
        "feature_cl": "P",
        "feature_co": "PPLC",
        "featurecla": "Admin-0 capital",
        "geonameid": "1821306.00000000000",
        "geonamesno": "GeoNames match general.",
        "gn_ascii": "Phnom Penh",
        "gn_pop": "1573544",
        "gtopo30": "16.00000000000",
        "iso_a2": "KH",
        "iso_a3": "KHM",
        "label": "",
        "labelrank": "8",
        "latitude": "11.55003012990",
        "longitude": "104.91663448000",
        "ls_match": "1",
        "ls_name": "Phnom Penh",
        "max_areakm": "464.00000000000",
        "max_areami": "179.00000000000",
        "max_bbxmax": "105.00000000000",
        "max_bbxmin": "104.44166667000",
        "max_bbymax": "11.69166667000",
        "max_bbymin": "11.29166667000",
        "max_natsca": "100",
        "max_perkm": "703.00000000000",
        "max_permi": "437.00000000000",
        "max_pop10": "1551977",
        "max_pop20": "1551977",
        "max_pop50": "1551977",
        "max_pop300": "1551977",
        "max_pop310": "0",
        "mean_bbxc": "104.78577016000",
        "mean_bbyc": "11.48841757000",
        "megacity": "1",
        "meganame": "Phnum Penh",
        "min_areakm": "464",
        "min_areami": "179.00000000000",
        "min_bbxmax": "105.00000000000",
        "min_bbxmin": "104.44166667000",
        "min_bbymax": "11.69166667000",
        "min_bbymin": "11.29166667000",
        "min_perkm": "703.00000000000",
        "min_permi": "437.00000000000",
        "min_zoom": "5.0",
        "name": "Phnom Penh",
        "name_ar": "",
        "name_bn": "",
        "name_de": "Phnom Penh",
        "name_el": "",
        "name_en": "Phnom Penh",
        "name_es": "Nom Pen",
        "name_fr": "Phnom Penh",
        "name_hi": "",
        "name_hu": "",
        "name_id": "",
        "name_it": "",
        "name_ja": "",
        "name_ko": "",
        "name_nl": "",
        "name_pl": "",
        "name_pt": "Phnom Penh",
        "name_ru": "\u00d0\u009f\u00d0\u00bd\u00d0\u00be\u00d0\u00bc\u00d0\u00bf\u00d0\u00b5\u00d0\u00bd\u00d1\u008c",
        "name_sv": "",
        "name_tr": "",
        "name_vi": "",
        "name_zh": "\u00e9\u0087\u0091\u00e8\u00be\u00b9",
        "namealt": "Phnum Penh",
        "nameascii": "Phnom Penh",
        "namediff": "0",
        "namepar": "",
        "natscale": "110",
        "ne_id": "1159151127",
        "note": "",
        "pop1950": "364.00000000000",
        "pop1955": "376.00000000000",
        "pop1960": "389.00000000000",
        "pop1965": "436.00000000000",
        "pop1970": "900.00000000000",
        "pop1975": "100.00000000000",
        "pop1980": "238.00000000000",
        "pop1985": "427.00000000000",
        "pop1990": "615.00000000000",
        "pop1995": "836.00000000000",
        "pop2000": "1160.00000000000",
        "pop2005": "1363.00000000000",
        "pop2010": "1466.00000000000",
        "pop2015": "1651.00000000000",
        "pop2020": "2028.00000000000",
        "pop2025": "2457.00000000000",
        "pop2050": "2911.00000000000",
        "pop_max": "1466000",
        "pop_min": "1466000",
        "pop_other": "1604086",
        "rank_max": "12",
        "rank_min": "12",
        "record_type": "city",
        "scalerank": "3",
        "sov0name": "Cambodia",
        "sov_a3": "KHM",
        "timezone": "Asia\/Phnom_Penh",
        "un_adm0": "Cambodia",
        "un_fid": "5",
        "un_lat": "11.56000000000",
        "un_long": "104.91000000000",
        "wdid_score": "4",
        "wikidataid": "Q1850",
        "wof_id": "1141909395",
        "worldcity": "0.00000000000"
    },
    "phnum_tbeng_meanchey": {
        "adm0_a3": "KHM",
        "adm0cap": "0.00000000000",
        "adm0name": "Cambodia",
        "adm1name": "Preah Vih\u00c3\u00a9ar",
        "admin1_cod": "13.00000000000",
        "capalt": "****",
        "capin": "",
        "cca2": "KH",
        "cca3": "KHM",
        "changed": "4.00000000000",
        "checkme": "0",
        "cityalt": "",
        "compare": "0",
        "data_sources": [
            "natural"
        ],
        "diffascii": "0",
        "diffnote": "Added missing admin-1 capital. Population from GeoNames.",
        "elevation": "0.00000000000",
        "feature_cl": "P",
        "feature_co": "PPL",
        "featurecla": "Admin-1 capital",
        "geonameid": "1830098.00000000000",
        "geonamesno": "Geonames ascii name + lat.d + long.d matching.",
        "gn_ascii": "Phnum Tbeng Meanchey",
        "gn_pop": "24380",
        "gtopo30": "47.00000000000",
        "iso_a2": "KH",
        "iso_a3": "KHM",
        "label": "",
        "labelrank": "8",
        "latitude": "13.81670099860",
        "longitude": "104.96670370100",
        "ls_match": "0",
        "ls_name": "",
        "max_areakm": "0.00000000000",
        "max_areami": "0.00000000000",
        "max_bbxmax": "0.00000000000",
        "max_bbxmin": "0.00000000000",
        "max_bbymax": "0.00000000000",
        "max_bbymin": "0.00000000000",
        "max_natsca": "0",
        "max_perkm": "0.00000000000",
        "max_permi": "0.00000000000",
        "max_pop10": "0",
        "max_pop20": "0",
        "max_pop50": "0",
        "max_pop300": "0",
        "max_pop310": "0",
        "mean_bbxc": "0.00000000000",
        "mean_bbyc": "0.00000000000",
        "megacity": "0",
        "meganame": "",
        "min_areakm": "0",
        "min_areami": "0.00000000000",
        "min_bbxmax": "0.00000000000",
        "min_bbxmin": "0.00000000000",
        "min_bbymax": "0.00000000000",
        "min_bbymin": "0.00000000000",
        "min_perkm": "0.00000000000",
        "min_permi": "0.00000000000",
        "min_zoom": "7.0",
        "name": "Phnum Tbeng Meanchey",
        "name_ar": "",
        "name_bn": "",
        "name_de": "Tbaeng Meanchey",
        "name_el": "",
        "name_en": "Phnom Tbeng Meanchey",
        "name_es": "",
        "name_fr": "Tbeng Meancheay",
        "name_hi": "",
        "name_hu": "",
        "name_id": "",
        "name_it": "",
        "name_ja": "",
        "name_ko": "",
        "name_nl": "",
        "name_pl": "",
        "name_pt": "Phnum Tbeng Mean Chey",
        "name_ru": "\u00d0\u009f\u00d0\u00bd\u00d0\u00be\u00d0\u00bc\u00d1\u0082\u00d0\u00b1\u00d0\u00b5\u00d0\u00bd\u00d0\u00b3\u00d0\u00bc\u00d0\u00b5\u00d0\u00b0\u00d0\u00bd\u00d1\u0082\u00d1\u008c\u00d0\u00b5\u00d0\u00b9",
        "name_sv": "",
        "name_tr": "",
        "name_vi": "",
        "name_zh": "",
        "namealt": "",
        "nameascii": "Phnum Tbeng Meanchey",
        "namediff": "1",
        "namepar": "",
        "natscale": "1",
        "ne_id": "1159120843",
        "note": "",
        "pop1950": "0.00000000000",
        "pop1955": "0.00000000000",
        "pop1960": "0.00000000000",
        "pop1965": "0.00000000000",
        "pop1970": "0.00000000000",
        "pop1975": "0.00000000000",
        "pop1980": "0.00000000000",
        "pop1985": "0.00000000000",
        "pop1990": "0.00000000000",
        "pop1995": "0.00000000000",
        "pop2000": "0.00000000000",
        "pop2005": "0.00000000000",
        "pop2010": "0.00000000000",
        "pop2015": "0.00000000000",
        "pop2020": "0.00000000000",
        "pop2025": "0.00000000000",
        "pop2050": "0.00000000000",
        "pop_max": "24380",
        "pop_min": "24380",
        "pop_other": "0",
        "rank_max": "7",
        "rank_min": "7",
        "record_type": "city",
        "scalerank": "10",
        "sov0name": "Cambodia",
        "sov_a3": "KHM",
        "timezone": "Asia\/Phnom_Penh",
        "un_adm0": "",
        "un_fid": "0",
        "un_lat": "0.00000000000",
        "un_long": "0.00000000000",
        "wdid_score": "4",
        "wikidataid": "Q2428308",
        "wof_id": "890417861",
        "worldcity": "0.00000000000"
    },
    "prey_veng": {
        "adm0_a3": "KHM",
        "adm0cap": "0.00000000000",
        "adm0name": "Cambodia",
        "adm1name": "Prey Ving",
        "admin1_cod": "0.00000000000",
        "capalt": "****",
        "capin": "",
        "cca2": "KH",
        "cca3": "KHM",
        "changed": "4.00000000000",
        "checkme": "0",
        "cityalt": "",
        "compare": "0",
        "data_sources": [
            "natural"
        ],
        "diffascii": "0",
        "diffnote": "Added missing admin-1 capital.",
        "elevation": "0.00000000000",
        "feature_cl": "",
        "feature_co": "",
        "featurecla": "Admin-1 capital",
        "geonameid": "1822610.00000000000",
        "geonamesno": "No GeoNames match due to small population, not in GeoNames, or poor NEV placement.",
        "gn_ascii": "",
        "gn_pop": "0",
        "gtopo30": "0.00000000000",
        "iso_a2": "KH",
        "iso_a3": "KHM",
        "label": "",
        "labelrank": "8",
        "latitude": "11.48399998170",
        "longitude": "105.32400360700",
        "ls_match": "0",
        "ls_name": "",
        "max_areakm": "0.00000000000",
        "max_areami": "0.00000000000",
        "max_bbxmax": "0.00000000000",
        "max_bbxmin": "0.00000000000",
        "max_bbymax": "0.00000000000",
        "max_bbymin": "0.00000000000",
        "max_natsca": "0",
        "max_perkm": "0.00000000000",
        "max_permi": "0.00000000000",
        "max_pop10": "0",
        "max_pop20": "0",
        "max_pop50": "0",
        "max_pop300": "0",
        "max_pop310": "0",
        "mean_bbxc": "0.00000000000",
        "mean_bbyc": "0.00000000000",
        "megacity": "0",
        "meganame": "",
        "min_areakm": "0",
        "min_areami": "0.00000000000",
        "min_bbxmax": "0.00000000000",
        "min_bbxmin": "0.00000000000",
        "min_bbymax": "0.00000000000",
        "min_bbymin": "0.00000000000",
        "min_perkm": "0.00000000000",
        "min_permi": "0.00000000000",
        "min_zoom": "8.0",
        "name": "Prey Veng",
        "name_ar": "",
        "name_bn": "",
        "name_de": "Prey Veng",
        "name_el": "",
        "name_en": "Prey Veng",
        "name_es": "",
        "name_fr": "Prey Veng",
        "name_hi": "",
        "name_hu": "",
        "name_id": "",
        "name_it": "",
        "name_ja": "",
        "name_ko": "",
        "name_nl": "",
        "name_pl": "",
        "name_pt": "Prey Veng",
        "name_ru": "\u00d0\u009f\u00d1\u0080\u00d0\u00b5\u00d0\u00b9\u00d0\u00b2\u00d1\u008d\u00d0\u00bd\u00d0\u00b3",
        "name_sv": "",
        "name_tr": "",
        "name_vi": "",
        "name_zh": "\u00e6\u00b3\u00a2\u00e8\u0098\u00bf\u00e5\u008b\u0089",
        "namealt": "",
        "nameascii": "Prey Veng",
        "namediff": "1",
        "namepar": "",
        "natscale": "1",
        "ne_id": "1159120831",
        "note": "",
        "pop1950": "0.00000000000",
        "pop1955": "0.00000000000",
        "pop1960": "0.00000000000",
        "pop1965": "0.00000000000",
        "pop1970": "0.00000000000",
        "pop1975": "0.00000000000",
        "pop1980": "0.00000000000",
        "pop1985": "0.00000000000",
        "pop1990": "0.00000000000",
        "pop1995": "0.00000000000",
        "pop2000": "0.00000000000",
        "pop2005": "0.00000000000",
        "pop2010": "0.00000000000",
        "pop2015": "0.00000000000",
        "pop2020": "0.00000000000",
        "pop2025": "0.00000000000",
        "pop2050": "0.00000000000",
        "pop_max": "74000",
        "pop_min": "74000",
        "pop_other": "0",
        "rank_max": "8",
        "rank_min": "8",
        "record_type": "city",
        "scalerank": "10",
        "sov0name": "Cambodia",
        "sov_a3": "KHM",
        "timezone": "",
        "un_adm0": "",
        "un_fid": "0",
        "un_lat": "0.00000000000",
        "un_long": "0.00000000000",
        "wdid_score": "4",
        "wikidataid": "Q934619",
        "wof_id": "1141906175",
        "worldcity": "0.00000000000"
    },
    "pursat": {
        "adm0_a3": "KHM",
        "adm0cap": "0.00000000000",
        "adm0name": "Cambodia",
        "adm1name": "Pouthisat",
        "admin1_cod": "12.00000000000",
        "capalt": "****",
        "capin": "",
        "cca2": "KH",
        "cca3": "KHM",
        "changed": "0.00000000000",
        "checkme": "0",
        "cityalt": "",
        "compare": "0",
        "data_sources": [
            "natural"
        ],
        "diffascii": "0",
        "diffnote": "",
        "elevation": "0.00000000000",
        "feature_cl": "P",
        "feature_co": "PPL",
        "featurecla": "Admin-1 capital",
        "geonameid": "1822768.00000000000",
        "geonamesno": "GeoNames spatial join with similar names only.",
        "gn_ascii": "Pouthisat",
        "gn_pop": "52476",
        "gtopo30": "18.00000000000",
        "iso_a2": "KH",
        "iso_a3": "KHM",
        "label": "",
        "labelrank": "8",
        "latitude": "12.53369101860",
        "longitude": "103.91669551500",
        "ls_match": "1",
        "ls_name": "Pursat",
        "max_areakm": "8.00000000000",
        "max_areami": "3.00000000000",
        "max_bbxmax": "103.92500000000",
        "max_bbxmin": "103.90000000000",
        "max_bbymax": "12.55833333000",
        "max_bbymin": "12.51666667000",
        "max_natsca": "20",
        "max_perkm": "15.00000000000",
        "max_permi": "9.00000000000",
        "max_pop10": "13446",
        "max_pop20": "13446",
        "max_pop50": "0",
        "max_pop300": "0",
        "max_pop310": "0",
        "mean_bbxc": "103.91620370000",
        "mean_bbyc": "12.53750000000",
        "megacity": "0",
        "meganame": "",
        "min_areakm": "8",
        "min_areami": "3.00000000000",
        "min_bbxmax": "103.92500000000",
        "min_bbxmin": "103.90000000000",
        "min_bbymax": "12.55833333000",
        "min_bbymin": "12.51666667000",
        "min_perkm": "15.00000000000",
        "min_permi": "9.00000000000",
        "min_zoom": "6.7",
        "name": "Pursat",
        "name_ar": "",
        "name_bn": "",
        "name_de": "Pursat",
        "name_el": "",
        "name_en": "Pursat",
        "name_es": "Pursat",
        "name_fr": "Pouthisat",
        "name_hi": "",
        "name_hu": "",
        "name_id": "",
        "name_it": "",
        "name_ja": "",
        "name_ko": "",
        "name_nl": "",
        "name_pl": "",
        "name_pt": "Pursat",
        "name_ru": "\u00d0\u009f\u00d0\u00be\u00d1\u0083\u00d1\u0081\u00d0\u00b0\u00d1\u0082",
        "name_sv": "",
        "name_tr": "",
        "name_vi": "",
        "name_zh": "\u00e8\u008f\u00a9\u00e8\u0090\u00a8",
        "namealt": "Pouthisat",
        "nameascii": "Pursat",
        "namediff": "0",
        "namepar": "",
        "natscale": "20",
        "ne_id": "1159144651",
        "note": "",
        "pop1950": "0.00000000000",
        "pop1955": "0.00000000000",
        "pop1960": "0.00000000000",
        "pop1965": "0.00000000000",
        "pop1970": "0.00000000000",
        "pop1975": "0.00000000000",
        "pop1980": "0.00000000000",
        "pop1985": "0.00000000000",
        "pop1990": "0.00000000000",
        "pop1995": "0.00000000000",
        "pop2000": "0.00000000000",
        "pop2005": "0.00000000000",
        "pop2010": "0.00000000000",
        "pop2015": "0.00000000000",
        "pop2020": "0.00000000000",
        "pop2025": "0.00000000000",
        "pop2050": "0.00000000000",
        "pop_max": "52476",
        "pop_min": "13446",
        "pop_other": "13611",
        "rank_max": "8",
        "rank_min": "6",
        "record_type": "city",
        "scalerank": "7",
        "sov0name": "Cambodia",
        "sov_a3": "KHM",
        "timezone": "Asia\/Phnom_Penh",
        "un_adm0": "",
        "un_fid": "0",
        "un_lat": "0.00000000000",
        "un_long": "0.00000000000",
        "wdid_score": "4",
        "wikidataid": "Q655547",
        "wof_id": "890444161",
        "worldcity": "0.00000000000"
    },
    "senmonorom": {
        "adm0_a3": "KHM",
        "adm0cap": "0.00000000000",
        "adm0name": "Cambodia",
        "adm1name": "M\u00c3\u00b4nd\u00c3\u00b3l Kiri",
        "admin1_cod": "10.00000000000",
        "capalt": "****",
        "capin": "",
        "cca2": "KH",
        "cca3": "KHM",
        "changed": "4.00000000000",
        "checkme": "0",
        "cityalt": "",
        "compare": "0",
        "data_sources": [
            "natural"
        ],
        "diffascii": "0",
        "diffnote": "Added missing admin-1 capital. Population from GeoNames.",
        "elevation": "0.00000000000",
        "feature_cl": "P",
        "feature_co": "PPL",
        "featurecla": "Admin-1 capital",
        "geonameid": "1822227.00000000000",
        "geonamesno": "GeoNames spatial join with similar names only.",
        "gn_ascii": "Senmonourom",
        "gn_pop": "7944",
        "gtopo30": "734.00000000000",
        "iso_a2": "KH",
        "iso_a3": "KHM",
        "label": "",
        "labelrank": "8",
        "latitude": "12.44999710720",
        "longitude": "107.19999967700",
        "ls_match": "0",
        "ls_name": "",
        "max_areakm": "0.00000000000",
        "max_areami": "0.00000000000",
        "max_bbxmax": "0.00000000000",
        "max_bbxmin": "0.00000000000",
        "max_bbymax": "0.00000000000",
        "max_bbymin": "0.00000000000",
        "max_natsca": "0",
        "max_perkm": "0.00000000000",
        "max_permi": "0.00000000000",
        "max_pop10": "0",
        "max_pop20": "0",
        "max_pop50": "0",
        "max_pop300": "0",
        "max_pop310": "0",
        "mean_bbxc": "0.00000000000",
        "mean_bbyc": "0.00000000000",
        "megacity": "0",
        "meganame": "",
        "min_areakm": "0",
        "min_areami": "0.00000000000",
        "min_bbxmax": "0.00000000000",
        "min_bbxmin": "0.00000000000",
        "min_bbymax": "0.00000000000",
        "min_bbymin": "0.00000000000",
        "min_perkm": "0.00000000000",
        "min_permi": "0.00000000000",
        "min_zoom": "8.0",
        "name": "Senmonorom",
        "name_ar": "",
        "name_bn": "",
        "name_de": "Senmonorom",
        "name_el": "",
        "name_en": "Senmonorom",
        "name_es": "Senmonorom",
        "name_fr": "Saen Monourom",
        "name_hi": "",
        "name_hu": "",
        "name_id": "",
        "name_it": "",
        "name_ja": "",
        "name_ko": "",
        "name_nl": "",
        "name_pl": "",
        "name_pt": "Sen Monorom",
        "name_ru": "\u00d0\u00a1\u00d0\u00b5\u00d0\u00bd\u00d0\u00bc\u00d0\u00be\u00d0\u00bd\u00d0\u00be\u00d1\u0080\u00d0\u00be\u00d0\u00bc",
        "name_sv": "",
        "name_tr": "",
        "name_vi": "",
        "name_zh": "\u00e6\u00a3\u00ae\u00e8\u008e\u00ab\u00e8\u00ab\u00be\u00e9\u009a\u0086",
        "namealt": "",
        "nameascii": "Senmonorom",
        "namediff": "1",
        "namepar": "",
        "natscale": "1",
        "ne_id": "1159120887",
        "note": "",
        "pop1950": "0.00000000000",
        "pop1955": "0.00000000000",
        "pop1960": "0.00000000000",
        "pop1965": "0.00000000000",
        "pop1970": "0.00000000000",
        "pop1975": "0.00000000000",
        "pop1980": "0.00000000000",
        "pop1985": "0.00000000000",
        "pop1990": "0.00000000000",
        "pop1995": "0.00000000000",
        "pop2000": "0.00000000000",
        "pop2005": "0.00000000000",
        "pop2010": "0.00000000000",
        "pop2015": "0.00000000000",
        "pop2020": "0.00000000000",
        "pop2025": "0.00000000000",
        "pop2050": "0.00000000000",
        "pop_max": "7944",
        "pop_min": "7944",
        "pop_other": "0",
        "rank_max": "5",
        "rank_min": "5",
        "record_type": "city",
        "scalerank": "10",
        "sov0name": "Cambodia",
        "sov_a3": "KHM",
        "timezone": "Asia\/Phnom_Penh",
        "un_adm0": "",
        "un_fid": "0",
        "un_lat": "0.00000000000",
        "un_long": "0.00000000000",
        "wdid_score": "4",
        "wikidataid": "Q2530693",
        "wof_id": "890444159",
        "worldcity": "0.00000000000"
    },
    "siem_reap": {
        "adm0_a3": "KHM",
        "adm0cap": "0.00000000000",
        "adm0name": "Cambodia",
        "adm1name": "Siemr\u00c3\u00a9ab",
        "admin1_cod": "16.00000000000",
        "capalt": "****",
        "capin": "",
        "cca2": "KH",
        "cca3": "KHM",
        "changed": "0.00000000000",
        "checkme": "0",
        "cityalt": "",
        "compare": "0",
        "data_sources": [
            "natural"
        ],
        "diffascii": "0",
        "diffnote": "",
        "elevation": "0.00000000000",
        "feature_cl": "P",
        "feature_co": "PPL",
        "featurecla": "Admin-1 capital",
        "geonameid": "1822214.00000000000",
        "geonamesno": "GeoNames spatial join with similar names only.",
        "gn_ascii": "Siemreab",
        "gn_pop": "85000",
        "gtopo30": "15.00000000000",
        "iso_a2": "KH",
        "iso_a3": "KHM",
        "label": "",
        "labelrank": "8",
        "latitude": "13.36663759250",
        "longitude": "103.85003291700",
        "ls_match": "1",
        "ls_name": "Siem Reap",
        "max_areakm": "37.00000000000",
        "max_areami": "14.00000000000",
        "max_bbxmax": "103.90000000000",
        "max_bbxmin": "103.81666667000",
        "max_bbymax": "13.41666667000",
        "max_bbymin": "13.34166667000",
        "max_natsca": "50",
        "max_perkm": "38.00000000000",
        "max_permi": "24.00000000000",
        "max_pop10": "109398",
        "max_pop20": "109398",
        "max_pop50": "109398",
        "max_pop300": "0",
        "max_pop310": "0",
        "mean_bbxc": "103.85965909000",
        "mean_bbyc": "13.37481061000",
        "megacity": "0",
        "meganame": "",
        "min_areakm": "37",
        "min_areami": "14.00000000000",
        "min_bbxmax": "103.90000000000",
        "min_bbxmin": "103.81666667000",
        "min_bbymax": "13.41666667000",
        "min_bbymin": "13.34166667000",
        "min_perkm": "38.00000000000",
        "min_permi": "24.00000000000",
        "min_zoom": "5.6",
        "name": "Siem Reap",
        "name_ar": "",
        "name_bn": "",
        "name_de": "Siem Reap",
        "name_el": "",
        "name_en": "Siem Reap",
        "name_es": "Siem Riep",
        "name_fr": "Siem Reap",
        "name_hi": "",
        "name_hu": "",
        "name_id": "",
        "name_it": "",
        "name_ja": "",
        "name_ko": "",
        "name_nl": "",
        "name_pl": "",
        "name_pt": "Siem Reap",
        "name_ru": "\u00d0\u00a1\u00d0\u00b8\u00d0\u00b5\u00d0\u00bc\u00d1\u0080\u00d0\u00b5\u00d0\u00b0\u00d0\u00bf",
        "name_sv": "",
        "name_tr": "",
        "name_vi": "",
        "name_zh": "\u00e6\u009a\u00b9\u00e7\u00b2\u0092",
        "namealt": "Siemreab",
        "nameascii": "Siem Reap",
        "namediff": "0",
        "namepar": "",
        "natscale": "50",
        "ne_id": "1159150325",
        "note": "",
        "pop1950": "0.00000000000",
        "pop1955": "0.00000000000",
        "pop1960": "0.00000000000",
        "pop1965": "0.00000000000",
        "pop1970": "0.00000000000",
        "pop1975": "0.00000000000",
        "pop1980": "0.00000000000",
        "pop1985": "0.00000000000",
        "pop1990": "0.00000000000",
        "pop1995": "0.00000000000",
        "pop2000": "0.00000000000",
        "pop2005": "0.00000000000",
        "pop2010": "0.00000000000",
        "pop2015": "0.00000000000",
        "pop2020": "0.00000000000",
        "pop2025": "0.00000000000",
        "pop2050": "0.00000000000",
        "pop_max": "109398",
        "pop_min": "85000",
        "pop_other": "109398",
        "rank_max": "9",
        "rank_min": "8",
        "record_type": "city",
        "scalerank": "4",
        "sov0name": "Cambodia",
        "sov_a3": "KHM",
        "timezone": "Asia\/Phnom_Penh",
        "un_adm0": "",
        "un_fid": "0",
        "un_lat": "0.00000000000",
        "un_long": "0.00000000000",
        "wdid_score": "4",
        "wikidataid": "Q11711",
        "wof_id": "890444157",
        "worldcity": "0.00000000000"
    },
    "sisophon": {
        "adm0_a3": "KHM",
        "adm0cap": "0.00000000000",
        "adm0name": "Cambodia",
        "adm1name": "B\u00c3\u00a2nt\u00c3\u00a9ay M\u00c3\u00a9anchey",
        "admin1_cod": "0.00000000000",
        "capalt": "****",
        "capin": "",
        "cca2": "KH",
        "cca3": "KHM",
        "changed": "0.00000000000",
        "checkme": "0",
        "cityalt": "",
        "compare": "0",
        "data_sources": [
            "natural"
        ],
        "diffascii": "0",
        "diffnote": "",
        "elevation": "0.00000000000",
        "feature_cl": "P",
        "feature_co": "PPL",
        "featurecla": "Populated place",
        "geonameid": "1822207.00000000000",
        "geonamesno": "Geonames ascii name + lat.d + long.d matching.",
        "gn_ascii": "Sisophon",
        "gn_pop": "23218",
        "gtopo30": "17.00000000000",
        "iso_a2": "KH",
        "iso_a3": "KHM",
        "label": "",
        "labelrank": "8",
        "latitude": "13.58375612280",
        "longitude": "102.98331579500",
        "ls_match": "1",
        "ls_name": "Sisophon",
        "max_areakm": "15.00000000000",
        "max_areami": "6.00000000000",
        "max_bbxmax": "102.99166667000",
        "max_bbxmin": "102.92500000000",
        "max_bbymax": "13.60833333000",
        "max_bbymin": "13.57500000000",
        "max_natsca": "20",
        "max_perkm": "26.00000000000",
        "max_permi": "16.00000000000",
        "max_pop10": "50302",
        "max_pop20": "50302",
        "max_pop50": "0",
        "max_pop300": "0",
        "max_pop310": "0",
        "mean_bbxc": "102.96250000000",
        "mean_bbyc": "13.58981481000",
        "megacity": "0",
        "meganame": "",
        "min_areakm": "15",
        "min_areami": "6.00000000000",
        "min_bbxmax": "102.99166667000",
        "min_bbxmin": "102.92500000000",
        "min_bbymax": "13.60833333000",
        "min_bbymin": "13.57500000000",
        "min_perkm": "26.00000000000",
        "min_permi": "16.00000000000",
        "min_zoom": "6.7",
        "name": "Sisophon",
        "name_ar": "",
        "name_bn": "",
        "name_de": "Sisophon",
        "name_el": "",
        "name_en": "Sisophon",
        "name_es": "Sisophon",
        "name_fr": "Sisophon",
        "name_hi": "",
        "name_hu": "",
        "name_id": "",
        "name_it": "",
        "name_ja": "",
        "name_ko": "",
        "name_nl": "",
        "name_pl": "",
        "name_pt": "Sisophon",
        "name_ru": "\u00d0\u00a1\u00d0\u00b8\u00d1\u0081\u00d0\u00be\u00d0\u00bf\u00d1\u0085\u00d0\u00be\u00d0\u00bd",
        "name_sv": "",
        "name_tr": "",
        "name_vi": "",
        "name_zh": "\u00e8\u00a9\u00a9\u00e6\u00a2\u00b3\u00e9\u00a2\u00a8",
        "namealt": "",
        "nameascii": "Sisophon",
        "namediff": "0",
        "namepar": "",
        "natscale": "20",
        "ne_id": "1159144643",
        "note": "",
        "pop1950": "0.00000000000",
        "pop1955": "0.00000000000",
        "pop1960": "0.00000000000",
        "pop1965": "0.00000000000",
        "pop1970": "0.00000000000",
        "pop1975": "0.00000000000",
        "pop1980": "0.00000000000",
        "pop1985": "0.00000000000",
        "pop1990": "0.00000000000",
        "pop1995": "0.00000000000",
        "pop2000": "0.00000000000",
        "pop2005": "0.00000000000",
        "pop2010": "0.00000000000",
        "pop2015": "0.00000000000",
        "pop2020": "0.00000000000",
        "pop2025": "0.00000000000",
        "pop2050": "0.00000000000",
        "pop_max": "50302",
        "pop_min": "23218",
        "pop_other": "50708",
        "rank_max": "8",
        "rank_min": "7",
        "record_type": "city",
        "scalerank": "7",
        "sov0name": "Cambodia",
        "sov_a3": "KHM",
        "timezone": "Asia\/Phnom_Penh",
        "un_adm0": "",
        "un_fid": "0",
        "un_lat": "0.00000000000",
        "un_long": "0.00000000000",
        "wdid_score": "4",
        "wikidataid": "Q855717",
        "wof_id": "890442049",
        "worldcity": "0.00000000000"
    },
    "stoeng_treng": {
        "adm0_a3": "KHM",
        "adm0cap": "0.00000000000",
        "adm0name": "Cambodia",
        "adm1name": "StMng Tr",
        "admin1_cod": "0.00000000000",
        "capalt": "****",
        "capin": "",
        "cca2": "KH",
        "cca3": "KHM",
        "changed": "4.00000000000",
        "checkme": "0",
        "cityalt": "",
        "compare": "0",
        "data_sources": [
            "natural"
        ],
        "diffascii": "0",
        "diffnote": "Added missing admin-1 capital.",
        "elevation": "0.00000000000",
        "feature_cl": "",
        "feature_co": "",
        "featurecla": "Admin-1 capital",
        "geonameid": "1822029.00000000000",
        "geonamesno": "No GeoNames match due to small population, not in GeoNames, or poor NEV placement.",
        "gn_ascii": "",
        "gn_pop": "0",
        "gtopo30": "0.00000000000",
        "iso_a2": "KH",
        "iso_a3": "KHM",
        "label": "",
        "labelrank": "8",
        "latitude": "13.52300407540",
        "longitude": "105.97400157600",
        "ls_match": "0",
        "ls_name": "",
        "max_areakm": "0.00000000000",
        "max_areami": "0.00000000000",
        "max_bbxmax": "0.00000000000",
        "max_bbxmin": "0.00000000000",
        "max_bbymax": "0.00000000000",
        "max_bbymin": "0.00000000000",
        "max_natsca": "0",
        "max_perkm": "0.00000000000",
        "max_permi": "0.00000000000",
        "max_pop10": "0",
        "max_pop20": "0",
        "max_pop50": "0",
        "max_pop300": "0",
        "max_pop310": "0",
        "mean_bbxc": "0.00000000000",
        "mean_bbyc": "0.00000000000",
        "megacity": "0",
        "meganame": "",
        "min_areakm": "0",
        "min_areami": "0.00000000000",
        "min_bbxmax": "0.00000000000",
        "min_bbxmin": "0.00000000000",
        "min_bbymax": "0.00000000000",
        "min_bbymin": "0.00000000000",
        "min_perkm": "0.00000000000",
        "min_permi": "0.00000000000",
        "min_zoom": "8.0",
        "name": "Stoeng Treng",
        "name_ar": "",
        "name_bn": "",
        "name_de": "Stung Treng",
        "name_el": "",
        "name_en": "Stung Treng",
        "name_es": "Stud Treng",
        "name_fr": "Stung Treng",
        "name_hi": "",
        "name_hu": "",
        "name_id": "",
        "name_it": "",
        "name_ja": "",
        "name_ko": "",
        "name_nl": "",
        "name_pl": "",
        "name_pt": "Stung Treng",
        "name_ru": "\u00d0\u00a1\u00d1\u0082\u00d1\u008b\u00d0\u00bd\u00d0\u00b3\u00d1\u0082\u00d1\u0080\u00d0\u00b0\u00d0\u00b5\u00d0\u00bd\u00d0\u00b3",
        "name_sv": "",
        "name_tr": "",
        "name_vi": "",
        "name_zh": "\u00e4\u00b8\u008a\u00e4\u00b8\u0081",
        "namealt": "",
        "nameascii": "Stoeng Treng",
        "namediff": "1",
        "namepar": "",
        "natscale": "1",
        "ne_id": "1159120859",
        "note": "",
        "pop1950": "0.00000000000",
        "pop1955": "0.00000000000",
        "pop1960": "0.00000000000",
        "pop1965": "0.00000000000",
        "pop1970": "0.00000000000",
        "pop1975": "0.00000000000",
        "pop1980": "0.00000000000",
        "pop1985": "0.00000000000",
        "pop1990": "0.00000000000",
        "pop1995": "0.00000000000",
        "pop2000": "0.00000000000",
        "pop2005": "0.00000000000",
        "pop2010": "0.00000000000",
        "pop2015": "0.00000000000",
        "pop2020": "0.00000000000",
        "pop2025": "0.00000000000",
        "pop2050": "0.00000000000",
        "pop_max": "29665",
        "pop_min": "29665",
        "pop_other": "0",
        "rank_max": "7",
        "rank_min": "7",
        "record_type": "city",
        "scalerank": "10",
        "sov0name": "Cambodia",
        "sov_a3": "KHM",
        "timezone": "",
        "un_adm0": "",
        "un_fid": "0",
        "un_lat": "0.00000000000",
        "un_long": "0.00000000000",
        "wdid_score": "4",
        "wikidataid": "Q10859501",
        "wof_id": "1141906177",
        "worldcity": "0.00000000000"
    },
    "svay_rieng": {
        "adm0_a3": "KHM",
        "adm0cap": "0.00000000000",
        "adm0name": "Cambodia",
        "adm1name": "Svay Rieng",
        "admin1_cod": "0.00000000000",
        "capalt": "****",
        "capin": "",
        "cca2": "KH",
        "cca3": "KHM",
        "changed": "4.00000000000",
        "checkme": "0",
        "cityalt": "",
        "compare": "0",
        "data_sources": [
            "natural"
        ],
        "diffascii": "0",
        "diffnote": "Added missing admin-1 capital.",
        "elevation": "0.00000000000",
        "feature_cl": "",
        "feature_co": "",
        "featurecla": "Admin-1 capital",
        "geonameid": "-1.00000000000",
        "geonamesno": "No GeoNames match due to small population, not in GeoNames, or poor NEV placement.",
        "gn_ascii": "",
        "gn_pop": "0",
        "gtopo30": "0.00000000000",
        "iso_a2": "KH",
        "iso_a3": "KHM",
        "label": "",
        "labelrank": "8",
        "latitude": "11.07999909810",
        "longitude": "105.80100363500",
        "ls_match": "0",
        "ls_name": "",
        "max_areakm": "0.00000000000",
        "max_areami": "0.00000000000",
        "max_bbxmax": "0.00000000000",
        "max_bbxmin": "0.00000000000",
        "max_bbymax": "0.00000000000",
        "max_bbymin": "0.00000000000",
        "max_natsca": "0",
        "max_perkm": "0.00000000000",
        "max_permi": "0.00000000000",
        "max_pop10": "0",
        "max_pop20": "0",
        "max_pop50": "0",
        "max_pop300": "0",
        "max_pop310": "0",
        "mean_bbxc": "0.00000000000",
        "mean_bbyc": "0.00000000000",
        "megacity": "0",
        "meganame": "",
        "min_areakm": "0",
        "min_areami": "0.00000000000",
        "min_bbxmax": "0.00000000000",
        "min_bbxmin": "0.00000000000",
        "min_bbymax": "0.00000000000",
        "min_bbymin": "0.00000000000",
        "min_perkm": "0.00000000000",
        "min_permi": "0.00000000000",
        "min_zoom": "8.0",
        "name": "Svay Rieng",
        "name_ar": "",
        "name_bn": "",
        "name_de": "Svay Rieng",
        "name_el": "",
        "name_en": "Svay Rieng",
        "name_es": "Svay Rieng",
        "name_fr": "Svay Rieng",
        "name_hi": "",
        "name_hu": "",
        "name_id": "",
        "name_it": "",
        "name_ja": "",
        "name_ko": "",
        "name_nl": "",
        "name_pl": "",
        "name_pt": "Svay Rieng",
        "name_ru": "\u00d0\u00a1\u00d0\u00b2\u00d0\u00b0\u00d0\u00b9\u00d1\u0080\u00d0\u00b8\u00d0\u00b5\u00d0\u00bd\u00d0\u00b3",
        "name_sv": "",
        "name_tr": "",
        "name_vi": "",
        "name_zh": "\u00e6\u009f\u00b4\u00e6\u00a5\u00a8 (\u00e5\u009f\u008e\u00e9\u008e\u00ae)",
        "namealt": "",
        "nameascii": "Svay Rieng",
        "namediff": "1",
        "namepar": "",
        "natscale": "1",
        "ne_id": "1159120929",
        "note": "",
        "pop1950": "0.00000000000",
        "pop1955": "0.00000000000",
        "pop1960": "0.00000000000",
        "pop1965": "0.00000000000",
        "pop1970": "0.00000000000",
        "pop1975": "0.00000000000",
        "pop1980": "0.00000000000",
        "pop1985": "0.00000000000",
        "pop1990": "0.00000000000",
        "pop1995": "0.00000000000",
        "pop2000": "0.00000000000",
        "pop2005": "0.00000000000",
        "pop2010": "0.00000000000",
        "pop2015": "0.00000000000",
        "pop2020": "0.00000000000",
        "pop2025": "0.00000000000",
        "pop2050": "0.00000000000",
        "pop_max": "23956",
        "pop_min": "23956",
        "pop_other": "0",
        "rank_max": "7",
        "rank_min": "7",
        "record_type": "city",
        "scalerank": "10",
        "sov0name": "Cambodia",
        "sov_a3": "KHM",
        "timezone": "",
        "un_adm0": "",
        "un_fid": "0",
        "un_lat": "0.00000000000",
        "un_long": "0.00000000000",
        "wdid_score": "4",
        "wikidataid": "Q10861438",
        "wof_id": "1141906179",
        "worldcity": "0.00000000000"
    },
    "takeo": {
        "adm0_a3": "KHM",
        "adm0cap": "0.00000000000",
        "adm0name": "Cambodia",
        "adm1name": "Tak",
        "admin1_cod": "0.00000000000",
        "capalt": "****",
        "capin": "",
        "cca2": "KH",
        "cca3": "KHM",
        "changed": "0.00000000000",
        "checkme": "0",
        "cityalt": "",
        "compare": "0",
        "data_sources": [
            "natural"
        ],
        "diffascii": "0",
        "diffnote": "",
        "elevation": "0.00000000000",
        "feature_cl": "",
        "feature_co": "",
        "featurecla": "Admin-1 capital",
        "geonameid": "7647532.00000000000",
        "geonamesno": "",
        "gn_ascii": "",
        "gn_pop": "0",
        "gtopo30": "0.00000000000",
        "iso_a2": "KH",
        "iso_a3": "KHM",
        "label": "",
        "labelrank": "8",
        "latitude": "10.98375978490",
        "longitude": "104.78330928400",
        "ls_match": "1",
        "ls_name": "Takeo",
        "max_areakm": "10.00000000000",
        "max_areami": "4.00000000000",
        "max_bbxmax": "104.79166667000",
        "max_bbxmin": "104.75833333000",
        "max_bbymax": "11.00000000000",
        "max_bbymin": "10.95000000000",
        "max_natsca": "20",
        "max_perkm": "20.00000000000",
        "max_permi": "13.00000000000",
        "max_pop10": "15264",
        "max_pop20": "15264",
        "max_pop50": "0",
        "max_pop300": "0",
        "max_pop310": "0",
        "mean_bbxc": "104.77777778000",
        "mean_bbyc": "10.97708333000",
        "megacity": "0",
        "meganame": "",
        "min_areakm": "10",
        "min_areami": "4.00000000000",
        "min_bbxmax": "104.79166667000",
        "min_bbxmin": "104.75833333000",
        "min_bbymax": "11.00000000000",
        "min_bbymin": "10.95000000000",
        "min_perkm": "20.00000000000",
        "min_permi": "13.00000000000",
        "min_zoom": "6.7",
        "name": "Tak\u00c3\u00a9o",
        "name_ar": "",
        "name_bn": "",
        "name_de": "Takeo",
        "name_el": "",
        "name_en": "Tak\u00c3\u00a9o",
        "name_es": "Tak\u00c3\u00a9o",
        "name_fr": "Takeo",
        "name_hi": "",
        "name_hu": "",
        "name_id": "",
        "name_it": "",
        "name_ja": "",
        "name_ko": "",
        "name_nl": "",
        "name_pl": "",
        "name_pt": "Tak\u00c3\u00a9o",
        "name_ru": "\u00d0\u00a2\u00d0\u00b0\u00d0\u00ba\u00d0\u00b5\u00d0\u00be",
        "name_sv": "",
        "name_tr": "",
        "name_vi": "",
        "name_zh": "",
        "namealt": "Takev",
        "nameascii": "Takeo",
        "namediff": "0",
        "namepar": "",
        "natscale": "20",
        "ne_id": "1159144669",
        "note": "",
        "pop1950": "0.00000000000",
        "pop1955": "0.00000000000",
        "pop1960": "0.00000000000",
        "pop1965": "0.00000000000",
        "pop1970": "0.00000000000",
        "pop1975": "0.00000000000",
        "pop1980": "0.00000000000",
        "pop1985": "0.00000000000",
        "pop1990": "0.00000000000",
        "pop1995": "0.00000000000",
        "pop2000": "0.00000000000",
        "pop2005": "0.00000000000",
        "pop2010": "0.00000000000",
        "pop2015": "0.00000000000",
        "pop2020": "0.00000000000",
        "pop2025": "0.00000000000",
        "pop2050": "0.00000000000",
        "pop_max": "15264",
        "pop_min": "15264",
        "pop_other": "257266",
        "rank_max": "6",
        "rank_min": "6",
        "record_type": "city",
        "scalerank": "7",
        "sov0name": "Cambodia",
        "sov_a3": "KHM",
        "timezone": "",
        "un_adm0": "",
        "un_fid": "0",
        "un_lat": "0.00000000000",
        "un_long": "0.00000000000",
        "wdid_score": "4",
        "wikidataid": "Q1195207",
        "wof_id": "1141908145",
        "worldcity": "0.00000000000"
    }
}