{
    "al_ahmadi": {
        "adm0_a3": "KWT",
        "adm0cap": "0.00000000000",
        "adm0name": "Kuwait",
        "adm1name": "Al Ahmadi",
        "admin1_cod": "0.00000000000",
        "capalt": "****",
        "capin": "",
        "cca2": "KW",
        "cca3": "KWT",
        "changed": "0.00000000000",
        "checkme": "0",
        "cityalt": "",
        "compare": "0",
        "data_sources": [
            "natural"
        ],
        "diffascii": "0",
        "diffnote": "",
        "elevation": "0.00000000000",
        "feature_cl": "",
        "feature_co": "",
        "featurecla": "Admin-1 capital",
        "geonameid": "285839.00000000000",
        "geonamesno": "",
        "gn_ascii": "",
        "gn_pop": "0",
        "gtopo30": "0.00000000000",
        "iso_a2": "KW",
        "iso_a3": "KWT",
        "label": "",
        "labelrank": "8",
        "latitude": "29.07694480290",
        "longitude": "48.08377274450",
        "ls_match": "1",
        "ls_name": "Al Ahmadi",
        "max_areakm": "13.00000000000",
        "max_areami": "5.00000000000",
        "max_bbxmax": "48.09166667000",
        "max_bbxmin": "48.05000000000",
        "max_bbymax": "29.11666667000",
        "max_bbymin": "29.06666667000",
        "max_natsca": "10",
        "max_perkm": "19.00000000000",
        "max_permi": "12.00000000000",
        "max_pop10": "68763",
        "max_pop20": "0",
        "max_pop50": "0",
        "max_pop300": "0",
        "max_pop310": "0",
        "mean_bbxc": "48.06990741000",
        "mean_bbyc": "29.09074074000",
        "megacity": "0",
        "meganame": "",
        "min_areakm": "13",
        "min_areami": "5.00000000000",
        "min_bbxmax": "48.09166667000",
        "min_bbxmin": "48.05000000000",
        "min_bbymax": "29.11666667000",
        "min_bbymin": "29.06666667000",
        "min_perkm": "19.00000000000",
        "min_permi": "12.00000000000",
        "min_zoom": "7.0",
        "name": "Al Ahmadi",
        "name_ar": "",
        "name_bn": "",
        "name_de": "",
        "name_el": "",
        "name_en": "Al Ahmadi",
        "name_es": "",
        "name_fr": "Al Ahmadi",
        "name_hi": "",
        "name_hu": "",
        "name_id": "",
        "name_it": "",
        "name_ja": "",
        "name_ko": "",
        "name_nl": "",
        "name_pl": "",
        "name_pt": "Al Ahmadi",
        "name_ru": "\u00d0\u00ad\u00d0\u00bb\u00d1\u008c-\u00d0\u0090\u00d1\u0085\u00d0\u00bc\u00d0\u00b0\u00d0\u00b4\u00d0\u00b8",
        "name_sv": "",
        "name_tr": "",
        "name_vi": "",
        "name_zh": "",
        "namealt": "Al-Ahmadi",
        "nameascii": "Al Ahmadi",
        "namediff": "0",
        "namepar": "",
        "natscale": "10",
        "ne_id": "1159128453",
        "note": "",
        "pop1950": "0.00000000000",
        "pop1955": "0.00000000000",
        "pop1960": "0.00000000000",
        "pop1965": "0.00000000000",
        "pop1970": "0.00000000000",
        "pop1975": "0.00000000000",
        "pop1980": "0.00000000000",
        "pop1985": "0.00000000000",
        "pop1990": "0.00000000000",
        "pop1995": "0.00000000000",
        "pop2000": "0.00000000000",
        "pop2005": "0.00000000000",
        "pop2010": "0.00000000000",
        "pop2015": "0.00000000000",
        "pop2020": "0.00000000000",
        "pop2025": "0.00000000000",
        "pop2050": "0.00000000000",
        "pop_max": "68763",
        "pop_min": "68763",
        "pop_other": "468519",
        "rank_max": "8",
        "rank_min": "8",
        "record_type": "city",
        "scalerank": "8",
        "sov0name": "Kuwait",
        "sov_a3": "KWT",
        "timezone": "",
        "un_adm0": "",
        "un_fid": "0",
        "un_lat": "0.00000000000",
        "un_long": "0.00000000000",
        "wdid_score": "4",
        "wikidataid": "Q980396",
        "wof_id": "1141906439",
        "worldcity": "0.00000000000"
    },
    "al_jahra": {
        "adm0_a3": "KWT",
        "adm0cap": "0.00000000000",
        "adm0name": "Kuwait",
        "adm1name": "Al Jahrah",
        "admin1_cod": "0.00000000000",
        "capalt": "****",
        "capin": "",
        "cca2": "KW",
        "cca3": "KWT",
        "changed": "0.00000000000",
        "checkme": "0",
        "cityalt": "",
        "compare": "0",
        "data_sources": [
            "natural"
        ],
        "diffascii": "0",
        "diffnote": "",
        "elevation": "0.00000000000",
        "feature_cl": "",
        "feature_co": "",
        "featurecla": "Admin-1 capital",
        "geonameid": "285799.00000000000",
        "geonamesno": "No GeoNames match due to small population, not in GeoNames, or poor NEV placement.",
        "gn_ascii": "",
        "gn_pop": "0",
        "gtopo30": "0.00000000000",
        "iso_a2": "KW",
        "iso_a3": "KWT",
        "label": "",
        "labelrank": "8",
        "latitude": "29.33747153630",
        "longitude": "47.65806229530",
        "ls_match": "1",
        "ls_name": "Al Jahra",
        "max_areakm": "40.00000000000",
        "max_areami": "15.00000000000",
        "max_bbxmax": "47.73333333000",
        "max_bbxmin": "47.63333333000",
        "max_bbymax": "29.36666667000",
        "max_bbymin": "29.27500000000",
        "max_natsca": "10",
        "max_perkm": "52.00000000000",
        "max_permi": "32.00000000000",
        "max_pop10": "194193",
        "max_pop20": "0",
        "max_pop50": "0",
        "max_pop300": "0",
        "max_pop310": "0",
        "mean_bbxc": "47.68356918000",
        "mean_bbyc": "29.32727987000",
        "megacity": "0",
        "meganame": "",
        "min_areakm": "40",
        "min_areami": "15.00000000000",
        "min_bbxmax": "47.73333333000",
        "min_bbxmin": "47.63333333000",
        "min_bbymax": "29.36666667000",
        "min_bbymin": "29.27500000000",
        "min_perkm": "52.00000000000",
        "min_permi": "32.00000000000",
        "min_zoom": "7.0",
        "name": "Al Jahra",
        "name_ar": "",
        "name_bn": "",
        "name_de": "al-Dschahra",
        "name_el": "",
        "name_en": "Al Jahra",
        "name_es": "Jahra",
        "name_fr": "Al Jahra",
        "name_hi": "",
        "name_hu": "",
        "name_id": "",
        "name_it": "",
        "name_ja": "",
        "name_ko": "",
        "name_nl": "",
        "name_pl": "",
        "name_pt": "Al Jahra",
        "name_ru": "\u00d0\u00ad\u00d0\u00bb\u00d1\u008c-\u00d0\u0094\u00d0\u00b6\u00d0\u00b0\u00d1\u0085\u00d1\u0080\u00d0\u00b0",
        "name_sv": "",
        "name_tr": "",
        "name_vi": "",
        "name_zh": "\u00e5\u0082\u0091\u00e8\u00b5\u00ab\u00e6\u008b\u0089",
        "namealt": "Al-Jahrah",
        "nameascii": "Al Jahra",
        "namediff": "0",
        "namepar": "",
        "natscale": "10",
        "ne_id": "1159128461",
        "note": "",
        "pop1950": "0.00000000000",
        "pop1955": "0.00000000000",
        "pop1960": "0.00000000000",
        "pop1965": "0.00000000000",
        "pop1970": "0.00000000000",
        "pop1975": "0.00000000000",
        "pop1980": "0.00000000000",
        "pop1985": "0.00000000000",
        "pop1990": "0.00000000000",
        "pop1995": "0.00000000000",
        "pop2000": "0.00000000000",
        "pop2005": "0.00000000000",
        "pop2010": "0.00000000000",
        "pop2015": "0.00000000000",
        "pop2020": "0.00000000000",
        "pop2025": "0.00000000000",
        "pop2050": "0.00000000000",
        "pop_max": "194193",
        "pop_min": "194193",
        "pop_other": "221674",
        "rank_max": "9",
        "rank_min": "9",
        "record_type": "city",
        "scalerank": "8",
        "sov0name": "Kuwait",
        "sov_a3": "KWT",
        "timezone": "",
        "un_adm0": "",
        "un_fid": "0",
        "un_lat": "0.00000000000",
        "un_long": "0.00000000000",
        "wdid_score": "4",
        "wikidataid": "Q1077024",
        "wof_id": "1141906441",
        "worldcity": "0.00000000000"
    },
    "hawalli": {
        "adm0_a3": "KWT",
        "adm0cap": "0.00000000000",
        "adm0name": "Kuwait",
        "adm1name": "Hawalli",
        "admin1_cod": "0.00000000000",
        "capalt": "****",
        "capin": "",
        "cca2": "KW",
        "cca3": "KWT",
        "changed": "4.00000000000",
        "checkme": "0",
        "cityalt": "",
        "compare": "0",
        "data_sources": [
            "natural"
        ],
        "diffascii": "0",
        "diffnote": "Added missing admin-1 capital.",
        "elevation": "0.00000000000",
        "feature_cl": "",
        "feature_co": "",
        "featurecla": "Admin-1 capital",
        "geonameid": "285629.00000000000",
        "geonamesno": "",
        "gn_ascii": "",
        "gn_pop": "0",
        "gtopo30": "0.00000000000",
        "iso_a2": "KW",
        "iso_a3": "KWT",
        "label": "",
        "labelrank": "8",
        "latitude": "29.33334001540",
        "longitude": "47.99999755910",
        "ls_match": "0",
        "ls_name": "",
        "max_areakm": "0.00000000000",
        "max_areami": "0.00000000000",
        "max_bbxmax": "0.00000000000",
        "max_bbxmin": "0.00000000000",
        "max_bbymax": "0.00000000000",
        "max_bbymin": "0.00000000000",
        "max_natsca": "0",
        "max_perkm": "0.00000000000",
        "max_permi": "0.00000000000",
        "max_pop10": "0",
        "max_pop20": "0",
        "max_pop50": "0",
        "max_pop300": "0",
        "max_pop310": "0",
        "mean_bbxc": "0.00000000000",
        "mean_bbyc": "0.00000000000",
        "megacity": "0",
        "meganame": "",
        "min_areakm": "0",
        "min_areami": "0.00000000000",
        "min_bbxmax": "0.00000000000",
        "min_bbxmin": "0.00000000000",
        "min_bbymax": "0.00000000000",
        "min_bbymin": "0.00000000000",
        "min_perkm": "0.00000000000",
        "min_permi": "0.00000000000",
        "min_zoom": "9.0",
        "name": "Hawalli",
        "name_ar": "",
        "name_bn": "",
        "name_de": "",
        "name_el": "",
        "name_en": "Hawalli",
        "name_es": "Hawalli",
        "name_fr": "",
        "name_hi": "",
        "name_hu": "",
        "name_id": "",
        "name_it": "",
        "name_ja": "",
        "name_ko": "",
        "name_nl": "",
        "name_pl": "",
        "name_pt": "",
        "name_ru": "\u00d0\u00a5\u00d0\u00b0\u00d0\u00b2\u00d0\u00b0\u00d0\u00bb\u00d0\u00bb\u00d0\u00b8",
        "name_sv": "",
        "name_tr": "",
        "name_vi": "",
        "name_zh": "\u00e5\u0093\u0088\u00e7\u0093\u00a6\u00e5\u0088\u00a9",
        "namealt": "",
        "nameascii": "Hawalli",
        "namediff": "1",
        "namepar": "",
        "natscale": "1",
        "ne_id": "1159118215",
        "note": "",
        "pop1950": "0.00000000000",
        "pop1955": "0.00000000000",
        "pop1960": "0.00000000000",
        "pop1965": "0.00000000000",
        "pop1970": "0.00000000000",
        "pop1975": "0.00000000000",
        "pop1980": "0.00000000000",
        "pop1985": "0.00000000000",
        "pop1990": "0.00000000000",
        "pop1995": "0.00000000000",
        "pop2000": "0.00000000000",
        "pop2005": "0.00000000000",
        "pop2010": "0.00000000000",
        "pop2015": "0.00000000000",
        "pop2020": "0.00000000000",
        "pop2025": "0.00000000000",
        "pop2050": "0.00000000000",
        "pop_max": "164212",
        "pop_min": "164212",
        "pop_other": "0",
        "rank_max": "9",
        "rank_min": "9",
        "record_type": "city",
        "scalerank": "10",
        "sov0name": "Kuwait",
        "sov_a3": "KWT",
        "timezone": "",
        "un_adm0": "",
        "un_fid": "0",
        "un_lat": "0.00000000000",
        "un_long": "0.00000000000",
        "wdid_score": "4",
        "wikidataid": "Q3235220",
        "wof_id": "1141906111",
        "worldcity": "0.00000000000"
    },
    "kuwait": {
        "adm0_a3": "KWT",
        "adm0cap": "1.00000000000",
        "adm0name": "Kuwait",
        "adm1name": "Al Kuwayt",
        "admin1_cod": "0.00000000000",
        "capalt": "****",
        "capin": "",
        "cca2": "KW",
        "cca3": "KWT",
        "changed": "5.00000000000",
        "checkme": "5",
        "cityalt": "Kuwait",
        "compare": "0",
        "data_sources": [
            "natural"
        ],
        "diffascii": "0",
        "diffnote": "Changed scale rank.",
        "elevation": "0.00000000000",
        "feature_cl": "P",
        "feature_co": "PPLC",
        "featurecla": "Admin-0 capital",
        "geonameid": "285787.00000000000",
        "geonamesno": "GeoNames match general.",
        "gn_ascii": "Kuwait",
        "gn_pop": "60064",
        "gtopo30": "12.00000000000",
        "iso_a2": "KW",
        "iso_a3": "KWT",
        "label": "",
        "labelrank": "8",
        "latitude": "29.36971763000",
        "longitude": "47.97830114620",
        "ls_match": "1",
        "ls_name": "Kuwait",
        "max_areakm": "366.00000000000",
        "max_areami": "141.00000000000",
        "max_bbxmax": "48.15000000000",
        "max_bbxmin": "47.82105160000",
        "max_bbymax": "29.39166667000",
        "max_bbymin": "29.22500000000",
        "max_natsca": "100",
        "max_perkm": "249.00000000000",
        "max_permi": "155.00000000000",
        "max_pop10": "1732952",
        "max_pop20": "2142805",
        "max_pop50": "2142805",
        "max_pop300": "2142805",
        "max_pop310": "0",
        "mean_bbxc": "47.99399890500",
        "mean_bbyc": "29.27711944000",
        "megacity": "1",
        "meganame": "Al Kuwayt (Kuwait City)",
        "min_areakm": "264",
        "min_areami": "102.00000000000",
        "min_bbxmax": "48.10000000000",
        "min_bbxmin": "47.80000000000",
        "min_bbymax": "29.39166667000",
        "min_bbymin": "29.06666667000",
        "min_perkm": "162.00000000000",
        "min_permi": "101.00000000000",
        "min_zoom": "4.0",
        "name": "Kuwait",
        "name_ar": "",
        "name_bn": "",
        "name_de": "Kuwait-Stadt",
        "name_el": "",
        "name_en": "Kuwait City",
        "name_es": "Ciudad de Kuwait",
        "name_fr": "Kowe\u00c3\u00aft",
        "name_hi": "",
        "name_hu": "",
        "name_id": "",
        "name_it": "",
        "name_ja": "",
        "name_ko": "",
        "name_nl": "",
        "name_pl": "",
        "name_pt": "Kuwait",
        "name_ru": "\u00d0\u009a\u00d1\u0083\u00d0\u00b2\u00d0\u00b5\u00d0\u00b9\u00d1\u0082",
        "name_sv": "",
        "name_tr": "",
        "name_vi": "",
        "name_zh": "\u00e7\u00a7\u0091\u00e5\u00a8\u0081\u00e7\u0089\u00b9",
        "namealt": "Al Kuwayt|Kuwait City",
        "nameascii": "Kuwait",
        "namediff": "0",
        "namepar": "",
        "natscale": "200",
        "ne_id": "1159151361",
        "note": "",
        "pop1950": "63.00000000000",
        "pop1955": "106.00000000000",
        "pop1960": "179.00000000000",
        "pop1965": "303.00000000000",
        "pop1970": "553.00000000000",
        "pop1975": "688.00000000000",
        "pop1980": "891.00000000000",
        "pop1985": "1122.00000000000",
        "pop1990": "1392.00000000000",
        "pop1995": "1190.00000000000",
        "pop2000": "1499.00000000000",
        "pop2005": "1888.00000000000",
        "pop2010": "2063.00000000000",
        "pop2015": "2305.00000000000",
        "pop2020": "2592.00000000000",
        "pop2025": "2790.00000000000",
        "pop2050": "2956.00000000000",
        "pop_max": "2063000",
        "pop_min": "60064",
        "pop_other": "1682968",
        "rank_max": "12",
        "rank_min": "8",
        "record_type": "city",
        "scalerank": "2",
        "sov0name": "Kuwait",
        "sov_a3": "KWT",
        "timezone": "Asia\/Kuwait",
        "un_adm0": "Kuwait",
        "un_fid": "339",
        "un_lat": "29.38000000000",
        "un_long": "47.97000000000",
        "wdid_score": "4",
        "wikidataid": "Q35178",
        "wof_id": "421202465",
        "worldcity": "0.00000000000"
    }
}