{
    "diekirch": {
        "adm0_a3": "LUX",
        "adm0cap": "0.00000000000",
        "adm0name": "Luxembourg",
        "adm1name": "Diekirch",
        "admin1_cod": "1.00000000000",
        "capalt": "****",
        "capin": "",
        "cca2": "LU",
        "cca3": "LUX",
        "changed": "4.00000000000",
        "checkme": "0",
        "cityalt": "",
        "compare": "0",
        "data_sources": [
            "natural"
        ],
        "diffascii": "0",
        "diffnote": "Added missing admin-1 capital. Population from GeoNames.",
        "elevation": "0.00000000000",
        "feature_cl": "P",
        "feature_co": "PPLA",
        "featurecla": "Admin-1 capital",
        "geonameid": "2960657.00000000000",
        "geonamesno": "GeoNames match general.",
        "gn_ascii": "Diekirch",
        "gn_pop": "6242",
        "gtopo30": "209.00000000000",
        "iso_a2": "LU",
        "iso_a3": "LUX",
        "label": "",
        "labelrank": "8",
        "latitude": "49.88330105090",
        "longitude": "6.16670155545",
        "ls_match": "0",
        "ls_name": "",
        "max_areakm": "0.00000000000",
        "max_areami": "0.00000000000",
        "max_bbxmax": "0.00000000000",
        "max_bbxmin": "0.00000000000",
        "max_bbymax": "0.00000000000",
        "max_bbymin": "0.00000000000",
        "max_natsca": "0",
        "max_perkm": "0.00000000000",
        "max_permi": "0.00000000000",
        "max_pop10": "0",
        "max_pop20": "0",
        "max_pop50": "0",
        "max_pop300": "0",
        "max_pop310": "0",
        "mean_bbxc": "0.00000000000",
        "mean_bbyc": "0.00000000000",
        "megacity": "0",
        "meganame": "",
        "min_areakm": "0",
        "min_areami": "0.00000000000",
        "min_bbxmax": "0.00000000000",
        "min_bbxmin": "0.00000000000",
        "min_bbymax": "0.00000000000",
        "min_bbymin": "0.00000000000",
        "min_perkm": "0.00000000000",
        "min_permi": "0.00000000000",
        "min_zoom": "7.0",
        "name": "Diekirch",
        "name_ar": "",
        "name_bn": "",
        "name_de": "Diekirch",
        "name_el": "",
        "name_en": "Diekirch",
        "name_es": "Diekirch",
        "name_fr": "Diekirch",
        "name_hi": "",
        "name_hu": "",
        "name_id": "",
        "name_it": "",
        "name_ja": "",
        "name_ko": "",
        "name_nl": "",
        "name_pl": "",
        "name_pt": "Diekirch",
        "name_ru": "\u00d0\u0094\u00d0\u00b8\u00d0\u00ba\u00d0\u00b8\u00d1\u0080\u00d1\u0085",
        "name_sv": "",
        "name_tr": "",
        "name_vi": "",
        "name_zh": "\u00e8\u00bf\u00aa\u00e5\u009f\u00ba\u00e5\u00b8\u008c",
        "namealt": "",
        "nameascii": "Diekirch",
        "namediff": "1",
        "namepar": "",
        "natscale": "1",
        "ne_id": "1159117375",
        "note": "",
        "pop1950": "0.00000000000",
        "pop1955": "0.00000000000",
        "pop1960": "0.00000000000",
        "pop1965": "0.00000000000",
        "pop1970": "0.00000000000",
        "pop1975": "0.00000000000",
        "pop1980": "0.00000000000",
        "pop1985": "0.00000000000",
        "pop1990": "0.00000000000",
        "pop1995": "0.00000000000",
        "pop2000": "0.00000000000",
        "pop2005": "0.00000000000",
        "pop2010": "0.00000000000",
        "pop2015": "0.00000000000",
        "pop2020": "0.00000000000",
        "pop2025": "0.00000000000",
        "pop2050": "0.00000000000",
        "pop_max": "6242",
        "pop_min": "6242",
        "pop_other": "0",
        "rank_max": "5",
        "rank_min": "5",
        "record_type": "city",
        "scalerank": "10",
        "sov0name": "Luxembourg",
        "sov_a3": "LUX",
        "timezone": "Europe\/Luxembourg",
        "un_adm0": "",
        "un_fid": "0",
        "un_lat": "0.00000000000",
        "un_long": "0.00000000000",
        "wdid_score": "4",
        "wikidataid": "Q16050",
        "wof_id": "101812859",
        "worldcity": "0.00000000000"
    },
    "grevenmacher": {
        "adm0_a3": "LUX",
        "adm0cap": "0.00000000000",
        "adm0name": "Luxembourg",
        "adm1name": "Grevenmacher",
        "admin1_cod": "2.00000000000",
        "capalt": "****",
        "capin": "",
        "cca2": "LU",
        "cca3": "LUX",
        "changed": "4.00000000000",
        "checkme": "0",
        "cityalt": "",
        "compare": "0",
        "data_sources": [
            "natural"
        ],
        "diffascii": "0",
        "diffnote": "Added missing admin-1 capital. Population from GeoNames.",
        "elevation": "0.00000000000",
        "feature_cl": "P",
        "feature_co": "PPLA",
        "featurecla": "Admin-1 capital",
        "geonameid": "2960515.00000000000",
        "geonamesno": "GeoNames match general.",
        "gn_ascii": "Grevenmacher",
        "gn_pop": "3958",
        "gtopo30": "296.00000000000",
        "iso_a2": "LU",
        "iso_a3": "LUX",
        "label": "",
        "labelrank": "8",
        "latitude": "49.69999811130",
        "longitude": "6.33330057452",
        "ls_match": "0",
        "ls_name": "",
        "max_areakm": "0.00000000000",
        "max_areami": "0.00000000000",
        "max_bbxmax": "0.00000000000",
        "max_bbxmin": "0.00000000000",
        "max_bbymax": "0.00000000000",
        "max_bbymin": "0.00000000000",
        "max_natsca": "0",
        "max_perkm": "0.00000000000",
        "max_permi": "0.00000000000",
        "max_pop10": "0",
        "max_pop20": "0",
        "max_pop50": "0",
        "max_pop300": "0",
        "max_pop310": "0",
        "mean_bbxc": "0.00000000000",
        "mean_bbyc": "0.00000000000",
        "megacity": "0",
        "meganame": "",
        "min_areakm": "0",
        "min_areami": "0.00000000000",
        "min_bbxmax": "0.00000000000",
        "min_bbxmin": "0.00000000000",
        "min_bbymax": "0.00000000000",
        "min_bbymin": "0.00000000000",
        "min_perkm": "0.00000000000",
        "min_permi": "0.00000000000",
        "min_zoom": "7.0",
        "name": "Grevenmacher",
        "name_ar": "",
        "name_bn": "",
        "name_de": "Grevenmacher",
        "name_el": "",
        "name_en": "Grevenmacher",
        "name_es": "",
        "name_fr": "Grevenmacher",
        "name_hi": "",
        "name_hu": "",
        "name_id": "",
        "name_it": "",
        "name_ja": "",
        "name_ko": "",
        "name_nl": "",
        "name_pl": "",
        "name_pt": "Grevenmacher",
        "name_ru": "\u00d0\u0093\u00d1\u0080\u00d0\u00b5\u00d0\u00b2\u00d0\u00b5\u00d0\u00bd\u00d0\u00bc\u00d0\u00b0\u00d1\u0085\u00d0\u00b5\u00d1\u0080",
        "name_sv": "",
        "name_tr": "",
        "name_vi": "",
        "name_zh": "\u00e6\u00a0\u00bc\u00e9\u009b\u00b7\u00e6\u0096\u0087\u00e9\u00a9\u00ac\u00e8\u00b5\u00ab",
        "namealt": "",
        "nameascii": "Grevenmacher",
        "namediff": "1",
        "namepar": "",
        "natscale": "1",
        "ne_id": "1159117399",
        "note": "",
        "pop1950": "0.00000000000",
        "pop1955": "0.00000000000",
        "pop1960": "0.00000000000",
        "pop1965": "0.00000000000",
        "pop1970": "0.00000000000",
        "pop1975": "0.00000000000",
        "pop1980": "0.00000000000",
        "pop1985": "0.00000000000",
        "pop1990": "0.00000000000",
        "pop1995": "0.00000000000",
        "pop2000": "0.00000000000",
        "pop2005": "0.00000000000",
        "pop2010": "0.00000000000",
        "pop2015": "0.00000000000",
        "pop2020": "0.00000000000",
        "pop2025": "0.00000000000",
        "pop2050": "0.00000000000",
        "pop_max": "3958",
        "pop_min": "3958",
        "pop_other": "0",
        "rank_max": "4",
        "rank_min": "4",
        "record_type": "city",
        "scalerank": "10",
        "sov0name": "Luxembourg",
        "sov_a3": "LUX",
        "timezone": "Europe\/Luxembourg",
        "un_adm0": "",
        "un_fid": "0",
        "un_lat": "0.00000000000",
        "un_long": "0.00000000000",
        "wdid_score": "4",
        "wikidataid": "Q215826",
        "wof_id": "101839801",
        "worldcity": "0.00000000000"
    },
    "luxembourg": {
        "adm0_a3": "LUX",
        "adm0cap": "1.00000000000",
        "adm0name": "Luxembourg",
        "adm1name": "Luxembourg",
        "admin1_cod": "3.00000000000",
        "capalt": "****",
        "capin": "",
        "cca2": "LU",
        "cca3": "LUX",
        "changed": "4.00000000000",
        "checkme": "0",
        "cityalt": "",
        "compare": "0",
        "data_sources": [
            "natural"
        ],
        "diffascii": "0",
        "diffnote": "Changed scale rank.",
        "elevation": "0.00000000000",
        "feature_cl": "P",
        "feature_co": "PPLC",
        "featurecla": "Admin-0 capital",
        "geonameid": "2960316.00000000000",
        "geonamesno": "GeoNames match general.",
        "gn_ascii": "Luxembourg",
        "gn_pop": "76684",
        "gtopo30": "259.00000000000",
        "iso_a2": "LU",
        "iso_a3": "LUX",
        "label": "",
        "labelrank": "8",
        "latitude": "49.61166037910",
        "longitude": "6.13000280623",
        "ls_match": "1",
        "ls_name": "Luxembourg",
        "max_areakm": "60.00000000000",
        "max_areami": "23.00000000000",
        "max_bbxmax": "6.18333333000",
        "max_bbxmin": "6.04166667000",
        "max_bbymax": "49.70833333000",
        "max_bbymin": "49.55833333000",
        "max_natsca": "50",
        "max_perkm": "71.00000000000",
        "max_permi": "44.00000000000",
        "max_pop10": "107260",
        "max_pop20": "107260",
        "max_pop50": "107260",
        "max_pop300": "0",
        "max_pop310": "0",
        "mean_bbxc": "6.12527259000",
        "mean_bbyc": "49.62083333000",
        "megacity": "0",
        "meganame": "",
        "min_areakm": "60",
        "min_areami": "23.00000000000",
        "min_bbxmax": "6.18333333000",
        "min_bbxmin": "6.04166667000",
        "min_bbymax": "49.70833333000",
        "min_bbymin": "49.55833333000",
        "min_perkm": "71.00000000000",
        "min_permi": "44.00000000000",
        "min_zoom": "6.0",
        "name": "Luxembourg",
        "name_ar": "",
        "name_bn": "",
        "name_de": "Luxemburg",
        "name_el": "",
        "name_en": "Luxembourg",
        "name_es": "Luxemburgo",
        "name_fr": "Luxembourg",
        "name_hi": "",
        "name_hu": "",
        "name_id": "",
        "name_it": "",
        "name_ja": "",
        "name_ko": "",
        "name_nl": "",
        "name_pl": "",
        "name_pt": "Luxemburgo",
        "name_ru": "\u00d0\u009b\u00d1\u008e\u00d0\u00ba\u00d1\u0081\u00d0\u00b5\u00d0\u00bc\u00d0\u00b1\u00d1\u0083\u00d1\u0080\u00d0\u00b3",
        "name_sv": "",
        "name_tr": "",
        "name_vi": "",
        "name_zh": "\u00e7\u009b\u00a7\u00e6\u00a3\u00ae\u00e5\u00a0\u00a1",
        "namealt": "",
        "nameascii": "Luxembourg",
        "namediff": "0",
        "namepar": "",
        "natscale": "30",
        "ne_id": "1159146437",
        "note": "",
        "pop1950": "0.00000000000",
        "pop1955": "0.00000000000",
        "pop1960": "0.00000000000",
        "pop1965": "0.00000000000",
        "pop1970": "0.00000000000",
        "pop1975": "0.00000000000",
        "pop1980": "0.00000000000",
        "pop1985": "0.00000000000",
        "pop1990": "0.00000000000",
        "pop1995": "0.00000000000",
        "pop2000": "0.00000000000",
        "pop2005": "0.00000000000",
        "pop2010": "0.00000000000",
        "pop2015": "0.00000000000",
        "pop2020": "0.00000000000",
        "pop2025": "0.00000000000",
        "pop2050": "0.00000000000",
        "pop_max": "107260",
        "pop_min": "76684",
        "pop_other": "106219",
        "rank_max": "9",
        "rank_min": "8",
        "record_type": "city",
        "scalerank": "6",
        "sov0name": "Luxembourg",
        "sov_a3": "LUX",
        "timezone": "Europe\/Luxembourg",
        "un_adm0": "",
        "un_fid": "0",
        "un_lat": "0.00000000000",
        "un_long": "0.00000000000",
        "wdid_score": "4",
        "wikidataid": "Q1842",
        "wof_id": "101751765",
        "worldcity": "0.00000000000"
    }
}