{
    "macau": {
        "adm0_a3": "MAC",
        "adm0cap": "0.00000000000",
        "adm0name": "Macau S.A.R",
        "adm1name": "",
        "admin1_cod": "22.00000000000",
        "capalt": "****",
        "capin": "",
        "cca2": "MO",
        "cca3": "MAC",
        "changed": "1.00000000000",
        "checkme": "5",
        "cityalt": "",
        "compare": "0",
        "data_sources": [
            "natural"
        ],
        "diffascii": "0",
        "diffnote": "Changed scale rank.",
        "elevation": "0.00000000000",
        "feature_cl": "P",
        "feature_co": "PPL",
        "featurecla": "Admin-0 region capital",
        "geonameid": "3395998.00000000000",
        "geonamesno": "GeoNames match general.",
        "gn_ascii": "Macau",
        "gn_pop": "18070",
        "gtopo30": "1.00000000000",
        "iso_a2": "MO",
        "iso_a3": "MAC",
        "label": "",
        "labelrank": "0",
        "latitude": "22.20299745580",
        "longitude": "113.54504838000",
        "ls_match": "1",
        "ls_name": "Macau",
        "max_areakm": "243.00000000000",
        "max_areami": "94.00000000000",
        "max_bbxmax": "113.58333333000",
        "max_bbxmin": "113.31666667000",
        "max_bbymax": "22.40690024000",
        "max_bbymin": "22.17500000000",
        "max_natsca": "20",
        "max_perkm": "242.00000000000",
        "max_permi": "150.00000000000",
        "max_pop10": "1443346",
        "max_pop20": "1443346",
        "max_pop50": "0",
        "max_pop300": "0",
        "max_pop310": "0",
        "mean_bbxc": "113.46349041000",
        "mean_bbyc": "22.29381860000",
        "megacity": "0",
        "meganame": "",
        "min_areakm": "243",
        "min_areami": "94.00000000000",
        "min_bbxmax": "113.58333333000",
        "min_bbxmin": "113.31666667000",
        "min_bbymax": "22.40690024000",
        "min_bbymin": "22.17500000000",
        "min_perkm": "242.00000000000",
        "min_permi": "150.00000000000",
        "min_zoom": "6.0",
        "name": "Macau",
        "name_ar": "",
        "name_bn": "",
        "name_de": "Macau",
        "name_el": "",
        "name_en": "Macau",
        "name_es": "Macao",
        "name_fr": "Macao",
        "name_hi": "",
        "name_hu": "",
        "name_id": "",
        "name_it": "",
        "name_ja": "",
        "name_ko": "",
        "name_nl": "",
        "name_pl": "",
        "name_pt": "Macau",
        "name_ru": "\u00d0\u009c\u00d0\u00b0\u00d0\u00ba\u00d0\u00b0\u00d0\u00be",
        "name_sv": "",
        "name_tr": "",
        "name_vi": "",
        "name_zh": "\u00e6\u00be\u00b3\u00e9\u0096\u0080",
        "namealt": "",
        "nameascii": "Macau",
        "namediff": "0",
        "namepar": "",
        "natscale": "30",
        "ne_id": "1159149085",
        "note": "",
        "pop1950": "0.00000000000",
        "pop1955": "0.00000000000",
        "pop1960": "0.00000000000",
        "pop1965": "0.00000000000",
        "pop1970": "0.00000000000",
        "pop1975": "0.00000000000",
        "pop1980": "0.00000000000",
        "pop1985": "0.00000000000",
        "pop1990": "0.00000000000",
        "pop1995": "0.00000000000",
        "pop2000": "0.00000000000",
        "pop2005": "0.00000000000",
        "pop2010": "0.00000000000",
        "pop2015": "0.00000000000",
        "pop2020": "0.00000000000",
        "pop2025": "0.00000000000",
        "pop2050": "0.00000000000",
        "pop_max": "568700",
        "pop_min": "568700",
        "pop_other": "1753868",
        "rank_max": "11",
        "rank_min": "11",
        "record_type": "city",
        "scalerank": "6",
        "sov0name": "China",
        "sov_a3": "CHN",
        "timezone": "America\/Fortaleza",
        "un_adm0": "",
        "un_fid": "0",
        "un_lat": "0.00000000000",
        "un_long": "0.00000000000",
        "wdid_score": "4",
        "wikidataid": "Q14773",
        "wof_id": "101946381",
        "worldcity": "0.00000000000"
    }
}