{
    "baglung": {
        "adm0_a3": "NPL",
        "adm0cap": "0.00000000000",
        "adm0name": "Nepal",
        "adm1name": "Dhawalagiri",
        "admin1_cod": "0.00000000000",
        "capalt": "****",
        "capin": "",
        "cca2": "NP",
        "cca3": "NPL",
        "changed": "4.00000000000",
        "checkme": "0",
        "cityalt": "",
        "compare": "0",
        "data_sources": [
            "natural"
        ],
        "diffascii": "0",
        "diffnote": "Added missing admin-1 capital. Population from GeoNames.",
        "elevation": "0.00000000000",
        "feature_cl": "P",
        "feature_co": "PPL",
        "featurecla": "Admin-1 capital",
        "geonameid": "1283711.00000000000",
        "geonamesno": "Geonames ascii name + lat.d + long.d matching.",
        "gn_ascii": "Baglung",
        "gn_pop": "23296",
        "gtopo30": "948.00000000000",
        "iso_a2": "NP",
        "iso_a3": "NPL",
        "label": "",
        "labelrank": "6",
        "latitude": "28.26669605930",
        "longitude": "83.58329762020",
        "ls_match": "0",
        "ls_name": "",
        "max_areakm": "0.00000000000",
        "max_areami": "0.00000000000",
        "max_bbxmax": "0.00000000000",
        "max_bbxmin": "0.00000000000",
        "max_bbymax": "0.00000000000",
        "max_bbymin": "0.00000000000",
        "max_natsca": "0",
        "max_perkm": "0.00000000000",
        "max_permi": "0.00000000000",
        "max_pop10": "0",
        "max_pop20": "0",
        "max_pop50": "0",
        "max_pop300": "0",
        "max_pop310": "0",
        "mean_bbxc": "0.00000000000",
        "mean_bbyc": "0.00000000000",
        "megacity": "0",
        "meganame": "",
        "min_areakm": "0",
        "min_areami": "0.00000000000",
        "min_bbxmax": "0.00000000000",
        "min_bbxmin": "0.00000000000",
        "min_bbymax": "0.00000000000",
        "min_bbymin": "0.00000000000",
        "min_perkm": "0.00000000000",
        "min_permi": "0.00000000000",
        "min_zoom": "9.0",
        "name": "Baglung",
        "name_ar": "",
        "name_bn": "",
        "name_de": "Baglung",
        "name_el": "",
        "name_en": "Baglung",
        "name_es": "",
        "name_fr": "Baglung",
        "name_hi": "",
        "name_hu": "",
        "name_id": "",
        "name_it": "",
        "name_ja": "",
        "name_ko": "",
        "name_nl": "",
        "name_pl": "",
        "name_pt": "Baglung",
        "name_ru": "\u00d0\u0091\u00d0\u00b0\u00d0\u00b3\u00d0\u00bb\u00d1\u0083\u00d0\u00bd\u00d0\u00b3",
        "name_sv": "",
        "name_tr": "",
        "name_vi": "",
        "name_zh": "\u00e5\u00b7\u00b4\u00e6\u00a0\u00bc\u00e9\u009a\u0086",
        "namealt": "",
        "nameascii": "Baglung",
        "namediff": "1",
        "namepar": "",
        "natscale": "1",
        "ne_id": "1159116171",
        "note": "",
        "pop1950": "0.00000000000",
        "pop1955": "0.00000000000",
        "pop1960": "0.00000000000",
        "pop1965": "0.00000000000",
        "pop1970": "0.00000000000",
        "pop1975": "0.00000000000",
        "pop1980": "0.00000000000",
        "pop1985": "0.00000000000",
        "pop1990": "0.00000000000",
        "pop1995": "0.00000000000",
        "pop2000": "0.00000000000",
        "pop2005": "0.00000000000",
        "pop2010": "0.00000000000",
        "pop2015": "0.00000000000",
        "pop2020": "0.00000000000",
        "pop2025": "0.00000000000",
        "pop2050": "0.00000000000",
        "pop_max": "23296",
        "pop_min": "23296",
        "pop_other": "0",
        "rank_max": "7",
        "rank_min": "7",
        "record_type": "city",
        "scalerank": "10",
        "sov0name": "Nepal",
        "sov_a3": "NPL",
        "timezone": "Asia\/Kathmandu",
        "un_adm0": "",
        "un_fid": "0",
        "un_lat": "0.00000000000",
        "un_long": "0.00000000000",
        "wdid_score": "4",
        "wikidataid": "Q1659597",
        "wof_id": "890431433",
        "worldcity": "0.00000000000"
    },
    "bhairawa": {
        "adm0_a3": "NPL",
        "adm0cap": "0.00000000000",
        "adm0name": "Nepal",
        "adm1name": "Lumbini",
        "admin1_cod": "0.00000000000",
        "capalt": "****",
        "capin": "",
        "cca2": "NP",
        "cca3": "NPL",
        "changed": "4.00000000000",
        "checkme": "0",
        "cityalt": "",
        "compare": "0",
        "data_sources": [
            "natural"
        ],
        "diffascii": "0",
        "diffnote": "Added missing admin-1 capital. Population from GeoNames.",
        "elevation": "0.00000000000",
        "feature_cl": "P",
        "feature_co": "PPL",
        "featurecla": "Admin-1 capital",
        "geonameid": "1283621.00000000000",
        "geonamesno": "GeoNames spatial join with similar names only.",
        "gn_ascii": "Bhairahawa",
        "gn_pop": "63367",
        "gtopo30": "88.00000000000",
        "iso_a2": "NP",
        "iso_a3": "NPL",
        "label": "",
        "labelrank": "6",
        "latitude": "27.53330408910",
        "longitude": "83.38329953060",
        "ls_match": "0",
        "ls_name": "",
        "max_areakm": "0.00000000000",
        "max_areami": "0.00000000000",
        "max_bbxmax": "0.00000000000",
        "max_bbxmin": "0.00000000000",
        "max_bbymax": "0.00000000000",
        "max_bbymin": "0.00000000000",
        "max_natsca": "0",
        "max_perkm": "0.00000000000",
        "max_permi": "0.00000000000",
        "max_pop10": "0",
        "max_pop20": "0",
        "max_pop50": "0",
        "max_pop300": "0",
        "max_pop310": "0",
        "mean_bbxc": "0.00000000000",
        "mean_bbyc": "0.00000000000",
        "megacity": "0",
        "meganame": "",
        "min_areakm": "0",
        "min_areami": "0.00000000000",
        "min_bbxmax": "0.00000000000",
        "min_bbxmin": "0.00000000000",
        "min_bbymax": "0.00000000000",
        "min_bbymin": "0.00000000000",
        "min_perkm": "0.00000000000",
        "min_permi": "0.00000000000",
        "min_zoom": "7.0",
        "name": "Bhairawa",
        "name_ar": "",
        "name_bn": "",
        "name_de": "Siddharthanagar",
        "name_el": "",
        "name_en": "Siddharthanagar",
        "name_es": "Siddharthanagar",
        "name_fr": "Siddharthanagar",
        "name_hi": "",
        "name_hu": "",
        "name_id": "",
        "name_it": "",
        "name_ja": "",
        "name_ko": "",
        "name_nl": "",
        "name_pl": "",
        "name_pt": "Siddharthanagar",
        "name_ru": "\u00d0\u00a1\u00d0\u00b8\u00d0\u00b4\u00d0\u00b4\u00d1\u0085\u00d0\u00b0\u00d1\u0080\u00d1\u0082\u00d1\u0085\u00d0\u00b0\u00d0\u00bd\u00d0\u00b0\u00d0\u00b3\u00d0\u00b0\u00d1\u0080",
        "name_sv": "",
        "name_tr": "",
        "name_vi": "",
        "name_zh": "\u00e9\u008c\u00ab\u00e9\u0099\u0080\u00e5\u00a1\u0094\u00e9\u0082\u00a3\u00e8\u00bf\u00a6",
        "namealt": "",
        "nameascii": "Bhairawa",
        "namediff": "1",
        "namepar": "",
        "natscale": "1",
        "ne_id": "1159116209",
        "note": "",
        "pop1950": "0.00000000000",
        "pop1955": "0.00000000000",
        "pop1960": "0.00000000000",
        "pop1965": "0.00000000000",
        "pop1970": "0.00000000000",
        "pop1975": "0.00000000000",
        "pop1980": "0.00000000000",
        "pop1985": "0.00000000000",
        "pop1990": "0.00000000000",
        "pop1995": "0.00000000000",
        "pop2000": "0.00000000000",
        "pop2005": "0.00000000000",
        "pop2010": "0.00000000000",
        "pop2015": "0.00000000000",
        "pop2020": "0.00000000000",
        "pop2025": "0.00000000000",
        "pop2050": "0.00000000000",
        "pop_max": "63367",
        "pop_min": "63367",
        "pop_other": "0",
        "rank_max": "8",
        "rank_min": "8",
        "record_type": "city",
        "scalerank": "10",
        "sov0name": "Nepal",
        "sov_a3": "NPL",
        "timezone": "Asia\/Kathmandu",
        "un_adm0": "",
        "un_fid": "0",
        "un_lat": "0.00000000000",
        "un_long": "0.00000000000",
        "wdid_score": "4",
        "wikidataid": "Q1530936",
        "wof_id": "421199719",
        "worldcity": "0.00000000000"
    },
    "bhimphedi": {
        "adm0_a3": "NPL",
        "adm0cap": "0.00000000000",
        "adm0name": "Nepal",
        "adm1name": "Narayani",
        "admin1_cod": "0.00000000000",
        "capalt": "****",
        "capin": "",
        "cca2": "NP",
        "cca3": "NPL",
        "changed": "4.00000000000",
        "checkme": "0",
        "cityalt": "",
        "compare": "0",
        "data_sources": [
            "natural"
        ],
        "diffascii": "0",
        "diffnote": "Added missing admin-1 capital.",
        "elevation": "0.00000000000",
        "feature_cl": "",
        "feature_co": "",
        "featurecla": "Admin-1 capital",
        "geonameid": "-1.00000000000",
        "geonamesno": "No GeoNames match due to small population, not in GeoNames, or poor NEV placement.",
        "gn_ascii": "",
        "gn_pop": "0",
        "gtopo30": "0.00000000000",
        "iso_a2": "NP",
        "iso_a3": "NPL",
        "label": "Bhimphedi",
        "labelrank": "6",
        "latitude": "27.55099809840",
        "longitude": "85.13000156290",
        "ls_match": "0",
        "ls_name": "",
        "max_areakm": "0.00000000000",
        "max_areami": "0.00000000000",
        "max_bbxmax": "0.00000000000",
        "max_bbxmin": "0.00000000000",
        "max_bbymax": "0.00000000000",
        "max_bbymin": "0.00000000000",
        "max_natsca": "0",
        "max_perkm": "0.00000000000",
        "max_permi": "0.00000000000",
        "max_pop10": "0",
        "max_pop20": "0",
        "max_pop50": "0",
        "max_pop300": "0",
        "max_pop310": "0",
        "mean_bbxc": "0.00000000000",
        "mean_bbyc": "0.00000000000",
        "megacity": "0",
        "meganame": "",
        "min_areakm": "0",
        "min_areami": "0.00000000000",
        "min_bbxmax": "0.00000000000",
        "min_bbxmin": "0.00000000000",
        "min_bbymax": "0.00000000000",
        "min_bbymin": "0.00000000000",
        "min_perkm": "0.00000000000",
        "min_permi": "0.00000000000",
        "min_zoom": "9.0",
        "name": "Bhimphedi",
        "name_ar": "\u00d9\u0082\u00d8\u00b1\u00d9\u008a\u00d8\u00a9 \u00d8\u00a8\u00d9\u0087\u00d9\u008a\u00d9\u0085\u00d9\u0081\u00d9\u008a\u00d8\u00af\u00d9\u008a",
        "name_bn": "",
        "name_de": "Bhimfedi",
        "name_el": "",
        "name_en": "Bhimfedi",
        "name_es": "Bhimfedi",
        "name_fr": "Bhimfedi",
        "name_hi": "",
        "name_hu": "",
        "name_id": "",
        "name_it": "",
        "name_ja": "",
        "name_ko": "",
        "name_nl": "Bhimfedi",
        "name_pl": "Bhimfedi",
        "name_pt": "Bhimfedi",
        "name_ru": "",
        "name_sv": "",
        "name_tr": "",
        "name_vi": "",
        "name_zh": "",
        "namealt": "",
        "nameascii": "Bhimphedi",
        "namediff": "1",
        "namepar": "",
        "natscale": "1",
        "ne_id": "1159116295",
        "note": "",
        "pop1950": "0.00000000000",
        "pop1955": "0.00000000000",
        "pop1960": "0.00000000000",
        "pop1965": "0.00000000000",
        "pop1970": "0.00000000000",
        "pop1975": "0.00000000000",
        "pop1980": "0.00000000000",
        "pop1985": "0.00000000000",
        "pop1990": "0.00000000000",
        "pop1995": "0.00000000000",
        "pop2000": "0.00000000000",
        "pop2005": "0.00000000000",
        "pop2010": "0.00000000000",
        "pop2015": "0.00000000000",
        "pop2020": "0.00000000000",
        "pop2025": "0.00000000000",
        "pop2050": "0.00000000000",
        "pop_max": "15000",
        "pop_min": "15000",
        "pop_other": "0",
        "rank_max": "6",
        "rank_min": "6",
        "record_type": "city",
        "scalerank": "10",
        "sov0name": "Nepal",
        "sov_a3": "NPL",
        "timezone": "",
        "un_adm0": "",
        "un_fid": "0",
        "un_lat": "0.00000000000",
        "un_long": "0.00000000000",
        "wdid_score": "5",
        "wikidataid": "Q3411614",
        "wof_id": "1141906057",
        "worldcity": "0.00000000000"
    },
    "biratnagar": {
        "adm0_a3": "NPL",
        "adm0cap": "0.00000000000",
        "adm0name": "Nepal",
        "adm1name": "Bhojpur",
        "admin1_cod": "0.00000000000",
        "capalt": "****",
        "capin": "",
        "cca2": "NP",
        "cca3": "NPL",
        "changed": "0.00000000000",
        "checkme": "5",
        "cityalt": "",
        "compare": "0",
        "data_sources": [
            "natural"
        ],
        "diffascii": "0",
        "diffnote": "",
        "elevation": "0.00000000000",
        "feature_cl": "P",
        "feature_co": "PPL",
        "featurecla": "Admin-1 capital",
        "geonameid": "1283582.00000000000",
        "geonamesno": "Geonames ascii name + lat.d + long.d matching.",
        "gn_ascii": "Biratnagar",
        "gn_pop": "182324",
        "gtopo30": "70.00000000000",
        "iso_a2": "NP",
        "iso_a3": "NPL",
        "label": "",
        "labelrank": "6",
        "latitude": "26.48374391580",
        "longitude": "87.28334387100",
        "ls_match": "1",
        "ls_name": "Biratnagar",
        "max_areakm": "5374.00000000000",
        "max_areami": "2075.00000000000",
        "max_bbxmax": "87.92841678000",
        "max_bbxmin": "86.48333333000",
        "max_bbymax": "26.85000000000",
        "max_bbymin": "25.95511429000",
        "max_natsca": "20",
        "max_perkm": "2425.00000000000",
        "max_permi": "1507.00000000000",
        "max_pop10": "5925905",
        "max_pop20": "5926135",
        "max_pop50": "0",
        "max_pop300": "0",
        "max_pop310": "0",
        "mean_bbxc": "87.23713615000",
        "mean_bbyc": "26.37529441500",
        "megacity": "0",
        "meganame": "",
        "min_areakm": "5371",
        "min_areami": "2074.00000000000",
        "min_bbxmax": "87.92841678000",
        "min_bbxmin": "86.48333333000",
        "min_bbymax": "26.85000000000",
        "min_bbymin": "25.95511429000",
        "min_perkm": "2418.00000000000",
        "min_permi": "1503.00000000000",
        "min_zoom": "6.7",
        "name": "Biratnagar",
        "name_ar": "",
        "name_bn": "",
        "name_de": "Biratnagar",
        "name_el": "",
        "name_en": "Biratnagar",
        "name_es": "Biratnagar",
        "name_fr": "Biratnagar",
        "name_hi": "",
        "name_hu": "",
        "name_id": "",
        "name_it": "",
        "name_ja": "",
        "name_ko": "",
        "name_nl": "",
        "name_pl": "",
        "name_pt": "Biratnagar",
        "name_ru": "\u00d0\u0091\u00d0\u00b8\u00d1\u0080\u00d0\u00b0\u00d1\u0082\u00d0\u00bd\u00d0\u00b0\u00d0\u00b3\u00d0\u00b0\u00d1\u0080",
        "name_sv": "",
        "name_tr": "",
        "name_vi": "",
        "name_zh": "\u00e6\u00af\u0094\u00e6\u008b\u0089\u00e5\u00be\u00b7\u00e8\u00a8\u00a5\u00e6\u00a0\u00bc\u00e7\u0088\u00be",
        "namealt": "",
        "nameascii": "Biratnagar",
        "namediff": "0",
        "namepar": "",
        "natscale": "20",
        "ne_id": "1159136499",
        "note": "",
        "pop1950": "0.00000000000",
        "pop1955": "0.00000000000",
        "pop1960": "0.00000000000",
        "pop1965": "0.00000000000",
        "pop1970": "0.00000000000",
        "pop1975": "0.00000000000",
        "pop1980": "0.00000000000",
        "pop1985": "0.00000000000",
        "pop1990": "0.00000000000",
        "pop1995": "0.00000000000",
        "pop2000": "0.00000000000",
        "pop2005": "0.00000000000",
        "pop2010": "0.00000000000",
        "pop2015": "0.00000000000",
        "pop2020": "0.00000000000",
        "pop2025": "0.00000000000",
        "pop2050": "0.00000000000",
        "pop_max": "182324",
        "pop_min": "182324",
        "pop_other": "8464390",
        "rank_max": "9",
        "rank_min": "9",
        "record_type": "city",
        "scalerank": "7",
        "sov0name": "Nepal",
        "sov_a3": "NPL",
        "timezone": "Asia\/Kathmandu",
        "un_adm0": "",
        "un_fid": "0",
        "un_lat": "0.00000000000",
        "un_long": "0.00000000000",
        "wdid_score": "4",
        "wikidataid": "Q8247",
        "wof_id": "421177863",
        "worldcity": "0.00000000000"
    },
    "birganj": {
        "adm0_a3": "NPL",
        "adm0cap": "0.00000000000",
        "adm0name": "Nepal",
        "adm1name": "Narayani",
        "admin1_cod": "0.00000000000",
        "capalt": "****",
        "capin": "",
        "cca2": "NP",
        "cca3": "NPL",
        "changed": "0.00000000000",
        "checkme": "0",
        "cityalt": "",
        "compare": "0",
        "data_sources": [
            "natural"
        ],
        "diffascii": "0",
        "diffnote": "",
        "elevation": "0.00000000000",
        "feature_cl": "P",
        "feature_co": "PPL",
        "featurecla": "Populated place",
        "geonameid": "1283581.00000000000",
        "geonamesno": "Geonames ascii name + lat.d + long.d matching.",
        "gn_ascii": "Birganj",
        "gn_pop": "133238",
        "gtopo30": "67.00000000000",
        "iso_a2": "NP",
        "iso_a3": "NPL",
        "label": "",
        "labelrank": "6",
        "latitude": "27.00040488590",
        "longitude": "84.86659216200",
        "ls_match": "1",
        "ls_name": "Birganj",
        "max_areakm": "9291.00000000000",
        "max_areami": "3587.00000000000",
        "max_bbxmax": "85.76593130000",
        "max_bbxmin": "84.05041610000",
        "max_bbymax": "27.33333333000",
        "max_bbymin": "26.16763878000",
        "max_natsca": "20",
        "max_perkm": "3368.00000000000",
        "max_permi": "2093.00000000000",
        "max_pop10": "11230789",
        "max_pop20": "11396188",
        "max_pop50": "0",
        "max_pop300": "0",
        "max_pop310": "0",
        "mean_bbxc": "84.77341106500",
        "mean_bbyc": "26.76985089500",
        "megacity": "0",
        "meganame": "",
        "min_areakm": "9028",
        "min_areami": "3486.00000000000",
        "min_bbxmax": "85.71193016000",
        "min_bbxmin": "84.05041610000",
        "min_bbymax": "27.33333333000",
        "min_bbymin": "26.16763878000",
        "min_perkm": "3104.00000000000",
        "min_permi": "1929.00000000000",
        "min_zoom": "6.7",
        "name": "Birganj",
        "name_ar": "",
        "name_bn": "",
        "name_de": "Birganj",
        "name_el": "",
        "name_en": "Birgunj",
        "name_es": "Birgunj",
        "name_fr": "Birganj",
        "name_hi": "",
        "name_hu": "",
        "name_id": "",
        "name_it": "",
        "name_ja": "",
        "name_ko": "",
        "name_nl": "",
        "name_pl": "",
        "name_pt": "Birganj",
        "name_ru": "\u00d0\u0091\u00d0\u00b8\u00d1\u0080\u00d0\u00b3\u00d0\u00b0\u00d0\u00bd\u00d0\u00b4\u00d0\u00b6",
        "name_sv": "",
        "name_tr": "",
        "name_vi": "",
        "name_zh": "\u00e6\u00af\u0094\u00e7\u0088\u00be\u00e7\u0094\u0098\u00e5\u0082\u0091",
        "namealt": "",
        "nameascii": "Birganj",
        "namediff": "0",
        "namepar": "",
        "natscale": "20",
        "ne_id": "1159136495",
        "note": "",
        "pop1950": "0.00000000000",
        "pop1955": "0.00000000000",
        "pop1960": "0.00000000000",
        "pop1965": "0.00000000000",
        "pop1970": "0.00000000000",
        "pop1975": "0.00000000000",
        "pop1980": "0.00000000000",
        "pop1985": "0.00000000000",
        "pop1990": "0.00000000000",
        "pop1995": "0.00000000000",
        "pop2000": "0.00000000000",
        "pop2005": "0.00000000000",
        "pop2010": "0.00000000000",
        "pop2015": "0.00000000000",
        "pop2020": "0.00000000000",
        "pop2025": "0.00000000000",
        "pop2050": "0.00000000000",
        "pop_max": "133238",
        "pop_min": "133238",
        "pop_other": "10995361",
        "rank_max": "9",
        "rank_min": "9",
        "record_type": "city",
        "scalerank": "7",
        "sov0name": "Nepal",
        "sov_a3": "NPL",
        "timezone": "Asia\/Kathmandu",
        "un_adm0": "",
        "un_fid": "0",
        "un_lat": "0.00000000000",
        "un_long": "0.00000000000",
        "wdid_score": "4",
        "wikidataid": "Q8252",
        "wof_id": "421199237",
        "worldcity": "0.00000000000"
    },
    "dandeldhura": {
        "adm0_a3": "NPL",
        "adm0cap": "0.00000000000",
        "adm0name": "Nepal",
        "adm1name": "Mahakali",
        "admin1_cod": "0.00000000000",
        "capalt": "****",
        "capin": "",
        "cca2": "NP",
        "cca3": "NPL",
        "changed": "4.00000000000",
        "checkme": "0",
        "cityalt": "",
        "compare": "0",
        "data_sources": [
            "natural"
        ],
        "diffascii": "0",
        "diffnote": "Added missing admin-1 capital. Population from GeoNames.",
        "elevation": "0.00000000000",
        "feature_cl": "P",
        "feature_co": "PPL",
        "featurecla": "Admin-1 capital",
        "geonameid": "1283499.00000000000",
        "geonamesno": "GeoNames spatial join with similar names only.",
        "gn_ascii": "Dadeldhura",
        "gn_pop": "19014",
        "gtopo30": "1699.00000000000",
        "iso_a2": "NP",
        "iso_a3": "NPL",
        "label": "",
        "labelrank": "6",
        "latitude": "29.30000415970",
        "longitude": "80.60000454740",
        "ls_match": "0",
        "ls_name": "",
        "max_areakm": "0.00000000000",
        "max_areami": "0.00000000000",
        "max_bbxmax": "0.00000000000",
        "max_bbxmin": "0.00000000000",
        "max_bbymax": "0.00000000000",
        "max_bbymin": "0.00000000000",
        "max_natsca": "0",
        "max_perkm": "0.00000000000",
        "max_permi": "0.00000000000",
        "max_pop10": "0",
        "max_pop20": "0",
        "max_pop50": "0",
        "max_pop300": "0",
        "max_pop310": "0",
        "mean_bbxc": "0.00000000000",
        "mean_bbyc": "0.00000000000",
        "megacity": "0",
        "meganame": "",
        "min_areakm": "0",
        "min_areami": "0.00000000000",
        "min_bbxmax": "0.00000000000",
        "min_bbxmin": "0.00000000000",
        "min_bbymax": "0.00000000000",
        "min_bbymin": "0.00000000000",
        "min_perkm": "0.00000000000",
        "min_permi": "0.00000000000",
        "min_zoom": "9.0",
        "name": "Dandeldhura",
        "name_ar": "",
        "name_bn": "",
        "name_de": "",
        "name_el": "",
        "name_en": "Dadeldhura",
        "name_es": "Dadeldhura",
        "name_fr": "Dadeldhura",
        "name_hi": "",
        "name_hu": "",
        "name_id": "",
        "name_it": "",
        "name_ja": "",
        "name_ko": "",
        "name_nl": "",
        "name_pl": "",
        "name_pt": "Dadeldhura",
        "name_ru": "",
        "name_sv": "",
        "name_tr": "",
        "name_vi": "",
        "name_zh": "",
        "namealt": "",
        "nameascii": "Dandeldhura",
        "namediff": "1",
        "namepar": "",
        "natscale": "1",
        "ne_id": "1159116225",
        "note": "",
        "pop1950": "0.00000000000",
        "pop1955": "0.00000000000",
        "pop1960": "0.00000000000",
        "pop1965": "0.00000000000",
        "pop1970": "0.00000000000",
        "pop1975": "0.00000000000",
        "pop1980": "0.00000000000",
        "pop1985": "0.00000000000",
        "pop1990": "0.00000000000",
        "pop1995": "0.00000000000",
        "pop2000": "0.00000000000",
        "pop2005": "0.00000000000",
        "pop2010": "0.00000000000",
        "pop2015": "0.00000000000",
        "pop2020": "0.00000000000",
        "pop2025": "0.00000000000",
        "pop2050": "0.00000000000",
        "pop_max": "19014",
        "pop_min": "19014",
        "pop_other": "0",
        "rank_max": "6",
        "rank_min": "6",
        "record_type": "city",
        "scalerank": "10",
        "sov0name": "Nepal",
        "sov_a3": "NPL",
        "timezone": "Asia\/Kathmandu",
        "un_adm0": "",
        "un_fid": "0",
        "un_lat": "0.00000000000",
        "un_long": "0.00000000000",
        "wdid_score": "4",
        "wikidataid": "Q1750388",
        "wof_id": "421168837",
        "worldcity": "0.00000000000"
    },
    "dhangarhi": {
        "adm0_a3": "NPL",
        "adm0cap": "0.00000000000",
        "adm0name": "Nepal",
        "adm1name": "Achham",
        "admin1_cod": "0.00000000000",
        "capalt": "****",
        "capin": "",
        "cca2": "NP",
        "cca3": "NPL",
        "changed": "4.00000000000",
        "checkme": "0",
        "cityalt": "",
        "compare": "0",
        "data_sources": [
            "natural"
        ],
        "diffascii": "0",
        "diffnote": "Added missing admin-1 capital. Population from GeoNames.",
        "elevation": "0.00000000000",
        "feature_cl": "P",
        "feature_co": "PPL",
        "featurecla": "Admin-1 capital",
        "geonameid": "1283467.00000000000",
        "geonamesno": "Geonames ascii name + lat.d + long.d matching.",
        "gn_ascii": "Dhangarhi",
        "gn_pop": "92294",
        "gtopo30": "165.00000000000",
        "iso_a2": "NP",
        "iso_a3": "NPL",
        "label": "",
        "labelrank": "6",
        "latitude": "28.69499706000",
        "longitude": "80.59300260280",
        "ls_match": "0",
        "ls_name": "",
        "max_areakm": "0.00000000000",
        "max_areami": "0.00000000000",
        "max_bbxmax": "0.00000000000",
        "max_bbxmin": "0.00000000000",
        "max_bbymax": "0.00000000000",
        "max_bbymin": "0.00000000000",
        "max_natsca": "0",
        "max_perkm": "0.00000000000",
        "max_permi": "0.00000000000",
        "max_pop10": "0",
        "max_pop20": "0",
        "max_pop50": "0",
        "max_pop300": "0",
        "max_pop310": "0",
        "mean_bbxc": "0.00000000000",
        "mean_bbyc": "0.00000000000",
        "megacity": "0",
        "meganame": "",
        "min_areakm": "0",
        "min_areami": "0.00000000000",
        "min_bbxmax": "0.00000000000",
        "min_bbxmin": "0.00000000000",
        "min_bbymax": "0.00000000000",
        "min_bbymin": "0.00000000000",
        "min_perkm": "0.00000000000",
        "min_permi": "0.00000000000",
        "min_zoom": "7.0",
        "name": "Dhangarhi",
        "name_ar": "",
        "name_bn": "",
        "name_de": "Dhangadhi",
        "name_el": "",
        "name_en": "Dhangadhi",
        "name_es": "Dhangarhi",
        "name_fr": "Dhangadhi",
        "name_hi": "",
        "name_hu": "",
        "name_id": "",
        "name_it": "",
        "name_ja": "",
        "name_ko": "",
        "name_nl": "",
        "name_pl": "",
        "name_pt": "Dhangadhi",
        "name_ru": "\u00d0\u0094\u00d1\u0085\u00d0\u00b0\u00d0\u00bd\u00d0\u00b3\u00d0\u00b0\u00d0\u00b4\u00d1\u0085\u00d0\u00b8",
        "name_sv": "",
        "name_tr": "",
        "name_vi": "",
        "name_zh": "\u00e4\u00b8\u00b9\u00e5\u008a\u00a0\u00e5\u009c\u00b0",
        "namealt": "",
        "nameascii": "Dhangarhi",
        "namediff": "1",
        "namepar": "",
        "natscale": "1",
        "ne_id": "1159116251",
        "note": "",
        "pop1950": "0.00000000000",
        "pop1955": "0.00000000000",
        "pop1960": "0.00000000000",
        "pop1965": "0.00000000000",
        "pop1970": "0.00000000000",
        "pop1975": "0.00000000000",
        "pop1980": "0.00000000000",
        "pop1985": "0.00000000000",
        "pop1990": "0.00000000000",
        "pop1995": "0.00000000000",
        "pop2000": "0.00000000000",
        "pop2005": "0.00000000000",
        "pop2010": "0.00000000000",
        "pop2015": "0.00000000000",
        "pop2020": "0.00000000000",
        "pop2025": "0.00000000000",
        "pop2050": "0.00000000000",
        "pop_max": "92294",
        "pop_min": "92294",
        "pop_other": "0",
        "rank_max": "8",
        "rank_min": "8",
        "record_type": "city",
        "scalerank": "10",
        "sov0name": "Nepal",
        "sov_a3": "NPL",
        "timezone": "Asia\/Kathmandu",
        "un_adm0": "",
        "un_fid": "0",
        "un_lat": "0.00000000000",
        "un_long": "0.00000000000",
        "wdid_score": "4",
        "wikidataid": "Q1446993",
        "wof_id": "890431431",
        "worldcity": "0.00000000000"
    },
    "hetauda": {
        "adm0_a3": "NPL",
        "adm0cap": "0.00000000000",
        "adm0name": "Nepal",
        "adm1name": "Narayani",
        "admin1_cod": "0.00000000000",
        "capalt": "****",
        "capin": "",
        "cca2": "NP",
        "cca3": "NPL",
        "changed": "0.00000000000",
        "checkme": "0",
        "cityalt": "",
        "compare": "0",
        "data_sources": [
            "natural"
        ],
        "diffascii": "0",
        "diffnote": "",
        "elevation": "0.00000000000",
        "feature_cl": "P",
        "feature_co": "PPL",
        "featurecla": "Populated place",
        "geonameid": "1283339.00000000000",
        "geonamesno": "Geonames ascii name + lat.d + long.d matching.",
        "gn_ascii": "Hetauda",
        "gn_pop": "84775",
        "gtopo30": "459.00000000000",
        "iso_a2": "NP",
        "iso_a3": "NPL",
        "label": "",
        "labelrank": "6",
        "latitude": "27.41668438620",
        "longitude": "85.03335200900",
        "ls_match": "1",
        "ls_name": "Hetauda",
        "max_areakm": "187.00000000000",
        "max_areami": "72.00000000000",
        "max_bbxmax": "85.17500000000",
        "max_bbxmin": "84.76666667000",
        "max_bbymax": "27.54166667000",
        "max_bbymin": "27.35833333000",
        "max_natsca": "10",
        "max_perkm": "200.00000000000",
        "max_permi": "124.00000000000",
        "max_pop10": "232334",
        "max_pop20": "0",
        "max_pop50": "0",
        "max_pop300": "0",
        "max_pop310": "0",
        "mean_bbxc": "84.99010840000",
        "mean_bbyc": "27.42405149000",
        "megacity": "0",
        "meganame": "",
        "min_areakm": "187",
        "min_areami": "72.00000000000",
        "min_bbxmax": "85.17500000000",
        "min_bbxmin": "84.76666667000",
        "min_bbymax": "27.54166667000",
        "min_bbymin": "27.35833333000",
        "min_perkm": "200.00000000000",
        "min_permi": "124.00000000000",
        "min_zoom": "7.0",
        "name": "Hetauda",
        "name_ar": "",
        "name_bn": "",
        "name_de": "Hetauda",
        "name_el": "",
        "name_en": "Hetauda",
        "name_es": "Hetauda",
        "name_fr": "Hetauda",
        "name_hi": "",
        "name_hu": "",
        "name_id": "",
        "name_it": "",
        "name_ja": "",
        "name_ko": "",
        "name_nl": "",
        "name_pl": "",
        "name_pt": "Hetauda",
        "name_ru": "\u00d0\u00a5\u00d0\u00b5\u00d1\u0082\u00d0\u00b0\u00d1\u0083\u00d0\u00b4\u00d0\u00b0",
        "name_sv": "",
        "name_tr": "",
        "name_vi": "",
        "name_zh": "\u00e9\u00bb\u0091\u00e9\u0081\u0093\u00e9\u0081\u0094",
        "namealt": "",
        "nameascii": "Hetauda",
        "namediff": "0",
        "namepar": "",
        "natscale": "10",
        "ne_id": "1159128419",
        "note": "",
        "pop1950": "0.00000000000",
        "pop1955": "0.00000000000",
        "pop1960": "0.00000000000",
        "pop1965": "0.00000000000",
        "pop1970": "0.00000000000",
        "pop1975": "0.00000000000",
        "pop1980": "0.00000000000",
        "pop1985": "0.00000000000",
        "pop1990": "0.00000000000",
        "pop1995": "0.00000000000",
        "pop2000": "0.00000000000",
        "pop2005": "0.00000000000",
        "pop2010": "0.00000000000",
        "pop2015": "0.00000000000",
        "pop2020": "0.00000000000",
        "pop2025": "0.00000000000",
        "pop2050": "0.00000000000",
        "pop_max": "232334",
        "pop_min": "84775",
        "pop_other": "422546",
        "rank_max": "10",
        "rank_min": "8",
        "record_type": "city",
        "scalerank": "8",
        "sov0name": "Nepal",
        "sov_a3": "NPL",
        "timezone": "Asia\/Kathmandu",
        "un_adm0": "",
        "un_fid": "0",
        "un_lat": "0.00000000000",
        "un_long": "0.00000000000",
        "wdid_score": "4",
        "wikidataid": "Q11285",
        "wof_id": "890439901",
        "worldcity": "0.00000000000"
    },
    "ilam": {
        "adm0_a3": "NPL",
        "adm0cap": "0.00000000000",
        "adm0name": "Nepal",
        "adm1name": "Mechi",
        "admin1_cod": "0.00000000000",
        "capalt": "****",
        "capin": "",
        "cca2": "NP",
        "cca3": "NPL",
        "changed": "4.00000000000",
        "checkme": "0",
        "cityalt": "",
        "compare": "0",
        "data_sources": [
            "natural"
        ],
        "diffascii": "0",
        "diffnote": "Added missing admin-1 capital. Population from GeoNames.",
        "elevation": "0.00000000000",
        "feature_cl": "P",
        "feature_co": "PPL",
        "featurecla": "Admin-1 capital",
        "geonameid": "1283333.00000000000",
        "geonamesno": "Geonames ascii name + lat.d + long.d matching.",
        "gn_ascii": "Ilam",
        "gn_pop": "17491",
        "gtopo30": "670.00000000000",
        "iso_a2": "NP",
        "iso_a3": "NPL",
        "label": "",
        "labelrank": "6",
        "latitude": "26.90800207350",
        "longitude": "87.92600453270",
        "ls_match": "0",
        "ls_name": "",
        "max_areakm": "0.00000000000",
        "max_areami": "0.00000000000",
        "max_bbxmax": "0.00000000000",
        "max_bbxmin": "0.00000000000",
        "max_bbymax": "0.00000000000",
        "max_bbymin": "0.00000000000",
        "max_natsca": "0",
        "max_perkm": "0.00000000000",
        "max_permi": "0.00000000000",
        "max_pop10": "0",
        "max_pop20": "0",
        "max_pop50": "0",
        "max_pop300": "0",
        "max_pop310": "0",
        "mean_bbxc": "0.00000000000",
        "mean_bbyc": "0.00000000000",
        "megacity": "0",
        "meganame": "",
        "min_areakm": "0",
        "min_areami": "0.00000000000",
        "min_bbxmax": "0.00000000000",
        "min_bbxmin": "0.00000000000",
        "min_bbymax": "0.00000000000",
        "min_bbymin": "0.00000000000",
        "min_perkm": "0.00000000000",
        "min_permi": "0.00000000000",
        "min_zoom": "7.0",
        "name": "Ilam",
        "name_ar": "",
        "name_bn": "",
        "name_de": "Ilam",
        "name_el": "",
        "name_en": "Ilam",
        "name_es": "",
        "name_fr": "Ilam",
        "name_hi": "",
        "name_hu": "",
        "name_id": "",
        "name_it": "",
        "name_ja": "",
        "name_ko": "",
        "name_nl": "",
        "name_pl": "",
        "name_pt": "Ilam",
        "name_ru": "\u00d0\u0098\u00d0\u00bb\u00d0\u00b0\u00d0\u00bc",
        "name_sv": "",
        "name_tr": "",
        "name_vi": "",
        "name_zh": "\u00e4\u00bc\u008a\u00e6\u008b\u0089\u00e5\u00a7\u0086",
        "namealt": "",
        "nameascii": "Ilam",
        "namediff": "1",
        "namepar": "",
        "natscale": "1",
        "ne_id": "1159116339",
        "note": "",
        "pop1950": "0.00000000000",
        "pop1955": "0.00000000000",
        "pop1960": "0.00000000000",
        "pop1965": "0.00000000000",
        "pop1970": "0.00000000000",
        "pop1975": "0.00000000000",
        "pop1980": "0.00000000000",
        "pop1985": "0.00000000000",
        "pop1990": "0.00000000000",
        "pop1995": "0.00000000000",
        "pop2000": "0.00000000000",
        "pop2005": "0.00000000000",
        "pop2010": "0.00000000000",
        "pop2015": "0.00000000000",
        "pop2020": "0.00000000000",
        "pop2025": "0.00000000000",
        "pop2050": "0.00000000000",
        "pop_max": "17491",
        "pop_min": "17491",
        "pop_other": "0",
        "rank_max": "6",
        "rank_min": "6",
        "record_type": "city",
        "scalerank": "10",
        "sov0name": "Nepal",
        "sov_a3": "NPL",
        "timezone": "Asia\/Kathmandu",
        "un_adm0": "",
        "un_fid": "0",
        "un_lat": "0.00000000000",
        "un_long": "0.00000000000",
        "wdid_score": "4",
        "wikidataid": "Q950072",
        "wof_id": "1141906061",
        "worldcity": "0.00000000000"
    },
    "jumla": {
        "adm0_a3": "NPL",
        "adm0cap": "0.00000000000",
        "adm0name": "Nepal",
        "adm1name": "Karnali",
        "admin1_cod": "0.00000000000",
        "capalt": "****",
        "capin": "",
        "cca2": "NP",
        "cca3": "NPL",
        "changed": "4.00000000000",
        "checkme": "0",
        "cityalt": "",
        "compare": "0",
        "data_sources": [
            "natural"
        ],
        "diffascii": "0",
        "diffnote": "Added missing admin-1 capital. Population from GeoNames.",
        "elevation": "0.00000000000",
        "feature_cl": "P",
        "feature_co": "PPL",
        "featurecla": "Admin-1 capital",
        "geonameid": "1283285.00000000000",
        "geonamesno": "Geonames ascii name + lat.d + long.d matching.",
        "gn_ascii": "Jumla",
        "gn_pop": "9073",
        "gtopo30": "2663.00000000000",
        "iso_a2": "NP",
        "iso_a3": "NPL",
        "label": "",
        "labelrank": "6",
        "latitude": "29.25000012780",
        "longitude": "82.21670162410",
        "ls_match": "0",
        "ls_name": "",
        "max_areakm": "0.00000000000",
        "max_areami": "0.00000000000",
        "max_bbxmax": "0.00000000000",
        "max_bbxmin": "0.00000000000",
        "max_bbymax": "0.00000000000",
        "max_bbymin": "0.00000000000",
        "max_natsca": "0",
        "max_perkm": "0.00000000000",
        "max_permi": "0.00000000000",
        "max_pop10": "0",
        "max_pop20": "0",
        "max_pop50": "0",
        "max_pop300": "0",
        "max_pop310": "0",
        "mean_bbxc": "0.00000000000",
        "mean_bbyc": "0.00000000000",
        "megacity": "0",
        "meganame": "",
        "min_areakm": "0",
        "min_areami": "0.00000000000",
        "min_bbxmax": "0.00000000000",
        "min_bbxmin": "0.00000000000",
        "min_bbymax": "0.00000000000",
        "min_bbymin": "0.00000000000",
        "min_perkm": "0.00000000000",
        "min_permi": "0.00000000000",
        "min_zoom": "7.0",
        "name": "Jumla",
        "name_ar": "",
        "name_bn": "",
        "name_de": "Chandanath",
        "name_el": "",
        "name_en": "Jumla",
        "name_es": "",
        "name_fr": "Jumla",
        "name_hi": "",
        "name_hu": "",
        "name_id": "",
        "name_it": "",
        "name_ja": "",
        "name_ko": "",
        "name_nl": "",
        "name_pl": "",
        "name_pt": "Jumla",
        "name_ru": "\u00d0\u0094\u00d0\u00b6\u00d1\u0083\u00d0\u00bc\u00d0\u00bb\u00d0\u00b0",
        "name_sv": "",
        "name_tr": "",
        "name_vi": "",
        "name_zh": "\u00e4\u00b9\u0085\u00e5\u00a7\u0086\u00e6\u008b\u0089",
        "namealt": "",
        "nameascii": "Jumla",
        "namediff": "1",
        "namepar": "",
        "natscale": "1",
        "ne_id": "1159116187",
        "note": "",
        "pop1950": "0.00000000000",
        "pop1955": "0.00000000000",
        "pop1960": "0.00000000000",
        "pop1965": "0.00000000000",
        "pop1970": "0.00000000000",
        "pop1975": "0.00000000000",
        "pop1980": "0.00000000000",
        "pop1985": "0.00000000000",
        "pop1990": "0.00000000000",
        "pop1995": "0.00000000000",
        "pop2000": "0.00000000000",
        "pop2005": "0.00000000000",
        "pop2010": "0.00000000000",
        "pop2015": "0.00000000000",
        "pop2020": "0.00000000000",
        "pop2025": "0.00000000000",
        "pop2050": "0.00000000000",
        "pop_max": "9073",
        "pop_min": "9073",
        "pop_other": "0",
        "rank_max": "5",
        "rank_min": "5",
        "record_type": "city",
        "scalerank": "10",
        "sov0name": "Nepal",
        "sov_a3": "NPL",
        "timezone": "Asia\/Kathmandu",
        "un_adm0": "",
        "un_fid": "0",
        "un_lat": "0.00000000000",
        "un_long": "0.00000000000",
        "wdid_score": "4",
        "wikidataid": "Q2407540",
        "wof_id": "421168835",
        "worldcity": "0.00000000000"
    },
    "kathmandu": {
        "adm0_a3": "NPL",
        "adm0cap": "1.00000000000",
        "adm0name": "Nepal",
        "adm1name": "Bhaktapur",
        "admin1_cod": "0.00000000000",
        "capalt": "****",
        "capin": "",
        "cca2": "NP",
        "cca3": "NPL",
        "changed": "0.00000000000",
        "checkme": "0",
        "cityalt": "",
        "compare": "0",
        "data_sources": [
            "natural"
        ],
        "diffascii": "0",
        "diffnote": "",
        "elevation": "1317.00000000000",
        "feature_cl": "P",
        "feature_co": "PPLC",
        "featurecla": "Admin-0 capital",
        "geonameid": "1283240.00000000000",
        "geonamesno": "GeoNames match general.",
        "gn_ascii": "Kathmandu",
        "gn_pop": "1442271",
        "gtopo30": "1304.00000000000",
        "iso_a2": "NP",
        "iso_a3": "NPL",
        "label": "",
        "labelrank": "6",
        "latitude": "27.71669191390",
        "longitude": "85.31664221080",
        "ls_match": "1",
        "ls_name": "Kathmandu",
        "max_areakm": "580.00000000000",
        "max_areami": "224.00000000000",
        "max_bbxmax": "85.67500000000",
        "max_bbxmin": "85.10833333000",
        "max_bbymax": "27.85000000000",
        "max_bbymin": "27.66945554000",
        "max_natsca": "100",
        "max_perkm": "511.00000000000",
        "max_permi": "318.00000000000",
        "max_pop10": "1154222",
        "max_pop20": "2297630",
        "max_pop50": "2297630",
        "max_pop300": "2297630",
        "max_pop310": "0",
        "mean_bbxc": "85.35609709750",
        "mean_bbyc": "27.69773504250",
        "megacity": "1",
        "meganame": "Kathmandu",
        "min_areakm": "233",
        "min_areami": "90.00000000000",
        "min_bbxmax": "85.45006560000",
        "min_bbxmin": "85.10833333000",
        "min_bbymax": "27.85000000000",
        "min_bbymin": "27.54166667000",
        "min_perkm": "228.00000000000",
        "min_permi": "142.00000000000",
        "min_zoom": "5.0",
        "name": "Kathmandu",
        "name_ar": "",
        "name_bn": "",
        "name_de": "Kathmandu",
        "name_el": "",
        "name_en": "Kathmandu",
        "name_es": "Katmand\u00c3\u00ba",
        "name_fr": "Katmandou",
        "name_hi": "",
        "name_hu": "",
        "name_id": "",
        "name_it": "",
        "name_ja": "",
        "name_ko": "",
        "name_nl": "",
        "name_pl": "",
        "name_pt": "Catmandu",
        "name_ru": "\u00d0\u009a\u00d0\u00b0\u00d1\u0082\u00d0\u00bc\u00d0\u00b0\u00d0\u00bd\u00d0\u00b4\u00d1\u0083",
        "name_sv": "",
        "name_tr": "",
        "name_vi": "",
        "name_zh": "\u00e5\u008a\u00a0\u00e5\u00be\u00b7\u00e6\u00bb\u00bf\u00e9\u0083\u00bd",
        "namealt": "",
        "nameascii": "Kathmandu",
        "namediff": "0",
        "namepar": "",
        "natscale": "110",
        "ne_id": "1159150655",
        "note": "",
        "pop1950": "104.00000000000",
        "pop1955": "110.00000000000",
        "pop1960": "119.00000000000",
        "pop1965": "132.00000000000",
        "pop1970": "147.00000000000",
        "pop1975": "180.00000000000",
        "pop1980": "225.00000000000",
        "pop1985": "297.00000000000",
        "pop1990": "398.00000000000",
        "pop1995": "509.00000000000",
        "pop2000": "644.00000000000",
        "pop2005": "815.00000000000",
        "pop2010": "895.00000000000",
        "pop2015": "1029.00000000000",
        "pop2020": "1284.00000000000",
        "pop2025": "1578.00000000000",
        "pop2050": "1907.00000000000",
        "pop_max": "895000",
        "pop_min": "895000",
        "pop_other": "1099610",
        "rank_max": "11",
        "rank_min": "11",
        "record_type": "city",
        "scalerank": "3",
        "sov0name": "Nepal",
        "sov_a3": "NPL",
        "timezone": "Asia\/Kathmandu",
        "un_adm0": "Nepal",
        "un_fid": "378",
        "un_lat": "27.71000000000",
        "un_long": "85.31000000000",
        "wdid_score": "4",
        "wikidataid": "Q3037",
        "wof_id": "421168831",
        "worldcity": "0.00000000000"
    },
    "lalitpur": {
        "adm0_a3": "NPL",
        "adm0cap": "0.00000000000",
        "adm0name": "Nepal",
        "adm1name": "Bhaktapur",
        "admin1_cod": "0.00000000000",
        "capalt": "****",
        "capin": "",
        "cca2": "NP",
        "cca3": "NPL",
        "changed": "0.00000000000",
        "checkme": "0",
        "cityalt": "",
        "compare": "0",
        "data_sources": [
            "natural"
        ],
        "diffascii": "0",
        "diffnote": "",
        "elevation": "0.00000000000",
        "feature_cl": "P",
        "feature_co": "PPL",
        "featurecla": "Populated place",
        "geonameid": "1283190.00000000000",
        "geonamesno": "GeoNames rough area, rough name.",
        "gn_ascii": "Kirtipur",
        "gn_pop": "44632",
        "gtopo30": "1342.00000000000",
        "iso_a2": "NP",
        "iso_a3": "NPL",
        "label": "",
        "labelrank": "6",
        "latitude": "27.66661745100",
        "longitude": "85.33333369850",
        "ls_match": "1",
        "ls_name": "Lalitpur",
        "max_areakm": "345.00000000000",
        "max_areami": "133.00000000000",
        "max_bbxmax": "85.67500000000",
        "max_bbxmin": "85.25833333000",
        "max_bbymax": "27.73886417000",
        "max_bbymin": "27.54166667000",
        "max_natsca": "10",
        "max_perkm": "323.00000000000",
        "max_permi": "201.00000000000",
        "max_pop10": "1247479",
        "max_pop20": "0",
        "max_pop50": "0",
        "max_pop300": "0",
        "max_pop310": "0",
        "mean_bbxc": "85.45283685000",
        "mean_bbyc": "27.64151834000",
        "megacity": "0",
        "meganame": "",
        "min_areakm": "345",
        "min_areami": "133.00000000000",
        "min_bbxmax": "85.67500000000",
        "min_bbxmin": "85.25833333000",
        "min_bbymax": "27.73886417000",
        "min_bbymin": "27.54166667000",
        "min_perkm": "323.00000000000",
        "min_permi": "201.00000000000",
        "min_zoom": "7.0",
        "name": "Lalitpur",
        "name_ar": "",
        "name_bn": "",
        "name_de": "Lalitpur",
        "name_el": "",
        "name_en": "Lalitpur",
        "name_es": "Patan",
        "name_fr": "Patan",
        "name_hi": "",
        "name_hu": "",
        "name_id": "",
        "name_it": "",
        "name_ja": "",
        "name_ko": "",
        "name_nl": "",
        "name_pl": "",
        "name_pt": "Patan",
        "name_ru": "\u00d0\u009b\u00d0\u00b0\u00d0\u00bb\u00d0\u00b8\u00d1\u0082\u00d0\u00bf\u00d1\u0083\u00d1\u0080",
        "name_sv": "",
        "name_tr": "",
        "name_vi": "",
        "name_zh": "\u00e5\u008b\u0092\u00e5\u0088\u00a9\u00e5\u00be\u00b7\u00e5\u00b8\u0083\u00e5\u00b0\u0094",
        "namealt": "",
        "nameascii": "Lalitpur",
        "namediff": "0",
        "namepar": "",
        "natscale": "10",
        "ne_id": "1159128413",
        "note": "",
        "pop1950": "0.00000000000",
        "pop1955": "0.00000000000",
        "pop1960": "0.00000000000",
        "pop1965": "0.00000000000",
        "pop1970": "0.00000000000",
        "pop1975": "0.00000000000",
        "pop1980": "0.00000000000",
        "pop1985": "0.00000000000",
        "pop1990": "0.00000000000",
        "pop1995": "0.00000000000",
        "pop2000": "0.00000000000",
        "pop2005": "0.00000000000",
        "pop2010": "0.00000000000",
        "pop2015": "0.00000000000",
        "pop2020": "0.00000000000",
        "pop2025": "0.00000000000",
        "pop2050": "0.00000000000",
        "pop_max": "337785",
        "pop_min": "44632",
        "pop_other": "1441803",
        "rank_max": "10",
        "rank_min": "7",
        "record_type": "city",
        "scalerank": "8",
        "sov0name": "Nepal",
        "sov_a3": "NPL",
        "timezone": "Asia\/Kathmandu",
        "un_adm0": "",
        "un_fid": "0",
        "un_lat": "0.00000000000",
        "un_long": "0.00000000000",
        "wdid_score": "4",
        "wikidataid": "Q6647",
        "wof_id": "421203167",
        "worldcity": "0.00000000000"
    },
    "nepalganj": {
        "adm0_a3": "NPL",
        "adm0cap": "0.00000000000",
        "adm0name": "Nepal",
        "adm1name": "Banke",
        "admin1_cod": "0.00000000000",
        "capalt": "****",
        "capin": "",
        "cca2": "NP",
        "cca3": "NPL",
        "changed": "0.00000000000",
        "checkme": "0",
        "cityalt": "",
        "compare": "0",
        "data_sources": [
            "natural"
        ],
        "diffascii": "0",
        "diffnote": "",
        "elevation": "0.00000000000",
        "feature_cl": "",
        "feature_co": "",
        "featurecla": "Admin-1 capital",
        "geonameid": "6941099.00000000000",
        "geonamesno": "No GeoNames match due to small population, not in GeoNames, or poor NEV placement.",
        "gn_ascii": "",
        "gn_pop": "0",
        "gtopo30": "0.00000000000",
        "iso_a2": "NP",
        "iso_a3": "NPL",
        "label": "",
        "labelrank": "6",
        "latitude": "28.05034079900",
        "longitude": "81.61666133520",
        "ls_match": "1",
        "ls_name": "Nepalganj",
        "max_areakm": "1232.00000000000",
        "max_areami": "476.00000000000",
        "max_bbxmax": "81.98333333000",
        "max_bbxmin": "81.21666667000",
        "max_bbymax": "28.36666667000",
        "max_bbymin": "27.79866727000",
        "max_natsca": "20",
        "max_perkm": "817.00000000000",
        "max_permi": "508.00000000000",
        "max_pop10": "1246295",
        "max_pop20": "1245987",
        "max_pop50": "0",
        "max_pop300": "0",
        "max_pop310": "0",
        "mean_bbxc": "81.52639038000",
        "mean_bbyc": "27.99857206500",
        "megacity": "0",
        "meganame": "",
        "min_areakm": "1226",
        "min_areami": "473.00000000000",
        "min_bbxmax": "81.98333333000",
        "min_bbxmin": "81.21666667000",
        "min_bbymax": "28.36666667000",
        "min_bbymin": "27.79866727000",
        "min_perkm": "814.00000000000",
        "min_permi": "506.00000000000",
        "min_zoom": "6.1",
        "name": "Nepalganj",
        "name_ar": "",
        "name_bn": "",
        "name_de": "Nepalganj",
        "name_el": "",
        "name_en": "Nepalgunj",
        "name_es": "Nepalgunj",
        "name_fr": "Nepalganj",
        "name_hi": "",
        "name_hu": "",
        "name_id": "",
        "name_it": "",
        "name_ja": "",
        "name_ko": "",
        "name_nl": "",
        "name_pl": "",
        "name_pt": "Nepalgunj",
        "name_ru": "\u00d0\u009d\u00d0\u00b5\u00d0\u00bf\u00d0\u00b0\u00d0\u00bb\u00d0\u00b3\u00d0\u00b0\u00d0\u00bd\u00d0\u00b4\u00d0\u00b6",
        "name_sv": "",
        "name_tr": "",
        "name_vi": "",
        "name_zh": "\u00e5\u00b0\u00bc\u00e6\u00b3\u008a\u00e7\u0088\u00be\u00e6\u00a0\u00b9\u00e5\u0082\u0091",
        "namealt": "",
        "nameascii": "Nepalganj",
        "namediff": "0",
        "namepar": "",
        "natscale": "20",
        "ne_id": "1159136491",
        "note": "",
        "pop1950": "0.00000000000",
        "pop1955": "0.00000000000",
        "pop1960": "0.00000000000",
        "pop1965": "0.00000000000",
        "pop1970": "0.00000000000",
        "pop1975": "0.00000000000",
        "pop1980": "0.00000000000",
        "pop1985": "0.00000000000",
        "pop1990": "0.00000000000",
        "pop1995": "0.00000000000",
        "pop2000": "0.00000000000",
        "pop2005": "0.00000000000",
        "pop2010": "0.00000000000",
        "pop2015": "0.00000000000",
        "pop2020": "0.00000000000",
        "pop2025": "0.00000000000",
        "pop2050": "0.00000000000",
        "pop_max": "64400",
        "pop_min": "64400",
        "pop_other": "1277191",
        "rank_max": "8",
        "rank_min": "8",
        "record_type": "city",
        "scalerank": "7",
        "sov0name": "Nepal",
        "sov_a3": "NPL",
        "timezone": "",
        "un_adm0": "",
        "un_fid": "0",
        "un_lat": "0.00000000000",
        "un_long": "0.00000000000",
        "wdid_score": "4",
        "wikidataid": "Q1025462",
        "wof_id": "1141907115",
        "worldcity": "0.00000000000"
    },
    "pokhara": {
        "adm0_a3": "NPL",
        "adm0cap": "0.00000000000",
        "adm0name": "Nepal",
        "adm1name": "Gorkha",
        "admin1_cod": "0.00000000000",
        "capalt": "****",
        "capin": "",
        "cca2": "NP",
        "cca3": "NPL",
        "changed": "4.00000000000",
        "checkme": "0",
        "cityalt": "",
        "compare": "0",
        "data_sources": [
            "natural"
        ],
        "diffascii": "0",
        "diffnote": "Added missing admin-1 capital. Population from GeoNames.",
        "elevation": "0.00000000000",
        "feature_cl": "P",
        "feature_co": "PPL",
        "featurecla": "Admin-1 capital",
        "geonameid": "1282898.00000000000",
        "geonamesno": "GeoNames match with ascii name + lat + long whole numbers.",
        "gn_ascii": "Pokhara",
        "gn_pop": "200000",
        "gtopo30": "922.00000000000",
        "iso_a2": "NP",
        "iso_a3": "NPL",
        "label": "",
        "labelrank": "6",
        "latitude": "28.26399602800",
        "longitude": "83.97199854660",
        "ls_match": "0",
        "ls_name": "",
        "max_areakm": "0.00000000000",
        "max_areami": "0.00000000000",
        "max_bbxmax": "0.00000000000",
        "max_bbxmin": "0.00000000000",
        "max_bbymax": "0.00000000000",
        "max_bbymin": "0.00000000000",
        "max_natsca": "0",
        "max_perkm": "0.00000000000",
        "max_permi": "0.00000000000",
        "max_pop10": "0",
        "max_pop20": "0",
        "max_pop50": "0",
        "max_pop300": "0",
        "max_pop310": "0",
        "mean_bbxc": "0.00000000000",
        "mean_bbyc": "0.00000000000",
        "megacity": "0",
        "meganame": "",
        "min_areakm": "0",
        "min_areami": "0.00000000000",
        "min_bbxmax": "0.00000000000",
        "min_bbxmin": "0.00000000000",
        "min_bbymax": "0.00000000000",
        "min_bbymin": "0.00000000000",
        "min_perkm": "0.00000000000",
        "min_permi": "0.00000000000",
        "min_zoom": "6.1",
        "name": "Pokhara",
        "name_ar": "",
        "name_bn": "",
        "name_de": "Pokhara",
        "name_el": "",
        "name_en": "Pokhara",
        "name_es": "Pokhara",
        "name_fr": "Pokhara",
        "name_hi": "",
        "name_hu": "",
        "name_id": "",
        "name_it": "",
        "name_ja": "",
        "name_ko": "",
        "name_nl": "",
        "name_pl": "",
        "name_pt": "Pokhara",
        "name_ru": "\u00d0\u009f\u00d0\u00be\u00d0\u00ba\u00d1\u0085\u00d0\u00b0\u00d1\u0080\u00d0\u00b0",
        "name_sv": "",
        "name_tr": "",
        "name_vi": "",
        "name_zh": "\u00e5\u008d\u009a\u00e5\u0085\u008b\u00e6\u008b\u0089",
        "namealt": "",
        "nameascii": "Pokhara",
        "namediff": "1",
        "namepar": "",
        "natscale": "20",
        "ne_id": "1159146011",
        "note": "",
        "pop1950": "0.00000000000",
        "pop1955": "0.00000000000",
        "pop1960": "0.00000000000",
        "pop1965": "0.00000000000",
        "pop1970": "0.00000000000",
        "pop1975": "0.00000000000",
        "pop1980": "0.00000000000",
        "pop1985": "0.00000000000",
        "pop1990": "0.00000000000",
        "pop1995": "0.00000000000",
        "pop2000": "0.00000000000",
        "pop2005": "0.00000000000",
        "pop2010": "0.00000000000",
        "pop2015": "0.00000000000",
        "pop2020": "0.00000000000",
        "pop2025": "0.00000000000",
        "pop2050": "0.00000000000",
        "pop_max": "200000",
        "pop_min": "200000",
        "pop_other": "0",
        "rank_max": "9",
        "rank_min": "9",
        "record_type": "city",
        "scalerank": "7",
        "sov0name": "Nepal",
        "sov_a3": "NPL",
        "timezone": "Asia\/Kathmandu",
        "un_adm0": "",
        "un_fid": "0",
        "un_lat": "0.00000000000",
        "un_long": "0.00000000000",
        "wdid_score": "4",
        "wikidataid": "Q6640",
        "wof_id": "890443741",
        "worldcity": "0.00000000000"
    },
    "rajbiraj": {
        "adm0_a3": "NPL",
        "adm0cap": "0.00000000000",
        "adm0name": "Nepal",
        "adm1name": "Sagarmatha",
        "admin1_cod": "0.00000000000",
        "capalt": "****",
        "capin": "",
        "cca2": "NP",
        "cca3": "NPL",
        "changed": "4.00000000000",
        "checkme": "0",
        "cityalt": "",
        "compare": "0",
        "data_sources": [
            "natural"
        ],
        "diffascii": "0",
        "diffnote": "Added missing admin-1 capital. Population from GeoNames.",
        "elevation": "0.00000000000",
        "feature_cl": "P",
        "feature_co": "PPL",
        "featurecla": "Admin-1 capital",
        "geonameid": "1282884.00000000000",
        "geonamesno": "GeoNames match with ascii name + lat + long whole numbers.",
        "gn_ascii": "Rajbiraj",
        "gn_pop": "33061",
        "gtopo30": "76.00000000000",
        "iso_a2": "NP",
        "iso_a3": "NPL",
        "label": "",
        "labelrank": "6",
        "latitude": "26.53329610010",
        "longitude": "86.73329760740",
        "ls_match": "0",
        "ls_name": "",
        "max_areakm": "0.00000000000",
        "max_areami": "0.00000000000",
        "max_bbxmax": "0.00000000000",
        "max_bbxmin": "0.00000000000",
        "max_bbymax": "0.00000000000",
        "max_bbymin": "0.00000000000",
        "max_natsca": "0",
        "max_perkm": "0.00000000000",
        "max_permi": "0.00000000000",
        "max_pop10": "0",
        "max_pop20": "0",
        "max_pop50": "0",
        "max_pop300": "0",
        "max_pop310": "0",
        "mean_bbxc": "0.00000000000",
        "mean_bbyc": "0.00000000000",
        "megacity": "0",
        "meganame": "",
        "min_areakm": "0",
        "min_areami": "0.00000000000",
        "min_bbxmax": "0.00000000000",
        "min_bbxmin": "0.00000000000",
        "min_bbymax": "0.00000000000",
        "min_bbymin": "0.00000000000",
        "min_perkm": "0.00000000000",
        "min_permi": "0.00000000000",
        "min_zoom": "7.0",
        "name": "Rajbiraj",
        "name_ar": "",
        "name_bn": "",
        "name_de": "Rajbiraj",
        "name_el": "",
        "name_en": "Rajbiraj",
        "name_es": "",
        "name_fr": "Rajbiraj",
        "name_hi": "",
        "name_hu": "",
        "name_id": "",
        "name_it": "",
        "name_ja": "",
        "name_ko": "",
        "name_nl": "",
        "name_pl": "",
        "name_pt": "Rajbiraj",
        "name_ru": "\u00d0\u00a0\u00d0\u00b0\u00d0\u00b4\u00d0\u00b6\u00d0\u00b1\u00d0\u00b8\u00d1\u0080\u00d0\u00b0\u00d0\u00b4\u00d0\u00b6",
        "name_sv": "",
        "name_tr": "",
        "name_vi": "",
        "name_zh": "\u00e6\u008b\u0089\u00e5\u0082\u0091\u00e6\u00af\u0094\u00e6\u008b\u0089\u00e5\u0082\u0091",
        "namealt": "",
        "nameascii": "Rajbiraj",
        "namediff": "1",
        "namepar": "",
        "natscale": "1",
        "ne_id": "1159116313",
        "note": "",
        "pop1950": "0.00000000000",
        "pop1955": "0.00000000000",
        "pop1960": "0.00000000000",
        "pop1965": "0.00000000000",
        "pop1970": "0.00000000000",
        "pop1975": "0.00000000000",
        "pop1980": "0.00000000000",
        "pop1985": "0.00000000000",
        "pop1990": "0.00000000000",
        "pop1995": "0.00000000000",
        "pop2000": "0.00000000000",
        "pop2005": "0.00000000000",
        "pop2010": "0.00000000000",
        "pop2015": "0.00000000000",
        "pop2020": "0.00000000000",
        "pop2025": "0.00000000000",
        "pop2050": "0.00000000000",
        "pop_max": "33061",
        "pop_min": "33061",
        "pop_other": "0",
        "rank_max": "7",
        "rank_min": "7",
        "record_type": "city",
        "scalerank": "10",
        "sov0name": "Nepal",
        "sov_a3": "NPL",
        "timezone": "Asia\/Kathmandu",
        "un_adm0": "",
        "un_fid": "0",
        "un_lat": "0.00000000000",
        "un_long": "0.00000000000",
        "wdid_score": "4",
        "wikidataid": "Q2463109",
        "wof_id": "890435325",
        "worldcity": "0.00000000000"
    },
    "ramechhap": {
        "adm0_a3": "NPL",
        "adm0cap": "0.00000000000",
        "adm0name": "Nepal",
        "adm1name": "Janakpur",
        "admin1_cod": "0.00000000000",
        "capalt": "****",
        "capin": "",
        "cca2": "NP",
        "cca3": "NPL",
        "changed": "4.00000000000",
        "checkme": "0",
        "cityalt": "",
        "compare": "0",
        "data_sources": [
            "natural"
        ],
        "diffascii": "0",
        "diffnote": "Added missing admin-1 capital.",
        "elevation": "0.00000000000",
        "feature_cl": "",
        "feature_co": "",
        "featurecla": "Admin-1 capital",
        "geonameid": "1282878.00000000000",
        "geonamesno": "No GeoNames match due to small population, not in GeoNames, or poor NEV placement.",
        "gn_ascii": "",
        "gn_pop": "0",
        "gtopo30": "0.00000000000",
        "iso_a2": "NP",
        "iso_a3": "NPL",
        "label": "",
        "labelrank": "6",
        "latitude": "27.32599807570",
        "longitude": "86.08699852860",
        "ls_match": "0",
        "ls_name": "",
        "max_areakm": "0.00000000000",
        "max_areami": "0.00000000000",
        "max_bbxmax": "0.00000000000",
        "max_bbxmin": "0.00000000000",
        "max_bbymax": "0.00000000000",
        "max_bbymin": "0.00000000000",
        "max_natsca": "0",
        "max_perkm": "0.00000000000",
        "max_permi": "0.00000000000",
        "max_pop10": "0",
        "max_pop20": "0",
        "max_pop50": "0",
        "max_pop300": "0",
        "max_pop310": "0",
        "mean_bbxc": "0.00000000000",
        "mean_bbyc": "0.00000000000",
        "megacity": "0",
        "meganame": "",
        "min_areakm": "0",
        "min_areami": "0.00000000000",
        "min_bbxmax": "0.00000000000",
        "min_bbxmin": "0.00000000000",
        "min_bbymax": "0.00000000000",
        "min_bbymin": "0.00000000000",
        "min_perkm": "0.00000000000",
        "min_permi": "0.00000000000",
        "min_zoom": "9.0",
        "name": "Ramechhap",
        "name_ar": "",
        "name_bn": "",
        "name_de": "Ramechhap",
        "name_el": "",
        "name_en": "Ramechhap",
        "name_es": "",
        "name_fr": "Ramechhap",
        "name_hi": "",
        "name_hu": "",
        "name_id": "",
        "name_it": "",
        "name_ja": "",
        "name_ko": "",
        "name_nl": "",
        "name_pl": "",
        "name_pt": "Ramechhap",
        "name_ru": "",
        "name_sv": "",
        "name_tr": "",
        "name_vi": "",
        "name_zh": "\u00e6\u008b\u0089\u00e6\u00a2\u0085\u00e6\u0081\u00b0\u00e5\u00b8\u0083",
        "namealt": "",
        "nameascii": "Ramechhap",
        "namediff": "1",
        "namepar": "",
        "natscale": "1",
        "ne_id": "1159116277",
        "note": "",
        "pop1950": "0.00000000000",
        "pop1955": "0.00000000000",
        "pop1960": "0.00000000000",
        "pop1965": "0.00000000000",
        "pop1970": "0.00000000000",
        "pop1975": "0.00000000000",
        "pop1980": "0.00000000000",
        "pop1985": "0.00000000000",
        "pop1990": "0.00000000000",
        "pop1995": "0.00000000000",
        "pop2000": "0.00000000000",
        "pop2005": "0.00000000000",
        "pop2010": "0.00000000000",
        "pop2015": "0.00000000000",
        "pop2020": "0.00000000000",
        "pop2025": "0.00000000000",
        "pop2050": "0.00000000000",
        "pop_max": "15000",
        "pop_min": "15000",
        "pop_other": "0",
        "rank_max": "6",
        "rank_min": "6",
        "record_type": "city",
        "scalerank": "10",
        "sov0name": "Nepal",
        "sov_a3": "NPL",
        "timezone": "",
        "un_adm0": "",
        "un_fid": "0",
        "un_lat": "0.00000000000",
        "un_long": "0.00000000000",
        "wdid_score": "4",
        "wikidataid": "Q2224286",
        "wof_id": "1141906055",
        "worldcity": "0.00000000000"
    },
    "salyan": {
        "adm0_a3": "NPL",
        "adm0cap": "0.00000000000",
        "adm0name": "Nepal",
        "adm1name": "Rapti",
        "admin1_cod": "0.00000000000",
        "capalt": "****",
        "capin": "",
        "cca2": "NP",
        "cca3": "NPL",
        "changed": "4.00000000000",
        "checkme": "0",
        "cityalt": "",
        "compare": "0",
        "data_sources": [
            "natural"
        ],
        "diffascii": "0",
        "diffnote": "Added missing admin-1 capital.",
        "elevation": "0.00000000000",
        "feature_cl": "",
        "feature_co": "",
        "featurecla": "Admin-1 capital",
        "geonameid": "*******************",
        "geonamesno": "No GeoNames match due to small population, not in GeoNames, or poor NEV placement.",
        "gn_ascii": "",
        "gn_pop": "0",
        "gtopo30": "0.00000000000",
        "iso_a2": "NP",
        "iso_a3": "NPL",
        "label": "",
        "labelrank": "6",
        "latitude": "28.35000003690",
        "longitude": "82.18330255360",
        "ls_match": "0",
        "ls_name": "",
        "max_areakm": "0.00000000000",
        "max_areami": "0.00000000000",
        "max_bbxmax": "0.00000000000",
        "max_bbxmin": "0.00000000000",
        "max_bbymax": "0.00000000000",
        "max_bbymin": "0.00000000000",
        "max_natsca": "0",
        "max_perkm": "0.00000000000",
        "max_permi": "0.00000000000",
        "max_pop10": "0",
        "max_pop20": "0",
        "max_pop50": "0",
        "max_pop300": "0",
        "max_pop310": "0",
        "mean_bbxc": "0.00000000000",
        "mean_bbyc": "0.00000000000",
        "megacity": "0",
        "meganame": "",
        "min_areakm": "0",
        "min_areami": "0.00000000000",
        "min_bbxmax": "0.00000000000",
        "min_bbxmin": "0.00000000000",
        "min_bbymax": "0.00000000000",
        "min_bbymin": "0.00000000000",
        "min_perkm": "0.00000000000",
        "min_permi": "0.00000000000",
        "min_zoom": "9.0",
        "name": "Salyan",
        "name_ar": "",
        "name_bn": "",
        "name_de": "Salyan",
        "name_el": "",
        "name_en": "Salyan",
        "name_es": "",
        "name_fr": "",
        "name_hi": "",
        "name_hu": "",
        "name_id": "",
        "name_it": "",
        "name_ja": "",
        "name_ko": "",
        "name_nl": "",
        "name_pl": "",
        "name_pt": "Salyan",
        "name_ru": "",
        "name_sv": "",
        "name_tr": "",
        "name_vi": "",
        "name_zh": "",
        "namealt": "",
        "nameascii": "Salyan",
        "namediff": "1",
        "namepar": "",
        "natscale": "1",
        "ne_id": "1159114955",
        "note": "",
        "pop1950": "0.00000000000",
        "pop1955": "0.00000000000",
        "pop1960": "0.00000000000",
        "pop1965": "0.00000000000",
        "pop1970": "0.00000000000",
        "pop1975": "0.00000000000",
        "pop1980": "0.00000000000",
        "pop1985": "0.00000000000",
        "pop1990": "0.00000000000",
        "pop1995": "0.00000000000",
        "pop2000": "0.00000000000",
        "pop2005": "0.00000000000",
        "pop2010": "0.00000000000",
        "pop2015": "0.00000000000",
        "pop2020": "0.00000000000",
        "pop2025": "0.00000000000",
        "pop2050": "0.00000000000",
        "pop_max": "15000",
        "pop_min": "15000",
        "pop_other": "0",
        "rank_max": "6",
        "rank_min": "6",
        "record_type": "city",
        "scalerank": "10",
        "sov0name": "Nepal",
        "sov_a3": "NPL",
        "timezone": "",
        "un_adm0": "",
        "un_fid": "0",
        "un_lat": "0.00000000000",
        "un_long": "0.00000000000",
        "wdid_score": "4",
        "wikidataid": "Q2202781",
        "wof_id": "1141906045",
        "worldcity": "0.00000000000"
    }
}