{
    "alayat_samail": {
        "adm0_a3": "OMN",
        "adm0cap": "0.00000000000",
        "adm0name": "Oman",
        "adm1name": "Ad Dakhliyah",
        "admin1_cod": "0.00000000000",
        "capalt": "****",
        "capin": "",
        "cca2": "OM",
        "cca3": "OMN",
        "changed": "0.00000000000",
        "checkme": "0",
        "cityalt": "",
        "compare": "0",
        "data_sources": [
            "natural"
        ],
        "diffascii": "0",
        "diffnote": "",
        "elevation": "0.00000000000",
        "feature_cl": "P",
        "feature_co": "PPLS",
        "featurecla": "Populated place",
        "geonameid": "286293.00000000000",
        "geonamesno": "GeoNames spatial join with similar names only.",
        "gn_ascii": "Sufalat Sama'il",
        "gn_pop": "47718",
        "gtopo30": "345.00000000000",
        "iso_a2": "OM",
        "iso_a3": "OMN",
        "label": "",
        "labelrank": "8",
        "latitude": "23.30318869930",
        "longitude": "57.97820755900",
        "ls_match": "1",
        "ls_name": "Alayat Samail",
        "max_areakm": "8.00000000000",
        "max_areami": "3.00000000000",
        "max_bbxmax": "58.00000000000",
        "max_bbxmin": "57.94166667000",
        "max_bbymax": "23.30833333000",
        "max_bbymin": "23.28333333000",
        "max_natsca": "10",
        "max_perkm": "20.00000000000",
        "max_permi": "12.00000000000",
        "max_pop10": "18007",
        "max_pop20": "0",
        "max_pop50": "0",
        "max_pop300": "0",
        "max_pop310": "0",
        "mean_bbxc": "57.97000000000",
        "mean_bbyc": "23.29916667000",
        "megacity": "0",
        "meganame": "",
        "min_areakm": "8",
        "min_areami": "3.00000000000",
        "min_bbxmax": "58.00000000000",
        "min_bbxmin": "57.94166667000",
        "min_bbymax": "23.30833333000",
        "min_bbymin": "23.28333333000",
        "min_perkm": "20.00000000000",
        "min_permi": "12.00000000000",
        "min_zoom": "7.0",
        "name": "Alayat Samail",
        "name_ar": "",
        "name_bn": "",
        "name_de": "",
        "name_el": "",
        "name_en": "",
        "name_es": "",
        "name_fr": "",
        "name_hi": "",
        "name_hu": "",
        "name_id": "",
        "name_it": "",
        "name_ja": "",
        "name_ko": "",
        "name_nl": "",
        "name_pl": "",
        "name_pt": "",
        "name_ru": "",
        "name_sv": "",
        "name_tr": "",
        "name_vi": "",
        "name_zh": "",
        "namealt": "",
        "nameascii": "Alayat Samail",
        "namediff": "0",
        "namepar": "",
        "natscale": "10",
        "ne_id": "1159128941",
        "note": "",
        "pop1950": "0.00000000000",
        "pop1955": "0.00000000000",
        "pop1960": "0.00000000000",
        "pop1965": "0.00000000000",
        "pop1970": "0.00000000000",
        "pop1975": "0.00000000000",
        "pop1980": "0.00000000000",
        "pop1985": "0.00000000000",
        "pop1990": "0.00000000000",
        "pop1995": "0.00000000000",
        "pop2000": "0.00000000000",
        "pop2005": "0.00000000000",
        "pop2010": "0.00000000000",
        "pop2015": "0.00000000000",
        "pop2020": "0.00000000000",
        "pop2025": "0.00000000000",
        "pop2050": "0.00000000000",
        "pop_max": "47718",
        "pop_min": "18007",
        "pop_other": "18007",
        "rank_max": "7",
        "rank_min": "6",
        "record_type": "city",
        "scalerank": "8",
        "sov0name": "Oman",
        "sov_a3": "OMN",
        "timezone": "Asia\/Muscat",
        "un_adm0": "",
        "un_fid": "0",
        "un_lat": "0.00000000000",
        "un_long": "0.00000000000",
        "wdid_score": "*",
        "wikidataid": "",
        "wof_id": "890443203",
        "worldcity": "0.00000000000"
    },
    "as_sib": {
        "adm0_a3": "OMN",
        "adm0cap": "0.00000000000",
        "adm0name": "Oman",
        "adm1name": "Muscat",
        "admin1_cod": "6.00000000000",
        "capalt": "****",
        "capin": "",
        "cca2": "OM",
        "cca3": "OMN",
        "changed": "1.00000000000",
        "checkme": "0",
        "cityalt": "",
        "compare": "1",
        "data_sources": [
            "natural"
        ],
        "diffascii": "0",
        "diffnote": "Added place. Population from GeoNames.",
        "elevation": "0.00000000000",
        "feature_cl": "P",
        "feature_co": "PPL",
        "featurecla": "Populated place",
        "geonameid": "288967.00000000000",
        "geonamesno": "Geonames ascii name + lat.d + long.d matching.",
        "gn_ascii": "As Sib",
        "gn_pop": "237816",
        "gtopo30": "13.00000000000",
        "iso_a2": "OM",
        "iso_a3": "OMN",
        "label": "",
        "labelrank": "8",
        "latitude": "23.68024578750",
        "longitude": "58.18253617230",
        "ls_match": "2",
        "ls_name": "",
        "max_areakm": "0.00000000000",
        "max_areami": "0.00000000000",
        "max_bbxmax": "0.00000000000",
        "max_bbxmin": "0.00000000000",
        "max_bbymax": "0.00000000000",
        "max_bbymin": "0.00000000000",
        "max_natsca": "0",
        "max_perkm": "0.00000000000",
        "max_permi": "0.00000000000",
        "max_pop10": "0",
        "max_pop20": "0",
        "max_pop50": "0",
        "max_pop300": "0",
        "max_pop310": "0",
        "mean_bbxc": "0.00000000000",
        "mean_bbyc": "0.00000000000",
        "megacity": "0",
        "meganame": "",
        "min_areakm": "0",
        "min_areami": "0.00000000000",
        "min_bbxmax": "0.00000000000",
        "min_bbxmin": "0.00000000000",
        "min_bbymax": "0.00000000000",
        "min_bbymin": "0.00000000000",
        "min_perkm": "0.00000000000",
        "min_permi": "0.00000000000",
        "min_zoom": "6.0",
        "name": "As Sib",
        "name_ar": "",
        "name_bn": "",
        "name_de": "Sib",
        "name_el": "",
        "name_en": "Seeb",
        "name_es": "Sib",
        "name_fr": "Sib",
        "name_hi": "",
        "name_hu": "",
        "name_id": "",
        "name_it": "",
        "name_ja": "",
        "name_ko": "",
        "name_nl": "",
        "name_pl": "",
        "name_pt": "Sib",
        "name_ru": "\u00d0\u00ad\u00d1\u0081-\u00d0\u00a1\u00d0\u00b8\u00d0\u00b1",
        "name_sv": "",
        "name_tr": "",
        "name_vi": "",
        "name_zh": "\u00e9\u0094\u00a1\u00e5\u008d\u009c",
        "namealt": "",
        "nameascii": "As Sib",
        "namediff": "1",
        "namepar": "",
        "natscale": "30",
        "ne_id": "1159146593",
        "note": "",
        "pop1950": "0.00000000000",
        "pop1955": "0.00000000000",
        "pop1960": "0.00000000000",
        "pop1965": "0.00000000000",
        "pop1970": "0.00000000000",
        "pop1975": "0.00000000000",
        "pop1980": "0.00000000000",
        "pop1985": "0.00000000000",
        "pop1990": "0.00000000000",
        "pop1995": "0.00000000000",
        "pop2000": "0.00000000000",
        "pop2005": "0.00000000000",
        "pop2010": "0.00000000000",
        "pop2015": "0.00000000000",
        "pop2020": "0.00000000000",
        "pop2025": "0.00000000000",
        "pop2050": "0.00000000000",
        "pop_max": "237816",
        "pop_min": "237816",
        "pop_other": "0",
        "rank_max": "10",
        "rank_min": "10",
        "record_type": "city",
        "scalerank": "6",
        "sov0name": "Oman",
        "sov_a3": "OMN",
        "timezone": "Asia\/Muscat",
        "un_adm0": "",
        "un_fid": "0",
        "un_lat": "0.00000000000",
        "un_long": "0.00000000000",
        "wdid_score": "4",
        "wikidataid": "Q948050",
        "wof_id": "890430371",
        "worldcity": "0.00000000000"
    },
    "dawwah": {
        "adm0_a3": "OMN",
        "adm0cap": "0.00000000000",
        "adm0name": "Oman",
        "adm1name": "Ash Sharqiyah",
        "admin1_cod": "0.00000000000",
        "capalt": "****",
        "capin": "",
        "cca2": "OM",
        "cca3": "OMN",
        "changed": "0.00000000000",
        "checkme": "0",
        "cityalt": "",
        "compare": "0",
        "data_sources": [
            "natural"
        ],
        "diffascii": "0",
        "diffnote": "",
        "elevation": "0.00000000000",
        "feature_cl": "",
        "feature_co": "",
        "featurecla": "Populated place",
        "geonameid": "-1.00000000000",
        "geonamesno": "No GeoNames match due to small population, not in GeoNames, or poor NEV placement.",
        "gn_ascii": "",
        "gn_pop": "0",
        "gtopo30": "0.00000000000",
        "iso_a2": "OM",
        "iso_a3": "OMN",
        "label": "",
        "labelrank": "0",
        "latitude": "20.63301576640",
        "longitude": "58.90802160530",
        "ls_match": "0",
        "ls_name": "Dawwah",
        "max_areakm": "0.00000000000",
        "max_areami": "0.00000000000",
        "max_bbxmax": "0.00000000000",
        "max_bbxmin": "0.00000000000",
        "max_bbymax": "0.00000000000",
        "max_bbymin": "0.00000000000",
        "max_natsca": "0",
        "max_perkm": "0.00000000000",
        "max_permi": "0.00000000000",
        "max_pop10": "0",
        "max_pop20": "0",
        "max_pop50": "0",
        "max_pop300": "0",
        "max_pop310": "0",
        "mean_bbxc": "0.00000000000",
        "mean_bbyc": "0.00000000000",
        "megacity": "0",
        "meganame": "",
        "min_areakm": "0",
        "min_areami": "0.00000000000",
        "min_bbxmax": "0.00000000000",
        "min_bbxmin": "0.00000000000",
        "min_bbymax": "0.00000000000",
        "min_bbymin": "0.00000000000",
        "min_perkm": "0.00000000000",
        "min_permi": "0.00000000000",
        "min_zoom": "7.0",
        "name": "Dawwah",
        "name_ar": "",
        "name_bn": "",
        "name_de": "",
        "name_el": "",
        "name_en": "",
        "name_es": "",
        "name_fr": "",
        "name_hi": "",
        "name_hu": "",
        "name_id": "",
        "name_it": "",
        "name_ja": "",
        "name_ko": "",
        "name_nl": "",
        "name_pl": "",
        "name_pt": "",
        "name_ru": "",
        "name_sv": "",
        "name_tr": "",
        "name_vi": "",
        "name_zh": "",
        "namealt": "",
        "nameascii": "Dawwah",
        "namediff": "0",
        "namepar": "",
        "natscale": "10",
        "ne_id": "1159132343",
        "note": "",
        "pop1950": "0.00000000000",
        "pop1955": "0.00000000000",
        "pop1960": "0.00000000000",
        "pop1965": "0.00000000000",
        "pop1970": "0.00000000000",
        "pop1975": "0.00000000000",
        "pop1980": "0.00000000000",
        "pop1985": "0.00000000000",
        "pop1990": "0.00000000000",
        "pop1995": "0.00000000000",
        "pop2000": "0.00000000000",
        "pop2005": "0.00000000000",
        "pop2010": "0.00000000000",
        "pop2015": "0.00000000000",
        "pop2020": "0.00000000000",
        "pop2025": "0.00000000000",
        "pop2050": "0.00000000000",
        "pop_max": "2000",
        "pop_min": "971",
        "pop_other": "0",
        "rank_max": "3",
        "rank_min": "2",
        "record_type": "city",
        "scalerank": "8",
        "sov0name": "Oman",
        "sov_a3": "OMN",
        "timezone": "",
        "un_adm0": "",
        "un_fid": "0",
        "un_lat": "0.00000000000",
        "un_long": "0.00000000000",
        "wdid_score": "*",
        "wikidataid": "",
        "wof_id": "1141906811",
        "worldcity": "0.00000000000"
    },
    "ibri": {
        "adm0_a3": "OMN",
        "adm0cap": "0.00000000000",
        "adm0name": "Oman",
        "adm1name": "Al Dhahira",
        "admin1_cod": "0.00000000000",
        "capalt": "****",
        "capin": "",
        "cca2": "OM",
        "cca3": "OMN",
        "changed": "1.00000000000",
        "checkme": "0",
        "cityalt": "",
        "compare": "1",
        "data_sources": [
            "natural"
        ],
        "diffascii": "0",
        "diffnote": "Added place. Population from GeoNames.",
        "elevation": "0.00000000000",
        "feature_cl": "P",
        "feature_co": "PPL",
        "featurecla": "Populated place",
        "geonameid": "287830.00000000000",
        "geonamesno": "GeoNames spatial join with similar names only.",
        "gn_ascii": "`Ibri",
        "gn_pop": "101640",
        "gtopo30": "377.00000000000",
        "iso_a2": "OM",
        "iso_a3": "OMN",
        "label": "",
        "labelrank": "8",
        "latitude": "23.22538983050",
        "longitude": "56.51695308310",
        "ls_match": "2",
        "ls_name": "",
        "max_areakm": "0.00000000000",
        "max_areami": "0.00000000000",
        "max_bbxmax": "0.00000000000",
        "max_bbxmin": "0.00000000000",
        "max_bbymax": "0.00000000000",
        "max_bbymin": "0.00000000000",
        "max_natsca": "0",
        "max_perkm": "0.00000000000",
        "max_permi": "0.00000000000",
        "max_pop10": "0",
        "max_pop20": "0",
        "max_pop50": "0",
        "max_pop300": "0",
        "max_pop310": "0",
        "mean_bbxc": "0.00000000000",
        "mean_bbyc": "0.00000000000",
        "megacity": "0",
        "meganame": "",
        "min_areakm": "0",
        "min_areami": "0.00000000000",
        "min_bbxmax": "0.00000000000",
        "min_bbxmin": "0.00000000000",
        "min_bbymax": "0.00000000000",
        "min_bbymin": "0.00000000000",
        "min_perkm": "0.00000000000",
        "min_permi": "0.00000000000",
        "min_zoom": "6.7",
        "name": "Ibri",
        "name_ar": "",
        "name_bn": "",
        "name_de": "Ibri",
        "name_el": "",
        "name_en": "Ibri",
        "name_es": "",
        "name_fr": "Ibri",
        "name_hi": "",
        "name_hu": "",
        "name_id": "",
        "name_it": "",
        "name_ja": "",
        "name_ko": "",
        "name_nl": "",
        "name_pl": "",
        "name_pt": "Ibri",
        "name_ru": "\u00d0\u0098\u00d0\u00b1\u00d1\u0080\u00d0\u00b8",
        "name_sv": "",
        "name_tr": "",
        "name_vi": "",
        "name_zh": "",
        "namealt": "",
        "nameascii": "Ibri",
        "namediff": "1",
        "namepar": "",
        "natscale": "20",
        "ne_id": "1159137899",
        "note": "",
        "pop1950": "0.00000000000",
        "pop1955": "0.00000000000",
        "pop1960": "0.00000000000",
        "pop1965": "0.00000000000",
        "pop1970": "0.00000000000",
        "pop1975": "0.00000000000",
        "pop1980": "0.00000000000",
        "pop1985": "0.00000000000",
        "pop1990": "0.00000000000",
        "pop1995": "0.00000000000",
        "pop2000": "0.00000000000",
        "pop2005": "0.00000000000",
        "pop2010": "0.00000000000",
        "pop2015": "0.00000000000",
        "pop2020": "0.00000000000",
        "pop2025": "0.00000000000",
        "pop2050": "0.00000000000",
        "pop_max": "101640",
        "pop_min": "101640",
        "pop_other": "0",
        "rank_max": "9",
        "rank_min": "9",
        "record_type": "city",
        "scalerank": "7",
        "sov0name": "Oman",
        "sov_a3": "OMN",
        "timezone": "Asia\/Muscat",
        "un_adm0": "",
        "un_fid": "0",
        "un_lat": "0.00000000000",
        "un_long": "0.00000000000",
        "wdid_score": "4",
        "wikidataid": "Q225376",
        "wof_id": "890436569",
        "worldcity": "0.00000000000"
    },
    "mirbat": {
        "adm0_a3": "OMN",
        "adm0cap": "0.00000000000",
        "adm0name": "Oman",
        "adm1name": "Dhofar",
        "admin1_cod": "0.00000000000",
        "capalt": "****",
        "capin": "",
        "cca2": "OM",
        "cca3": "OMN",
        "changed": "0.00000000000",
        "checkme": "0",
        "cityalt": "",
        "compare": "0",
        "data_sources": [
            "natural"
        ],
        "diffascii": "0",
        "diffnote": "",
        "elevation": "0.00000000000",
        "feature_cl": "",
        "feature_co": "",
        "featurecla": "Populated place",
        "geonameid": "-1.00000000000",
        "geonamesno": "No GeoNames match due to small population, not in GeoNames, or poor NEV placement.",
        "gn_ascii": "",
        "gn_pop": "0",
        "gtopo30": "0.00000000000",
        "iso_a2": "OM",
        "iso_a3": "OMN",
        "label": "",
        "labelrank": "8",
        "latitude": "16.99243694960",
        "longitude": "54.69179317100",
        "ls_match": "1",
        "ls_name": "Mirbat",
        "max_areakm": "1.00000000000",
        "max_areami": "0.00000000000",
        "max_bbxmax": "54.70000000000",
        "max_bbxmin": "54.69166667000",
        "max_bbymax": "16.99166667000",
        "max_bbymin": "16.98333333000",
        "max_natsca": "20",
        "max_perkm": "4.00000000000",
        "max_permi": "2.00000000000",
        "max_pop10": "1120",
        "max_pop20": "1120",
        "max_pop50": "0",
        "max_pop300": "0",
        "max_pop310": "0",
        "mean_bbxc": "54.69583333000",
        "mean_bbyc": "16.98750000000",
        "megacity": "0",
        "meganame": "",
        "min_areakm": "1",
        "min_areami": "0.00000000000",
        "min_bbxmax": "54.70000000000",
        "min_bbxmin": "54.69166667000",
        "min_bbymax": "16.99166667000",
        "min_bbymin": "16.98333333000",
        "min_perkm": "4.00000000000",
        "min_permi": "2.00000000000",
        "min_zoom": "6.7",
        "name": "Mirbat",
        "name_ar": "",
        "name_bn": "",
        "name_de": "",
        "name_el": "",
        "name_en": "",
        "name_es": "",
        "name_fr": "",
        "name_hi": "",
        "name_hu": "",
        "name_id": "",
        "name_it": "",
        "name_ja": "",
        "name_ko": "",
        "name_nl": "",
        "name_pl": "",
        "name_pt": "",
        "name_ru": "",
        "name_sv": "",
        "name_tr": "",
        "name_vi": "",
        "name_zh": "",
        "namealt": "",
        "nameascii": "Mirbat",
        "namediff": "0",
        "namepar": "",
        "natscale": "20",
        "ne_id": "1159137881",
        "note": "",
        "pop1950": "0.00000000000",
        "pop1955": "0.00000000000",
        "pop1960": "0.00000000000",
        "pop1965": "0.00000000000",
        "pop1970": "0.00000000000",
        "pop1975": "0.00000000000",
        "pop1980": "0.00000000000",
        "pop1985": "0.00000000000",
        "pop1990": "0.00000000000",
        "pop1995": "0.00000000000",
        "pop2000": "0.00000000000",
        "pop2005": "0.00000000000",
        "pop2010": "0.00000000000",
        "pop2015": "0.00000000000",
        "pop2020": "0.00000000000",
        "pop2025": "0.00000000000",
        "pop2050": "0.00000000000",
        "pop_max": "1120",
        "pop_min": "1120",
        "pop_other": "0",
        "rank_max": "3",
        "rank_min": "3",
        "record_type": "city",
        "scalerank": "7",
        "sov0name": "Oman",
        "sov_a3": "OMN",
        "timezone": "",
        "un_adm0": "",
        "un_fid": "0",
        "un_lat": "0.00000000000",
        "un_long": "0.00000000000",
        "wdid_score": "4",
        "wikidataid": "Q1938064",
        "wof_id": "1141907251",
        "worldcity": "0.00000000000"
    },
    "muscat": {
        "adm0_a3": "OMN",
        "adm0cap": "1.00000000000",
        "adm0name": "Oman",
        "adm1name": "Muscat",
        "admin1_cod": "6.00000000000",
        "capalt": "****",
        "capin": "",
        "cca2": "OM",
        "cca3": "OMN",
        "changed": "0.00000000000",
        "checkme": "0",
        "cityalt": "",
        "compare": "0",
        "data_sources": [
            "natural"
        ],
        "diffascii": "0",
        "diffnote": "",
        "elevation": "0.00000000000",
        "feature_cl": "P",
        "feature_co": "PPLC",
        "featurecla": "Admin-0 capital",
        "geonameid": "287286.00000000000",
        "geonamesno": "GeoNames match general.",
        "gn_ascii": "Muscat",
        "gn_pop": "797000",
        "gtopo30": "69.00000000000",
        "iso_a2": "OM",
        "iso_a3": "OMN",
        "label": "",
        "labelrank": "8",
        "latitude": "23.61332480770",
        "longitude": "58.59331213260",
        "ls_match": "1",
        "ls_name": "Muscat",
        "max_areakm": "104.00000000000",
        "max_areami": "40.00000000000",
        "max_bbxmax": "58.60000000000",
        "max_bbxmin": "58.33333333000",
        "max_bbymax": "23.64166667000",
        "max_bbymin": "23.55833333000",
        "max_natsca": "100",
        "max_perkm": "121.00000000000",
        "max_permi": "75.00000000000",
        "max_pop10": "586861",
        "max_pop20": "586861",
        "max_pop50": "586861",
        "max_pop300": "586861",
        "max_pop310": "0",
        "mean_bbxc": "58.47468434000",
        "mean_bbyc": "23.59930556000",
        "megacity": "0",
        "meganame": "",
        "min_areakm": "104",
        "min_areami": "40.00000000000",
        "min_bbxmax": "58.60000000000",
        "min_bbxmin": "58.33333333000",
        "min_bbymax": "23.64166667000",
        "min_bbymin": "23.55833333000",
        "min_perkm": "121.00000000000",
        "min_permi": "75.00000000000",
        "min_zoom": "5.0",
        "name": "Muscat",
        "name_ar": "",
        "name_bn": "",
        "name_de": "Maskat",
        "name_el": "",
        "name_en": "Muscat",
        "name_es": "Mascate",
        "name_fr": "Mascate",
        "name_hi": "",
        "name_hu": "",
        "name_id": "",
        "name_it": "",
        "name_ja": "",
        "name_ko": "",
        "name_nl": "",
        "name_pl": "",
        "name_pt": "Mascate",
        "name_ru": "\u00d0\u009c\u00d0\u00b0\u00d1\u0081\u00d0\u00ba\u00d0\u00b0\u00d1\u0082",
        "name_sv": "",
        "name_tr": "",
        "name_vi": "",
        "name_zh": "\u00e9\u00a9\u00ac\u00e6\u0096\u00af\u00e5\u0096\u0080\u00e7\u0089\u00b9",
        "namealt": "",
        "nameascii": "Muscat",
        "namediff": "0",
        "namepar": "",
        "natscale": "110",
        "ne_id": "1159150717",
        "note": "",
        "pop1950": "0.00000000000",
        "pop1955": "0.00000000000",
        "pop1960": "0.00000000000",
        "pop1965": "0.00000000000",
        "pop1970": "0.00000000000",
        "pop1975": "0.00000000000",
        "pop1980": "0.00000000000",
        "pop1985": "0.00000000000",
        "pop1990": "0.00000000000",
        "pop1995": "0.00000000000",
        "pop2000": "0.00000000000",
        "pop2005": "0.00000000000",
        "pop2010": "0.00000000000",
        "pop2015": "0.00000000000",
        "pop2020": "0.00000000000",
        "pop2025": "0.00000000000",
        "pop2050": "0.00000000000",
        "pop_max": "734697",
        "pop_min": "586861",
        "pop_other": "586861",
        "rank_max": "11",
        "rank_min": "11",
        "record_type": "city",
        "scalerank": "3",
        "sov0name": "Oman",
        "sov_a3": "OMN",
        "timezone": "Asia\/Muscat",
        "un_adm0": "",
        "un_fid": "0",
        "un_lat": "0.00000000000",
        "un_long": "0.00000000000",
        "wdid_score": "4",
        "wikidataid": "Q3826",
        "wof_id": "421178455",
        "worldcity": "0.00000000000"
    },
    "nizwa": {
        "adm0_a3": "OMN",
        "adm0cap": "0.00000000000",
        "adm0name": "Oman",
        "adm1name": "Ad Dakhliyah",
        "admin1_cod": "0.00000000000",
        "capalt": "****",
        "capin": "",
        "cca2": "OM",
        "cca3": "OMN",
        "changed": "1.00000000000",
        "checkme": "0",
        "cityalt": "",
        "compare": "0",
        "data_sources": [
            "natural"
        ],
        "diffascii": "0",
        "diffnote": "Changed scale rank.",
        "elevation": "0.00000000000",
        "feature_cl": "P",
        "feature_co": "PPL",
        "featurecla": "Populated place",
        "geonameid": "286987.00000000000",
        "geonamesno": "Geonames ascii name + lat.d + long.d matching.",
        "gn_ascii": "Nizwa",
        "gn_pop": "72076",
        "gtopo30": "516.00000000000",
        "iso_a2": "OM",
        "iso_a3": "OMN",
        "label": "",
        "labelrank": "8",
        "latitude": "22.92638999330",
        "longitude": "57.53141312540",
        "ls_match": "1",
        "ls_name": "Nizwa",
        "max_areakm": "19.00000000000",
        "max_areami": "7.00000000000",
        "max_bbxmax": "57.56666667000",
        "max_bbxmin": "57.50833333000",
        "max_bbymax": "22.98333333000",
        "max_bbymin": "22.90000000000",
        "max_natsca": "20",
        "max_perkm": "34.00000000000",
        "max_permi": "21.00000000000",
        "max_pop10": "68783",
        "max_pop20": "68783",
        "max_pop50": "0",
        "max_pop300": "0",
        "max_pop310": "0",
        "mean_bbxc": "57.53576389000",
        "mean_bbyc": "22.94131944000",
        "megacity": "0",
        "meganame": "",
        "min_areakm": "19",
        "min_areami": "7.00000000000",
        "min_bbxmax": "57.56666667000",
        "min_bbxmin": "57.50833333000",
        "min_bbymax": "22.98333333000",
        "min_bbymin": "22.90000000000",
        "min_perkm": "34.00000000000",
        "min_permi": "21.00000000000",
        "min_zoom": "6.0",
        "name": "Nizwa",
        "name_ar": "",
        "name_bn": "",
        "name_de": "Nizwa",
        "name_el": "",
        "name_en": "Nizwa",
        "name_es": "Nizwa",
        "name_fr": "Nizwa",
        "name_hi": "",
        "name_hu": "",
        "name_id": "",
        "name_it": "",
        "name_ja": "",
        "name_ko": "",
        "name_nl": "",
        "name_pl": "",
        "name_pt": "Nizwa",
        "name_ru": "\u00d0\u009d\u00d0\u00b0\u00d0\u00b7\u00d0\u00b2\u00d0\u00b0",
        "name_sv": "",
        "name_tr": "",
        "name_vi": "",
        "name_zh": "\u00e5\u00b0\u00bc\u00e5\u0085\u00b9\u00e7\u0093\u00a6",
        "namealt": "",
        "nameascii": "Nizwa",
        "namediff": "0",
        "namepar": "",
        "natscale": "30",
        "ne_id": "1159148149",
        "note": "",
        "pop1950": "0.00000000000",
        "pop1955": "0.00000000000",
        "pop1960": "0.00000000000",
        "pop1965": "0.00000000000",
        "pop1970": "0.00000000000",
        "pop1975": "0.00000000000",
        "pop1980": "0.00000000000",
        "pop1985": "0.00000000000",
        "pop1990": "0.00000000000",
        "pop1995": "0.00000000000",
        "pop2000": "0.00000000000",
        "pop2005": "0.00000000000",
        "pop2010": "0.00000000000",
        "pop2015": "0.00000000000",
        "pop2020": "0.00000000000",
        "pop2025": "0.00000000000",
        "pop2050": "0.00000000000",
        "pop_max": "72076",
        "pop_min": "68783",
        "pop_other": "68783",
        "rank_max": "8",
        "rank_min": "8",
        "record_type": "city",
        "scalerank": "6",
        "sov0name": "Oman",
        "sov_a3": "OMN",
        "timezone": "Asia\/Muscat",
        "un_adm0": "",
        "un_fid": "0",
        "un_lat": "0.00000000000",
        "un_long": "0.00000000000",
        "wdid_score": "4",
        "wikidataid": "Q1915327",
        "wof_id": "890443205",
        "worldcity": "0.00000000000"
    },
    "salalah": {
        "adm0_a3": "OMN",
        "adm0cap": "0.00000000000",
        "adm0name": "Oman",
        "adm1name": "Dhofar",
        "admin1_cod": "8.00000000000",
        "capalt": "****",
        "capin": "",
        "cca2": "OM",
        "cca3": "OMN",
        "changed": "1.00000000000",
        "checkme": "0",
        "cityalt": "",
        "compare": "0",
        "data_sources": [
            "natural"
        ],
        "diffascii": "0",
        "diffnote": "Changed scale rank.",
        "elevation": "0.00000000000",
        "feature_cl": "P",
        "feature_co": "PPL",
        "featurecla": "Populated place",
        "geonameid": "286621.00000000000",
        "geonamesno": "Geonames ascii name + lat.d + long.d matching.",
        "gn_ascii": "Salalah",
        "gn_pop": "163140",
        "gtopo30": "21.00000000000",
        "iso_a2": "OM",
        "iso_a3": "OMN",
        "label": "",
        "labelrank": "8",
        "latitude": "17.02545818990",
        "longitude": "54.08521520880",
        "ls_match": "1",
        "ls_name": "Salalah",
        "max_areakm": "68.00000000000",
        "max_areami": "26.00000000000",
        "max_bbxmax": "54.19166667000",
        "max_bbxmin": "54.00000000000",
        "max_bbymax": "17.09166667000",
        "max_bbymin": "16.99166667000",
        "max_natsca": "10",
        "max_perkm": "84.00000000000",
        "max_permi": "52.00000000000",
        "max_pop10": "203877",
        "max_pop20": "0",
        "max_pop50": "0",
        "max_pop300": "0",
        "max_pop310": "0",
        "mean_bbxc": "54.10065261000",
        "mean_bbyc": "17.02595382000",
        "megacity": "0",
        "meganame": "",
        "min_areakm": "68",
        "min_areami": "26.00000000000",
        "min_bbxmax": "54.19166667000",
        "min_bbxmin": "54.00000000000",
        "min_bbymax": "17.09166667000",
        "min_bbymin": "16.99166667000",
        "min_perkm": "84.00000000000",
        "min_permi": "52.00000000000",
        "min_zoom": "6.0",
        "name": "Salalah",
        "name_ar": "",
        "name_bn": "",
        "name_de": "Salala",
        "name_el": "",
        "name_en": "Salalah",
        "name_es": "Salalah",
        "name_fr": "Salalah",
        "name_hi": "",
        "name_hu": "",
        "name_id": "",
        "name_it": "",
        "name_ja": "",
        "name_ko": "",
        "name_nl": "",
        "name_pl": "",
        "name_pt": "Salalah",
        "name_ru": "\u00d0\u00a1\u00d0\u00b0\u00d0\u00bb\u00d0\u00b0\u00d0\u00bb\u00d0\u00b0",
        "name_sv": "",
        "name_tr": "",
        "name_vi": "",
        "name_zh": "\u00e5\u00a1\u009e\u00e6\u008b\u0089\u00e8\u008e\u00b1",
        "namealt": "",
        "nameascii": "Salalah",
        "namediff": "0",
        "namepar": "",
        "natscale": "30",
        "ne_id": "1159146587",
        "note": "",
        "pop1950": "0.00000000000",
        "pop1955": "0.00000000000",
        "pop1960": "0.00000000000",
        "pop1965": "0.00000000000",
        "pop1970": "0.00000000000",
        "pop1975": "0.00000000000",
        "pop1980": "0.00000000000",
        "pop1985": "0.00000000000",
        "pop1990": "0.00000000000",
        "pop1995": "0.00000000000",
        "pop2000": "0.00000000000",
        "pop2005": "0.00000000000",
        "pop2010": "0.00000000000",
        "pop2015": "0.00000000000",
        "pop2020": "0.00000000000",
        "pop2025": "0.00000000000",
        "pop2050": "0.00000000000",
        "pop_max": "203877",
        "pop_min": "163140",
        "pop_other": "204041",
        "rank_max": "10",
        "rank_min": "9",
        "record_type": "city",
        "scalerank": "6",
        "sov0name": "Oman",
        "sov_a3": "OMN",
        "timezone": "Asia\/Muscat",
        "un_adm0": "",
        "un_fid": "0",
        "un_lat": "0.00000000000",
        "un_long": "0.00000000000",
        "wdid_score": "4",
        "wikidataid": "Q1294439",
        "wof_id": "890439893",
        "worldcity": "0.00000000000"
    },
    "suhar": {
        "adm0_a3": "OMN",
        "adm0cap": "0.00000000000",
        "adm0name": "Oman",
        "adm1name": "Al Batnah",
        "admin1_cod": "2.00000000000",
        "capalt": "****",
        "capin": "",
        "cca2": "OM",
        "cca3": "OMN",
        "changed": "1.00000000000",
        "checkme": "0",
        "cityalt": "",
        "compare": "0",
        "data_sources": [
            "natural"
        ],
        "diffascii": "0",
        "diffnote": "Location adjusted. Changed scale rank.",
        "elevation": "0.00000000000",
        "feature_cl": "P",
        "feature_co": "PPL",
        "featurecla": "Populated place",
        "geonameid": "286282.00000000000",
        "geonamesno": "Geonames ascii name + lat.d + long.d matching.",
        "gn_ascii": "Suhar",
        "gn_pop": "108274",
        "gtopo30": "4.00000000000",
        "iso_a2": "OM",
        "iso_a3": "OMN",
        "label": "",
        "labelrank": "8",
        "latitude": "24.36197334560",
        "longitude": "56.73441895810",
        "ls_match": "1",
        "ls_name": "Suhar",
        "max_areakm": "79.00000000000",
        "max_areami": "30.00000000000",
        "max_bbxmax": "56.78333333000",
        "max_bbxmin": "56.60833333000",
        "max_bbymax": "24.46666667000",
        "max_bbymin": "24.30000000000",
        "max_natsca": "20",
        "max_perkm": "108.00000000000",
        "max_permi": "67.00000000000",
        "max_pop10": "151349",
        "max_pop20": "151349",
        "max_pop50": "0",
        "max_pop300": "0",
        "max_pop310": "0",
        "mean_bbxc": "56.69220297000",
        "mean_bbyc": "24.39294554000",
        "megacity": "0",
        "meganame": "",
        "min_areakm": "79",
        "min_areami": "30.00000000000",
        "min_bbxmax": "56.78333333000",
        "min_bbxmin": "56.60833333000",
        "min_bbymax": "24.46666667000",
        "min_bbymin": "24.30000000000",
        "min_perkm": "108.00000000000",
        "min_permi": "67.00000000000",
        "min_zoom": "6.0",
        "name": "Suhar",
        "name_ar": "",
        "name_bn": "",
        "name_de": "Suhar",
        "name_el": "",
        "name_en": "Sohar",
        "name_es": "Sohar",
        "name_fr": "Sohar",
        "name_hi": "",
        "name_hu": "",
        "name_id": "",
        "name_it": "",
        "name_ja": "",
        "name_ko": "",
        "name_nl": "",
        "name_pl": "",
        "name_pt": "Sohar",
        "name_ru": "\u00d0\u00a1\u00d1\u0083\u00d1\u0085\u00d0\u00b0\u00d1\u0080",
        "name_sv": "",
        "name_tr": "",
        "name_vi": "",
        "name_zh": "\u00e8\u008b\u008f\u00e5\u0093\u0088\u00e5\u00b0\u0094",
        "namealt": "",
        "nameascii": "Suhar",
        "namediff": "0",
        "namepar": "",
        "natscale": "30",
        "ne_id": "1159146591",
        "note": "",
        "pop1950": "0.00000000000",
        "pop1955": "0.00000000000",
        "pop1960": "0.00000000000",
        "pop1965": "0.00000000000",
        "pop1970": "0.00000000000",
        "pop1975": "0.00000000000",
        "pop1980": "0.00000000000",
        "pop1985": "0.00000000000",
        "pop1990": "0.00000000000",
        "pop1995": "0.00000000000",
        "pop2000": "0.00000000000",
        "pop2005": "0.00000000000",
        "pop2010": "0.00000000000",
        "pop2015": "0.00000000000",
        "pop2020": "0.00000000000",
        "pop2025": "0.00000000000",
        "pop2050": "0.00000000000",
        "pop_max": "151349",
        "pop_min": "108274",
        "pop_other": "0",
        "rank_max": "9",
        "rank_min": "9",
        "record_type": "city",
        "scalerank": "6",
        "sov0name": "Oman",
        "sov_a3": "OMN",
        "timezone": "Asia\/Muscat",
        "un_adm0": "",
        "un_fid": "0",
        "un_lat": "0.00000000000",
        "un_long": "0.00000000000",
        "wdid_score": "4",
        "wikidataid": "Q943270",
        "wof_id": "890443201",
        "worldcity": "0.00000000000"
    },
    "sur": {
        "adm0_a3": "OMN",
        "adm0cap": "0.00000000000",
        "adm0name": "Oman",
        "adm1name": "Ash Sharqiyah",
        "admin1_cod": "4.00000000000",
        "capalt": "****",
        "capin": "",
        "cca2": "OM",
        "cca3": "OMN",
        "changed": "1.00000000000",
        "checkme": "0",
        "cityalt": "",
        "compare": "0",
        "data_sources": [
            "natural"
        ],
        "diffascii": "0",
        "diffnote": "Changed scale rank.",
        "elevation": "0.00000000000",
        "feature_cl": "P",
        "feature_co": "PPL",
        "featurecla": "Populated place",
        "geonameid": "286245.00000000000",
        "geonamesno": "Geonames ascii name + lat.d + long.d matching.",
        "gn_ascii": "Sur",
        "gn_pop": "71152",
        "gtopo30": "15.00000000000",
        "iso_a2": "OM",
        "iso_a3": "OMN",
        "label": "",
        "labelrank": "8",
        "latitude": "22.57581707660",
        "longitude": "59.53480505250",
        "ls_match": "1",
        "ls_name": "Sur",
        "max_areakm": "13.00000000000",
        "max_areami": "5.00000000000",
        "max_bbxmax": "59.55000000000",
        "max_bbxmin": "59.48333333000",
        "max_bbymax": "22.59166667000",
        "max_bbymin": "22.55833333000",
        "max_natsca": "20",
        "max_perkm": "22.00000000000",
        "max_permi": "13.00000000000",
        "max_pop10": "66324",
        "max_pop20": "66324",
        "max_pop50": "0",
        "max_pop300": "0",
        "max_pop310": "0",
        "mean_bbxc": "59.51354167000",
        "mean_bbyc": "22.57395833000",
        "megacity": "0",
        "meganame": "",
        "min_areakm": "13",
        "min_areami": "5.00000000000",
        "min_bbxmax": "59.55000000000",
        "min_bbxmin": "59.48333333000",
        "min_bbymax": "22.59166667000",
        "min_bbymin": "22.55833333000",
        "min_perkm": "22.00000000000",
        "min_permi": "13.00000000000",
        "min_zoom": "6.0",
        "name": "Sur",
        "name_ar": "",
        "name_bn": "",
        "name_de": "Sur",
        "name_el": "",
        "name_en": "Sur",
        "name_es": "Sur",
        "name_fr": "Sour",
        "name_hi": "",
        "name_hu": "",
        "name_id": "",
        "name_it": "",
        "name_ja": "",
        "name_ko": "",
        "name_nl": "",
        "name_pl": "",
        "name_pt": "Sur",
        "name_ru": "\u00d0\u00a1\u00d1\u0083\u00d1\u0080",
        "name_sv": "",
        "name_tr": "",
        "name_vi": "",
        "name_zh": "\u00e8\u008b\u008f\u00e5\u00b0\u0094",
        "namealt": "",
        "nameascii": "Sur",
        "namediff": "0",
        "namepar": "",
        "natscale": "30",
        "ne_id": "1159148153",
        "note": "",
        "pop1950": "0.00000000000",
        "pop1955": "0.00000000000",
        "pop1960": "0.00000000000",
        "pop1965": "0.00000000000",
        "pop1970": "0.00000000000",
        "pop1975": "0.00000000000",
        "pop1980": "0.00000000000",
        "pop1985": "0.00000000000",
        "pop1990": "0.00000000000",
        "pop1995": "0.00000000000",
        "pop2000": "0.00000000000",
        "pop2005": "0.00000000000",
        "pop2010": "0.00000000000",
        "pop2015": "0.00000000000",
        "pop2020": "0.00000000000",
        "pop2025": "0.00000000000",
        "pop2050": "0.00000000000",
        "pop_max": "71152",
        "pop_min": "66324",
        "pop_other": "0",
        "rank_max": "8",
        "rank_min": "8",
        "record_type": "city",
        "scalerank": "6",
        "sov0name": "Oman",
        "sov_a3": "OMN",
        "timezone": "Asia\/Muscat",
        "un_adm0": "",
        "un_fid": "0",
        "un_lat": "0.00000000000",
        "un_long": "0.00000000000",
        "wdid_score": "4",
        "wikidataid": "Q737270",
        "wof_id": "890443199",
        "worldcity": "0.00000000000"
    }
}