{
    "arecibo": {
        "adm0_a3": "PRI",
        "adm0cap": "0.00000000000",
        "adm0name": "Puerto Rico",
        "adm1name": "",
        "admin1_cod": "0.00000000000",
        "capalt": "****",
        "capin": "",
        "cca2": "PR",
        "cca3": "PRI",
        "changed": "1.00000000000",
        "checkme": "3",
        "cityalt": "",
        "compare": "0",
        "data_sources": [
            "natural"
        ],
        "diffascii": "0",
        "diffnote": "Changed scale rank.",
        "elevation": "7.00000000000",
        "feature_cl": "P",
        "feature_co": "PPL",
        "featurecla": "Populated place",
        "geonameid": "4562635.00000000000",
        "geonamesno": "GeoNames match with ascii name + lat + long whole numbers.",
        "gn_ascii": "Arecibo",
        "gn_pop": "49318",
        "gtopo30": "2.00000000000",
        "iso_a2": "PR",
        "iso_a3": "PRI",
        "label": "",
        "labelrank": "0",
        "latitude": "18.44002300920",
        "longitude": "-66.72999434580",
        "ls_match": "1",
        "ls_name": "Arecibo",
        "max_areakm": "71.00000000000",
        "max_areami": "27.00000000000",
        "max_bbxmax": "-66.70000000000",
        "max_bbxmin": "-66.82500000000",
        "max_bbymax": "18.49166667000",
        "max_bbymin": "18.39166667000",
        "max_natsca": "20",
        "max_perkm": "81.00000000000",
        "max_permi": "51.00000000000",
        "max_pop10": "69307",
        "max_pop20": "69307",
        "max_pop50": "0",
        "max_pop300": "0",
        "max_pop310": "0",
        "mean_bbxc": "-66.76144636000",
        "mean_bbyc": "18.44104406000",
        "megacity": "0",
        "meganame": "",
        "min_areakm": "71",
        "min_areami": "27.00000000000",
        "min_bbxmax": "-66.70000000000",
        "min_bbxmin": "-66.82500000000",
        "min_bbymax": "18.49166667000",
        "min_bbymin": "18.39166667000",
        "min_perkm": "81.00000000000",
        "min_permi": "51.00000000000",
        "min_zoom": "6.0",
        "name": "Arecibo",
        "name_ar": "",
        "name_bn": "",
        "name_de": "Arecibo",
        "name_el": "",
        "name_en": "Arecibo",
        "name_es": "Arecibo",
        "name_fr": "Arecibo",
        "name_hi": "",
        "name_hu": "",
        "name_id": "",
        "name_it": "",
        "name_ja": "",
        "name_ko": "",
        "name_nl": "",
        "name_pl": "",
        "name_pt": "Arecibo",
        "name_ru": "\u00d0\u0090\u00d1\u0080\u00d0\u00b5\u00d1\u0081\u00d0\u00b8\u00d0\u00b1\u00d0\u00be",
        "name_sv": "",
        "name_tr": "",
        "name_vi": "",
        "name_zh": "\u00e9\u0098\u00bf\u00e9\u009b\u00b7\u00e8\u00a5\u00bf\u00e6\u00b2\u0083",
        "namealt": "",
        "nameascii": "Arecibo",
        "namediff": "0",
        "namepar": "",
        "natscale": "30",
        "ne_id": "1159149067",
        "note": "",
        "pop1950": "0.00000000000",
        "pop1955": "0.00000000000",
        "pop1960": "0.00000000000",
        "pop1965": "0.00000000000",
        "pop1970": "0.00000000000",
        "pop1975": "0.00000000000",
        "pop1980": "0.00000000000",
        "pop1985": "0.00000000000",
        "pop1990": "0.00000000000",
        "pop1995": "0.00000000000",
        "pop2000": "0.00000000000",
        "pop2005": "0.00000000000",
        "pop2010": "0.00000000000",
        "pop2015": "0.00000000000",
        "pop2020": "0.00000000000",
        "pop2025": "0.00000000000",
        "pop2050": "0.00000000000",
        "pop_max": "69307",
        "pop_min": "49318",
        "pop_other": "134093",
        "rank_max": "8",
        "rank_min": "7",
        "record_type": "city",
        "scalerank": "6",
        "sov0name": "United States",
        "sov_a3": "USA",
        "timezone": "America\/Puerto_Rico",
        "un_adm0": "",
        "un_fid": "0",
        "un_lat": "0.00000000000",
        "un_long": "0.00000000000",
        "wdid_score": "4",
        "wikidataid": "Q640728",
        "wof_id": "101919135",
        "worldcity": "0.00000000000"
    },
    "mayaguez": {
        "adm0_a3": "PRI",
        "adm0cap": "0.00000000000",
        "adm0name": "Puerto Rico",
        "adm1name": "",
        "admin1_cod": "0.00000000000",
        "capalt": "****",
        "capin": "",
        "cca2": "PR",
        "cca3": "PRI",
        "changed": "4.00000000000",
        "checkme": "5",
        "cityalt": "",
        "compare": "0",
        "data_sources": [
            "natural"
        ],
        "diffascii": "0",
        "diffnote": "Changed feature class.",
        "elevation": "21.00000000000",
        "feature_cl": "P",
        "feature_co": "PPL",
        "featurecla": "Populated place",
        "geonameid": "4566385.00000000000",
        "geonamesno": "GeoNames spatial join with similar names only.",
        "gn_ascii": "Mayagueez",
        "gn_pop": "78647",
        "gtopo30": "30.00000000000",
        "iso_a2": "PR",
        "iso_a3": "PRI",
        "label": "",
        "labelrank": "0",
        "latitude": "18.20151043600",
        "longitude": "-67.13971093920",
        "ls_match": "1",
        "ls_name": "Mayaguez",
        "max_areakm": "356.00000000000",
        "max_areami": "138.00000000000",
        "max_bbxmax": "-67.02500000000",
        "max_bbxmin": "-67.26666667000",
        "max_bbymax": "18.51666667000",
        "max_bbymin": "18.12500000000",
        "max_natsca": "20",
        "max_perkm": "358.00000000000",
        "max_permi": "222.00000000000",
        "max_pop10": "291339",
        "max_pop20": "291339",
        "max_pop50": "0",
        "max_pop300": "0",
        "max_pop310": "0",
        "mean_bbxc": "-67.13562789000",
        "mean_bbyc": "18.33591555000",
        "megacity": "0",
        "meganame": "",
        "min_areakm": "356",
        "min_areami": "138.00000000000",
        "min_bbxmax": "-67.02500000000",
        "min_bbxmin": "-67.26666667000",
        "min_bbymax": "18.51666667000",
        "min_bbymin": "18.12500000000",
        "min_perkm": "358.00000000000",
        "min_permi": "222.00000000000",
        "min_zoom": "6.7",
        "name": "Mayag\u00c3\u00bcez",
        "name_ar": "",
        "name_bn": "",
        "name_de": "Mayag\u00c3\u00bcez",
        "name_el": "",
        "name_en": "Mayag\u00c3\u00bcez",
        "name_es": "Mayag\u00c3\u00bcez",
        "name_fr": "Mayag\u00c3\u00bcez",
        "name_hi": "",
        "name_hu": "",
        "name_id": "",
        "name_it": "",
        "name_ja": "",
        "name_ko": "",
        "name_nl": "",
        "name_pl": "",
        "name_pt": "Mayag\u00c3\u00bcez",
        "name_ru": "\u00d0\u009c\u00d0\u00b0\u00d1\u008f\u00d0\u00b3\u00d1\u0083\u00d1\u008d\u00d1\u0081",
        "name_sv": "",
        "name_tr": "",
        "name_vi": "",
        "name_zh": "\u00e9\u00a6\u00ac\u00e4\u00ba\u009e\u00e5\u009c\u00ad\u00e6\u0096\u00af",
        "namealt": "",
        "nameascii": "Mayaguez",
        "namediff": "0",
        "namepar": "",
        "natscale": "20",
        "ne_id": "1159146025",
        "note": "",
        "pop1950": "0.00000000000",
        "pop1955": "0.00000000000",
        "pop1960": "0.00000000000",
        "pop1965": "0.00000000000",
        "pop1970": "0.00000000000",
        "pop1975": "0.00000000000",
        "pop1980": "0.00000000000",
        "pop1985": "0.00000000000",
        "pop1990": "0.00000000000",
        "pop1995": "0.00000000000",
        "pop2000": "0.00000000000",
        "pop2005": "0.00000000000",
        "pop2010": "0.00000000000",
        "pop2015": "0.00000000000",
        "pop2020": "0.00000000000",
        "pop2025": "0.00000000000",
        "pop2050": "0.00000000000",
        "pop_max": "291339",
        "pop_min": "78647",
        "pop_other": "300806",
        "rank_max": "10",
        "rank_min": "8",
        "record_type": "city",
        "scalerank": "7",
        "sov0name": "United States",
        "sov_a3": "USA",
        "timezone": "America\/Puerto_Rico",
        "un_adm0": "",
        "un_fid": "0",
        "un_lat": "0.00000000000",
        "un_long": "0.00000000000",
        "wdid_score": "4",
        "wikidataid": "Q632727",
        "wof_id": "1141908375",
        "worldcity": "0.00000000000"
    },
    "ponce": {
        "adm0_a3": "PRI",
        "adm0cap": "0.00000000000",
        "adm0name": "Puerto Rico",
        "adm1name": "",
        "admin1_cod": "0.00000000000",
        "capalt": "****",
        "capin": "",
        "cca2": "PR",
        "cca3": "PRI",
        "changed": "4.00000000000",
        "checkme": "5",
        "cityalt": "",
        "compare": "0",
        "data_sources": [
            "natural"
        ],
        "diffascii": "0",
        "diffnote": "Changed feature class.",
        "elevation": "15.00000000000",
        "feature_cl": "P",
        "feature_co": "PPL",
        "featurecla": "Populated place",
        "geonameid": "4566880.00000000000",
        "geonamesno": "Geonames ascii name + lat.d + long.d matching.",
        "gn_ascii": "Ponce",
        "gn_pop": "152634",
        "gtopo30": "14.00000000000",
        "iso_a2": "PR",
        "iso_a3": "PRI",
        "label": "",
        "labelrank": "0",
        "latitude": "18.00038576150",
        "longitude": "-66.61664209150",
        "ls_match": "1",
        "ls_name": "Ponce",
        "max_areakm": "82.00000000000",
        "max_areami": "32.00000000000",
        "max_bbxmax": "-66.56666667000",
        "max_bbxmin": "-66.69166667000",
        "max_bbymax": "18.08333333000",
        "max_bbymin": "17.97500000000",
        "max_natsca": "20",
        "max_perkm": "103.00000000000",
        "max_permi": "64.00000000000",
        "max_pop10": "160334",
        "max_pop20": "160334",
        "max_pop50": "0",
        "max_pop300": "0",
        "max_pop310": "0",
        "mean_bbxc": "-66.62594884000",
        "mean_bbyc": "18.02198845000",
        "megacity": "0",
        "meganame": "",
        "min_areakm": "82",
        "min_areami": "32.00000000000",
        "min_bbxmax": "-66.56666667000",
        "min_bbxmin": "-66.69166667000",
        "min_bbymax": "18.08333333000",
        "min_bbymin": "17.97500000000",
        "min_perkm": "103.00000000000",
        "min_permi": "64.00000000000",
        "min_zoom": "6.7",
        "name": "Ponce",
        "name_ar": "",
        "name_bn": "",
        "name_de": "Ponce",
        "name_el": "",
        "name_en": "Ponce",
        "name_es": "Ponce",
        "name_fr": "Ponce",
        "name_hi": "",
        "name_hu": "",
        "name_id": "",
        "name_it": "",
        "name_ja": "",
        "name_ko": "",
        "name_nl": "",
        "name_pl": "",
        "name_pt": "Ponce",
        "name_ru": "\u00d0\u009f\u00d0\u00be\u00d0\u00bd\u00d1\u0081\u00d0\u00b5",
        "name_sv": "",
        "name_tr": "",
        "name_vi": "",
        "name_zh": "\u00e9\u00be\u0090\u00e5\u00a1\u009e",
        "namealt": "",
        "nameascii": "Ponce",
        "namediff": "0",
        "namepar": "",
        "natscale": "20",
        "ne_id": "1159146023",
        "note": "",
        "pop1950": "0.00000000000",
        "pop1955": "0.00000000000",
        "pop1960": "0.00000000000",
        "pop1965": "0.00000000000",
        "pop1970": "0.00000000000",
        "pop1975": "0.00000000000",
        "pop1980": "0.00000000000",
        "pop1985": "0.00000000000",
        "pop1990": "0.00000000000",
        "pop1995": "0.00000000000",
        "pop2000": "0.00000000000",
        "pop2005": "0.00000000000",
        "pop2010": "0.00000000000",
        "pop2015": "0.00000000000",
        "pop2020": "0.00000000000",
        "pop2025": "0.00000000000",
        "pop2050": "0.00000000000",
        "pop_max": "160334",
        "pop_min": "152634",
        "pop_other": "163090",
        "rank_max": "9",
        "rank_min": "9",
        "record_type": "city",
        "scalerank": "7",
        "sov0name": "United States",
        "sov_a3": "USA",
        "timezone": "America\/Puerto_Rico",
        "un_adm0": "",
        "un_fid": "0",
        "un_lat": "0.00000000000",
        "un_long": "0.00000000000",
        "wdid_score": "4",
        "wikidataid": "Q864024",
        "wof_id": "101918891",
        "worldcity": "0.00000000000"
    },
    "san_juan": {
        "adm0_a3": "PRI",
        "adm0cap": "0.00000000000",
        "adm0name": "Puerto Rico",
        "adm1name": "",
        "admin1_cod": "0.00000000000",
        "capalt": "****",
        "capin": "",
        "cca2": "PR",
        "cca3": "PRI",
        "changed": "4.00000000000",
        "checkme": "3",
        "cityalt": "",
        "compare": "0",
        "data_sources": [
            "natural"
        ],
        "diffascii": "0",
        "diffnote": "Changed feature class.",
        "elevation": "7.00000000000",
        "feature_cl": "P",
        "feature_co": "PPLC",
        "featurecla": "Admin-1 capital",
        "geonameid": "4568127.00000000000",
        "geonamesno": "GeoNames match with ascii name + lat + long whole numbers.",
        "gn_ascii": "San Juan",
        "gn_pop": "418140",
        "gtopo30": "4.00000000000",
        "iso_a2": "PR",
        "iso_a3": "PRI",
        "label": "",
        "labelrank": "0",
        "latitude": "18.44002300920",
        "longitude": "-66.12997929040",
        "ls_match": "1",
        "ls_name": "San Juan1",
        "max_areakm": "1473.00000000000",
        "max_areami": "569.00000000000",
        "max_bbxmax": "-65.76666667000",
        "max_bbxmin": "-66.42999793000",
        "max_bbymax": "18.47500000000",
        "max_bbymin": "18.06666667000",
        "max_natsca": "100",
        "max_perkm": "1363.00000000000",
        "max_permi": "847.00000000000",
        "max_pop10": "1943935",
        "max_pop20": "1943935",
        "max_pop50": "1983298",
        "max_pop300": "1983298",
        "max_pop310": "0",
        "mean_bbxc": "-66.08507734000",
        "mean_bbyc": "18.29264282500",
        "megacity": "1",
        "meganame": "San Juan",
        "min_areakm": "1437",
        "min_areami": "555.00000000000",
        "min_bbxmax": "-65.76666667000",
        "min_bbxmin": "-66.51666667000",
        "min_bbymax": "18.46666667000",
        "min_bbymin": "18.06666667000",
        "min_perkm": "1323.00000000000",
        "min_permi": "822.00000000000",
        "min_zoom": "5.0",
        "name": "San Juan",
        "name_ar": "",
        "name_bn": "",
        "name_de": "San Juan",
        "name_el": "",
        "name_en": "San Juan",
        "name_es": "San Juan",
        "name_fr": "San Juan",
        "name_hi": "",
        "name_hu": "",
        "name_id": "",
        "name_it": "",
        "name_ja": "",
        "name_ko": "",
        "name_nl": "",
        "name_pl": "",
        "name_pt": "San Juan",
        "name_ru": "\u00d0\u00a1\u00d0\u00b0\u00d0\u00bd-\u00d0\u00a5\u00d1\u0083\u00d0\u00b0\u00d0\u00bd",
        "name_sv": "",
        "name_tr": "",
        "name_vi": "",
        "name_zh": "\u00e5\u009c\u00a3\u00e8\u0083\u00a1\u00e5\u00ae\u0089",
        "namealt": "",
        "nameascii": "San Juan",
        "namediff": "0",
        "namepar": "",
        "natscale": "110",
        "ne_id": "1159151181",
        "note": "",
        "pop1950": "451.00000000000",
        "pop1955": "517.00000000000",
        "pop1960": "596.00000000000",
        "pop1965": "740.00000000000",
        "pop1970": "915.00000000000",
        "pop1975": "1069.00000000000",
        "pop1980": "1244.00000000000",
        "pop1985": "1381.00000000000",
        "pop1990": "1539.00000000000",
        "pop1995": "1855.00000000000",
        "pop2000": "2237.00000000000",
        "pop2005": "2604.00000000000",
        "pop2010": "2690.00000000000",
        "pop2015": "2758.00000000000",
        "pop2020": "2795.00000000000",
        "pop2025": "2803.00000000000",
        "pop2050": "2803.00000000000",
        "pop_max": "2478905",
        "pop_min": "395326",
        "pop_other": "398007",
        "rank_max": "12",
        "rank_min": "10",
        "record_type": "city",
        "scalerank": "3",
        "sov0name": "United States",
        "sov_a3": "USA",
        "timezone": "America\/Puerto_Rico",
        "un_adm0": "Puerto Rico",
        "un_fid": "421",
        "un_lat": "18.80000000000",
        "un_long": "-71.22000000000",
        "wdid_score": "4",
        "wikidataid": "Q41211",
        "wof_id": "1141909405",
        "worldcity": "0.00000000000"
    }
}