{
    "funafuti": {
        "adm0_a3": "TUV",
        "adm0cap": "1.00000000000",
        "adm0name": "Tuvalu",
        "adm1name": "",
        "admin1_cod": "0.00000000000",
        "capalt": "****",
        "capin": "",
        "cca2": "TV",
        "cca3": "TUV",
        "changed": "4.00000000000",
        "checkme": "5",
        "cityalt": "",
        "compare": "0",
        "data_sources": [
            "natural"
        ],
        "diffascii": "0",
        "diffnote": "Population from GeoNames. Changed scale rank.",
        "elevation": "0.00000000000",
        "feature_cl": "P",
        "feature_co": "PPLC",
        "featurecla": "Admin-0 capital",
        "geonameid": "2110394.00000000000",
        "geonamesno": "GeoNames match general.",
        "gn_ascii": "Funafuti",
        "gn_pop": "4749",
        "gtopo30": "-9999.00000000000",
        "iso_a2": "TV",
        "iso_a3": "TUV",
        "label": "",
        "labelrank": "0",
        "latitude": "-8.51665199904",
        "longitude": "179.21664709400",
        "ls_match": "0",
        "ls_name": "Funafuti",
        "max_areakm": "0.00000000000",
        "max_areami": "0.00000000000",
        "max_bbxmax": "0.00000000000",
        "max_bbxmin": "0.00000000000",
        "max_bbymax": "0.00000000000",
        "max_bbymin": "0.00000000000",
        "max_natsca": "0",
        "max_perkm": "0.00000000000",
        "max_permi": "0.00000000000",
        "max_pop10": "0",
        "max_pop20": "0",
        "max_pop50": "0",
        "max_pop300": "0",
        "max_pop310": "0",
        "mean_bbxc": "0.00000000000",
        "mean_bbyc": "0.00000000000",
        "megacity": "0",
        "meganame": "",
        "min_areakm": "0",
        "min_areami": "0.00000000000",
        "min_bbxmax": "0.00000000000",
        "min_bbxmin": "0.00000000000",
        "min_bbymax": "0.00000000000",
        "min_bbymin": "0.00000000000",
        "min_perkm": "0.00000000000",
        "min_permi": "0.00000000000",
        "min_zoom": "6.0",
        "name": "Funafuti",
        "name_ar": "",
        "name_bn": "",
        "name_de": "Funafuti",
        "name_el": "",
        "name_en": "Funafuti",
        "name_es": "Funafuti",
        "name_fr": "Funafuti",
        "name_hi": "",
        "name_hu": "",
        "name_id": "",
        "name_it": "",
        "name_ja": "",
        "name_ko": "",
        "name_nl": "",
        "name_pl": "",
        "name_pt": "Funafuti",
        "name_ru": "\u00d0\u00a4\u00d1\u0083\u00d0\u00bd\u00d0\u00b0\u00d1\u0084\u00d1\u0083\u00d1\u0082\u00d0\u00b8",
        "name_sv": "",
        "name_tr": "",
        "name_vi": "",
        "name_zh": "\u00e5\u00af\u008c\u00e7\u00ba\u00b3\u00e5\u00af\u008c\u00e6\u008f\u0090",
        "namealt": "",
        "nameascii": "Funafuti",
        "namediff": "0",
        "namepar": "",
        "natscale": "30",
        "ne_id": "1159149071",
        "note": "",
        "pop1950": "0.00000000000",
        "pop1955": "0.00000000000",
        "pop1960": "0.00000000000",
        "pop1965": "0.00000000000",
        "pop1970": "0.00000000000",
        "pop1975": "0.00000000000",
        "pop1980": "0.00000000000",
        "pop1985": "0.00000000000",
        "pop1990": "0.00000000000",
        "pop1995": "0.00000000000",
        "pop2000": "0.00000000000",
        "pop2005": "0.00000000000",
        "pop2010": "0.00000000000",
        "pop2015": "0.00000000000",
        "pop2020": "0.00000000000",
        "pop2025": "0.00000000000",
        "pop2050": "0.00000000000",
        "pop_max": "4749",
        "pop_min": "4749",
        "pop_other": "0",
        "rank_max": "4",
        "rank_min": "4",
        "record_type": "city",
        "scalerank": "6",
        "sov0name": "Tuvalu",
        "sov_a3": "TUV",
        "timezone": "Pacific\/Funafuti",
        "un_adm0": "",
        "un_fid": "0",
        "un_lat": "0.00000000000",
        "un_long": "0.00000000000",
        "wdid_score": "4",
        "wikidataid": "Q34126",
        "wof_id": "1141909143",
        "worldcity": "0.00000000000"
    }
}