{
    "1": {
        "abbreviation": "-02",
        "dst": "0",
        "gmt_offset": "-7200",
        "time_start": "-2524512832",
        "zone_id": "177"
    },
    "abbreviation": "LMT",
    "dst": "0",
    "gmt_offset": "-8768",
    "time_start": "-2524512833",
    "zone_id": "177"
}