{
    "1": {
        "abbreviation": "MMT",
        "dst": "0",
        "gmt_offset": "28656",
        "time_start": "-1577951856",
        "zone_id": "189"
    },
    "2": {
        "abbreviation": "+08",
        "dst": "0",
        "gmt_offset": "28800",
        "time_start": "-1172908656",
        "zone_id": "189"
    },
    "3": {
        "abbreviation": "+09",
        "dst": "0",
        "gmt_offset": "32400",
        "time_start": "-880272000",
        "zone_id": "189"
    },
    "4": {
        "abbreviation": "WITA",
        "dst": "0",
        "gmt_offset": "28800",
        "time_start": "-766054800",
        "zone_id": "189"
    },
    "abbreviation": "LMT",
    "dst": "0",
    "gmt_offset": "28656",
    "time_start": "-1577951857",
    "zone_id": "189"
}