{
    "1": {
        "abbreviation": "CMT",
        "dst": "0",
        "gmt_offset": "-15408",
        "time_start": "-2372097972",
        "zone_id": "19"
    },
    "2": {
        "abbreviation": "-04",
        "dst": "0",
        "gmt_offset": "-14400",
        "time_start": "-1567453392",
        "zone_id": "19"
    },
    "3": {
        "abbreviation": "-03",
        "dst": "1",
        "gmt_offset": "-10800",
        "time_start": "-1233432000",
        "zone_id": "19"
    },
    "4": {
        "abbreviation": "-04",
        "dst": "0",
        "gmt_offset": "-14400",
        "time_start": "-1222981200",
        "zone_id": "19"
    },
    "5": {
        "abbreviation": "-03",
        "dst": "1",
        "gmt_offset": "-10800",
        "time_start": "-1205956800",
        "zone_id": "19"
    },
    "6": {
        "abbreviation": "-04",
        "dst": "0",
        "gmt_offset": "-14400",
        "time_start": "-1194037200",
        "zone_id": "19"
    },
    "7": {
        "abbreviation": "-03",
        "dst": "1",
        "gmt_offset": "-10800",
        "time_start": "-1172865600",
        "zone_id": "19"
    },
    "8": {
        "abbreviation": "-04",
        "dst": "0",
        "gmt_offset": "-14400",
        "time_start": "-1162501200",
        "zone_id": "19"
    },
    "9": {
        "abbreviation": "-03",
        "dst": "1",
        "gmt_offset": "-10800",
        "time_start": "-1141329600",
        "zone_id": "19"
    },
    "10": {
        "abbreviation": "-04",
        "dst": "0",
        "gmt_offset": "-14400",
        "time_start": "-1130965200",
        "zone_id": "19"
    },
    "11": {
        "abbreviation": "-03",
        "dst": "1",
        "gmt_offset": "-10800",
        "time_start": "-1109793600",
        "zone_id": "19"
    },
    "12": {
        "abbreviation": "-04",
        "dst": "0",
        "gmt_offset": "-14400",
        "time_start": "-1099429200",
        "zone_id": "19"
    },
    "13": {
        "abbreviation": "-03",
        "dst": "1",
        "gmt_offset": "-10800",
        "time_start": "-1078257600",
        "zone_id": "19"
    },
    "14": {
        "abbreviation": "-04",
        "dst": "0",
        "gmt_offset": "-14400",
        "time_start": "-1067806800",
        "zone_id": "19"
    },
    "15": {
        "abbreviation": "-03",
        "dst": "1",
        "gmt_offset": "-10800",
        "time_start": "-1046635200",
        "zone_id": "19"
    },
    "16": {
        "abbreviation": "-04",
        "dst": "0",
        "gmt_offset": "-14400",
        "time_start": "-1036270800",
        "zone_id": "19"
    },
    "17": {
        "abbreviation": "-03",
        "dst": "1",
        "gmt_offset": "-10800",
        "time_start": "-1015099200",
        "zone_id": "19"
    },
    "18": {
        "abbreviation": "-04",
        "dst": "0",
        "gmt_offset": "-14400",
        "time_start": "-1004734800",
        "zone_id": "19"
    },
    "19": {
        "abbreviation": "-03",
        "dst": "1",
        "gmt_offset": "-10800",
        "time_start": "-983563200",
        "zone_id": "19"
    },
    "20": {
        "abbreviation": "-04",
        "dst": "0",
        "gmt_offset": "-14400",
        "time_start": "-973198800",
        "zone_id": "19"
    },
    "21": {
        "abbreviation": "-03",
        "dst": "1",
        "gmt_offset": "-10800",
        "time_start": "-952027200",
        "zone_id": "19"
    },
    "22": {
        "abbreviation": "-04",
        "dst": "0",
        "gmt_offset": "-14400",
        "time_start": "-941576400",
        "zone_id": "19"
    },
    "23": {
        "abbreviation": "-03",
        "dst": "1",
        "gmt_offset": "-10800",
        "time_start": "-931032000",
        "zone_id": "19"
    },
    "24": {
        "abbreviation": "-04",
        "dst": "0",
        "gmt_offset": "-14400",
        "time_start": "-900882000",
        "zone_id": "19"
    },
    "25": {
        "abbreviation": "-03",
        "dst": "1",
        "gmt_offset": "-10800",
        "time_start": "-890337600",
        "zone_id": "19"
    },
    "26": {
        "abbreviation": "-04",
        "dst": "0",
        "gmt_offset": "-14400",
        "time_start": "-833749200",
        "zone_id": "19"
    },
    "27": {
        "abbreviation": "-03",
        "dst": "1",
        "gmt_offset": "-10800",
        "time_start": "-827265600",
        "zone_id": "19"
    },
    "28": {
        "abbreviation": "-04",
        "dst": "0",
        "gmt_offset": "-14400",
        "time_start": "-752274000",
        "zone_id": "19"
    },
    "29": {
        "abbreviation": "-03",
        "dst": "1",
        "gmt_offset": "-10800",
        "time_start": "-733780800",
        "zone_id": "19"
    },
    "30": {
        "abbreviation": "-04",
        "dst": "0",
        "gmt_offset": "-14400",
        "time_start": "-197326800",
        "zone_id": "19"
    },
    "31": {
        "abbreviation": "-03",
        "dst": "1",
        "gmt_offset": "-10800",
        "time_start": "-190843200",
        "zone_id": "19"
    },
    "32": {
        "abbreviation": "-04",
        "dst": "0",
        "gmt_offset": "-14400",
        "time_start": "-184194000",
        "zone_id": "19"
    },
    "33": {
        "abbreviation": "-03",
        "dst": "1",
        "gmt_offset": "-10800",
        "time_start": "-164491200",
        "zone_id": "19"
    },
    "34": {
        "abbreviation": "-04",
        "dst": "0",
        "gmt_offset": "-14400",
        "time_start": "-152658000",
        "zone_id": "19"
    },
    "35": {
        "abbreviation": "-03",
        "dst": "1",
        "gmt_offset": "-10800",
        "time_start": "-132955200",
        "zone_id": "19"
    },
    "36": {
        "abbreviation": "-04",
        "dst": "0",
        "gmt_offset": "-14400",
        "time_start": "-121122000",
        "zone_id": "19"
    },
    "37": {
        "abbreviation": "-03",
        "dst": "1",
        "gmt_offset": "-10800",
        "time_start": "-101419200",
        "zone_id": "19"
    },
    "38": {
        "abbreviation": "-04",
        "dst": "0",
        "gmt_offset": "-14400",
        "time_start": "-86821200",
        "zone_id": "19"
    },
    "39": {
        "abbreviation": "-03",
        "dst": "1",
        "gmt_offset": "-10800",
        "time_start": "-71092800",
        "zone_id": "19"
    },
    "40": {
        "abbreviation": "-04",
        "dst": "0",
        "gmt_offset": "-14400",
        "time_start": "-54766800",
        "zone_id": "19"
    },
    "41": {
        "abbreviation": "-03",
        "dst": "1",
        "gmt_offset": "-10800",
        "time_start": "-39038400",
        "zone_id": "19"
    },
    "42": {
        "abbreviation": "-04",
        "dst": "0",
        "gmt_offset": "-14400",
        "time_start": "-23317200",
        "zone_id": "19"
    },
    "43": {
        "abbreviation": "-03",
        "dst": "0",
        "gmt_offset": "-10800",
        "time_start": "-7588800",
        "zone_id": "19"
    },
    "44": {
        "abbreviation": "-02",
        "dst": "1",
        "gmt_offset": "-7200",
        "time_start": "128142000",
        "zone_id": "19"
    },
    "45": {
        "abbreviation": "-03",
        "dst": "0",
        "gmt_offset": "-10800",
        "time_start": "136605600",
        "zone_id": "19"
    },
    "46": {
        "abbreviation": "-02",
        "dst": "1",
        "gmt_offset": "-7200",
        "time_start": "596948400",
        "zone_id": "19"
    },
    "47": {
        "abbreviation": "-03",
        "dst": "0",
        "gmt_offset": "-10800",
        "time_start": "605066400",
        "zone_id": "19"
    },
    "48": {
        "abbreviation": "-02",
        "dst": "1",
        "gmt_offset": "-7200",
        "time_start": "624423600",
        "zone_id": "19"
    },
    "49": {
        "abbreviation": "-03",
        "dst": "0",
        "gmt_offset": "-10800",
        "time_start": "636516000",
        "zone_id": "19"
    },
    "50": {
        "abbreviation": "-02",
        "dst": "1",
        "gmt_offset": "-7200",
        "time_start": "656478000",
        "zone_id": "19"
    },
    "51": {
        "abbreviation": "-03",
        "dst": "0",
        "gmt_offset": "-10800",
        "time_start": "667965600",
        "zone_id": "19"
    },
    "52": {
        "abbreviation": "-02",
        "dst": "1",
        "gmt_offset": "-7200",
        "time_start": "687927600",
        "zone_id": "19"
    },
    "53": {
        "abbreviation": "-03",
        "dst": "0",
        "gmt_offset": "-10800",
        "time_start": "699415200",
        "zone_id": "19"
    },
    "54": {
        "abbreviation": "-02",
        "dst": "1",
        "gmt_offset": "-7200",
        "time_start": "719377200",
        "zone_id": "19"
    },
    "55": {
        "abbreviation": "-03",
        "dst": "0",
        "gmt_offset": "-10800",
        "time_start": "731469600",
        "zone_id": "19"
    },
    "56": {
        "abbreviation": "-02",
        "dst": "1",
        "gmt_offset": "-7200",
        "time_start": "1198983600",
        "zone_id": "19"
    },
    "57": {
        "abbreviation": "-03",
        "dst": "0",
        "gmt_offset": "-10800",
        "time_start": "1205632800",
        "zone_id": "19"
    },
    "58": {
        "abbreviation": "-02",
        "dst": "1",
        "gmt_offset": "-7200",
        "time_start": "1224385200",
        "zone_id": "19"
    },
    "59": {
        "abbreviation": "-03",
        "dst": "0",
        "gmt_offset": "-10800",
        "time_start": "1237082400",
        "zone_id": "19"
    },
    "abbreviation": "LMT",
    "dst": "0",
    "gmt_offset": "-14028",
    "time_start": "-2372097973",
    "zone_id": "19"
}