{
    "1": {
        "abbreviation": "AST",
        "dst": "0",
        "gmt_offset": "-14400",
        "time_start": "-1825098836",
        "zone_id": "211"
    },
    "abbreviation": "LMT",
    "dst": "0",
    "gmt_offset": "-14764",
    "time_start": "-1825098837",
    "zone_id": "211"
}