{
    "1": {
        "abbreviation": "+04",
        "dst": "0",
        "gmt_offset": "14400",
        "time_start": "-1441167268",
        "zone_id": "218"
    },
    "2": {
        "abbreviation": "+05",
        "dst": "0",
        "gmt_offset": "18000",
        "time_start": "-1247544000",
        "zone_id": "218"
    },
    "3": {
        "abbreviation": "+06",
        "dst": "1",
        "gmt_offset": "21600",
        "time_start": "354913200",
        "zone_id": "218"
    },
    "4": {
        "abbreviation": "+05",
        "dst": "0",
        "gmt_offset": "18000",
        "time_start": "402256800",
        "zone_id": "218"
    },
    "5": {
        "abbreviation": "+06",
        "dst": "1",
        "gmt_offset": "21600",
        "time_start": "417985200",
        "zone_id": "218"
    },
    "6": {
        "abbreviation": "+05",
        "dst": "0",
        "gmt_offset": "18000",
        "time_start": "433792800",
        "zone_id": "218"
    },
    "7": {
        "abbreviation": "+06",
        "dst": "1",
        "gmt_offset": "21600",
        "time_start": "449607600",
        "zone_id": "218"
    },
    "8": {
        "abbreviation": "+05",
        "dst": "0",
        "gmt_offset": "18000",
        "time_start": "465339600",
        "zone_id": "218"
    },
    "9": {
        "abbreviation": "+06",
        "dst": "1",
        "gmt_offset": "21600",
        "time_start": "481064400",
        "zone_id": "218"
    },
    "10": {
        "abbreviation": "+05",
        "dst": "0",
        "gmt_offset": "18000",
        "time_start": "496789200",
        "zone_id": "218"
    },
    "11": {
        "abbreviation": "+06",
        "dst": "1",
        "gmt_offset": "21600",
        "time_start": "512514000",
        "zone_id": "218"
    },
    "12": {
        "abbreviation": "+05",
        "dst": "0",
        "gmt_offset": "18000",
        "time_start": "528238800",
        "zone_id": "218"
    },
    "13": {
        "abbreviation": "+06",
        "dst": "1",
        "gmt_offset": "21600",
        "time_start": "543963600",
        "zone_id": "218"
    },
    "14": {
        "abbreviation": "+05",
        "dst": "0",
        "gmt_offset": "18000",
        "time_start": "559688400",
        "zone_id": "218"
    },
    "15": {
        "abbreviation": "+06",
        "dst": "1",
        "gmt_offset": "21600",
        "time_start": "575413200",
        "zone_id": "218"
    },
    "16": {
        "abbreviation": "+05",
        "dst": "0",
        "gmt_offset": "18000",
        "time_start": "591138000",
        "zone_id": "218"
    },
    "17": {
        "abbreviation": "+06",
        "dst": "1",
        "gmt_offset": "21600",
        "time_start": "606862800",
        "zone_id": "218"
    },
    "18": {
        "abbreviation": "+05",
        "dst": "0",
        "gmt_offset": "18000",
        "time_start": "622587600",
        "zone_id": "218"
    },
    "19": {
        "abbreviation": "+06",
        "dst": "1",
        "gmt_offset": "21600",
        "time_start": "638312400",
        "zone_id": "218"
    },
    "20": {
        "abbreviation": "+05",
        "dst": "0",
        "gmt_offset": "18000",
        "time_start": "654642000",
        "zone_id": "218"
    },
    "21": {
        "abbreviation": "+04",
        "dst": "0",
        "gmt_offset": "14400",
        "time_start": "686095200",
        "zone_id": "218"
    },
    "22": {
        "abbreviation": "+05",
        "dst": "0",
        "gmt_offset": "18000",
        "time_start": "695772000",
        "zone_id": "218"
    },
    "23": {
        "abbreviation": "+06",
        "dst": "1",
        "gmt_offset": "21600",
        "time_start": "701816400",
        "zone_id": "218"
    },
    "24": {
        "abbreviation": "+05",
        "dst": "0",
        "gmt_offset": "18000",
        "time_start": "717541200",
        "zone_id": "218"
    },
    "25": {
        "abbreviation": "+06",
        "dst": "1",
        "gmt_offset": "21600",
        "time_start": "733266000",
        "zone_id": "218"
    },
    "26": {
        "abbreviation": "+05",
        "dst": "0",
        "gmt_offset": "18000",
        "time_start": "748990800",
        "zone_id": "218"
    },
    "27": {
        "abbreviation": "+06",
        "dst": "1",
        "gmt_offset": "21600",
        "time_start": "764715600",
        "zone_id": "218"
    },
    "28": {
        "abbreviation": "+05",
        "dst": "0",
        "gmt_offset": "18000",
        "time_start": "780440400",
        "zone_id": "218"
    },
    "29": {
        "abbreviation": "+06",
        "dst": "1",
        "gmt_offset": "21600",
        "time_start": "796165200",
        "zone_id": "218"
    },
    "30": {
        "abbreviation": "+05",
        "dst": "0",
        "gmt_offset": "18000",
        "time_start": "811890000",
        "zone_id": "218"
    },
    "31": {
        "abbreviation": "+06",
        "dst": "1",
        "gmt_offset": "21600",
        "time_start": "828219600",
        "zone_id": "218"
    },
    "32": {
        "abbreviation": "+05",
        "dst": "0",
        "gmt_offset": "18000",
        "time_start": "846363600",
        "zone_id": "218"
    },
    "33": {
        "abbreviation": "+06",
        "dst": "1",
        "gmt_offset": "21600",
        "time_start": "859669200",
        "zone_id": "218"
    },
    "34": {
        "abbreviation": "+05",
        "dst": "0",
        "gmt_offset": "18000",
        "time_start": "877813200",
        "zone_id": "218"
    },
    "35": {
        "abbreviation": "+06",
        "dst": "1",
        "gmt_offset": "21600",
        "time_start": "891118800",
        "zone_id": "218"
    },
    "36": {
        "abbreviation": "+05",
        "dst": "0",
        "gmt_offset": "18000",
        "time_start": "909262800",
        "zone_id": "218"
    },
    "37": {
        "abbreviation": "+06",
        "dst": "1",
        "gmt_offset": "21600",
        "time_start": "922568400",
        "zone_id": "218"
    },
    "38": {
        "abbreviation": "+05",
        "dst": "0",
        "gmt_offset": "18000",
        "time_start": "941317200",
        "zone_id": "218"
    },
    "39": {
        "abbreviation": "+06",
        "dst": "1",
        "gmt_offset": "21600",
        "time_start": "954018000",
        "zone_id": "218"
    },
    "40": {
        "abbreviation": "+05",
        "dst": "0",
        "gmt_offset": "18000",
        "time_start": "972766800",
        "zone_id": "218"
    },
    "41": {
        "abbreviation": "+06",
        "dst": "1",
        "gmt_offset": "21600",
        "time_start": "985467600",
        "zone_id": "218"
    },
    "42": {
        "abbreviation": "+05",
        "dst": "0",
        "gmt_offset": "18000",
        "time_start": "1004216400",
        "zone_id": "218"
    },
    "43": {
        "abbreviation": "+06",
        "dst": "1",
        "gmt_offset": "21600",
        "time_start": "1017522000",
        "zone_id": "218"
    },
    "44": {
        "abbreviation": "+05",
        "dst": "0",
        "gmt_offset": "18000",
        "time_start": "1035666000",
        "zone_id": "218"
    },
    "45": {
        "abbreviation": "+06",
        "dst": "1",
        "gmt_offset": "21600",
        "time_start": "1048971600",
        "zone_id": "218"
    },
    "46": {
        "abbreviation": "+05",
        "dst": "0",
        "gmt_offset": "18000",
        "time_start": "1067115600",
        "zone_id": "218"
    },
    "47": {
        "abbreviation": "+06",
        "dst": "1",
        "gmt_offset": "21600",
        "time_start": "1080421200",
        "zone_id": "218"
    },
    "abbreviation": "LMT",
    "dst": "0",
    "gmt_offset": "15268",
    "time_start": "-1441167269",
    "zone_id": "218"
}