{
    "1": {
        "abbreviation": "+00",
        "dst": "0",
        "gmt_offset": "0",
        "time_start": "-1773012580",
        "zone_id": "234"
    },
    "2": {
        "abbreviation": "+01",
        "dst": "1",
        "gmt_offset": "3600",
        "time_start": "-956361600",
        "zone_id": "234"
    },
    "3": {
        "abbreviation": "+00",
        "dst": "0",
        "gmt_offset": "0",
        "time_start": "-950490000",
        "zone_id": "234"
    },
    "4": {
        "abbreviation": "+01",
        "dst": "1",
        "gmt_offset": "3600",
        "time_start": "-942019200",
        "zone_id": "234"
    },
    "5": {
        "abbreviation": "+00",
        "dst": "0",
        "gmt_offset": "0",
        "time_start": "-761187600",
        "zone_id": "234"
    },
    "6": {
        "abbreviation": "+01",
        "dst": "1",
        "gmt_offset": "3600",
        "time_start": "-617241600",
        "zone_id": "234"
    },
    "7": {
        "abbreviation": "+00",
        "dst": "0",
        "gmt_offset": "0",
        "time_start": "-605149200",
        "zone_id": "234"
    },
    "8": {
        "abbreviation": "+01",
        "dst": "1",
        "gmt_offset": "3600",
        "time_start": "-81432000",
        "zone_id": "234"
    },
    "9": {
        "abbreviation": "+00",
        "dst": "0",
        "gmt_offset": "0",
        "time_start": "-71110800",
        "zone_id": "234"
    },
    "10": {
        "abbreviation": "+01",
        "dst": "1",
        "gmt_offset": "3600",
        "time_start": "141264000",
        "zone_id": "234"
    },
    "11": {
        "abbreviation": "+00",
        "dst": "0",
        "gmt_offset": "0",
        "time_start": "147222000",
        "zone_id": "234"
    },
    "12": {
        "abbreviation": "+01",
        "dst": "1",
        "gmt_offset": "3600",
        "time_start": "199756800",
        "zone_id": "234"
    },
    "13": {
        "abbreviation": "+00",
        "dst": "0",
        "gmt_offset": "0",
        "time_start": "207702000",
        "zone_id": "234"
    },
    "14": {
        "abbreviation": "+01",
        "dst": "1",
        "gmt_offset": "3600",
        "time_start": "231292800",
        "zone_id": "234"
    },
    "15": {
        "abbreviation": "+00",
        "dst": "0",
        "gmt_offset": "0",
        "time_start": "244249200",
        "zone_id": "234"
    },
    "16": {
        "abbreviation": "+01",
        "dst": "1",
        "gmt_offset": "3600",
        "time_start": "265507200",
        "zone_id": "234"
    },
    "17": {
        "abbreviation": "+00",
        "dst": "0",
        "gmt_offset": "0",
        "time_start": "271033200",
        "zone_id": "234"
    },
    "18": {
        "abbreviation": "+01",
        "dst": "0",
        "gmt_offset": "3600",
        "time_start": "448243200",
        "zone_id": "234"
    },
    "19": {
        "abbreviation": "+00",
        "dst": "0",
        "gmt_offset": "0",
        "time_start": "504918000",
        "zone_id": "234"
    },
    "20": {
        "abbreviation": "+01",
        "dst": "1",
        "gmt_offset": "3600",
        "time_start": "1212278400",
        "zone_id": "234"
    },
    "21": {
        "abbreviation": "+00",
        "dst": "0",
        "gmt_offset": "0",
        "time_start": "1220223600",
        "zone_id": "234"
    },
    "22": {
        "abbreviation": "+01",
        "dst": "1",
        "gmt_offset": "3600",
        "time_start": "1243814400",
        "zone_id": "234"
    },
    "23": {
        "abbreviation": "+00",
        "dst": "0",
        "gmt_offset": "0",
        "time_start": "1250809200",
        "zone_id": "234"
    },
    "24": {
        "abbreviation": "+01",
        "dst": "1",
        "gmt_offset": "3600",
        "time_start": "1272758400",
        "zone_id": "234"
    },
    "25": {
        "abbreviation": "+00",
        "dst": "0",
        "gmt_offset": "0",
        "time_start": "1281222000",
        "zone_id": "234"
    },
    "26": {
        "abbreviation": "+01",
        "dst": "1",
        "gmt_offset": "3600",
        "time_start": "1301788800",
        "zone_id": "234"
    },
    "27": {
        "abbreviation": "+00",
        "dst": "0",
        "gmt_offset": "0",
        "time_start": "1312066800",
        "zone_id": "234"
    },
    "28": {
        "abbreviation": "+01",
        "dst": "1",
        "gmt_offset": "3600",
        "time_start": "1335664800",
        "zone_id": "234"
    },
    "29": {
        "abbreviation": "+00",
        "dst": "0",
        "gmt_offset": "0",
        "time_start": "1342749600",
        "zone_id": "234"
    },
    "30": {
        "abbreviation": "+01",
        "dst": "1",
        "gmt_offset": "3600",
        "time_start": "1345428000",
        "zone_id": "234"
    },
    "31": {
        "abbreviation": "+00",
        "dst": "0",
        "gmt_offset": "0",
        "time_start": "1348970400",
        "zone_id": "234"
    },
    "32": {
        "abbreviation": "+01",
        "dst": "1",
        "gmt_offset": "3600",
        "time_start": "1367114400",
        "zone_id": "234"
    },
    "33": {
        "abbreviation": "+00",
        "dst": "0",
        "gmt_offset": "0",
        "time_start": "1373162400",
        "zone_id": "234"
    },
    "34": {
        "abbreviation": "+01",
        "dst": "1",
        "gmt_offset": "3600",
        "time_start": "1376100000",
        "zone_id": "234"
    },
    "35": {
        "abbreviation": "+00",
        "dst": "0",
        "gmt_offset": "0",
        "time_start": "1382839200",
        "zone_id": "234"
    },
    "36": {
        "abbreviation": "+01",
        "dst": "1",
        "gmt_offset": "3600",
        "time_start": "1396144800",
        "zone_id": "234"
    },
    "37": {
        "abbreviation": "+00",
        "dst": "0",
        "gmt_offset": "0",
        "time_start": "1403920800",
        "zone_id": "234"
    },
    "38": {
        "abbreviation": "+01",
        "dst": "1",
        "gmt_offset": "3600",
        "time_start": "1406944800",
        "zone_id": "234"
    },
    "39": {
        "abbreviation": "+00",
        "dst": "0",
        "gmt_offset": "0",
        "time_start": "1414288800",
        "zone_id": "234"
    },
    "40": {
        "abbreviation": "+01",
        "dst": "1",
        "gmt_offset": "3600",
        "time_start": "1427594400",
        "zone_id": "234"
    },
    "41": {
        "abbreviation": "+00",
        "dst": "0",
        "gmt_offset": "0",
        "time_start": "1434247200",
        "zone_id": "234"
    },
    "42": {
        "abbreviation": "+01",
        "dst": "1",
        "gmt_offset": "3600",
        "time_start": "1437271200",
        "zone_id": "234"
    },
    "43": {
        "abbreviation": "+00",
        "dst": "0",
        "gmt_offset": "0",
        "time_start": "1445738400",
        "zone_id": "234"
    },
    "44": {
        "abbreviation": "+01",
        "dst": "1",
        "gmt_offset": "3600",
        "time_start": "1459044000",
        "zone_id": "234"
    },
    "45": {
        "abbreviation": "+00",
        "dst": "0",
        "gmt_offset": "0",
        "time_start": "1465092000",
        "zone_id": "234"
    },
    "46": {
        "abbreviation": "+01",
        "dst": "1",
        "gmt_offset": "3600",
        "time_start": "1468116000",
        "zone_id": "234"
    },
    "47": {
        "abbreviation": "+00",
        "dst": "0",
        "gmt_offset": "0",
        "time_start": "1477792800",
        "zone_id": "234"
    },
    "48": {
        "abbreviation": "+01",
        "dst": "1",
        "gmt_offset": "3600",
        "time_start": "1490493600",
        "zone_id": "234"
    },
    "49": {
        "abbreviation": "+00",
        "dst": "0",
        "gmt_offset": "0",
        "time_start": "1495332000",
        "zone_id": "234"
    },
    "50": {
        "abbreviation": "+01",
        "dst": "1",
        "gmt_offset": "3600",
        "time_start": "1498960800",
        "zone_id": "234"
    },
    "51": {
        "abbreviation": "+00",
        "dst": "0",
        "gmt_offset": "0",
        "time_start": "1509242400",
        "zone_id": "234"
    },
    "52": {
        "abbreviation": "+01",
        "dst": "1",
        "gmt_offset": "3600",
        "time_start": "1521943200",
        "zone_id": "234"
    },
    "53": {
        "abbreviation": "+00",
        "dst": "0",
        "gmt_offset": "0",
        "time_start": "1526176800",
        "zone_id": "234"
    },
    "54": {
        "abbreviation": "+01",
        "dst": "1",
        "gmt_offset": "3600",
        "time_start": "1529200800",
        "zone_id": "234"
    },
    "55": {
        "abbreviation": "+00",
        "dst": "1",
        "gmt_offset": "0",
        "time_start": "1557021600",
        "zone_id": "234"
    },
    "56": {
        "abbreviation": "+01",
        "dst": "0",
        "gmt_offset": "3600",
        "time_start": "1560045600",
        "zone_id": "234"
    },
    "57": {
        "abbreviation": "+00",
        "dst": "1",
        "gmt_offset": "0",
        "time_start": "1587261600",
        "zone_id": "234"
    },
    "58": {
        "abbreviation": "+01",
        "dst": "0",
        "gmt_offset": "3600",
        "time_start": "1590285600",
        "zone_id": "234"
    },
    "59": {
        "abbreviation": "+00",
        "dst": "1",
        "gmt_offset": "0",
        "time_start": "1618106400",
        "zone_id": "234"
    },
    "60": {
        "abbreviation": "+01",
        "dst": "0",
        "gmt_offset": "3600",
        "time_start": "1621130400",
        "zone_id": "234"
    },
    "61": {
        "abbreviation": "+00",
        "dst": "1",
        "gmt_offset": "0",
        "time_start": "1648346400",
        "zone_id": "234"
    },
    "62": {
        "abbreviation": "+01",
        "dst": "0",
        "gmt_offset": "3600",
        "time_start": "1651975200",
        "zone_id": "234"
    },
    "63": {
        "abbreviation": "+00",
        "dst": "1",
        "gmt_offset": "0",
        "time_start": "1679191200",
        "zone_id": "234"
    },
    "64": {
        "abbreviation": "+01",
        "dst": "0",
        "gmt_offset": "3600",
        "time_start": "1682215200",
        "zone_id": "234"
    },
    "65": {
        "abbreviation": "+00",
        "dst": "1",
        "gmt_offset": "0",
        "time_start": "1710036000",
        "zone_id": "234"
    },
    "66": {
        "abbreviation": "+01",
        "dst": "0",
        "gmt_offset": "3600",
        "time_start": "1713060000",
        "zone_id": "234"
    },
    "67": {
        "abbreviation": "+00",
        "dst": "1",
        "gmt_offset": "0",
        "time_start": "1740276000",
        "zone_id": "234"
    },
    "68": {
        "abbreviation": "+01",
        "dst": "0",
        "gmt_offset": "3600",
        "time_start": "1743904800",
        "zone_id": "234"
    },
    "69": {
        "abbreviation": "+00",
        "dst": "1",
        "gmt_offset": "0",
        "time_start": "1771120800",
        "zone_id": "234"
    },
    "70": {
        "abbreviation": "+01",
        "dst": "0",
        "gmt_offset": "3600",
        "time_start": "1774144800",
        "zone_id": "234"
    },
    "71": {
        "abbreviation": "+00",
        "dst": "1",
        "gmt_offset": "0",
        "time_start": "1801965600",
        "zone_id": "234"
    },
    "72": {
        "abbreviation": "+01",
        "dst": "0",
        "gmt_offset": "3600",
        "time_start": "1804989600",
        "zone_id": "234"
    },
    "73": {
        "abbreviation": "+00",
        "dst": "1",
        "gmt_offset": "0",
        "time_start": "1832205600",
        "zone_id": "234"
    },
    "74": {
        "abbreviation": "+01",
        "dst": "0",
        "gmt_offset": "3600",
        "time_start": "1835229600",
        "zone_id": "234"
    },
    "75": {
        "abbreviation": "+00",
        "dst": "1",
        "gmt_offset": "0",
        "time_start": "1863050400",
        "zone_id": "234"
    },
    "76": {
        "abbreviation": "+01",
        "dst": "0",
        "gmt_offset": "3600",
        "time_start": "1866074400",
        "zone_id": "234"
    },
    "77": {
        "abbreviation": "+00",
        "dst": "1",
        "gmt_offset": "0",
        "time_start": "1893290400",
        "zone_id": "234"
    },
    "78": {
        "abbreviation": "+01",
        "dst": "0",
        "gmt_offset": "3600",
        "time_start": "1896919200",
        "zone_id": "234"
    },
    "79": {
        "abbreviation": "+00",
        "dst": "1",
        "gmt_offset": "0",
        "time_start": "1924135200",
        "zone_id": "234"
    },
    "80": {
        "abbreviation": "+01",
        "dst": "0",
        "gmt_offset": "3600",
        "time_start": "1927159200",
        "zone_id": "234"
    },
    "81": {
        "abbreviation": "+00",
        "dst": "1",
        "gmt_offset": "0",
        "time_start": "1954980000",
        "zone_id": "234"
    },
    "82": {
        "abbreviation": "+01",
        "dst": "0",
        "gmt_offset": "3600",
        "time_start": "1958004000",
        "zone_id": "234"
    },
    "83": {
        "abbreviation": "+00",
        "dst": "1",
        "gmt_offset": "0",
        "time_start": "1985220000",
        "zone_id": "234"
    },
    "84": {
        "abbreviation": "+01",
        "dst": "0",
        "gmt_offset": "3600",
        "time_start": "1988848800",
        "zone_id": "234"
    },
    "85": {
        "abbreviation": "+00",
        "dst": "1",
        "gmt_offset": "0",
        "time_start": "2016064800",
        "zone_id": "234"
    },
    "86": {
        "abbreviation": "+01",
        "dst": "0",
        "gmt_offset": "3600",
        "time_start": "2019088800",
        "zone_id": "234"
    },
    "87": {
        "abbreviation": "+00",
        "dst": "1",
        "gmt_offset": "0",
        "time_start": "2046304800",
        "zone_id": "234"
    },
    "88": {
        "abbreviation": "+01",
        "dst": "0",
        "gmt_offset": "3600",
        "time_start": "2049933600",
        "zone_id": "234"
    },
    "89": {
        "abbreviation": "+00",
        "dst": "1",
        "gmt_offset": "0",
        "time_start": "2077149600",
        "zone_id": "234"
    },
    "90": {
        "abbreviation": "+01",
        "dst": "0",
        "gmt_offset": "3600",
        "time_start": "2080173600",
        "zone_id": "234"
    },
    "91": {
        "abbreviation": "+00",
        "dst": "1",
        "gmt_offset": "0",
        "time_start": "2107994400",
        "zone_id": "234"
    },
    "92": {
        "abbreviation": "+01",
        "dst": "0",
        "gmt_offset": "3600",
        "time_start": "2111018400",
        "zone_id": "234"
    },
    "93": {
        "abbreviation": "+00",
        "dst": "1",
        "gmt_offset": "0",
        "time_start": "2138234400",
        "zone_id": "234"
    },
    "94": {
        "abbreviation": "+01",
        "dst": "0",
        "gmt_offset": "3600",
        "time_start": "2141863200",
        "zone_id": "234"
    },
    "95": {
        "abbreviation": "+00",
        "dst": "1",
        "gmt_offset": "0",
        "time_start": "2169079200",
        "zone_id": "234"
    },
    "96": {
        "abbreviation": "+01",
        "dst": "0",
        "gmt_offset": "3600",
        "time_start": "2172103200",
        "zone_id": "234"
    },
    "97": {
        "abbreviation": "+00",
        "dst": "1",
        "gmt_offset": "0",
        "time_start": "2199924000",
        "zone_id": "234"
    },
    "98": {
        "abbreviation": "+01",
        "dst": "0",
        "gmt_offset": "3600",
        "time_start": "2202948000",
        "zone_id": "234"
    },
    "99": {
        "abbreviation": "+00",
        "dst": "1",
        "gmt_offset": "0",
        "time_start": "2230164000",
        "zone_id": "234"
    },
    "100": {
        "abbreviation": "+01",
        "dst": "0",
        "gmt_offset": "3600",
        "time_start": "2233792800",
        "zone_id": "234"
    },
    "101": {
        "abbreviation": "+00",
        "dst": "1",
        "gmt_offset": "0",
        "time_start": "2261008800",
        "zone_id": "234"
    },
    "102": {
        "abbreviation": "+01",
        "dst": "0",
        "gmt_offset": "3600",
        "time_start": "2264032800",
        "zone_id": "234"
    },
    "103": {
        "abbreviation": "+00",
        "dst": "1",
        "gmt_offset": "0",
        "time_start": "2291248800",
        "zone_id": "234"
    },
    "104": {
        "abbreviation": "+01",
        "dst": "0",
        "gmt_offset": "3600",
        "time_start": "2294877600",
        "zone_id": "234"
    },
    "105": {
        "abbreviation": "+00",
        "dst": "1",
        "gmt_offset": "0",
        "time_start": "2322093600",
        "zone_id": "234"
    },
    "106": {
        "abbreviation": "+01",
        "dst": "0",
        "gmt_offset": "3600",
        "time_start": "2325117600",
        "zone_id": "234"
    },
    "107": {
        "abbreviation": "+00",
        "dst": "1",
        "gmt_offset": "0",
        "time_start": "2352938400",
        "zone_id": "234"
    },
    "108": {
        "abbreviation": "+01",
        "dst": "0",
        "gmt_offset": "3600",
        "time_start": "2355962400",
        "zone_id": "234"
    },
    "109": {
        "abbreviation": "+00",
        "dst": "1",
        "gmt_offset": "0",
        "time_start": "2383178400",
        "zone_id": "234"
    },
    "110": {
        "abbreviation": "+01",
        "dst": "0",
        "gmt_offset": "3600",
        "time_start": "2386807200",
        "zone_id": "234"
    },
    "111": {
        "abbreviation": "+00",
        "dst": "1",
        "gmt_offset": "0",
        "time_start": "2414023200",
        "zone_id": "234"
    },
    "112": {
        "abbreviation": "+01",
        "dst": "0",
        "gmt_offset": "3600",
        "time_start": "2417047200",
        "zone_id": "234"
    },
    "113": {
        "abbreviation": "+00",
        "dst": "1",
        "gmt_offset": "0",
        "time_start": "2444868000",
        "zone_id": "234"
    },
    "114": {
        "abbreviation": "+01",
        "dst": "0",
        "gmt_offset": "3600",
        "time_start": "2447892000",
        "zone_id": "234"
    },
    "115": {
        "abbreviation": "+00",
        "dst": "1",
        "gmt_offset": "0",
        "time_start": "2475108000",
        "zone_id": "234"
    },
    "116": {
        "abbreviation": "+01",
        "dst": "0",
        "gmt_offset": "3600",
        "time_start": "2478736800",
        "zone_id": "234"
    },
    "117": {
        "abbreviation": "+00",
        "dst": "1",
        "gmt_offset": "0",
        "time_start": "2505952800",
        "zone_id": "234"
    },
    "118": {
        "abbreviation": "+01",
        "dst": "0",
        "gmt_offset": "3600",
        "time_start": "2508976800",
        "zone_id": "234"
    },
    "119": {
        "abbreviation": "+00",
        "dst": "1",
        "gmt_offset": "0",
        "time_start": "2536192800",
        "zone_id": "234"
    },
    "120": {
        "abbreviation": "+01",
        "dst": "0",
        "gmt_offset": "3600",
        "time_start": "2539821600",
        "zone_id": "234"
    },
    "121": {
        "abbreviation": "+00",
        "dst": "1",
        "gmt_offset": "0",
        "time_start": "2567037600",
        "zone_id": "234"
    },
    "122": {
        "abbreviation": "+01",
        "dst": "0",
        "gmt_offset": "3600",
        "time_start": "2570061600",
        "zone_id": "234"
    },
    "123": {
        "abbreviation": "+00",
        "dst": "1",
        "gmt_offset": "0",
        "time_start": "2597882400",
        "zone_id": "234"
    },
    "124": {
        "abbreviation": "+01",
        "dst": "0",
        "gmt_offset": "3600",
        "time_start": "2600906400",
        "zone_id": "234"
    },
    "125": {
        "abbreviation": "+00",
        "dst": "1",
        "gmt_offset": "0",
        "time_start": "2628122400",
        "zone_id": "234"
    },
    "126": {
        "abbreviation": "+01",
        "dst": "0",
        "gmt_offset": "3600",
        "time_start": "2631751200",
        "zone_id": "234"
    },
    "127": {
        "abbreviation": "+00",
        "dst": "1",
        "gmt_offset": "0",
        "time_start": "2658967200",
        "zone_id": "234"
    },
    "128": {
        "abbreviation": "+01",
        "dst": "0",
        "gmt_offset": "3600",
        "time_start": "2661991200",
        "zone_id": "234"
    },
    "129": {
        "abbreviation": "+00",
        "dst": "1",
        "gmt_offset": "0",
        "time_start": "2689812000",
        "zone_id": "234"
    },
    "130": {
        "abbreviation": "+01",
        "dst": "0",
        "gmt_offset": "3600",
        "time_start": "2692836000",
        "zone_id": "234"
    },
    "131": {
        "abbreviation": "+00",
        "dst": "1",
        "gmt_offset": "0",
        "time_start": "2720052000",
        "zone_id": "234"
    },
    "132": {
        "abbreviation": "+01",
        "dst": "0",
        "gmt_offset": "3600",
        "time_start": "2723680800",
        "zone_id": "234"
    },
    "133": {
        "abbreviation": "+00",
        "dst": "1",
        "gmt_offset": "0",
        "time_start": "2750896800",
        "zone_id": "234"
    },
    "134": {
        "abbreviation": "+01",
        "dst": "0",
        "gmt_offset": "3600",
        "time_start": "2753920800",
        "zone_id": "234"
    },
    "135": {
        "abbreviation": "+00",
        "dst": "1",
        "gmt_offset": "0",
        "time_start": "2781136800",
        "zone_id": "234"
    },
    "136": {
        "abbreviation": "+01",
        "dst": "0",
        "gmt_offset": "3600",
        "time_start": "2784765600",
        "zone_id": "234"
    },
    "137": {
        "abbreviation": "+00",
        "dst": "1",
        "gmt_offset": "0",
        "time_start": "2811981600",
        "zone_id": "234"
    },
    "138": {
        "abbreviation": "+01",
        "dst": "0",
        "gmt_offset": "3600",
        "time_start": "2815005600",
        "zone_id": "234"
    },
    "139": {
        "abbreviation": "+00",
        "dst": "1",
        "gmt_offset": "0",
        "time_start": "2842826400",
        "zone_id": "234"
    },
    "140": {
        "abbreviation": "+01",
        "dst": "0",
        "gmt_offset": "3600",
        "time_start": "2845850400",
        "zone_id": "234"
    },
    "141": {
        "abbreviation": "+00",
        "dst": "1",
        "gmt_offset": "0",
        "time_start": "2873066400",
        "zone_id": "234"
    },
    "142": {
        "abbreviation": "+01",
        "dst": "0",
        "gmt_offset": "3600",
        "time_start": "2876695200",
        "zone_id": "234"
    },
    "143": {
        "abbreviation": "+00",
        "dst": "1",
        "gmt_offset": "0",
        "time_start": "2903911200",
        "zone_id": "234"
    },
    "144": {
        "abbreviation": "+01",
        "dst": "0",
        "gmt_offset": "3600",
        "time_start": "2906935200",
        "zone_id": "234"
    },
    "145": {
        "abbreviation": "+00",
        "dst": "1",
        "gmt_offset": "0",
        "time_start": "2934756000",
        "zone_id": "234"
    },
    "146": {
        "abbreviation": "+01",
        "dst": "0",
        "gmt_offset": "3600",
        "time_start": "2937780000",
        "zone_id": "234"
    },
    "147": {
        "abbreviation": "+00",
        "dst": "1",
        "gmt_offset": "0",
        "time_start": "2964996000",
        "zone_id": "234"
    },
    "148": {
        "abbreviation": "+01",
        "dst": "0",
        "gmt_offset": "3600",
        "time_start": "2968020000",
        "zone_id": "234"
    },
    "149": {
        "abbreviation": "+00",
        "dst": "1",
        "gmt_offset": "0",
        "time_start": "2995840800",
        "zone_id": "234"
    },
    "150": {
        "abbreviation": "+01",
        "dst": "0",
        "gmt_offset": "3600",
        "time_start": "2998864800",
        "zone_id": "234"
    },
    "151": {
        "abbreviation": "+00",
        "dst": "1",
        "gmt_offset": "0",
        "time_start": "3026080800",
        "zone_id": "234"
    },
    "152": {
        "abbreviation": "+01",
        "dst": "0",
        "gmt_offset": "3600",
        "time_start": "3029709600",
        "zone_id": "234"
    },
    "153": {
        "abbreviation": "+00",
        "dst": "1",
        "gmt_offset": "0",
        "time_start": "3056925600",
        "zone_id": "234"
    },
    "154": {
        "abbreviation": "+01",
        "dst": "0",
        "gmt_offset": "3600",
        "time_start": "3059949600",
        "zone_id": "234"
    },
    "155": {
        "abbreviation": "+00",
        "dst": "1",
        "gmt_offset": "0",
        "time_start": "3087770400",
        "zone_id": "234"
    },
    "156": {
        "abbreviation": "+01",
        "dst": "0",
        "gmt_offset": "3600",
        "time_start": "3090794400",
        "zone_id": "234"
    },
    "157": {
        "abbreviation": "+00",
        "dst": "1",
        "gmt_offset": "0",
        "time_start": "3118010400",
        "zone_id": "234"
    },
    "158": {
        "abbreviation": "+01",
        "dst": "0",
        "gmt_offset": "3600",
        "time_start": "3121639200",
        "zone_id": "234"
    },
    "159": {
        "abbreviation": "+00",
        "dst": "1",
        "gmt_offset": "0",
        "time_start": "3148855200",
        "zone_id": "234"
    },
    "160": {
        "abbreviation": "+01",
        "dst": "0",
        "gmt_offset": "3600",
        "time_start": "3151879200",
        "zone_id": "234"
    },
    "161": {
        "abbreviation": "+00",
        "dst": "1",
        "gmt_offset": "0",
        "time_start": "3179700000",
        "zone_id": "234"
    },
    "162": {
        "abbreviation": "+01",
        "dst": "0",
        "gmt_offset": "3600",
        "time_start": "3182724000",
        "zone_id": "234"
    },
    "163": {
        "abbreviation": "+00",
        "dst": "1",
        "gmt_offset": "0",
        "time_start": "3209940000",
        "zone_id": "234"
    },
    "164": {
        "abbreviation": "+01",
        "dst": "0",
        "gmt_offset": "3600",
        "time_start": "3212964000",
        "zone_id": "234"
    },
    "165": {
        "abbreviation": "+00",
        "dst": "1",
        "gmt_offset": "0",
        "time_start": "3240784800",
        "zone_id": "234"
    },
    "166": {
        "abbreviation": "+01",
        "dst": "0",
        "gmt_offset": "3600",
        "time_start": "3243808800",
        "zone_id": "234"
    },
    "167": {
        "abbreviation": "+00",
        "dst": "1",
        "gmt_offset": "0",
        "time_start": "3271024800",
        "zone_id": "234"
    },
    "168": {
        "abbreviation": "+01",
        "dst": "0",
        "gmt_offset": "3600",
        "time_start": "3274653600",
        "zone_id": "234"
    },
    "169": {
        "abbreviation": "+00",
        "dst": "1",
        "gmt_offset": "0",
        "time_start": "3301869600",
        "zone_id": "234"
    },
    "170": {
        "abbreviation": "+01",
        "dst": "0",
        "gmt_offset": "3600",
        "time_start": "3304893600",
        "zone_id": "234"
    },
    "171": {
        "abbreviation": "+00",
        "dst": "1",
        "gmt_offset": "0",
        "time_start": "3332714400",
        "zone_id": "234"
    },
    "172": {
        "abbreviation": "+01",
        "dst": "0",
        "gmt_offset": "3600",
        "time_start": "3335738400",
        "zone_id": "234"
    },
    "173": {
        "abbreviation": "+00",
        "dst": "1",
        "gmt_offset": "0",
        "time_start": "3362954400",
        "zone_id": "234"
    },
    "174": {
        "abbreviation": "+01",
        "dst": "0",
        "gmt_offset": "3600",
        "time_start": "3366583200",
        "zone_id": "234"
    },
    "175": {
        "abbreviation": "+00",
        "dst": "1",
        "gmt_offset": "0",
        "time_start": "3393799200",
        "zone_id": "234"
    },
    "176": {
        "abbreviation": "+01",
        "dst": "0",
        "gmt_offset": "3600",
        "time_start": "3396823200",
        "zone_id": "234"
    },
    "177": {
        "abbreviation": "+00",
        "dst": "1",
        "gmt_offset": "0",
        "time_start": "3424644000",
        "zone_id": "234"
    },
    "178": {
        "abbreviation": "+01",
        "dst": "0",
        "gmt_offset": "3600",
        "time_start": "3427668000",
        "zone_id": "234"
    },
    "179": {
        "abbreviation": "+00",
        "dst": "1",
        "gmt_offset": "0",
        "time_start": "3454884000",
        "zone_id": "234"
    },
    "180": {
        "abbreviation": "+01",
        "dst": "0",
        "gmt_offset": "3600",
        "time_start": "3457908000",
        "zone_id": "234"
    },
    "181": {
        "abbreviation": "+00",
        "dst": "1",
        "gmt_offset": "0",
        "time_start": "3485728800",
        "zone_id": "234"
    },
    "182": {
        "abbreviation": "+01",
        "dst": "0",
        "gmt_offset": "3600",
        "time_start": "3488752800",
        "zone_id": "234"
    },
    "183": {
        "abbreviation": "+00",
        "dst": "1",
        "gmt_offset": "0",
        "time_start": "3515968800",
        "zone_id": "234"
    },
    "184": {
        "abbreviation": "+01",
        "dst": "0",
        "gmt_offset": "3600",
        "time_start": "3519597600",
        "zone_id": "234"
    },
    "185": {
        "abbreviation": "+00",
        "dst": "1",
        "gmt_offset": "0",
        "time_start": "3546813600",
        "zone_id": "234"
    },
    "186": {
        "abbreviation": "+01",
        "dst": "0",
        "gmt_offset": "3600",
        "time_start": "3549837600",
        "zone_id": "234"
    },
    "187": {
        "abbreviation": "+00",
        "dst": "1",
        "gmt_offset": "0",
        "time_start": "3577658400",
        "zone_id": "234"
    },
    "188": {
        "abbreviation": "+01",
        "dst": "0",
        "gmt_offset": "3600",
        "time_start": "3580682400",
        "zone_id": "234"
    },
    "189": {
        "abbreviation": "+00",
        "dst": "1",
        "gmt_offset": "0",
        "time_start": "3607898400",
        "zone_id": "234"
    },
    "190": {
        "abbreviation": "+01",
        "dst": "0",
        "gmt_offset": "3600",
        "time_start": "3611527200",
        "zone_id": "234"
    },
    "191": {
        "abbreviation": "+00",
        "dst": "1",
        "gmt_offset": "0",
        "time_start": "3638743200",
        "zone_id": "234"
    },
    "192": {
        "abbreviation": "+01",
        "dst": "0",
        "gmt_offset": "3600",
        "time_start": "3641767200",
        "zone_id": "234"
    },
    "193": {
        "abbreviation": "+00",
        "dst": "1",
        "gmt_offset": "0",
        "time_start": "3669588000",
        "zone_id": "234"
    },
    "194": {
        "abbreviation": "+01",
        "dst": "0",
        "gmt_offset": "3600",
        "time_start": "3672612000",
        "zone_id": "234"
    },
    "195": {
        "abbreviation": "+00",
        "dst": "1",
        "gmt_offset": "0",
        "time_start": "3699828000",
        "zone_id": "234"
    },
    "196": {
        "abbreviation": "+01",
        "dst": "0",
        "gmt_offset": "3600",
        "time_start": "3702852000",
        "zone_id": "234"
    },
    "abbreviation": "LMT",
    "dst": "0",
    "gmt_offset": "-1820",
    "time_start": "-1773012581",
    "zone_id": "234"
}