{
    "1": {
        "abbreviation": "+0130",
        "dst": "0",
        "gmt_offset": "5400",
        "time_start": "-2458170504",
        "zone_id": "271"
    },
    "2": {
        "abbreviation": "SAST",
        "dst": "0",
        "gmt_offset": "7200",
        "time_start": "-2109288600",
        "zone_id": "271"
    },
    "3": {
        "abbreviation": "SAST",
        "dst": "1",
        "gmt_offset": "10800",
        "time_start": "-860976000",
        "zone_id": "271"
    },
    "4": {
        "abbreviation": "SAST",
        "dst": "0",
        "gmt_offset": "7200",
        "time_start": "-845254800",
        "zone_id": "271"
    },
    "5": {
        "abbreviation": "CAT",
        "dst": "0",
        "gmt_offset": "7200",
        "time_start": "637970400",
        "zone_id": "271"
    },
    "6": {
        "abbreviation": "WAT",
        "dst": "1",
        "gmt_offset": "3600",
        "time_start": "764200800",
        "zone_id": "271"
    },
    "7": {
        "abbreviation": "CAT",
        "dst": "0",
        "gmt_offset": "7200",
        "time_start": "778640400",
        "zone_id": "271"
    },
    "8": {
        "abbreviation": "WAT",
        "dst": "1",
        "gmt_offset": "3600",
        "time_start": "796780800",
        "zone_id": "271"
    },
    "9": {
        "abbreviation": "CAT",
        "dst": "0",
        "gmt_offset": "7200",
        "time_start": "810090000",
        "zone_id": "271"
    },
    "10": {
        "abbreviation": "WAT",
        "dst": "1",
        "gmt_offset": "3600",
        "time_start": "828835200",
        "zone_id": "271"
    },
    "11": {
        "abbreviation": "CAT",
        "dst": "0",
        "gmt_offset": "7200",
        "time_start": "841539600",
        "zone_id": "271"
    },
    "12": {
        "abbreviation": "WAT",
        "dst": "1",
        "gmt_offset": "3600",
        "time_start": "860284800",
        "zone_id": "271"
    },
    "13": {
        "abbreviation": "CAT",
        "dst": "0",
        "gmt_offset": "7200",
        "time_start": "873594000",
        "zone_id": "271"
    },
    "14": {
        "abbreviation": "WAT",
        "dst": "1",
        "gmt_offset": "3600",
        "time_start": "891734400",
        "zone_id": "271"
    },
    "15": {
        "abbreviation": "CAT",
        "dst": "0",
        "gmt_offset": "7200",
        "time_start": "905043600",
        "zone_id": "271"
    },
    "16": {
        "abbreviation": "WAT",
        "dst": "1",
        "gmt_offset": "3600",
        "time_start": "923184000",
        "zone_id": "271"
    },
    "17": {
        "abbreviation": "CAT",
        "dst": "0",
        "gmt_offset": "7200",
        "time_start": "936493200",
        "zone_id": "271"
    },
    "18": {
        "abbreviation": "WAT",
        "dst": "1",
        "gmt_offset": "3600",
        "time_start": "954633600",
        "zone_id": "271"
    },
    "19": {
        "abbreviation": "CAT",
        "dst": "0",
        "gmt_offset": "7200",
        "time_start": "967942800",
        "zone_id": "271"
    },
    "20": {
        "abbreviation": "WAT",
        "dst": "1",
        "gmt_offset": "3600",
        "time_start": "986083200",
        "zone_id": "271"
    },
    "21": {
        "abbreviation": "CAT",
        "dst": "0",
        "gmt_offset": "7200",
        "time_start": "999392400",
        "zone_id": "271"
    },
    "22": {
        "abbreviation": "WAT",
        "dst": "1",
        "gmt_offset": "3600",
        "time_start": "1018137600",
        "zone_id": "271"
    },
    "23": {
        "abbreviation": "CAT",
        "dst": "0",
        "gmt_offset": "7200",
        "time_start": "1030842000",
        "zone_id": "271"
    },
    "24": {
        "abbreviation": "WAT",
        "dst": "1",
        "gmt_offset": "3600",
        "time_start": "1049587200",
        "zone_id": "271"
    },
    "25": {
        "abbreviation": "CAT",
        "dst": "0",
        "gmt_offset": "7200",
        "time_start": "1062896400",
        "zone_id": "271"
    },
    "26": {
        "abbreviation": "WAT",
        "dst": "1",
        "gmt_offset": "3600",
        "time_start": "1081036800",
        "zone_id": "271"
    },
    "27": {
        "abbreviation": "CAT",
        "dst": "0",
        "gmt_offset": "7200",
        "time_start": "1094346000",
        "zone_id": "271"
    },
    "28": {
        "abbreviation": "WAT",
        "dst": "1",
        "gmt_offset": "3600",
        "time_start": "1112486400",
        "zone_id": "271"
    },
    "29": {
        "abbreviation": "CAT",
        "dst": "0",
        "gmt_offset": "7200",
        "time_start": "1125795600",
        "zone_id": "271"
    },
    "30": {
        "abbreviation": "WAT",
        "dst": "1",
        "gmt_offset": "3600",
        "time_start": "1143936000",
        "zone_id": "271"
    },
    "31": {
        "abbreviation": "CAT",
        "dst": "0",
        "gmt_offset": "7200",
        "time_start": "1157245200",
        "zone_id": "271"
    },
    "32": {
        "abbreviation": "WAT",
        "dst": "1",
        "gmt_offset": "3600",
        "time_start": "1175385600",
        "zone_id": "271"
    },
    "33": {
        "abbreviation": "CAT",
        "dst": "0",
        "gmt_offset": "7200",
        "time_start": "1188694800",
        "zone_id": "271"
    },
    "34": {
        "abbreviation": "WAT",
        "dst": "1",
        "gmt_offset": "3600",
        "time_start": "1207440000",
        "zone_id": "271"
    },
    "35": {
        "abbreviation": "CAT",
        "dst": "0",
        "gmt_offset": "7200",
        "time_start": "1220749200",
        "zone_id": "271"
    },
    "36": {
        "abbreviation": "WAT",
        "dst": "1",
        "gmt_offset": "3600",
        "time_start": "1238889600",
        "zone_id": "271"
    },
    "37": {
        "abbreviation": "CAT",
        "dst": "0",
        "gmt_offset": "7200",
        "time_start": "1252198800",
        "zone_id": "271"
    },
    "38": {
        "abbreviation": "WAT",
        "dst": "1",
        "gmt_offset": "3600",
        "time_start": "1270339200",
        "zone_id": "271"
    },
    "39": {
        "abbreviation": "CAT",
        "dst": "0",
        "gmt_offset": "7200",
        "time_start": "1283648400",
        "zone_id": "271"
    },
    "40": {
        "abbreviation": "WAT",
        "dst": "1",
        "gmt_offset": "3600",
        "time_start": "1301788800",
        "zone_id": "271"
    },
    "41": {
        "abbreviation": "CAT",
        "dst": "0",
        "gmt_offset": "7200",
        "time_start": "1315098000",
        "zone_id": "271"
    },
    "42": {
        "abbreviation": "WAT",
        "dst": "1",
        "gmt_offset": "3600",
        "time_start": "1333238400",
        "zone_id": "271"
    },
    "43": {
        "abbreviation": "CAT",
        "dst": "0",
        "gmt_offset": "7200",
        "time_start": "1346547600",
        "zone_id": "271"
    },
    "44": {
        "abbreviation": "WAT",
        "dst": "1",
        "gmt_offset": "3600",
        "time_start": "1365292800",
        "zone_id": "271"
    },
    "45": {
        "abbreviation": "CAT",
        "dst": "0",
        "gmt_offset": "7200",
        "time_start": "1377997200",
        "zone_id": "271"
    },
    "46": {
        "abbreviation": "WAT",
        "dst": "1",
        "gmt_offset": "3600",
        "time_start": "1396742400",
        "zone_id": "271"
    },
    "47": {
        "abbreviation": "CAT",
        "dst": "0",
        "gmt_offset": "7200",
        "time_start": "1410051600",
        "zone_id": "271"
    },
    "48": {
        "abbreviation": "WAT",
        "dst": "1",
        "gmt_offset": "3600",
        "time_start": "1428192000",
        "zone_id": "271"
    },
    "49": {
        "abbreviation": "CAT",
        "dst": "0",
        "gmt_offset": "7200",
        "time_start": "1441501200",
        "zone_id": "271"
    },
    "50": {
        "abbreviation": "WAT",
        "dst": "1",
        "gmt_offset": "3600",
        "time_start": "1459641600",
        "zone_id": "271"
    },
    "51": {
        "abbreviation": "CAT",
        "dst": "0",
        "gmt_offset": "7200",
        "time_start": "1472950800",
        "zone_id": "271"
    },
    "52": {
        "abbreviation": "WAT",
        "dst": "1",
        "gmt_offset": "3600",
        "time_start": "1491091200",
        "zone_id": "271"
    },
    "53": {
        "abbreviation": "CAT",
        "dst": "0",
        "gmt_offset": "7200",
        "time_start": "1504400400",
        "zone_id": "271"
    },
    "abbreviation": "LMT",
    "dst": "0",
    "gmt_offset": "4104",
    "time_start": "-2458170505",
    "zone_id": "271"
}