{
    "1": {
        "abbreviation": "-09",
        "dst": "0",
        "gmt_offset": "-32400",
        "time_start": "-1806678012",
        "zone_id": "289"
    },
    "abbreviation": "LMT",
    "dst": "0",
    "gmt_offset": "-32388",
    "time_start": "-1806678013",
    "zone_id": "289"
}