{
    "1": {
        "abbreviation": "+04",
        "dst": "0",
        "gmt_offset": "14400",
        "time_start": "-1848886912",
        "zone_id": "306"
    },
    "abbreviation": "LMT",
    "dst": "0",
    "gmt_offset": "13312",
    "time_start": "-1848886913",
    "zone_id": "306"
}