{
    "1": {
        "abbreviation": "+08",
        "dst": "0",
        "gmt_offset": "28800",
        "time_start": "-1579419232",
        "zone_id": "326"
    },
    "2": {
        "abbreviation": "+09",
        "dst": "0",
        "gmt_offset": "32400",
        "time_start": "-1247558400",
        "zone_id": "326"
    },
    "3": {
        "abbreviation": "+10",
        "dst": "1",
        "gmt_offset": "36000",
        "time_start": "354898800",
        "zone_id": "326"
    },
    "4": {
        "abbreviation": "+09",
        "dst": "0",
        "gmt_offset": "32400",
        "time_start": "370706400",
        "zone_id": "326"
    },
    "5": {
        "abbreviation": "+10",
        "dst": "1",
        "gmt_offset": "36000",
        "time_start": "386434800",
        "zone_id": "326"
    },
    "6": {
        "abbreviation": "+09",
        "dst": "0",
        "gmt_offset": "32400",
        "time_start": "402242400",
        "zone_id": "326"
    },
    "7": {
        "abbreviation": "+10",
        "dst": "1",
        "gmt_offset": "36000",
        "time_start": "417970800",
        "zone_id": "326"
    },
    "8": {
        "abbreviation": "+09",
        "dst": "0",
        "gmt_offset": "32400",
        "time_start": "433778400",
        "zone_id": "326"
    },
    "9": {
        "abbreviation": "+10",
        "dst": "1",
        "gmt_offset": "36000",
        "time_start": "449593200",
        "zone_id": "326"
    },
    "10": {
        "abbreviation": "+09",
        "dst": "0",
        "gmt_offset": "32400",
        "time_start": "465325200",
        "zone_id": "326"
    },
    "11": {
        "abbreviation": "+10",
        "dst": "1",
        "gmt_offset": "36000",
        "time_start": "481050000",
        "zone_id": "326"
    },
    "12": {
        "abbreviation": "+09",
        "dst": "0",
        "gmt_offset": "32400",
        "time_start": "496774800",
        "zone_id": "326"
    },
    "13": {
        "abbreviation": "+10",
        "dst": "1",
        "gmt_offset": "36000",
        "time_start": "512499600",
        "zone_id": "326"
    },
    "14": {
        "abbreviation": "+09",
        "dst": "0",
        "gmt_offset": "32400",
        "time_start": "528224400",
        "zone_id": "326"
    },
    "15": {
        "abbreviation": "+10",
        "dst": "1",
        "gmt_offset": "36000",
        "time_start": "543949200",
        "zone_id": "326"
    },
    "16": {
        "abbreviation": "+09",
        "dst": "0",
        "gmt_offset": "32400",
        "time_start": "559674000",
        "zone_id": "326"
    },
    "17": {
        "abbreviation": "+10",
        "dst": "1",
        "gmt_offset": "36000",
        "time_start": "575398800",
        "zone_id": "326"
    },
    "18": {
        "abbreviation": "+09",
        "dst": "0",
        "gmt_offset": "32400",
        "time_start": "591123600",
        "zone_id": "326"
    },
    "19": {
        "abbreviation": "+10",
        "dst": "1",
        "gmt_offset": "36000",
        "time_start": "606848400",
        "zone_id": "326"
    },
    "20": {
        "abbreviation": "+09",
        "dst": "0",
        "gmt_offset": "32400",
        "time_start": "622573200",
        "zone_id": "326"
    },
    "21": {
        "abbreviation": "+10",
        "dst": "1",
        "gmt_offset": "36000",
        "time_start": "638298000",
        "zone_id": "326"
    },
    "22": {
        "abbreviation": "+09",
        "dst": "0",
        "gmt_offset": "32400",
        "time_start": "654627600",
        "zone_id": "326"
    },
    "23": {
        "abbreviation": "+08",
        "dst": "0",
        "gmt_offset": "28800",
        "time_start": "686080800",
        "zone_id": "326"
    },
    "24": {
        "abbreviation": "+09",
        "dst": "0",
        "gmt_offset": "32400",
        "time_start": "695757600",
        "zone_id": "326"
    },
    "25": {
        "abbreviation": "+10",
        "dst": "1",
        "gmt_offset": "36000",
        "time_start": "701802000",
        "zone_id": "326"
    },
    "26": {
        "abbreviation": "+09",
        "dst": "0",
        "gmt_offset": "32400",
        "time_start": "717526800",
        "zone_id": "326"
    },
    "27": {
        "abbreviation": "+10",
        "dst": "1",
        "gmt_offset": "36000",
        "time_start": "733251600",
        "zone_id": "326"
    },
    "28": {
        "abbreviation": "+09",
        "dst": "0",
        "gmt_offset": "32400",
        "time_start": "748976400",
        "zone_id": "326"
    },
    "29": {
        "abbreviation": "+10",
        "dst": "1",
        "gmt_offset": "36000",
        "time_start": "764701200",
        "zone_id": "326"
    },
    "30": {
        "abbreviation": "+09",
        "dst": "0",
        "gmt_offset": "32400",
        "time_start": "780426000",
        "zone_id": "326"
    },
    "31": {
        "abbreviation": "+10",
        "dst": "1",
        "gmt_offset": "36000",
        "time_start": "796150800",
        "zone_id": "326"
    },
    "32": {
        "abbreviation": "+09",
        "dst": "0",
        "gmt_offset": "32400",
        "time_start": "811875600",
        "zone_id": "326"
    },
    "33": {
        "abbreviation": "+10",
        "dst": "1",
        "gmt_offset": "36000",
        "time_start": "828205200",
        "zone_id": "326"
    },
    "34": {
        "abbreviation": "+09",
        "dst": "0",
        "gmt_offset": "32400",
        "time_start": "846349200",
        "zone_id": "326"
    },
    "35": {
        "abbreviation": "+10",
        "dst": "1",
        "gmt_offset": "36000",
        "time_start": "859654800",
        "zone_id": "326"
    },
    "36": {
        "abbreviation": "+09",
        "dst": "0",
        "gmt_offset": "32400",
        "time_start": "877798800",
        "zone_id": "326"
    },
    "37": {
        "abbreviation": "+10",
        "dst": "1",
        "gmt_offset": "36000",
        "time_start": "891104400",
        "zone_id": "326"
    },
    "38": {
        "abbreviation": "+09",
        "dst": "0",
        "gmt_offset": "32400",
        "time_start": "909248400",
        "zone_id": "326"
    },
    "39": {
        "abbreviation": "+10",
        "dst": "1",
        "gmt_offset": "36000",
        "time_start": "922554000",
        "zone_id": "326"
    },
    "40": {
        "abbreviation": "+09",
        "dst": "0",
        "gmt_offset": "32400",
        "time_start": "941302800",
        "zone_id": "326"
    },
    "41": {
        "abbreviation": "+10",
        "dst": "1",
        "gmt_offset": "36000",
        "time_start": "954003600",
        "zone_id": "326"
    },
    "42": {
        "abbreviation": "+09",
        "dst": "0",
        "gmt_offset": "32400",
        "time_start": "972752400",
        "zone_id": "326"
    },
    "43": {
        "abbreviation": "+10",
        "dst": "1",
        "gmt_offset": "36000",
        "time_start": "985453200",
        "zone_id": "326"
    },
    "44": {
        "abbreviation": "+09",
        "dst": "0",
        "gmt_offset": "32400",
        "time_start": "1004202000",
        "zone_id": "326"
    },
    "45": {
        "abbreviation": "+10",
        "dst": "1",
        "gmt_offset": "36000",
        "time_start": "1017507600",
        "zone_id": "326"
    },
    "46": {
        "abbreviation": "+09",
        "dst": "0",
        "gmt_offset": "32400",
        "time_start": "1035651600",
        "zone_id": "326"
    },
    "47": {
        "abbreviation": "+10",
        "dst": "1",
        "gmt_offset": "36000",
        "time_start": "1048957200",
        "zone_id": "326"
    },
    "48": {
        "abbreviation": "+09",
        "dst": "0",
        "gmt_offset": "32400",
        "time_start": "1067101200",
        "zone_id": "326"
    },
    "49": {
        "abbreviation": "+10",
        "dst": "1",
        "gmt_offset": "36000",
        "time_start": "1080406800",
        "zone_id": "326"
    },
    "50": {
        "abbreviation": "+09",
        "dst": "0",
        "gmt_offset": "32400",
        "time_start": "1099155600",
        "zone_id": "326"
    },
    "51": {
        "abbreviation": "+10",
        "dst": "1",
        "gmt_offset": "36000",
        "time_start": "1111856400",
        "zone_id": "326"
    },
    "52": {
        "abbreviation": "+09",
        "dst": "0",
        "gmt_offset": "32400",
        "time_start": "1130605200",
        "zone_id": "326"
    },
    "53": {
        "abbreviation": "+10",
        "dst": "1",
        "gmt_offset": "36000",
        "time_start": "1143306000",
        "zone_id": "326"
    },
    "54": {
        "abbreviation": "+09",
        "dst": "0",
        "gmt_offset": "32400",
        "time_start": "1162054800",
        "zone_id": "326"
    },
    "55": {
        "abbreviation": "+10",
        "dst": "1",
        "gmt_offset": "36000",
        "time_start": "1174755600",
        "zone_id": "326"
    },
    "56": {
        "abbreviation": "+09",
        "dst": "0",
        "gmt_offset": "32400",
        "time_start": "1193504400",
        "zone_id": "326"
    },
    "57": {
        "abbreviation": "+10",
        "dst": "1",
        "gmt_offset": "36000",
        "time_start": "1206810000",
        "zone_id": "326"
    },
    "58": {
        "abbreviation": "+09",
        "dst": "0",
        "gmt_offset": "32400",
        "time_start": "1224954000",
        "zone_id": "326"
    },
    "59": {
        "abbreviation": "+10",
        "dst": "1",
        "gmt_offset": "36000",
        "time_start": "1238259600",
        "zone_id": "326"
    },
    "60": {
        "abbreviation": "+09",
        "dst": "0",
        "gmt_offset": "32400",
        "time_start": "1256403600",
        "zone_id": "326"
    },
    "61": {
        "abbreviation": "+10",
        "dst": "1",
        "gmt_offset": "36000",
        "time_start": "1269709200",
        "zone_id": "326"
    },
    "62": {
        "abbreviation": "+09",
        "dst": "0",
        "gmt_offset": "32400",
        "time_start": "1288458000",
        "zone_id": "326"
    },
    "63": {
        "abbreviation": "+10",
        "dst": "0",
        "gmt_offset": "36000",
        "time_start": "1301158800",
        "zone_id": "326"
    },
    "64": {
        "abbreviation": "+08",
        "dst": "0",
        "gmt_offset": "28800",
        "time_start": "1414252800",
        "zone_id": "326"
    },
    "65": {
        "abbreviation": "+09",
        "dst": "0",
        "gmt_offset": "32400",
        "time_start": "1459015200",
        "zone_id": "326"
    },
    "abbreviation": "LMT",
    "dst": "0",
    "gmt_offset": "27232",
    "time_start": "-1579419233",
    "zone_id": "326"
}