{
    "1": {
        "abbreviation": "AEDT",
        "dst": "1",
        "gmt_offset": "39600",
        "time_start": "-1680508800",
        "zone_id": "34"
    },
    "2": {
        "abbreviation": "AEST",
        "dst": "0",
        "gmt_offset": "36000",
        "time_start": "-1665392400",
        "zone_id": "34"
    },
    "3": {
        "abbreviation": "AEDT",
        "dst": "1",
        "gmt_offset": "39600",
        "time_start": "-71136000",
        "zone_id": "34"
    },
    "4": {
        "abbreviation": "AEST",
        "dst": "0",
        "gmt_offset": "36000",
        "time_start": "-55411200",
        "zone_id": "34"
    },
    "5": {
        "abbreviation": "AEDT",
        "dst": "1",
        "gmt_offset": "39600",
        "time_start": "-37267200",
        "zone_id": "34"
    },
    "6": {
        "abbreviation": "AEST",
        "dst": "0",
        "gmt_offset": "36000",
        "time_start": "-25776000",
        "zone_id": "34"
    },
    "7": {
        "abbreviation": "AEDT",
        "dst": "1",
        "gmt_offset": "39600",
        "time_start": "-5817600",
        "zone_id": "34"
    },
    "8": {
        "abbreviation": "AEST",
        "dst": "0",
        "gmt_offset": "36000",
        "time_start": "5673600",
        "zone_id": "34"
    },
    "9": {
        "abbreviation": "AEDT",
        "dst": "1",
        "gmt_offset": "39600",
        "time_start": "25632000",
        "zone_id": "34"
    },
    "10": {
        "abbreviation": "AEST",
        "dst": "0",
        "gmt_offset": "36000",
        "time_start": "37728000",
        "zone_id": "34"
    },
    "11": {
        "abbreviation": "AEDT",
        "dst": "1",
        "gmt_offset": "39600",
        "time_start": "57686400",
        "zone_id": "34"
    },
    "12": {
        "abbreviation": "AEST",
        "dst": "0",
        "gmt_offset": "36000",
        "time_start": "67968000",
        "zone_id": "34"
    },
    "13": {
        "abbreviation": "AEDT",
        "dst": "1",
        "gmt_offset": "39600",
        "time_start": "89136000",
        "zone_id": "34"
    },
    "14": {
        "abbreviation": "AEST",
        "dst": "0",
        "gmt_offset": "36000",
        "time_start": "100022400",
        "zone_id": "34"
    },
    "15": {
        "abbreviation": "AEDT",
        "dst": "1",
        "gmt_offset": "39600",
        "time_start": "120585600",
        "zone_id": "34"
    },
    "16": {
        "abbreviation": "AEST",
        "dst": "0",
        "gmt_offset": "36000",
        "time_start": "131472000",
        "zone_id": "34"
    },
    "17": {
        "abbreviation": "AEDT",
        "dst": "1",
        "gmt_offset": "39600",
        "time_start": "152035200",
        "zone_id": "34"
    },
    "18": {
        "abbreviation": "AEST",
        "dst": "0",
        "gmt_offset": "36000",
        "time_start": "162921600",
        "zone_id": "34"
    },
    "19": {
        "abbreviation": "AEDT",
        "dst": "1",
        "gmt_offset": "39600",
        "time_start": "183484800",
        "zone_id": "34"
    },
    "20": {
        "abbreviation": "AEST",
        "dst": "0",
        "gmt_offset": "36000",
        "time_start": "194976000",
        "zone_id": "34"
    },
    "21": {
        "abbreviation": "AEDT",
        "dst": "1",
        "gmt_offset": "39600",
        "time_start": "215539200",
        "zone_id": "34"
    },
    "22": {
        "abbreviation": "AEST",
        "dst": "0",
        "gmt_offset": "36000",
        "time_start": "226425600",
        "zone_id": "34"
    },
    "23": {
        "abbreviation": "AEDT",
        "dst": "1",
        "gmt_offset": "39600",
        "time_start": "246988800",
        "zone_id": "34"
    },
    "24": {
        "abbreviation": "AEST",
        "dst": "0",
        "gmt_offset": "36000",
        "time_start": "257875200",
        "zone_id": "34"
    },
    "25": {
        "abbreviation": "AEDT",
        "dst": "1",
        "gmt_offset": "39600",
        "time_start": "278438400",
        "zone_id": "34"
    },
    "26": {
        "abbreviation": "AEST",
        "dst": "0",
        "gmt_offset": "36000",
        "time_start": "289324800",
        "zone_id": "34"
    },
    "27": {
        "abbreviation": "AEDT",
        "dst": "1",
        "gmt_offset": "39600",
        "time_start": "309888000",
        "zone_id": "34"
    },
    "28": {
        "abbreviation": "AEST",
        "dst": "0",
        "gmt_offset": "36000",
        "time_start": "320774400",
        "zone_id": "34"
    },
    "29": {
        "abbreviation": "AEDT",
        "dst": "1",
        "gmt_offset": "39600",
        "time_start": "341337600",
        "zone_id": "34"
    },
    "30": {
        "abbreviation": "AEST",
        "dst": "0",
        "gmt_offset": "36000",
        "time_start": "352224000",
        "zone_id": "34"
    },
    "31": {
        "abbreviation": "AEDT",
        "dst": "1",
        "gmt_offset": "39600",
        "time_start": "372787200",
        "zone_id": "34"
    },
    "32": {
        "abbreviation": "AEST",
        "dst": "0",
        "gmt_offset": "36000",
        "time_start": "386092800",
        "zone_id": "34"
    },
    "33": {
        "abbreviation": "AEDT",
        "dst": "1",
        "gmt_offset": "39600",
        "time_start": "404841600",
        "zone_id": "34"
    },
    "34": {
        "abbreviation": "AEST",
        "dst": "0",
        "gmt_offset": "36000",
        "time_start": "417542400",
        "zone_id": "34"
    },
    "35": {
        "abbreviation": "AEDT",
        "dst": "1",
        "gmt_offset": "39600",
        "time_start": "436291200",
        "zone_id": "34"
    },
    "36": {
        "abbreviation": "AEST",
        "dst": "0",
        "gmt_offset": "36000",
        "time_start": "447177600",
        "zone_id": "34"
    },
    "37": {
        "abbreviation": "AEDT",
        "dst": "1",
        "gmt_offset": "39600",
        "time_start": "467740800",
        "zone_id": "34"
    },
    "38": {
        "abbreviation": "AEST",
        "dst": "0",
        "gmt_offset": "36000",
        "time_start": "478627200",
        "zone_id": "34"
    },
    "39": {
        "abbreviation": "AEDT",
        "dst": "1",
        "gmt_offset": "39600",
        "time_start": "499190400",
        "zone_id": "34"
    },
    "40": {
        "abbreviation": "AEST",
        "dst": "0",
        "gmt_offset": "36000",
        "time_start": "510076800",
        "zone_id": "34"
    },
    "41": {
        "abbreviation": "AEDT",
        "dst": "1",
        "gmt_offset": "39600",
        "time_start": "530035200",
        "zone_id": "34"
    },
    "42": {
        "abbreviation": "AEST",
        "dst": "0",
        "gmt_offset": "36000",
        "time_start": "542736000",
        "zone_id": "34"
    },
    "43": {
        "abbreviation": "AEDT",
        "dst": "1",
        "gmt_offset": "39600",
        "time_start": "562089600",
        "zone_id": "34"
    },
    "44": {
        "abbreviation": "AEST",
        "dst": "0",
        "gmt_offset": "36000",
        "time_start": "574790400",
        "zone_id": "34"
    },
    "45": {
        "abbreviation": "AEDT",
        "dst": "1",
        "gmt_offset": "39600",
        "time_start": "594144000",
        "zone_id": "34"
    },
    "46": {
        "abbreviation": "AEST",
        "dst": "0",
        "gmt_offset": "36000",
        "time_start": "606240000",
        "zone_id": "34"
    },
    "47": {
        "abbreviation": "AEDT",
        "dst": "1",
        "gmt_offset": "39600",
        "time_start": "625593600",
        "zone_id": "34"
    },
    "48": {
        "abbreviation": "AEST",
        "dst": "0",
        "gmt_offset": "36000",
        "time_start": "637689600",
        "zone_id": "34"
    },
    "49": {
        "abbreviation": "AEDT",
        "dst": "1",
        "gmt_offset": "39600",
        "time_start": "657043200",
        "zone_id": "34"
    },
    "50": {
        "abbreviation": "AEST",
        "dst": "0",
        "gmt_offset": "36000",
        "time_start": "670348800",
        "zone_id": "34"
    },
    "51": {
        "abbreviation": "AEDT",
        "dst": "1",
        "gmt_offset": "39600",
        "time_start": "686678400",
        "zone_id": "34"
    },
    "52": {
        "abbreviation": "AEST",
        "dst": "0",
        "gmt_offset": "36000",
        "time_start": "701798400",
        "zone_id": "34"
    },
    "53": {
        "abbreviation": "AEDT",
        "dst": "1",
        "gmt_offset": "39600",
        "time_start": "718128000",
        "zone_id": "34"
    },
    "54": {
        "abbreviation": "AEST",
        "dst": "0",
        "gmt_offset": "36000",
        "time_start": "733248000",
        "zone_id": "34"
    },
    "55": {
        "abbreviation": "AEDT",
        "dst": "1",
        "gmt_offset": "39600",
        "time_start": "749577600",
        "zone_id": "34"
    },
    "56": {
        "abbreviation": "AEST",
        "dst": "0",
        "gmt_offset": "36000",
        "time_start": "764697600",
        "zone_id": "34"
    },
    "57": {
        "abbreviation": "AEDT",
        "dst": "1",
        "gmt_offset": "39600",
        "time_start": "781027200",
        "zone_id": "34"
    },
    "58": {
        "abbreviation": "AEST",
        "dst": "0",
        "gmt_offset": "36000",
        "time_start": "796147200",
        "zone_id": "34"
    },
    "59": {
        "abbreviation": "AEDT",
        "dst": "1",
        "gmt_offset": "39600",
        "time_start": "812476800",
        "zone_id": "34"
    },
    "60": {
        "abbreviation": "AEST",
        "dst": "0",
        "gmt_offset": "36000",
        "time_start": "828201600",
        "zone_id": "34"
    },
    "61": {
        "abbreviation": "AEDT",
        "dst": "1",
        "gmt_offset": "39600",
        "time_start": "844531200",
        "zone_id": "34"
    },
    "62": {
        "abbreviation": "AEST",
        "dst": "0",
        "gmt_offset": "36000",
        "time_start": "859651200",
        "zone_id": "34"
    },
    "63": {
        "abbreviation": "AEDT",
        "dst": "1",
        "gmt_offset": "39600",
        "time_start": "875980800",
        "zone_id": "34"
    },
    "64": {
        "abbreviation": "AEST",
        "dst": "0",
        "gmt_offset": "36000",
        "time_start": "891100800",
        "zone_id": "34"
    },
    "65": {
        "abbreviation": "AEDT",
        "dst": "1",
        "gmt_offset": "39600",
        "time_start": "907430400",
        "zone_id": "34"
    },
    "66": {
        "abbreviation": "AEST",
        "dst": "0",
        "gmt_offset": "36000",
        "time_start": "922550400",
        "zone_id": "34"
    },
    "67": {
        "abbreviation": "AEDT",
        "dst": "1",
        "gmt_offset": "39600",
        "time_start": "938880000",
        "zone_id": "34"
    },
    "68": {
        "abbreviation": "AEST",
        "dst": "0",
        "gmt_offset": "36000",
        "time_start": "954000000",
        "zone_id": "34"
    },
    "69": {
        "abbreviation": "AEDT",
        "dst": "1",
        "gmt_offset": "39600",
        "time_start": "967305600",
        "zone_id": "34"
    },
    "70": {
        "abbreviation": "AEST",
        "dst": "0",
        "gmt_offset": "36000",
        "time_start": "985449600",
        "zone_id": "34"
    },
    "71": {
        "abbreviation": "AEDT",
        "dst": "1",
        "gmt_offset": "39600",
        "time_start": "1002384000",
        "zone_id": "34"
    },
    "72": {
        "abbreviation": "AEST",
        "dst": "0",
        "gmt_offset": "36000",
        "time_start": "1017504000",
        "zone_id": "34"
    },
    "73": {
        "abbreviation": "AEDT",
        "dst": "1",
        "gmt_offset": "39600",
        "time_start": "1033833600",
        "zone_id": "34"
    },
    "74": {
        "abbreviation": "AEST",
        "dst": "0",
        "gmt_offset": "36000",
        "time_start": "1048953600",
        "zone_id": "34"
    },
    "75": {
        "abbreviation": "AEDT",
        "dst": "1",
        "gmt_offset": "39600",
        "time_start": "1065283200",
        "zone_id": "34"
    },
    "76": {
        "abbreviation": "AEST",
        "dst": "0",
        "gmt_offset": "36000",
        "time_start": "1080403200",
        "zone_id": "34"
    },
    "77": {
        "abbreviation": "AEDT",
        "dst": "1",
        "gmt_offset": "39600",
        "time_start": "1096732800",
        "zone_id": "34"
    },
    "78": {
        "abbreviation": "AEST",
        "dst": "0",
        "gmt_offset": "36000",
        "time_start": "1111852800",
        "zone_id": "34"
    },
    "79": {
        "abbreviation": "AEDT",
        "dst": "1",
        "gmt_offset": "39600",
        "time_start": "1128182400",
        "zone_id": "34"
    },
    "80": {
        "abbreviation": "AEST",
        "dst": "0",
        "gmt_offset": "36000",
        "time_start": "1143907200",
        "zone_id": "34"
    },
    "81": {
        "abbreviation": "AEDT",
        "dst": "1",
        "gmt_offset": "39600",
        "time_start": "1159632000",
        "zone_id": "34"
    },
    "82": {
        "abbreviation": "AEST",
        "dst": "0",
        "gmt_offset": "36000",
        "time_start": "1174752000",
        "zone_id": "34"
    },
    "83": {
        "abbreviation": "AEDT",
        "dst": "1",
        "gmt_offset": "39600",
        "time_start": "1191686400",
        "zone_id": "34"
    },
    "84": {
        "abbreviation": "AEST",
        "dst": "0",
        "gmt_offset": "36000",
        "time_start": "1207411200",
        "zone_id": "34"
    },
    "85": {
        "abbreviation": "AEDT",
        "dst": "1",
        "gmt_offset": "39600",
        "time_start": "1223136000",
        "zone_id": "34"
    },
    "86": {
        "abbreviation": "AEST",
        "dst": "0",
        "gmt_offset": "36000",
        "time_start": "1238860800",
        "zone_id": "34"
    },
    "87": {
        "abbreviation": "AEDT",
        "dst": "1",
        "gmt_offset": "39600",
        "time_start": "1254585600",
        "zone_id": "34"
    },
    "88": {
        "abbreviation": "+11",
        "dst": "0",
        "gmt_offset": "39600",
        "time_start": "1270310400",
        "zone_id": "34"
    },
    "abbreviation": "AEST",
    "dst": "0",
    "gmt_offset": "36000",
    "time_start": "-2214259200",
    "zone_id": "34"
}