{
    "1": {
        "abbreviation": "CAT",
        "dst": "0",
        "gmt_offset": "7200",
        "time_start": "-1230775808",
        "zone_id": "340"
    },
    "2": {
        "abbreviation": "CAST",
        "dst": "1",
        "gmt_offset": "10800",
        "time_start": "10360800",
        "zone_id": "340"
    },
    "3": {
        "abbreviation": "CAT",
        "dst": "0",
        "gmt_offset": "7200",
        "time_start": "24786000",
        "zone_id": "340"
    },
    "4": {
        "abbreviation": "CAST",
        "dst": "1",
        "gmt_offset": "10800",
        "time_start": "41810400",
        "zone_id": "340"
    },
    "5": {
        "abbreviation": "CAT",
        "dst": "0",
        "gmt_offset": "7200",
        "time_start": "56322000",
        "zone_id": "340"
    },
    "6": {
        "abbreviation": "CAST",
        "dst": "1",
        "gmt_offset": "10800",
        "time_start": "73432800",
        "zone_id": "340"
    },
    "7": {
        "abbreviation": "CAT",
        "dst": "0",
        "gmt_offset": "7200",
        "time_start": "87944400",
        "zone_id": "340"
    },
    "8": {
        "abbreviation": "CAST",
        "dst": "1",
        "gmt_offset": "10800",
        "time_start": "104882400",
        "zone_id": "340"
    },
    "9": {
        "abbreviation": "CAT",
        "dst": "0",
        "gmt_offset": "7200",
        "time_start": "119480400",
        "zone_id": "340"
    },
    "10": {
        "abbreviation": "CAST",
        "dst": "1",
        "gmt_offset": "10800",
        "time_start": "136332000",
        "zone_id": "340"
    },
    "11": {
        "abbreviation": "CAT",
        "dst": "0",
        "gmt_offset": "7200",
        "time_start": "151016400",
        "zone_id": "340"
    },
    "12": {
        "abbreviation": "CAST",
        "dst": "1",
        "gmt_offset": "10800",
        "time_start": "167781600",
        "zone_id": "340"
    },
    "13": {
        "abbreviation": "CAT",
        "dst": "0",
        "gmt_offset": "7200",
        "time_start": "182552400",
        "zone_id": "340"
    },
    "14": {
        "abbreviation": "CAST",
        "dst": "1",
        "gmt_offset": "10800",
        "time_start": "199231200",
        "zone_id": "340"
    },
    "15": {
        "abbreviation": "CAT",
        "dst": "0",
        "gmt_offset": "7200",
        "time_start": "214174800",
        "zone_id": "340"
    },
    "16": {
        "abbreviation": "CAST",
        "dst": "1",
        "gmt_offset": "10800",
        "time_start": "230680800",
        "zone_id": "340"
    },
    "17": {
        "abbreviation": "CAT",
        "dst": "0",
        "gmt_offset": "7200",
        "time_start": "245710800",
        "zone_id": "340"
    },
    "18": {
        "abbreviation": "CAST",
        "dst": "1",
        "gmt_offset": "10800",
        "time_start": "262735200",
        "zone_id": "340"
    },
    "19": {
        "abbreviation": "CAT",
        "dst": "0",
        "gmt_offset": "7200",
        "time_start": "277246800",
        "zone_id": "340"
    },
    "20": {
        "abbreviation": "CAST",
        "dst": "1",
        "gmt_offset": "10800",
        "time_start": "294184800",
        "zone_id": "340"
    },
    "21": {
        "abbreviation": "CAT",
        "dst": "0",
        "gmt_offset": "7200",
        "time_start": "308782800",
        "zone_id": "340"
    },
    "22": {
        "abbreviation": "CAST",
        "dst": "1",
        "gmt_offset": "10800",
        "time_start": "325634400",
        "zone_id": "340"
    },
    "23": {
        "abbreviation": "CAT",
        "dst": "0",
        "gmt_offset": "7200",
        "time_start": "340405200",
        "zone_id": "340"
    },
    "24": {
        "abbreviation": "CAST",
        "dst": "1",
        "gmt_offset": "10800",
        "time_start": "357084000",
        "zone_id": "340"
    },
    "25": {
        "abbreviation": "CAT",
        "dst": "0",
        "gmt_offset": "7200",
        "time_start": "371941200",
        "zone_id": "340"
    },
    "26": {
        "abbreviation": "CAST",
        "dst": "1",
        "gmt_offset": "10800",
        "time_start": "388533600",
        "zone_id": "340"
    },
    "27": {
        "abbreviation": "CAT",
        "dst": "0",
        "gmt_offset": "7200",
        "time_start": "403477200",
        "zone_id": "340"
    },
    "28": {
        "abbreviation": "CAST",
        "dst": "1",
        "gmt_offset": "10800",
        "time_start": "419983200",
        "zone_id": "340"
    },
    "29": {
        "abbreviation": "CAT",
        "dst": "0",
        "gmt_offset": "7200",
        "time_start": "435013200",
        "zone_id": "340"
    },
    "30": {
        "abbreviation": "CAST",
        "dst": "1",
        "gmt_offset": "10800",
        "time_start": "452037600",
        "zone_id": "340"
    },
    "31": {
        "abbreviation": "CAT",
        "dst": "0",
        "gmt_offset": "7200",
        "time_start": "466635600",
        "zone_id": "340"
    },
    "32": {
        "abbreviation": "CAST",
        "dst": "1",
        "gmt_offset": "10800",
        "time_start": "483487200",
        "zone_id": "340"
    },
    "33": {
        "abbreviation": "CAT",
        "dst": "0",
        "gmt_offset": "7200",
        "time_start": "498171600",
        "zone_id": "340"
    },
    "34": {
        "abbreviation": "EAT",
        "dst": "0",
        "gmt_offset": "10800",
        "time_start": "947930400",
        "zone_id": "340"
    },
    "35": {
        "abbreviation": "CAT",
        "dst": "0",
        "gmt_offset": "7200",
        "time_start": "1509483600",
        "zone_id": "340"
    },
    "abbreviation": "LMT",
    "dst": "0",
    "gmt_offset": "7808",
    "time_start": "-1230775809",
    "zone_id": "340"
}