{
    "1": {
        "abbreviation": "EAT",
        "dst": "0",
        "gmt_offset": "10800",
        "time_start": "-1309746436",
        "zone_id": "350"
    },
    "2": {
        "abbreviation": "+0230",
        "dst": "0",
        "gmt_offset": "9000",
        "time_start": "-1262314800",
        "zone_id": "350"
    },
    "3": {
        "abbreviation": "+0245",
        "dst": "0",
        "gmt_offset": "9900",
        "time_start": "-946780200",
        "zone_id": "350"
    },
    "4": {
        "abbreviation": "EAT",
        "dst": "0",
        "gmt_offset": "10800",
        "time_start": "-315629100",
        "zone_id": "350"
    },
    "abbreviation": "LMT",
    "dst": "0",
    "gmt_offset": "8836",
    "time_start": "-1309746437",
    "zone_id": "350"
}