{
    "1": {
        "abbreviation": "PLMT",
        "dst": "0",
        "gmt_offset": "25590",
        "time_start": "-2004073600",
        "zone_id": "417"
    },
    "2": {
        "abbreviation": "+07",
        "dst": "0",
        "gmt_offset": "25200",
        "time_start": "-1851577590",
        "zone_id": "417"
    },
    "3": {
        "abbreviation": "+08",
        "dst": "0",
        "gmt_offset": "28800",
        "time_start": "-852105600",
        "zone_id": "417"
    },
    "4": {
        "abbreviation": "+09",
        "dst": "0",
        "gmt_offset": "32400",
        "time_start": "-782643600",
        "zone_id": "417"
    },
    "5": {
        "abbreviation": "+07",
        "dst": "0",
        "gmt_offset": "25200",
        "time_start": "-767869200",
        "zone_id": "417"
    },
    "6": {
        "abbreviation": "+08",
        "dst": "0",
        "gmt_offset": "28800",
        "time_start": "-718095600",
        "zone_id": "417"
    },
    "7": {
        "abbreviation": "+07",
        "dst": "0",
        "gmt_offset": "25200",
        "time_start": "-457776000",
        "zone_id": "417"
    },
    "8": {
        "abbreviation": "+08",
        "dst": "0",
        "gmt_offset": "28800",
        "time_start": "-315648000",
        "zone_id": "417"
    },
    "9": {
        "abbreviation": "+07",
        "dst": "0",
        "gmt_offset": "25200",
        "time_start": "171820800",
        "zone_id": "417"
    },
    "abbreviation": "LMT",
    "dst": "0",
    "gmt_offset": "25600",
    "time_start": "-2004073601",
    "zone_id": "417"
}