{
    "1": {
        "abbreviation": "+12",
        "dst": "0",
        "gmt_offset": "43200",
        "time_start": "-2177496920",
        "zone_id": "419"
    },
    "abbreviation": "LMT",
    "dst": "0",
    "gmt_offset": "44120",
    "time_start": "-2177496921",
    "zone_id": "419"
}