{
    "1": {
        "abbreviation": "CAT",
        "dst": "0",
        "gmt_offset": "7200",
        "time_start": "-2109291020",
        "zone_id": "425"
    },
    "abbreviation": "LMT",
    "dst": "0",
    "gmt_offset": "7820",
    "time_start": "-2109291021",
    "zone_id": "425"
}