{
    "1": {
        "abbreviation": "+03",
        "dst": "0",
        "gmt_offset": "10800",
        "time_start": "-1441163964",
        "zone_id": "48"
    },
    "2": {
        "abbreviation": "+04",
        "dst": "0",
        "gmt_offset": "14400",
        "time_start": "-405140400",
        "zone_id": "48"
    },
    "3": {
        "abbreviation": "+05",
        "dst": "1",
        "gmt_offset": "18000",
        "time_start": "354916800",
        "zone_id": "48"
    },
    "4": {
        "abbreviation": "+04",
        "dst": "0",
        "gmt_offset": "14400",
        "time_start": "370724400",
        "zone_id": "48"
    },
    "5": {
        "abbreviation": "+05",
        "dst": "1",
        "gmt_offset": "18000",
        "time_start": "386452800",
        "zone_id": "48"
    },
    "6": {
        "abbreviation": "+04",
        "dst": "0",
        "gmt_offset": "14400",
        "time_start": "402260400",
        "zone_id": "48"
    },
    "7": {
        "abbreviation": "+05",
        "dst": "1",
        "gmt_offset": "18000",
        "time_start": "417988800",
        "zone_id": "48"
    },
    "8": {
        "abbreviation": "+04",
        "dst": "0",
        "gmt_offset": "14400",
        "time_start": "433796400",
        "zone_id": "48"
    },
    "9": {
        "abbreviation": "+05",
        "dst": "1",
        "gmt_offset": "18000",
        "time_start": "449611200",
        "zone_id": "48"
    },
    "10": {
        "abbreviation": "+04",
        "dst": "0",
        "gmt_offset": "14400",
        "time_start": "465343200",
        "zone_id": "48"
    },
    "11": {
        "abbreviation": "+05",
        "dst": "1",
        "gmt_offset": "18000",
        "time_start": "481068000",
        "zone_id": "48"
    },
    "12": {
        "abbreviation": "+04",
        "dst": "0",
        "gmt_offset": "14400",
        "time_start": "496792800",
        "zone_id": "48"
    },
    "13": {
        "abbreviation": "+05",
        "dst": "1",
        "gmt_offset": "18000",
        "time_start": "512517600",
        "zone_id": "48"
    },
    "14": {
        "abbreviation": "+04",
        "dst": "0",
        "gmt_offset": "14400",
        "time_start": "528242400",
        "zone_id": "48"
    },
    "15": {
        "abbreviation": "+05",
        "dst": "1",
        "gmt_offset": "18000",
        "time_start": "543967200",
        "zone_id": "48"
    },
    "16": {
        "abbreviation": "+04",
        "dst": "0",
        "gmt_offset": "14400",
        "time_start": "559692000",
        "zone_id": "48"
    },
    "17": {
        "abbreviation": "+05",
        "dst": "1",
        "gmt_offset": "18000",
        "time_start": "575416800",
        "zone_id": "48"
    },
    "18": {
        "abbreviation": "+04",
        "dst": "0",
        "gmt_offset": "14400",
        "time_start": "591141600",
        "zone_id": "48"
    },
    "19": {
        "abbreviation": "+05",
        "dst": "1",
        "gmt_offset": "18000",
        "time_start": "606866400",
        "zone_id": "48"
    },
    "20": {
        "abbreviation": "+04",
        "dst": "0",
        "gmt_offset": "14400",
        "time_start": "622591200",
        "zone_id": "48"
    },
    "21": {
        "abbreviation": "+05",
        "dst": "1",
        "gmt_offset": "18000",
        "time_start": "638316000",
        "zone_id": "48"
    },
    "22": {
        "abbreviation": "+04",
        "dst": "0",
        "gmt_offset": "14400",
        "time_start": "654645600",
        "zone_id": "48"
    },
    "23": {
        "abbreviation": "+03",
        "dst": "0",
        "gmt_offset": "10800",
        "time_start": "686098800",
        "zone_id": "48"
    },
    "24": {
        "abbreviation": "+04",
        "dst": "1",
        "gmt_offset": "14400",
        "time_start": "701823600",
        "zone_id": "48"
    },
    "25": {
        "abbreviation": "+05",
        "dst": "1",
        "gmt_offset": "18000",
        "time_start": "828234000",
        "zone_id": "48"
    },
    "26": {
        "abbreviation": "+04",
        "dst": "0",
        "gmt_offset": "14400",
        "time_start": "846378000",
        "zone_id": "48"
    },
    "27": {
        "abbreviation": "+05",
        "dst": "1",
        "gmt_offset": "18000",
        "time_start": "859680000",
        "zone_id": "48"
    },
    "28": {
        "abbreviation": "+04",
        "dst": "0",
        "gmt_offset": "14400",
        "time_start": "877824000",
        "zone_id": "48"
    },
    "29": {
        "abbreviation": "+05",
        "dst": "1",
        "gmt_offset": "18000",
        "time_start": "891129600",
        "zone_id": "48"
    },
    "30": {
        "abbreviation": "+04",
        "dst": "0",
        "gmt_offset": "14400",
        "time_start": "909273600",
        "zone_id": "48"
    },
    "31": {
        "abbreviation": "+05",
        "dst": "1",
        "gmt_offset": "18000",
        "time_start": "922579200",
        "zone_id": "48"
    },
    "32": {
        "abbreviation": "+04",
        "dst": "0",
        "gmt_offset": "14400",
        "time_start": "941328000",
        "zone_id": "48"
    },
    "33": {
        "abbreviation": "+05",
        "dst": "1",
        "gmt_offset": "18000",
        "time_start": "954028800",
        "zone_id": "48"
    },
    "34": {
        "abbreviation": "+04",
        "dst": "0",
        "gmt_offset": "14400",
        "time_start": "972777600",
        "zone_id": "48"
    },
    "35": {
        "abbreviation": "+05",
        "dst": "1",
        "gmt_offset": "18000",
        "time_start": "985478400",
        "zone_id": "48"
    },
    "36": {
        "abbreviation": "+04",
        "dst": "0",
        "gmt_offset": "14400",
        "time_start": "1004227200",
        "zone_id": "48"
    },
    "37": {
        "abbreviation": "+05",
        "dst": "1",
        "gmt_offset": "18000",
        "time_start": "1017532800",
        "zone_id": "48"
    },
    "38": {
        "abbreviation": "+04",
        "dst": "0",
        "gmt_offset": "14400",
        "time_start": "1035676800",
        "zone_id": "48"
    },
    "39": {
        "abbreviation": "+05",
        "dst": "1",
        "gmt_offset": "18000",
        "time_start": "1048982400",
        "zone_id": "48"
    },
    "40": {
        "abbreviation": "+04",
        "dst": "0",
        "gmt_offset": "14400",
        "time_start": "1067126400",
        "zone_id": "48"
    },
    "41": {
        "abbreviation": "+05",
        "dst": "1",
        "gmt_offset": "18000",
        "time_start": "1080432000",
        "zone_id": "48"
    },
    "42": {
        "abbreviation": "+04",
        "dst": "0",
        "gmt_offset": "14400",
        "time_start": "1099180800",
        "zone_id": "48"
    },
    "43": {
        "abbreviation": "+05",
        "dst": "1",
        "gmt_offset": "18000",
        "time_start": "1111881600",
        "zone_id": "48"
    },
    "44": {
        "abbreviation": "+04",
        "dst": "0",
        "gmt_offset": "14400",
        "time_start": "1130630400",
        "zone_id": "48"
    },
    "45": {
        "abbreviation": "+05",
        "dst": "1",
        "gmt_offset": "18000",
        "time_start": "1143331200",
        "zone_id": "48"
    },
    "46": {
        "abbreviation": "+04",
        "dst": "0",
        "gmt_offset": "14400",
        "time_start": "1162080000",
        "zone_id": "48"
    },
    "47": {
        "abbreviation": "+05",
        "dst": "1",
        "gmt_offset": "18000",
        "time_start": "1174780800",
        "zone_id": "48"
    },
    "48": {
        "abbreviation": "+04",
        "dst": "0",
        "gmt_offset": "14400",
        "time_start": "1193529600",
        "zone_id": "48"
    },
    "49": {
        "abbreviation": "+05",
        "dst": "1",
        "gmt_offset": "18000",
        "time_start": "1206835200",
        "zone_id": "48"
    },
    "50": {
        "abbreviation": "+04",
        "dst": "0",
        "gmt_offset": "14400",
        "time_start": "1224979200",
        "zone_id": "48"
    },
    "51": {
        "abbreviation": "+05",
        "dst": "1",
        "gmt_offset": "18000",
        "time_start": "1238284800",
        "zone_id": "48"
    },
    "52": {
        "abbreviation": "+04",
        "dst": "0",
        "gmt_offset": "14400",
        "time_start": "1256428800",
        "zone_id": "48"
    },
    "53": {
        "abbreviation": "+05",
        "dst": "1",
        "gmt_offset": "18000",
        "time_start": "1269734400",
        "zone_id": "48"
    },
    "54": {
        "abbreviation": "+04",
        "dst": "0",
        "gmt_offset": "14400",
        "time_start": "1288483200",
        "zone_id": "48"
    },
    "55": {
        "abbreviation": "+05",
        "dst": "1",
        "gmt_offset": "18000",
        "time_start": "1301184000",
        "zone_id": "48"
    },
    "56": {
        "abbreviation": "+04",
        "dst": "0",
        "gmt_offset": "14400",
        "time_start": "1319932800",
        "zone_id": "48"
    },
    "57": {
        "abbreviation": "+05",
        "dst": "1",
        "gmt_offset": "18000",
        "time_start": "1332633600",
        "zone_id": "48"
    },
    "58": {
        "abbreviation": "+04",
        "dst": "0",
        "gmt_offset": "14400",
        "time_start": "1351382400",
        "zone_id": "48"
    },
    "59": {
        "abbreviation": "+05",
        "dst": "1",
        "gmt_offset": "18000",
        "time_start": "1364688000",
        "zone_id": "48"
    },
    "60": {
        "abbreviation": "+04",
        "dst": "0",
        "gmt_offset": "14400",
        "time_start": "1382832000",
        "zone_id": "48"
    },
    "61": {
        "abbreviation": "+05",
        "dst": "1",
        "gmt_offset": "18000",
        "time_start": "1396137600",
        "zone_id": "48"
    },
    "62": {
        "abbreviation": "+04",
        "dst": "0",
        "gmt_offset": "14400",
        "time_start": "1414281600",
        "zone_id": "48"
    },
    "63": {
        "abbreviation": "+05",
        "dst": "1",
        "gmt_offset": "18000",
        "time_start": "1427587200",
        "zone_id": "48"
    },
    "64": {
        "abbreviation": "+04",
        "dst": "0",
        "gmt_offset": "14400",
        "time_start": "1445731200",
        "zone_id": "48"
    },
    "abbreviation": "LMT",
    "dst": "0",
    "gmt_offset": "11964",
    "time_start": "-1441163965",
    "zone_id": "48"
}