{
    "1": {
        "abbreviation": "HMT",
        "dst": "0",
        "gmt_offset": "21200",
        "time_start": "-2524543300",
        "zone_id": "51"
    },
    "2": {
        "abbreviation": "+0630",
        "dst": "0",
        "gmt_offset": "23400",
        "time_start": "-891582800",
        "zone_id": "51"
    },
    "3": {
        "abbreviation": "+0530",
        "dst": "0",
        "gmt_offset": "19800",
        "time_start": "-872058600",
        "zone_id": "51"
    },
    "4": {
        "abbreviation": "+0630",
        "dst": "0",
        "gmt_offset": "23400",
        "time_start": "-862637400",
        "zone_id": "51"
    },
    "5": {
        "abbreviation": "+06",
        "dst": "0",
        "gmt_offset": "21600",
        "time_start": "-576138600",
        "zone_id": "51"
    },
    "6": {
        "abbreviation": "+07",
        "dst": "1",
        "gmt_offset": "25200",
        "time_start": "1245430800",
        "zone_id": "51"
    },
    "7": {
        "abbreviation": "+06",
        "dst": "0",
        "gmt_offset": "21600",
        "time_start": "1262278800",
        "zone_id": "51"
    },
    "abbreviation": "LMT",
    "dst": "0",
    "gmt_offset": "21700",
    "time_start": "-2524543301",
    "zone_id": "51"
}