{
    "1": {
        "abbreviation": "-0430",
        "dst": "0",
        "gmt_offset": "-16200",
        "time_start": "-1826738653",
        "zone_id": "62"
    },
    "2": {
        "abbreviation": "AST",
        "dst": "0",
        "gmt_offset": "-14400",
        "time_start": "-157750200",
        "zone_id": "62"
    },
    "abbreviation": "LMT",
    "dst": "0",
    "gmt_offset": "-16547",
    "time_start": "-1826738654",
    "zone_id": "62"
}