{
    "1": {
        "abbreviation": "-03",
        "dst": "0",
        "gmt_offset": "-10800",
        "time_start": "-1767217224",
        "zone_id": "66"
    },
    "2": {
        "abbreviation": "-02",
        "dst": "1",
        "gmt_offset": "-7200",
        "time_start": "-1206957600",
        "zone_id": "66"
    },
    "3": {
        "abbreviation": "-03",
        "dst": "0",
        "gmt_offset": "-10800",
        "time_start": "-1191362400",
        "zone_id": "66"
    },
    "4": {
        "abbreviation": "-02",
        "dst": "1",
        "gmt_offset": "-7200",
        "time_start": "-1175374800",
        "zone_id": "66"
    },
    "5": {
        "abbreviation": "-03",
        "dst": "0",
        "gmt_offset": "-10800",
        "time_start": "-1159826400",
        "zone_id": "66"
    },
    "6": {
        "abbreviation": "-02",
        "dst": "1",
        "gmt_offset": "-7200",
        "time_start": "-633819600",
        "zone_id": "66"
    },
    "7": {
        "abbreviation": "-03",
        "dst": "0",
        "gmt_offset": "-10800",
        "time_start": "-622069200",
        "zone_id": "66"
    },
    "8": {
        "abbreviation": "-02",
        "dst": "1",
        "gmt_offset": "-7200",
        "time_start": "-602283600",
        "zone_id": "66"
    },
    "9": {
        "abbreviation": "-03",
        "dst": "0",
        "gmt_offset": "-10800",
        "time_start": "-591832800",
        "zone_id": "66"
    },
    "10": {
        "abbreviation": "-02",
        "dst": "1",
        "gmt_offset": "-7200",
        "time_start": "-570747600",
        "zone_id": "66"
    },
    "11": {
        "abbreviation": "-03",
        "dst": "0",
        "gmt_offset": "-10800",
        "time_start": "-560210400",
        "zone_id": "66"
    },
    "12": {
        "abbreviation": "-02",
        "dst": "1",
        "gmt_offset": "-7200",
        "time_start": "-539125200",
        "zone_id": "66"
    },
    "13": {
        "abbreviation": "-03",
        "dst": "0",
        "gmt_offset": "-10800",
        "time_start": "-531352800",
        "zone_id": "66"
    },
    "14": {
        "abbreviation": "-02",
        "dst": "1",
        "gmt_offset": "-7200",
        "time_start": "-191365200",
        "zone_id": "66"
    },
    "15": {
        "abbreviation": "-03",
        "dst": "0",
        "gmt_offset": "-10800",
        "time_start": "-184197600",
        "zone_id": "66"
    },
    "16": {
        "abbreviation": "-02",
        "dst": "1",
        "gmt_offset": "-7200",
        "time_start": "-155163600",
        "zone_id": "66"
    },
    "17": {
        "abbreviation": "-03",
        "dst": "0",
        "gmt_offset": "-10800",
        "time_start": "-150069600",
        "zone_id": "66"
    },
    "18": {
        "abbreviation": "-02",
        "dst": "1",
        "gmt_offset": "-7200",
        "time_start": "-128898000",
        "zone_id": "66"
    },
    "19": {
        "abbreviation": "-03",
        "dst": "0",
        "gmt_offset": "-10800",
        "time_start": "-121125600",
        "zone_id": "66"
    },
    "20": {
        "abbreviation": "-02",
        "dst": "1",
        "gmt_offset": "-7200",
        "time_start": "-99954000",
        "zone_id": "66"
    },
    "21": {
        "abbreviation": "-03",
        "dst": "0",
        "gmt_offset": "-10800",
        "time_start": "-89589600",
        "zone_id": "66"
    },
    "22": {
        "abbreviation": "-02",
        "dst": "1",
        "gmt_offset": "-7200",
        "time_start": "-68418000",
        "zone_id": "66"
    },
    "23": {
        "abbreviation": "-03",
        "dst": "0",
        "gmt_offset": "-10800",
        "time_start": "-57967200",
        "zone_id": "66"
    },
    "24": {
        "abbreviation": "-02",
        "dst": "1",
        "gmt_offset": "-7200",
        "time_start": "499748400",
        "zone_id": "66"
    },
    "25": {
        "abbreviation": "-03",
        "dst": "0",
        "gmt_offset": "-10800",
        "time_start": "511236000",
        "zone_id": "66"
    },
    "26": {
        "abbreviation": "-02",
        "dst": "1",
        "gmt_offset": "-7200",
        "time_start": "530593200",
        "zone_id": "66"
    },
    "27": {
        "abbreviation": "-03",
        "dst": "0",
        "gmt_offset": "-10800",
        "time_start": "540266400",
        "zone_id": "66"
    },
    "28": {
        "abbreviation": "-02",
        "dst": "1",
        "gmt_offset": "-7200",
        "time_start": "562129200",
        "zone_id": "66"
    },
    "29": {
        "abbreviation": "-03",
        "dst": "0",
        "gmt_offset": "-10800",
        "time_start": "571197600",
        "zone_id": "66"
    },
    "30": {
        "abbreviation": "-02",
        "dst": "1",
        "gmt_offset": "-7200",
        "time_start": "592974000",
        "zone_id": "66"
    },
    "31": {
        "abbreviation": "-03",
        "dst": "0",
        "gmt_offset": "-10800",
        "time_start": "602042400",
        "zone_id": "66"
    },
    "32": {
        "abbreviation": "-02",
        "dst": "1",
        "gmt_offset": "-7200",
        "time_start": "624423600",
        "zone_id": "66"
    },
    "33": {
        "abbreviation": "-03",
        "dst": "0",
        "gmt_offset": "-10800",
        "time_start": "634701600",
        "zone_id": "66"
    },
    "34": {
        "abbreviation": "-02",
        "dst": "1",
        "gmt_offset": "-7200",
        "time_start": "938919600",
        "zone_id": "66"
    },
    "35": {
        "abbreviation": "-03",
        "dst": "0",
        "gmt_offset": "-10800",
        "time_start": "951616800",
        "zone_id": "66"
    },
    "36": {
        "abbreviation": "-02",
        "dst": "1",
        "gmt_offset": "-7200",
        "time_start": "970974000",
        "zone_id": "66"
    },
    "37": {
        "abbreviation": "-03",
        "dst": "0",
        "gmt_offset": "-10800",
        "time_start": "971575200",
        "zone_id": "66"
    },
    "38": {
        "abbreviation": "-02",
        "dst": "1",
        "gmt_offset": "-7200",
        "time_start": "1003028400",
        "zone_id": "66"
    },
    "39": {
        "abbreviation": "-03",
        "dst": "0",
        "gmt_offset": "-10800",
        "time_start": "1013911200",
        "zone_id": "66"
    },
    "abbreviation": "LMT",
    "dst": "0",
    "gmt_offset": "-8376",
    "time_start": "-1767217225",
    "zone_id": "66"
}