{
    "1": {
        "abbreviation": "-04",
        "dst": "0",
        "gmt_offset": "-14400",
        "time_start": "-1767211196",
        "zone_id": "76"
    },
    "2": {
        "abbreviation": "-03",
        "dst": "1",
        "gmt_offset": "-10800",
        "time_start": "-1206954000",
        "zone_id": "76"
    },
    "3": {
        "abbreviation": "-04",
        "dst": "0",
        "gmt_offset": "-14400",
        "time_start": "-1191358800",
        "zone_id": "76"
    },
    "4": {
        "abbreviation": "-03",
        "dst": "1",
        "gmt_offset": "-10800",
        "time_start": "-1175371200",
        "zone_id": "76"
    },
    "5": {
        "abbreviation": "-04",
        "dst": "0",
        "gmt_offset": "-14400",
        "time_start": "-1159822800",
        "zone_id": "76"
    },
    "6": {
        "abbreviation": "-03",
        "dst": "1",
        "gmt_offset": "-10800",
        "time_start": "-633816000",
        "zone_id": "76"
    },
    "7": {
        "abbreviation": "-04",
        "dst": "0",
        "gmt_offset": "-14400",
        "time_start": "-622065600",
        "zone_id": "76"
    },
    "8": {
        "abbreviation": "-03",
        "dst": "1",
        "gmt_offset": "-10800",
        "time_start": "-602280000",
        "zone_id": "76"
    },
    "9": {
        "abbreviation": "-04",
        "dst": "0",
        "gmt_offset": "-14400",
        "time_start": "-591829200",
        "zone_id": "76"
    },
    "10": {
        "abbreviation": "-03",
        "dst": "1",
        "gmt_offset": "-10800",
        "time_start": "-570744000",
        "zone_id": "76"
    },
    "11": {
        "abbreviation": "-04",
        "dst": "0",
        "gmt_offset": "-14400",
        "time_start": "-560206800",
        "zone_id": "76"
    },
    "12": {
        "abbreviation": "-03",
        "dst": "1",
        "gmt_offset": "-10800",
        "time_start": "-539121600",
        "zone_id": "76"
    },
    "13": {
        "abbreviation": "-04",
        "dst": "0",
        "gmt_offset": "-14400",
        "time_start": "-531349200",
        "zone_id": "76"
    },
    "14": {
        "abbreviation": "-03",
        "dst": "1",
        "gmt_offset": "-10800",
        "time_start": "-191361600",
        "zone_id": "76"
    },
    "15": {
        "abbreviation": "-04",
        "dst": "0",
        "gmt_offset": "-14400",
        "time_start": "-184194000",
        "zone_id": "76"
    },
    "16": {
        "abbreviation": "-03",
        "dst": "1",
        "gmt_offset": "-10800",
        "time_start": "-155160000",
        "zone_id": "76"
    },
    "17": {
        "abbreviation": "-04",
        "dst": "0",
        "gmt_offset": "-14400",
        "time_start": "-150066000",
        "zone_id": "76"
    },
    "18": {
        "abbreviation": "-03",
        "dst": "1",
        "gmt_offset": "-10800",
        "time_start": "-128894400",
        "zone_id": "76"
    },
    "19": {
        "abbreviation": "-04",
        "dst": "0",
        "gmt_offset": "-14400",
        "time_start": "-121122000",
        "zone_id": "76"
    },
    "20": {
        "abbreviation": "-03",
        "dst": "1",
        "gmt_offset": "-10800",
        "time_start": "-99950400",
        "zone_id": "76"
    },
    "21": {
        "abbreviation": "-04",
        "dst": "0",
        "gmt_offset": "-14400",
        "time_start": "-89586000",
        "zone_id": "76"
    },
    "22": {
        "abbreviation": "-03",
        "dst": "1",
        "gmt_offset": "-10800",
        "time_start": "-68414400",
        "zone_id": "76"
    },
    "23": {
        "abbreviation": "-04",
        "dst": "0",
        "gmt_offset": "-14400",
        "time_start": "-57963600",
        "zone_id": "76"
    },
    "24": {
        "abbreviation": "-03",
        "dst": "1",
        "gmt_offset": "-10800",
        "time_start": "499752000",
        "zone_id": "76"
    },
    "25": {
        "abbreviation": "-04",
        "dst": "0",
        "gmt_offset": "-14400",
        "time_start": "511239600",
        "zone_id": "76"
    },
    "26": {
        "abbreviation": "-03",
        "dst": "1",
        "gmt_offset": "-10800",
        "time_start": "530596800",
        "zone_id": "76"
    },
    "27": {
        "abbreviation": "-04",
        "dst": "0",
        "gmt_offset": "-14400",
        "time_start": "540270000",
        "zone_id": "76"
    },
    "28": {
        "abbreviation": "-03",
        "dst": "1",
        "gmt_offset": "-10800",
        "time_start": "562132800",
        "zone_id": "76"
    },
    "29": {
        "abbreviation": "-04",
        "dst": "0",
        "gmt_offset": "-14400",
        "time_start": "571201200",
        "zone_id": "76"
    },
    "30": {
        "abbreviation": "-03",
        "dst": "1",
        "gmt_offset": "-10800",
        "time_start": "750830400",
        "zone_id": "76"
    },
    "31": {
        "abbreviation": "-04",
        "dst": "0",
        "gmt_offset": "-14400",
        "time_start": "761713200",
        "zone_id": "76"
    },
    "abbreviation": "LMT",
    "dst": "0",
    "gmt_offset": "-14404",
    "time_start": "-1767211197",
    "zone_id": "76"
}