{
  "type": "FeatureCollection",
  "features": [
    {
      "type": "Feature",
      "properties": { "cca2": "az" },
      "geometry": {
        "type": "MultiPolygon",
        "coordinates": [
          [
            [
              [45.083321, 39.768044],
              [45.266388, 39.611107],
              [45.319984, 39.546944],
              [45.326096, 39.538322],
              [45.330826, 39.535271],
              [45.457497, 39.493607],
              [45.472481, 39.494431],
              [45.49694, 39.502213],
              [45.507767, 39.506653],
              [45.528328, 39.517212],
              [45.558327, 39.533875],
              [45.590546, 39.54861],
              [45.60777, 39.554703],
              [45.626656, 39.55999],
              [45.725266, 39.57972],
              [45.732201, 39.580544],
              [45.740822, 39.57972],
              [45.755272, 39.576653],
              [45.783333, 39.569153],
              [45.800545, 39.561928],
              [45.811371, 39.556374],
              [45.81998, 39.54972],
              [45.823044, 39.545273],
              [45.829987, 39.455544],
              [45.829987, 39.449425],
              [45.829163, 39.442757],
              [45.826653, 39.43748],
              [45.855553, 39.348038],
              [45.978043, 39.279984],
              [45.99221, 39.270821],
              [46, 39.263611],
              [46.00888, 39.250832],
              [46.009995, 39.24527],
              [46.003609, 39.236382],
              [45.989983, 39.226646],
              [45.982201, 39.21944],
              [45.971924, 39.20665],
              [45.966927, 39.188881],
              [45.967209, 39.18277],
              [45.970261, 39.166382],
              [46.107216, 38.936104],
              [46.123604, 38.909981],
              [46.178246, 38.84115],
              [46.074715, 38.871933],
              [45.950829, 38.887215],
              [45.8411, 38.903603],
              [45.607491, 38.951378],
              [45.538605, 38.965546],
              [45.518593, 38.970543],
              [45.477264, 38.984962],
              [45.439423, 38.998047],
              [45.427528, 39.008324],
              [45.423882, 39.019707],
              [45.42499, 39.025826],
              [45.421097, 39.06082],
              [45.348877, 39.160538],
              [45.342209, 39.168877],
              [45.30999, 39.19832],
              [45.30304, 39.199715],
              [45.296097, 39.198601],
              [45.284431, 39.193871],
              [45.274712, 39.187759],
              [45.267769, 39.186646],
              [45.22581, 39.19498],
              [45.1461, 39.214149],
              [45.14193, 39.217484],
              [45.139992, 39.221657],
              [45.14222, 39.24054],
              [45.14137, 39.253609],
              [45.130547, 39.28555],
              [45.115822, 39.312202],
              [45.063042, 39.373047],
              [45.004433, 39.416382],
              [45, 39.417],
              [44.974709, 39.42054],
              [44.958878, 39.428879],
              [44.950272, 39.435822],
              [44.92777, 39.476646],
              [44.908043, 39.535828],
              [44.904709, 39.546654],
              [44.90137, 39.564438],
              [44.888596, 39.60582],
              [44.871933, 39.62165],
              [44.864998, 39.62305],
              [44.813042, 39.63081],
              [44.816376, 39.64582],
              [44.80305, 39.681656],
              [44.801384, 39.684441],
              [44.789986, 39.698044],
              [44.778862, 39.706383],
              [44.789398, 39.709698],
              [44.799164, 39.712769],
              [44.85833, 39.724991],
              [44.882767, 39.724709],
              [44.896378, 39.7211],
              [44.92054, 39.718323],
              [44.933044, 39.72137],
              [44.951935, 39.726372],
              [44.969147, 39.732491],
              [44.99749, 39.750832],
              [45, 39.753006],
              [45.014153, 39.765266],
              [45.028046, 39.774437],
              [45.039986, 39.77833],
              [45.05415, 39.779984],
              [45.061928, 39.77887],
              [45.073601, 39.774155],
              [45.083321, 39.768044]
            ]
          ],
          [
            [
              [45.24527, 40.97694],
              [45.22916, 40.969151],
              [45.206379, 40.97943],
              [45.194988, 40.9911],
              [45.19582, 40.997768],
              [45.204708, 41.00471],
              [45.212608, 41.004162],
              [45.236938, 40.990269],
              [45.24527, 40.98305],
              [45.24527, 40.97694]
            ]
          ],
          [
            [
              [45.04527, 41.035271],
              [45.02583, 41.030548],
              [45.00999, 41.033051],
              [44.98777, 41.050541],
              [44.980549, 41.064709],
              [44.984161, 41.08194],
              [45.00111, 41.088879],
              [45.01749, 41.089161],
              [45.03027, 41.084991],
              [45.051659, 41.066669],
              [45.05888, 41.052769],
              [45.054161, 41.042221],
              [45.04527, 41.035271]
            ]
          ],
          [
            [
              [46.57138, 41.871933],
              [46.639709, 41.816093],
              [46.644707, 41.819153],
              [46.754166, 41.862488],
              [46.760818, 41.863884],
              [46.764992, 41.860268],
              [46.76693, 41.85526],
              [46.768883, 41.844437],
              [46.769981, 41.832764],
              [46.769981, 41.826653],
              [46.768883, 41.819984],
              [46.768883, 41.807487],
              [46.770821, 41.796654],
              [46.77887, 41.78916],
              [46.80693, 41.76915],
              [46.861664, 41.734711],
              [46.940536, 41.683868],
              [47.021378, 41.618599],
              [47.08416, 41.565536],
              [47.100548, 41.57304],
              [47.11304, 41.576653],
              [47.127762, 41.578049],
              [47.135818, 41.576653],
              [47.141663, 41.574158],
              [47.156647, 41.564713],
              [47.160538, 41.561104],
              [47.253052, 41.433327],
              [47.258881, 41.424706],
              [47.260818, 41.419716],
              [47.263611, 41.403313],
              [47.262497, 41.390266],
              [47.260277, 41.376938],
              [47.260277, 41.370827],
              [47.261101, 41.359154],
              [47.265831, 41.3311],
              [47.27166, 41.322495],
              [47.275551, 41.318604],
              [47.28555, 41.312202],
              [47.37109, 41.271935],
              [47.56471, 41.213051],
              [47.571663, 41.211098],
              [47.580544, 41.210274],
              [47.587769, 41.210815],
              [47.599434, 41.215271],
              [47.624428, 41.22998],
              [47.636932, 41.234154],
              [47.643326, 41.23555],
              [47.659714, 41.23555],
              [47.72137, 41.21054],
              [47.750832, 41.197762],
              [47.758606, 41.196381],
              [47.76693, 41.196091],
              [47.796097, 41.198868],
              [47.859154, 41.207764],
              [47.904984, 41.217766],
              [47.910812, 41.2197],
              [47.91999, 41.22637],
              [47.926102, 41.236107],
              [47.926384, 41.24221],
              [47.92526, 41.24749],
              [47.919716, 41.25639],
              [47.915825, 41.259995],
              [47.909981, 41.268883],
              [47.908043, 41.273598],
              [47.9072, 41.27916],
              [47.908318, 41.290833],
              [47.958321, 41.35582],
              [48.066093, 41.460274],
              [48.074432, 41.46777],
              [48.096375, 41.47777],
              [48.115273, 41.482758],
              [48.149994, 41.488319],
              [48.186104, 41.49221],
              [48.225548, 41.500542],
              [48.231377, 41.502495],
              [48.248871, 41.509163],
              [48.370827, 41.570267],
              [48.38582, 41.579163],
              [48.399712, 41.589149],
              [48.4161, 41.604706],
              [48.42305, 41.613319],
              [48.436928, 41.639153],
              [48.53138, 41.76721],
              [48.583954, 41.83577],
              [48.613045, 41.824432],
              [48.672768, 41.78611],
              [48.677773, 41.782761],
              [48.724991, 41.737762],
              [48.780823, 41.679436],
              [48.85833, 41.596931],
              [48.87888, 41.566933],
              [48.887497, 41.553879],
              [48.89666, 41.530266],
              [48.89944, 41.525826],
              [48.910812, 41.51443],
              [48.986382, 41.443604],
              [48.997208, 41.437759],
              [49.010818, 41.433594],
              [49.022484, 41.428322],
              [49.0322, 41.421654],
              [49.039986, 41.414146],
              [49.136101, 41.277771],
              [49.140549, 41.268326],
              [49.141373, 41.262772],
              [49.140831, 41.250542],
              [49.140266, 41.238319],
              [49.141373, 41.2211],
              [49.154984, 41.151649],
              [49.192757, 41.061104],
              [49.206383, 41.03916],
              [49.222214, 41.018326],
              [49.23249, 41.006386],
              [49.251389, 40.987206],
              [49.39804, 40.849709],
              [49.412491, 40.839989],
              [49.423882, 40.834435],
              [49.439423, 40.831383],
              [49.463051, 40.831383],
              [49.4786, 40.828331],
              [49.491096, 40.823601],
              [49.500542, 40.816933],
              [49.524994, 40.794991],
              [49.532494, 40.78749],
              [49.537766, 40.7786],
              [49.538605, 40.773041],
              [49.537209, 40.766388],
              [49.528046, 40.751938],
              [49.517212, 40.72998],
              [49.511101, 40.712212],
              [49.508324, 40.699158],
              [49.508041, 40.69305],
              [49.510544, 40.682487],
              [49.513329, 40.67804],
              [49.528046, 40.662766],
              [49.567772, 40.631653],
              [49.577209, 40.625259],
              [49.582764, 40.62249],
              [49.704163, 40.580544],
              [49.719704, 40.577492],
              [49.804993, 40.56471],
              [49.828606, 40.56248],
              [49.856934, 40.565262],
              [49.876381, 40.569153],
              [49.918602, 40.581657],
              [49.930275, 40.585815],
              [49.973038, 40.589432],
              [50, 40.585976],
              [50.032768, 40.575554],
              [50.231377, 40.493607],
              [50.236107, 40.490273],
              [50.333878, 40.40332],
              [50.347488, 40.3875],
              [50.356384, 40.37471],
              [50.358887, 40.37027],
              [50.363609, 40.35555],
              [50.36721, 40.333878],
              [50.37499, 40.262215],
              [50.354713, 40.268051],
              [50.34388, 40.27972],
              [50.313606, 40.304436],
              [50.30888, 40.30777],
              [50.303322, 40.310547],
              [50.262497, 40.329163],
              [50.25666, 40.330551],
              [50.219986, 40.3386],
              [50.133049, 40.357216],
              [50.124161, 40.35833],
              [49.960815, 40.348877],
              [49.847481, 40.32222],
              [49.57166, 40.212769],
              [49.566666, 40.209984],
              [49.517769, 40.174164],
              [49.5, 40.160538],
              [49.488045, 40.150536],
              [49.426941, 40.059708],
              [49.424988, 40.053879],
              [49.425545, 40.04832],
              [49.428322, 40.043877],
              [49.45527, 40.014992],
              [49.449997, 39.964989],
              [49.42666, 39.89971],
              [49.39693, 39.747208],
              [49.39222, 39.69165],
              [49.38248, 39.686104],
              [49.32222, 39.62915],
              [49.318886, 39.62498],
              [49.31332, 39.614716],
              [49.280823, 39.50054],
              [49.281662, 39.49527],
              [49.284988, 39.485268],
              [49.287491, 39.48082],
              [49.293877, 39.472755],
              [49.304993, 39.46137],
              [49.339989, 39.434433],
              [49.349152, 39.427773],
              [49.353882, 39.424706],
              [49.37638, 39.413872],
              [49.4072, 39.39222],
              [49.413605, 39.38388],
              [49.414146, 39.37832],
              [49.395546, 39.350266],
              [49.351662, 39.32138],
              [49.340775, 39.329079],
              [49.324997, 39.33694],
              [49.313042, 39.34137],
              [49.297211, 39.343323],
              [49.290276, 39.342209],
              [49.278603, 39.337769],
              [49.26915, 39.331383],
              [49.258041, 39.319443],
              [49.252213, 39.310265],
              [49.244156, 39.29554],
              [49.238045, 39.279427],
              [49.203049, 39.056656],
              [49.20221, 39.043053],
              [49.20361, 39.03749],
              [49.20332, 39.030823],
              [49.201935, 39.024712],
              [49.194427, 39.016663],
              [49.161377, 38.988045],
              [49.156647, 38.984711],
              [49.140549, 38.977211],
              [49.128036, 38.973312],
              [49.08804, 38.964706],
              [49.0811, 38.963608],
              [49.07222, 38.963875],
              [49.060265, 38.966927],
              [49.0561, 38.970543],
              [49.053596, 38.975266],
              [49.05166, 39.00139],
              [49.053596, 39.006653],
              [49.05999, 39.008606],
              [49.073318, 39.011375],
              [49.102486, 39.015266],
              [49.108597, 39.01693],
              [49.118599, 39.022758],
              [49.12694, 39.029984],
              [49.13721, 39.0425],
              [49.14222, 39.05248],
              [49.147217, 39.062759],
              [49.149712, 39.074715],
              [49.149994, 39.081657],
              [49.148041, 39.093323],
              [49.144707, 39.097481],
              [49.140549, 39.101105],
              [49.049431, 39.176941],
              [49.038322, 39.182213],
              [49.01054, 39.1886],
              [49.002769, 39.189423],
              [48.98749, 39.188042],
              [48.97499, 39.184433],
              [48.964989, 39.178596],
              [48.961372, 39.174431],
              [48.955544, 39.165268],
              [48.93249, 39.113602],
              [48.930275, 39.058594],
              [48.933327, 39.047493],
              [48.936646, 39.04332],
              [48.949997, 39.032761],
              [48.95332, 39.0286],
              [48.953873, 39.022217],
              [48.952492, 39.016388],
              [48.935265, 38.95694],
              [48.933044, 38.951378],
              [48.911377, 38.905823],
              [48.9086, 38.901093],
              [48.90193, 38.892487],
              [48.890831, 38.880814],
              [48.882484, 38.873604],
              [48.866653, 38.745827],
              [48.871933, 38.569153],
              [48.87859, 38.465271],
              [48.881054, 38.455467],
              [48.888283, 38.442406],
              [48.847214, 38.449997],
              [48.839432, 38.450829],
              [48.830826, 38.451096],
              [48.789429, 38.447762],
              [48.778046, 38.44331],
              [48.74221, 38.424164],
              [48.66638, 38.389153],
              [48.659424, 38.389153],
              [48.630219, 38.392464],
              [48.62305, 38.39526],
              [48.61055, 38.405823],
              [48.599152, 38.416939],
              [48.568604, 38.467209],
              [48.561928, 38.475548],
              [48.441933, 38.62165],
              [48.436928, 38.624702],
              [48.42999, 38.626099],
              [48.422211, 38.625824],
              [48.40804, 38.623322],
              [48.389435, 38.61776],
              [48.361931, 38.60582],
              [48.342484, 38.600822],
              [48.3336, 38.601105],
              [48.327766, 38.60332],
              [48.322762, 38.606102],
              [48.247765, 38.663605],
              [48.243607, 38.667206],
              [48.241096, 38.671928],
              [48.241936, 38.68555],
              [48.249718, 38.70721],
              [48.250275, 38.713875],
              [48.249428, 38.719986],
              [48.243874, 38.72777],
              [48.232758, 38.732758],
              [48.184708, 38.750542],
              [48.152771, 38.760277],
              [48.145821, 38.761932],
              [48.123604, 38.772217],
              [48.10304, 38.7836],
              [48.03665, 38.820824],
              [48.024155, 38.831383],
              [48.020821, 38.835541],
              [48.01693, 38.845818],
              [48.01388, 38.856934],
              [48.0125, 38.869156],
              [48.01082, 38.887497],
              [48.011101, 38.89444],
              [48.012215, 38.90054],
              [48.014153, 38.905823],
              [48.071381, 38.951378],
              [48.08221, 38.956383],
              [48.14415, 38.968323],
              [48.185265, 38.969147],
              [48.224709, 38.971375],
              [48.260818, 38.976646],
              [48.266621, 38.97855],
              [48.276093, 38.98166],
              [48.291382, 38.989983],
              [48.304993, 38.999718],
              [48.312485, 39.007767],
              [48.323875, 39.026375],
              [48.326935, 39.038048],
              [48.327766, 39.05166],
              [48.326096, 39.057213],
              [48.29388, 39.112488],
              [48.286385, 39.12027],
              [48.276093, 39.125824],
              [48.269981, 39.128036],
              [48.256943, 39.131927],
              [48.236107, 39.136658],
              [48.22998, 39.138878],
              [48.214706, 39.147484],
              [48.134995, 39.208878],
              [48.131653, 39.213051],
              [48.122765, 39.246094],
              [48.121368, 39.251389],
              [48.11998, 39.263611],
              [48.12249, 39.275826],
              [48.125259, 39.28054],
              [48.143044, 39.301102],
              [48.150269, 39.309151],
              [48.159424, 39.315819],
              [48.189156, 39.333321],
              [48.200829, 39.337769],
              [48.214989, 39.339989],
              [48.23888, 39.34137],
              [48.253052, 39.3436],
              [48.27887, 39.350266],
              [48.35979, 39.385216],
              [48.35598, 39.394604],
              [48.342209, 39.421371],
              [48.338875, 39.425545],
              [48.321938, 39.440819],
              [48.283875, 39.472755],
              [48.250832, 39.49471],
              [48.21249, 39.526375],
              [48.159157, 39.57332],
              [48.087494, 39.639992],
              [48.077492, 39.652489],
              [48.06971, 39.660271],
              [48.056931, 39.67083],
              [48.038322, 39.683327],
              [48.014153, 39.699158],
              [47.99276, 39.71194],
              [47.976662, 39.719231],
              [47.819153, 39.681107],
              [47.80666, 39.677216],
              [47.797493, 39.67083],
              [47.790276, 39.662766],
              [47.776649, 39.638596],
              [47.763054, 39.628876],
              [47.542496, 39.515266],
              [47.466927, 39.5],
              [47.45443, 39.496384],
              [47.391663, 39.470543],
              [47.340828, 39.42832],
              [47.3336, 39.420273],
              [47.32222, 39.401375],
              [47.314995, 39.3936],
              [47.292213, 39.376938],
              [47.281662, 39.371933],
              [47.207497, 39.342209],
              [47.19498, 39.338326],
              [47.188042, 39.337212],
              [47.17027, 39.337494],
              [47.158875, 39.333054],
              [47.099709, 39.304436],
              [47.044991, 39.243607],
              [47.041939, 39.232201],
              [47.0411, 39.204987],
              [47.038048, 39.20027],
              [47.030823, 39.192215],
              [47.025551, 39.189423],
              [46.961372, 39.158318],
              [46.948868, 39.154427],
              [46.93998, 39.154427],
              [46.919434, 39.16582],
              [46.913315, 39.16805],
              [46.90554, 39.168877],
              [46.89666, 39.168877],
              [46.874702, 39.167496],
              [46.854439, 39.163048],
              [46.848328, 39.16109],
              [46.838326, 39.15527],
              [46.765266, 39.093323],
              [46.753609, 39.081383],
              [46.751656, 39.075829],
              [46.750542, 39.064438],
              [46.74749, 39.052773],
              [46.745537, 39.047493],
              [46.738319, 39.039429],
              [46.652206, 38.97693],
              [46.572495, 38.915825],
              [46.540375, 38.875587],
              [46.49749, 38.949425],
              [46.495537, 38.95443],
              [46.494713, 38.959717],
              [46.494431, 38.96583],
              [46.498871, 38.99165],
              [46.505547, 39.008041],
              [46.511932, 39.017487],
              [46.520264, 39.032204],
              [46.523598, 39.044159],
              [46.51971, 39.065819],
              [46.515831, 39.081657],
              [46.500275, 39.120537],
              [46.49749, 39.124985],
              [46.493607, 39.128593],
              [46.48888, 39.131653],
              [46.47749, 39.136658],
              [46.458321, 39.14277],
              [46.435547, 39.152771],
              [46.42388, 39.163872],
              [46.421097, 39.16805],
              [46.417206, 39.177773],
              [46.415268, 39.188881],
              [46.4161, 39.201378],
              [46.418602, 39.20665],
              [46.421928, 39.211655],
              [46.425545, 39.214149],
              [46.431107, 39.216385],
              [46.444427, 39.21859],
              [46.452209, 39.21859],
              [46.459984, 39.217484],
              [46.46666, 39.215546],
              [46.496094, 39.20361],
              [46.537766, 39.189423],
              [46.54554, 39.189423],
              [46.616096, 39.217209],
              [46.620827, 39.219986],
              [46.62249, 39.224709],
              [46.620537, 39.229424],
              [46.581383, 39.253609],
              [46.557487, 39.26915],
              [46.40387, 39.378593],
              [46.392487, 39.389709],
              [46.386658, 39.398331],
              [46.381653, 39.413605],
              [46.38055, 39.42499],
              [46.382484, 39.438324],
              [46.385818, 39.442757],
              [46.395264, 39.448601],
              [46.400826, 39.450829],
              [46.40776, 39.45165],
              [46.448601, 39.457764],
              [46.494431, 39.466927],
              [46.500832, 39.468323],
              [46.511932, 39.472755],
              [46.516663, 39.475815],
              [46.519981, 39.480263],
              [46.54639, 39.538605],
              [46.54805, 39.544434],
              [46.546944, 39.549988],
              [46.541382, 39.564438],
              [46.53443, 39.572495],
              [46.53054, 39.576096],
              [46.519981, 39.58194],
              [46.364441, 39.62498],
              [46.349991, 39.62804],
              [46.335815, 39.626656],
              [46.32304, 39.623604],
              [46.311104, 39.619713],
              [46.30555, 39.617493],
              [46.300819, 39.614441],
              [46.256386, 39.596657],
              [46.25027, 39.594994],
              [46.24305, 39.594147],
              [46.227211, 39.594147],
              [46.2111, 39.5961],
              [46.204163, 39.598038],
              [46.18971, 39.607216],
              [46.067772, 39.689423],
              [46.056099, 39.70054],
              [46.05304, 39.704712],
              [46.04332, 39.723038],
              [46.03054, 39.745537],
              [46.018593, 39.762772],
              [46.01082, 39.76998],
              [46.006104, 39.773041],
              [45.999161, 39.774994],
              [45.983871, 39.777489],
              [45.960274, 39.7786],
              [45.92638, 39.788048],
              [45.908875, 39.795273],
              [45.88666, 39.805817],
              [45.876099, 39.81137],
              [45.85666, 39.823601],
              [45.844704, 39.83443],
              [45.829163, 39.849152],
              [45.819153, 39.861382],
              [45.816376, 39.86554],
              [45.807213, 39.884438],
              [45.80222, 39.89971],
              [45.799988, 39.910538],
              [45.793877, 39.92526],
              [45.784157, 39.937485],
              [45.77444, 39.943604],
              [45.751099, 39.95332],
              [45.729706, 39.958321],
              [45.705269, 39.961372],
              [45.618317, 39.967766],
              [45.611382, 39.96944],
              [45.60555, 39.971924],
              [45.595818, 39.978043],
              [45.59277, 39.982491],
              [45.5936, 39.99499],
              [45.599991, 40.004166],
              [45.603882, 40.007767],
              [45.613602, 40.014435],
              [45.638039, 40.02166],
              [45.681931, 40.025826],
              [45.713608, 40.026093],
              [45.763611, 40.024437],
              [45.82443, 40.019981],
              [45.847771, 40.01611],
              [45.87305, 40.01361],
              [45.888039, 40.014435],
              [45.900826, 40.017487],
              [45.90554, 40.020546],
              [45.909424, 40.024437],
              [45.9161, 40.03333],
              [45.973877, 40.112488],
              [45.97693, 40.116936],
              [45.979424, 40.122208],
              [46.00194, 40.213608],
              [46.00277, 40.220261],
              [46.00194, 40.225548],
              [45.999718, 40.230537],
              [45.993874, 40.23916],
              [45.962494, 40.26859],
              [45.958321, 40.27222],
              [45.951653, 40.27387],
              [45.92054, 40.265549],
              [45.906151, 40.263451],
              [45.888596, 40.265266],
              [45.875824, 40.26971],
              [45.66277, 40.375824],
              [45.638039, 40.39111],
              [45.540276, 40.453316],
              [45.53249, 40.46054],
              [45.413605, 40.60804],
              [45.391106, 40.643326],
              [45.389153, 40.64833],
              [45.386932, 40.659157],
              [45.386658, 40.66527],
              [45.388329, 40.6711],
              [45.391373, 40.675819],
              [45.418877, 40.71777],
              [45.42193, 40.722214],
              [45.42915, 40.729149],
              [45.443604, 40.738319],
              [45.455544, 40.74221],
              [45.523315, 40.763054],
              [45.574158, 40.776375],
              [45.57972, 40.7786],
              [45.594147, 40.78777],
              [45.603882, 40.80138],
              [45.606377, 40.806374],
              [45.615273, 40.828049],
              [45.620827, 40.84388],
              [45.623322, 40.856659],
              [45.622208, 40.862206],
              [45.61805, 40.871933],
              [45.614159, 40.87554],
              [45.368317, 41.001656],
              [45.3536, 41],
              [45.34499, 41.000542],
              [45.33694, 41.001656],
              [45.101379, 41.056656],
              [45.09137, 41.06276],
              [45.082207, 41.075554],
              [45.077766, 41.085258],
              [45.07332, 41.101105],
              [45.074158, 41.107773],
              [45.076653, 41.113045],
              [45.081383, 41.1161],
              [45.087769, 41.11776],
              [45.11055, 41.119713],
              [45.128319, 41.118599],
              [45.13637, 41.117203],
              [45.171928, 41.114998],
              [45.179993, 41.114998],
              [45.19471, 41.116936],
              [45.201096, 41.118317],
              [45.20665, 41.120827],
              [45.216385, 41.126938],
              [45.220543, 41.13055],
              [45.222755, 41.13582],
              [45.222755, 41.14193],
              [45.218323, 41.151649],
              [45.211372, 41.159714],
              [45.19305, 41.17305],
              [45.15387, 41.198601],
              [45.147774, 41.201096],
              [45.140831, 41.202766],
              [45.131927, 41.20361],
              [45.046944, 41.223312],
              [45.022942, 41.29705],
              [45.051384, 41.316376],
              [45.14137, 41.376656],
              [45.186104, 41.40498],
              [45.255272, 41.446938],
              [45.266663, 41.451653],
              [45.27887, 41.455544],
              [45.291939, 41.458878],
              [45.306656, 41.461098],
              [45.328606, 41.463608],
              [45.336655, 41.462494],
              [45.35055, 41.458878],
              [45.61111, 41.381927],
              [45.716927, 41.348595],
              [45.7197, 41.320541],
              [45.715546, 41.316933],
              [45.70916, 41.30777],
              [45.7075, 41.301926],
              [45.7075, 41.29583],
              [45.708603, 41.290276],
              [45.710815, 41.285271],
              [45.717766, 41.277489],
              [45.748047, 41.260277],
              [45.796097, 41.234428],
              [45.813042, 41.22637],
              [45.850822, 41.21277],
              [45.869713, 41.206093],
              [45.895546, 41.197487],
              [45.922493, 41.189156],
              [45.966103, 41.17915],
              [45.996941, 41.173607],
              [46.03138, 41.170273],
              [46.047768, 41.170273],
              [46.062202, 41.171928],
              [46.0825, 41.175819],
              [46.100548, 41.181931],
              [46.128036, 41.199997],
              [46.133881, 41.202492],
              [46.140266, 41.20387],
              [46.227211, 41.20665],
              [46.235268, 41.20665],
              [46.243317, 41.205544],
              [46.254166, 41.199997],
              [46.268044, 41.183868],
              [46.279984, 41.172768],
              [46.294159, 41.16277],
              [46.340828, 41.12999],
              [46.359711, 41.116936],
              [46.378319, 41.104156],
              [46.483871, 41.05555],
              [46.501656, 41.04805],
              [46.50861, 41.046097],
              [46.520821, 41.049988],
              [46.62249, 41.100548],
              [46.663315, 41.146103],
              [46.669991, 41.154984],
              [46.697205, 41.211655],
              [46.710815, 41.255272],
              [46.710815, 41.261375],
              [46.693871, 41.312202],
              [46.690819, 41.316666],
              [46.686928, 41.32027],
              [46.621094, 41.364998],
              [46.593323, 41.379433],
              [46.55304, 41.386932],
              [46.506104, 41.395264],
              [46.499161, 41.397217],
              [46.333878, 41.481659],
              [46.329987, 41.485268],
              [46.23333, 41.598595],
              [46.2161, 41.624985],
              [46.197762, 41.669159],
              [46.194427, 41.685822],
              [46.194427, 41.698044],
              [46.198044, 41.72499],
              [46.208046, 41.744431],
              [46.211372, 41.748871],
              [46.224541, 41.76106],
              [46.236382, 41.76388],
              [46.251938, 41.764992],
              [46.26082, 41.764153],
              [46.283875, 41.75972],
              [46.297768, 41.755829],
              [46.31388, 41.75332],
              [46.321381, 41.754166],
              [46.33194, 41.75916],
              [46.350548, 41.773315],
              [46.408875, 41.825829],
              [46.42054, 41.837769],
              [46.433327, 41.856659],
              [46.438324, 41.866936],
              [46.451752, 41.897057],
              [46.505272, 41.8936],
              [46.556374, 41.887497],
              [46.563324, 41.885544],
              [46.568329, 41.882484],
              [46.57138, 41.871933]
            ],
            [
              [45.51305, 40.60722],
              [45.528881, 40.606098],
              [45.573051, 40.632488],
              [45.588329, 40.64833],
              [45.58749, 40.653881],
              [45.572491, 40.663052],
              [45.55534, 40.665371],
              [45.51749, 40.665539],
              [45.501389, 40.658039],
              [45.49194, 40.63694],
              [45.499161, 40.61694],
              [45.51305, 40.60722]
            ]
          ]
        ]
      }
    }
  ]
}
