{
  "type": "FeatureCollection",
  "features": [
    {
      "type": "Feature",
      "properties": { "cca2": "dj" },
      "geometry": {
        "type": "Polygon",
        "coordinates": [
          [
            [42.866806, 11.585428],
            [42.873055, 11.582222],
            [42.882774, 11.58111],
            [42.903885, 11.581665],
            [42.947495, 11.585278],
            [43.023964, 11.581244],
            [43.031944, 11.580276],
            [43.119438, 11.57111],
            [43.157219, 11.570833],
            [43.234993, 11.488888],
            [43.249222, 11.469534],
            [43.224998, 11.430832],
            [43.205475, 11.397829],
            [43.186386, 11.370277],
            [43.106201, 11.25],
            [43.064163, 11.186943],
            [42.975555, 11.05361],
            [42.953606, 11.020277],
            [42.944092, 11.002438],
            [42.897217, 10.981667],
            [42.88472, 10.982498],
            [42.814163, 10.987778],
            [42.807777, 10.988888],
            [42.798332, 10.993332],
            [42.78611, 11.002222],
            [42.772774, 11.016388],
            [42.765831, 11.029999],
            [42.762215, 11.046665],
            [42.76194, 11.052776],
            [42.75972, 11.063889],
            [42.755272, 11.073055],
            [42.751938, 11.076666],
            [42.744438, 11.079166],
            [42.646385, 11.096109],
            [42.634438, 11.098055],
            [42.608238, 11.091576],
            [42.501106, 11.06361],
            [42.358887, 11.019165],
            [42.300552, 11.011389],
            [42.178604, 11],
            [42.164719, 11.000555],
            [42.128326, 11],
            [42.122772, 10.998888],
            [42.086105, 10.981943],
            [42.08194, 10.979443],
            [42.078049, 10.97611],
            [42.075272, 10.972221],
            [42.027222, 10.947498],
            [42.012215, 10.941944],
            [41.991943, 10.942221],
            [41.940277, 10.949999],
            [41.918053, 10.953609],
            [41.881943, 10.960833],
            [41.837219, 10.973055],
            [41.808327, 10.985277],
            [41.789719, 11.008055],
            [41.800552, 11.031111],
            [41.80291, 11.098972],
            [41.806664, 11.168333],
            [41.812492, 11.24861],
            [41.811386, 11.267221],
            [41.79583, 11.372221],
            [41.791664, 11.389721],
            [41.75972, 11.505278],
            [41.759995, 11.510555],
            [41.79805, 11.638332],
            [41.828606, 11.74],
            [41.829437, 11.741943],
            [41.891388, 11.773611],
            [41.948608, 11.816666],
            [42.025078, 11.926363],
            [42.058609, 11.975832],
            [42.12722, 12.090277],
            [42.168884, 12.13722],
            [42.255554, 12.263332],
            [42.292221, 12.293888],
            [42.308327, 12.308332],
            [42.325554, 12.359165],
            [42.339439, 12.396944],
            [42.366104, 12.430277],
            [42.399719, 12.469721],
            [42.456108, 12.529165],
            [42.48481, 12.521847],
            [42.501389, 12.516666],
            [42.535828, 12.504166],
            [42.586937, 12.468887],
            [42.589722, 12.466665],
            [42.620277, 12.430832],
            [42.649162, 12.398611],
            [42.698608, 12.363888],
            [42.747772, 12.386389],
            [42.751938, 12.388887],
            [42.808884, 12.429722],
            [42.816109, 12.43611],
            [42.81916, 12.440277],
            [42.821663, 12.444721],
            [42.822495, 12.451111],
            [42.82222, 12.455832],
            [42.813889, 12.474722],
            [42.808609, 12.483332],
            [42.805832, 12.49361],
            [42.805275, 12.5],
            [42.805832, 12.513611],
            [42.806389, 12.520555],
            [42.808052, 12.525833],
            [42.821938, 12.539721],
            [42.929718, 12.623888],
            [43.121384, 12.708332],
            [43.148048, 12.662777],
            [43.153328, 12.654165],
            [43.176666, 12.622221],
            [43.182777, 12.614443],
            [43.207497, 12.584444],
            [43.287773, 12.49361],
            [43.31694, 12.48111],
            [43.327496, 12.476728],
            [43.328331, 12.438889],
            [43.330826, 12.428888],
            [43.374161, 12.284721],
            [43.383888, 12.266943],
            [43.39222, 12.26111],
            [43.405548, 12.247499],
            [43.409996, 12.238333],
            [43.412498, 12.226387],
            [43.419998, 12.144999],
            [43.42083, 12.1325],
            [43.415833, 12.069166],
            [43.413887, 12.056944],
            [43.404442, 12.038887],
            [43.378906, 12],
            [43.376389, 11.996666],
            [43.369164, 11.99],
            [43.359161, 11.986387],
            [43.298332, 11.966944],
            [43.286942, 11.964167],
            [43.251663, 11.958611],
            [43.224716, 11.958611],
            [43.212776, 11.956944],
            [43.199165, 11.951944],
            [43.18972, 11.944166],
            [43.142494, 11.896666],
            [43.104721, 11.853333],
            [43.052216, 11.801388],
            [43.043053, 11.798887],
            [43.023888, 11.794167],
            [43.013054, 11.792776],
            [42.982773, 11.794754],
            [42.883606, 11.774166],
            [42.822777, 11.753332],
            [42.784996, 11.740276],
            [42.774719, 11.733889],
            [42.765274, 11.725277],
            [42.716385, 11.652222],
            [42.696388, 11.614443],
            [42.686661, 11.584721],
            [42.684998, 11.575832],
            [42.681107, 11.566944],
            [42.66861, 11.557777],
            [42.62722, 11.544443],
            [42.561386, 11.563889],
            [42.553886, 11.57361],
            [42.544441, 11.580276],
            [42.534721, 11.581388],
            [42.525551, 11.58111],
            [42.515549, 11.577499],
            [42.508606, 11.567221],
            [42.532654, 11.547274],
            [42.528885, 11.516943],
            [42.534164, 11.506943],
            [42.590271, 11.470833],
            [42.599998, 11.466389],
            [42.623886, 11.466665],
            [42.676941, 11.476944],
            [42.685829, 11.485554],
            [42.686943, 11.494999],
            [42.682495, 11.504166],
            [42.673332, 11.508055],
            [42.664444, 11.509722],
            [42.663055, 11.527777],
            [42.685272, 11.538055],
            [42.696106, 11.542221],
            [42.72805, 11.551109],
            [42.828331, 11.577221],
            [42.866806, 11.585428]
          ]
        ]
      }
    }
  ]
}
