{
  "type": "FeatureCollection",
  "features": [
    {
      "type": "Feature",
      "properties": { "cca2": "es" },
      "geometry": {
        "type": "MultiPolygon",
        "coordinates": [
          [
            [
              [-17.91278, 27.771664],
              [-17.96278, 27.684719],
              [-17.965, 27.679996],
              [-17.98278, 27.637497],
              [-18.014446, 27.649441],
              [-18.15389, 27.703888],
              [-18.158337, 27.706665],
              [-18.16917, 27.731667],
              [-18.17056, 27.737221],
              [-18.17056, 27.742496],
              [-18.167503, 27.753609],
              [-18.161114, 27.76194],
              [-18.14611, 27.769444],
              [-18.13528, 27.77333],
              [-18.129169, 27.771942],
              [-18.115837, 27.76305],
              [-18.110558, 27.76083],
              [-18.06472, 27.755554],
              [-18.057503, 27.756386],
              [-18.04361, 27.760277],
              [-18.038334, 27.762497],
              [-18.03445, 27.765831],
              [-18.015278, 27.79055],
              [-18.00333, 27.813053],
              [-18.001114, 27.81778],
              [-17.996391, 27.820553],
              [-17.933891, 27.8475],
              [-17.928337, 27.84972],
              [-17.9075, 27.84861],
              [-17.898891, 27.842499],
              [-17.89056, 27.829441],
              [-17.885281, 27.820274],
              [-17.88278, 27.815552],
              [-17.88139, 27.811386],
              [-17.88222, 27.79972],
              [-17.88472, 27.79472],
              [-17.901112, 27.781944],
              [-17.905834, 27.779163],
              [-17.909725, 27.775833],
              [-17.91278, 27.771664]
            ]
          ],
          [
            [
              [-15.554167, 27.755833],
              [-15.57917, 27.73111],
              [-15.60444, 27.743332],
              [-15.610001, 27.74555],
              [-15.621946, 27.748608],
              [-15.66639, 27.750553],
              [-15.67333, 27.751389],
              [-15.677223, 27.75333],
              [-15.781389, 27.833885],
              [-15.785, 27.8375],
              [-15.82222, 27.91333],
              [-15.82306, 27.918053],
              [-15.82083, 27.962219],
              [-15.816668, 27.999165],
              [-15.815001, 28.004719],
              [-15.810835, 28.008053],
              [-15.80444, 28.009163],
              [-15.78972, 28.00972],
              [-15.78333, 28.01083],
              [-15.77889, 28.013332],
              [-15.730835, 28.046665],
              [-15.71389, 28.06611],
              [-15.710556, 28.07027],
              [-15.708057, 28.074997],
              [-15.70694, 28.081108],
              [-15.6975, 28.13472],
              [-15.696667, 28.140831],
              [-15.697224, 28.146942],
              [-15.7025, 28.156109],
              [-15.635279, 28.154442],
              [-15.43528, 28.133331],
              [-15.36556, 28.010277],
              [-15.365, 28.004166],
              [-15.39417, 27.845],
              [-15.428335, 27.799164],
              [-15.44083, 27.789997],
              [-15.44667, 27.78805],
              [-15.47167, 27.783054],
              [-15.485, 27.781387],
              [-15.52278, 27.76861],
              [-15.52806, 27.766666],
              [-15.554167, 27.755833]
            ]
          ],
          [
            [
              [-17.175003, 28.016941],
              [-17.23083, 28.009998],
              [-17.245281, 28.01083],
              [-17.259167, 28.019444],
              [-17.29861, 28.046665],
              [-17.30556, 28.054443],
              [-17.323059, 28.077221],
              [-17.326115, 28.081387],
              [-17.330559, 28.09111],
              [-17.3325, 28.116665],
              [-17.32833, 28.140553],
              [-17.319447, 28.1675],
              [-17.316948, 28.17222],
              [-17.313057, 28.17555],
              [-17.29945, 28.18444],
              [-17.25861, 28.20583],
              [-17.251392, 28.206387],
              [-17.19472, 28.187222],
              [-17.18944, 28.184998],
              [-17.11361, 28.145275],
              [-17.101948, 28.13472],
              [-17.09889, 28.130554],
              [-17.08917, 28.111942],
              [-17.09, 28.09889],
              [-17.091946, 28.086666],
              [-17.09389, 28.081108],
              [-17.096947, 28.07694],
              [-17.11111, 28.061943],
              [-17.15472, 28.024719],
              [-17.175003, 28.016941]
            ]
          ],
          [
            [
              [-16.341114, 28.370277],
              [-16.34833, 28.362778],
              [-16.35083, 28.358055],
              [-16.39417, 28.221943],
              [-16.41806, 28.145275],
              [-16.47472, 28.08083],
              [-16.52722, 28.023331],
              [-16.53167, 28.020832],
              [-16.54667, 28.020275],
              [-16.56139, 28.021385],
              [-16.574722, 28.019444],
              [-16.651669, 27.99472],
              [-16.65722, 27.992775],
              [-16.67139, 27.984165],
              [-16.69389, 28.02583],
              [-16.69917, 28.033333],
              [-16.72333, 28.06694],
              [-16.72639, 28.07111],
              [-16.752224, 28.101944],
              [-16.76361, 28.112221],
              [-16.789448, 28.143055],
              [-16.83167, 28.195274],
              [-16.834446, 28.199718],
              [-16.912781, 28.34139],
              [-16.911945, 28.343887],
              [-16.908611, 28.34805],
              [-16.904167, 28.35083],
              [-16.84389, 28.373055],
              [-16.83083, 28.374996],
              [-16.823612, 28.374165],
              [-16.81834, 28.37222],
              [-16.813614, 28.369164],
              [-16.79556, 28.364166],
              [-16.750557, 28.363331],
              [-16.69389, 28.369442],
              [-16.56361, 28.391666],
              [-16.495556, 28.41444],
              [-16.490837, 28.417221],
              [-16.418613, 28.484722],
              [-16.41389, 28.494164],
              [-16.409447, 28.511387],
              [-16.40306, 28.519444],
              [-16.380558, 28.53416],
              [-16.37611, 28.536942],
              [-16.273891, 28.57],
              [-16.15695, 28.57222],
              [-16.15639, 28.501942],
              [-16.177223, 28.492775],
              [-16.217781, 28.47361],
              [-16.22722, 28.46833],
              [-16.235279, 28.461666],
              [-16.341114, 28.370277]
            ]
          ],
          [
            [
              [-14.327223, 28.04639],
              [-14.332779, 28.044441],
              [-14.345835, 28.045555],
              [-14.386112, 28.049721],
              [-14.444168, 28.069164],
              [-14.41694, 28.095554],
              [-14.41167, 28.0975],
              [-14.353613, 28.120831],
              [-14.31361, 28.14027],
              [-14.308889, 28.142776],
              [-14.26111, 28.176109],
              [-14.25306, 28.182777],
              [-14.212778, 28.224163],
              [-14.209446, 28.22805],
              [-14.20417, 28.244442],
              [-14.20333, 28.25805],
              [-14.205278, 28.283054],
              [-14.2025, 28.29472],
              [-14.19333, 28.321941],
              [-14.13945, 28.434166],
              [-14.082224, 28.515553],
              [-14.050835, 28.56472],
              [-14.01917, 28.636387],
              [-14.00917, 28.663055],
              [-14.00778, 28.676109],
              [-14.01, 28.693886],
              [-14.00778, 28.706387],
              [-14.00528, 28.711109],
              [-14.00194, 28.715],
              [-13.95111, 28.738609],
              [-13.93611, 28.745552],
              [-13.91917, 28.75111],
              [-13.88806, 28.75611],
              [-13.86972, 28.751389],
              [-13.865835, 28.747776],
              [-13.844168, 28.726944],
              [-13.833889, 28.70861],
              [-13.83194, 28.703609],
              [-13.828056, 28.686943],
              [-13.82139, 28.622776],
              [-13.81944, 28.59083],
              [-13.82028, 28.577221],
              [-13.826389, 28.535275],
              [-13.860834, 28.382221],
              [-13.88472, 28.326111],
              [-13.90417, 28.281387],
              [-13.92306, 28.249165],
              [-13.929724, 28.241108],
              [-13.94195, 28.23111],
              [-13.95, 28.22472],
              [-13.95306, 28.223888],
              [-14.011391, 28.215275],
              [-14.030279, 28.21333],
              [-14.050001, 28.211941],
              [-14.06889, 28.208332],
              [-14.09806, 28.200554],
              [-14.200556, 28.169167],
              [-14.211945, 28.15916],
              [-14.22583, 28.143887],
              [-14.24028, 28.121666],
              [-14.246946, 28.113609],
              [-14.281668, 28.082497],
              [-14.317501, 28.051388],
              [-14.327223, 28.04639]
            ]
          ],
          [
            [
              [-17.83195, 28.453888],
              [-17.83528, 28.452499],
              [-17.84695, 28.462776],
              [-17.854446, 28.469719],
              [-17.860836, 28.476665],
              [-17.863056, 28.481667],
              [-17.87056, 28.506386],
              [-17.87278, 28.531944],
              [-17.872501, 28.53889],
              [-17.87334, 28.544998],
              [-17.87639, 28.554722],
              [-17.96167, 28.710278],
              [-17.976669, 28.730274],
              [-17.98445, 28.735275],
              [-17.98972, 28.737221],
              [-18.002224, 28.74694],
              [-18.00361, 28.752499],
              [-18.003056, 28.76416],
              [-17.998058, 28.773888],
              [-17.97472, 28.807499],
              [-17.970837, 28.810833],
              [-17.947224, 28.824997],
              [-17.90917, 28.846943],
              [-17.904446, 28.849442],
              [-17.7975, 28.844444],
              [-17.79139, 28.84305],
              [-17.78139, 28.838886],
              [-17.765, 28.825554],
              [-17.75889, 28.817219],
              [-17.71639, 28.746109],
              [-17.71667, 28.740555],
              [-17.73917, 28.60778],
              [-17.75889, 28.562496],
              [-17.783337, 28.529163],
              [-17.785278, 28.516109],
              [-17.786945, 28.510555],
              [-17.789448, 28.505833],
              [-17.79556, 28.497498],
              [-17.83195, 28.453888]
            ]
          ],
          [
            [
              [-13.60972, 28.926388],
              [-13.65278, 28.913055],
              [-13.66056, 28.91333],
              [-13.678335, 28.918888],
              [-13.68556, 28.91972],
              [-13.6975, 28.916943],
              [-13.72, 28.90944],
              [-13.72472, 28.90694],
              [-13.73306, 28.900276],
              [-13.76944, 28.84861],
              [-13.773056, 28.837776],
              [-13.81944, 28.85611],
              [-13.85222, 28.906387],
              [-13.832224, 28.993889],
              [-13.82583, 29.009441],
              [-13.793612, 29.050831],
              [-13.78972, 29.054165],
              [-13.74889, 29.080276],
              [-13.63695, 29.123055],
              [-13.593889, 29.13805],
              [-13.5875, 29.139164],
              [-13.476112, 29.241943],
              [-13.469446, 29.24305],
              [-13.442501, 29.231667],
              [-13.4225, 29.208054],
              [-13.42028, 29.203053],
              [-13.42639, 29.168331],
              [-13.4275, 29.16222],
              [-13.46889, 29.01361],
              [-13.48139, 28.996944],
              [-13.48556, 28.99361],
              [-13.5075, 28.978611],
              [-13.541668, 28.96083],
              [-13.60972, 28.926388]
            ]
          ],
          [
            [
              [-2.925278, 35.266663],
              [-2.93694, 35.263054],
              [-2.94444, 35.263329],
              [-2.950278, 35.264717],
              [-2.959445, 35.271111],
              [-2.962778, 35.274994],
              [-2.967223, 35.284439],
              [-2.97083, 35.294716],
              [-2.971111, 35.306389],
              [-2.969167, 35.312492],
              [-2.962778, 35.321388],
              [-2.958611, 35.324997],
              [-2.946945, 35.329163],
              [-2.93056, 35.29555],
              [-2.91472, 35.2736],
              [-2.925278, 35.266663]
            ]
          ],
          [
            [
              [-5.31944, 35.876938],
              [-5.345834, 35.84166],
              [-5.35444, 35.847221],
              [-5.375834, 35.869438],
              [-5.37861, 35.873604],
              [-5.386945, 35.88694],
              [-5.39139, 35.896942],
              [-5.395556, 35.909164],
              [-5.395557, 35.916336],
              [-5.37306, 35.918053],
              [-5.36528, 35.918053],
              [-5.357779, 35.916382],
              [-5.345, 35.9125],
              [-5.3225, 35.895828],
              [-5.31944, 35.876938]
            ]
          ],
          [
            [
              [-3.036111, 35.912773],
              [-3.04639, 35.907776],
              [-3.051111, 35.909721],
              [-3.051111, 35.915833],
              [-3.048611, 35.919716],
              [-3.038333, 35.92499],
              [-3.02722, 35.924438],
              [-3.02722, 35.919441],
              [-3.036111, 35.912773]
            ]
          ],
          [
            [
              [-6.925, 37.17083],
              [-6.92139, 37.162216],
              [-6.927501, 37.163605],
              [-6.933333, 37.166939],
              [-6.95417, 37.180275],
              [-6.958889, 37.184441],
              [-6.96972, 37.203606],
              [-6.97306, 37.210274],
              [-6.964723, 37.212219],
              [-6.95833, 37.210548],
              [-6.948611, 37.203331],
              [-6.925, 37.17083]
            ]
          ],
          [
            [
              [1.57778, 38.687775],
              [1.586667, 38.672493],
              [1.588055, 38.66722],
              [1.576111, 38.655548],
              [1.56944, 38.65416],
              [1.556389, 38.65416],
              [1.530555, 38.65416],
              [1.524167, 38.654716],
              [1.5180550000001, 38.656944],
              [1.505278, 38.66944],
              [1.49444, 38.675552],
              [1.463055, 38.685555],
              [1.456666, 38.68694],
              [1.443889, 38.682777],
              [1.3902780000001, 38.64333],
              [1.386389, 38.647774],
              [1.385556, 38.658051],
              [1.383611, 38.68305],
              [1.383055, 38.693886],
              [1.383055, 38.715553],
              [1.383055, 38.720551],
              [1.399167, 38.737778],
              [1.445278, 38.741104],
              [1.573056, 38.691383],
              [1.57778, 38.687775]
            ]
          ],
          [
            [
              [1.531667, 38.951942],
              [1.405833, 38.845551],
              [1.371944, 38.830826],
              [1.3680550000001, 38.851105],
              [1.3616660000001, 38.86055],
              [1.3575, 38.864998],
              [1.35278, 38.868332],
              [1.34639, 38.871109],
              [1.277222, 38.87971],
              [1.270555, 38.878052],
              [1.2575000000001, 38.863609],
              [1.2525000000001, 38.85916],
              [1.24611, 38.86027],
              [1.2225, 38.874161],
              [1.211944, 38.89833],
              [1.227778, 38.948051],
              [1.2425, 38.968048],
              [1.2941670000001, 39.031387],
              [1.3036110000001, 39.038605],
              [1.329167, 39.055275],
              [1.3625, 39.072777],
              [1.472778, 39.10527],
              [1.519722, 39.118332],
              [1.545833, 39.11805],
              [1.600555, 39.096107],
              [1.605278, 39.09166],
              [1.609167, 39.081383],
              [1.615, 39.02833],
              [1.531667, 38.951942]
            ]
          ],
          [
            [
              [3.247777, 39.73472],
              [3.260833, 39.733604],
              [3.275, 39.737778],
              [3.29333, 39.745827],
              [3.32361, 39.759438],
              [3.333333, 39.76611],
              [3.343889, 39.77583],
              [3.382778, 39.773331],
              [3.439722, 39.750275],
              [3.480278, 39.721664],
              [3.479722, 39.711105],
              [3.463611, 39.661385],
              [3.4475, 39.640274],
              [3.3775, 39.552773],
              [3.371666, 39.549164],
              [3.331944, 39.526382],
              [3.320278, 39.520554],
              [3.3055550000001, 39.50222],
              [3.288055, 39.4675],
              [3.266944, 39.412773],
              [3.2419440000001, 39.364441],
              [3.0819440000001, 39.273048],
              [3.063611, 39.263611],
              [3.05694, 39.263054],
              [3.029166, 39.283051],
              [2.98555, 39.318604],
              [2.829722, 39.353333],
              [2.799444, 39.36055],
              [2.78639, 39.36472],
              [2.781389, 39.369164],
              [2.75528, 39.392494],
              [2.745555, 39.406387],
              [2.743055, 39.411659],
              [2.727777, 39.47305],
              [2.7416660000001, 39.490829],
              [2.746388, 39.49472],
              [2.752778, 39.496666],
              [2.754722, 39.502495],
              [2.753611, 39.5075],
              [2.7450000000001, 39.515831],
              [2.73639, 39.523888],
              [2.731667, 39.527496],
              [2.694444, 39.55194],
              [2.675278, 39.559441],
              [2.6625, 39.563606],
              [2.656111, 39.564438],
              [2.546389, 39.524719],
              [2.5425000000001, 39.520271],
              [2.436944, 39.52166],
              [2.38917, 39.524994],
              [2.364166, 39.555832],
              [2.3861110000001, 39.612778],
              [2.538611, 39.700272],
              [2.683888, 39.793884],
              [2.777778, 39.844719],
              [2.987778, 39.91111],
              [3.071389, 39.921944],
              [3.096944, 39.911385],
              [3.091944, 39.901382],
              [3.0888890000001, 39.891388],
              [3.089444, 39.885826],
              [3.124444, 39.812218],
              [3.134722, 39.79222],
              [3.13833, 39.787498],
              [3.1519440000001, 39.77583],
              [3.180833, 39.759995],
              [3.241389, 39.736107],
              [3.247777, 39.73472]
            ]
          ],
          [
            [
              [4.273333, 39.96139],
              [4.315555, 39.878883],
              [4.316944, 39.846107],
              [4.313889, 39.83194],
              [4.2999990000001, 39.814163],
              [4.29528, 39.810555],
              [4.2891660000001, 39.807495],
              [4.276388, 39.806389],
              [4.2630550000001, 39.808884],
              [4.25667, 39.810555],
              [4.238333, 39.81611],
              [4.116388, 39.868332],
              [4.1008330000001, 39.877777],
              [4.09083, 39.88472],
              [4.088333, 39.89055],
              [4.0847220000001, 39.895554],
              [4.079721, 39.89916],
              [4.041111, 39.91555],
              [4.02861, 39.92],
              [3.98472, 39.93027],
              [3.965555, 39.93361],
              [3.938333, 39.932495],
              [3.9241660000001, 39.92916],
              [3.91111, 39.925827],
              [3.891111, 39.92083],
              [3.884722, 39.920273],
              [3.8780550000001, 39.92],
              [3.826666, 39.922493],
              [3.796944, 40.01722],
              [3.83139, 40.052773],
              [3.8361110000001, 40.056389],
              [3.868333, 40.05805],
              [3.9375, 40.058884],
              [4.1224990000001, 40.056107],
              [4.174444, 40.050278],
              [4.241388, 39.993607],
              [4.273333, 39.96139]
            ]
          ],
          [
            [
              [-7.85556, 43.759995],
              [-7.85056, 43.714722],
              [-7.81111, 43.724159],
              [-7.79389, 43.72972],
              [-7.724445, 43.747498],
              [-7.685556, 43.748604],
              [-7.51667, 43.73444],
              [-7.463612, 43.72639],
              [-7.365834, 43.676109],
              [-7.36139, 43.672218],
              [-7.337778, 43.645828],
              [-7.32917, 43.631386],
              [-7.29861, 43.598053],
              [-7.293334, 43.594162],
              [-7.25389, 43.565277],
              [-7.240834, 43.559166],
              [-7.21139, 43.564995],
              [-7.198056, 43.56472],
              [-7.045279, 43.559441],
              [-7.038611, 43.557495],
              [-7.036112, 43.54694],
              [-7.03389, 43.537216],
              [-7.044819, 43.490402],
              [-7.01917, 43.539719],
              [-6.99944, 43.560829],
              [-6.94333, 43.57777],
              [-6.76667, 43.567772],
              [-6.60083, 43.558327],
              [-6.48139, 43.554993],
              [-6.34278, 43.55694],
              [-6.29583, 43.569443],
              [-6.10861, 43.561661],
              [-6.095, 43.561943],
              [-6.07583, 43.565826],
              [-5.94472, 43.593887],
              [-5.88333, 43.62333],
              [-5.854167, 43.648048],
              [-5.778611, 43.617218],
              [-5.758334, 43.594162],
              [-5.748889, 43.586662],
              [-5.733334, 43.576385],
              [-5.69056, 43.548332],
              [-5.67778, 43.543884],
              [-5.670834, 43.54361],
              [-5.64972, 43.544716],
              [-5.64194, 43.545273],
              [-5.61, 43.550278],
              [-5.54889, 43.552216],
              [-5.459723, 43.553886],
              [-5.398056, 43.552498],
              [-5.288611, 43.533882],
              [-5.27111, 43.52499],
              [-5.259167, 43.518326],
              [-5.23444, 43.495552],
              [-5.214445, 43.479721],
              [-5.2075, 43.477776],
              [-5.19417, 43.47805],
              [-5.05639, 43.469994],
              [-4.98, 43.461105],
              [-4.88194, 43.448608],
              [-4.760556, 43.428329],
              [-4.74694, 43.42305],
              [-4.73333, 43.41917],
              [-4.656667, 43.408607],
              [-4.6375, 43.406662],
              [-4.59472, 43.403053],
              [-4.51455, 43.396347],
              [-4.50111, 43.401108],
              [-4.42472, 43.40166],
              [-4.39, 43.397774],
              [-4.31556, 43.390549],
              [-4.273056, 43.390549],
              [-4.22389, 43.396111],
              [-4.212778, 43.397774],
              [-4.12194, 43.416382],
              [-4.05139, 43.442497],
              [-3.944723, 43.46777],
              [-3.81028, 43.492493],
              [-3.79, 43.491386],
              [-3.785, 43.487778],
              [-3.766389, 43.469994],
              [-3.585556, 43.51028],
              [-3.55361, 43.50805],
              [-3.546112, 43.505829],
              [-3.451389, 43.465553],
              [-3.32528, 43.418327],
              [-3.22472, 43.396942],
              [-3.15059, 43.353561],
              [-3.022223, 43.357498],
              [-3.0025, 43.383331],
              [-2.94139, 43.435555],
              [-2.92778, 43.43583],
              [-2.85639, 43.432777],
              [-2.80778, 43.430275],
              [-2.73556, 43.426384],
              [-2.56528, 43.39027],
              [-2.513889, 43.378609],
              [-2.507223, 43.376663],
              [-2.48972, 43.361382],
              [-2.48556, 43.356384],
              [-2.464723, 43.34111],
              [-2.45222, 43.334717],
              [-2.354167, 43.305832],
              [-2.347778, 43.304443],
              [-2.29556, 43.296104],
              [-2.170278, 43.291107],
              [-2.15639, 43.291107],
              [-2.12194, 43.296661],
              [-1.97472, 43.332497],
              [-1.83917, 43.380554],
              [-1.79472, 43.391663],
              [-1.787778, 43.39222],
              [-1.78083, 43.388885],
              [-1.78088, 43.359924],
              [-1.776945, 43.3425],
              [-1.73038, 43.298981],
              [-1.711389, 43.304161],
              [-1.69278, 43.30778],
              [-1.65556, 43.309441],
              [-1.50361, 43.287773],
              [-1.40889, 43.273048],
              [-1.39139, 43.262772],
              [-1.38417, 43.253052],
              [-1.3825, 43.24721],
              [-1.38278, 43.217773],
              [-1.385, 43.20166],
              [-1.41139, 43.136665],
              [-1.42222, 43.123604],
              [-1.429445, 43.116386],
              [-1.45167, 43.10305],
              [-1.45861, 43.10305],
              [-1.46889, 43.095833],
              [-1.4725, 43.09111],
              [-1.47056, 43.085831],
              [-1.45, 43.056664],
              [-1.445833, 43.051666],
              [-1.43444, 43.045555],
              [-1.42778, 43.04361],
              [-1.398056, 43.03805],
              [-1.360278, 43.031662],
              [-1.346667, 43.034721],
              [-1.34306, 43.039162],
              [-1.300278, 43.071663],
              [-1.200556, 43.04583],
              [-1.07278, 43.00639],
              [-0.99361, 42.976105],
              [-0.946389, 42.955826],
              [-0.93417, 42.9525],
              [-0.81861, 42.946106],
              [-0.79056, 42.9525],
              [-0.786945, 42.95694],
              [-0.76694, 42.964722],
              [-0.76, 42.96611],
              [-0.746667, 42.965553],
              [-0.742778, 42.9611],
              [-0.72417, 42.937218],
              [-0.722778, 42.922493],
              [-0.72332, 42.918945],
              [-0.73278, 42.909164],
              [-0.73389, 42.904442],
              [-0.73194, 42.899162],
              [-0.72389, 42.891388],
              [-0.718889, 42.886665],
              [-0.712778, 42.8825],
              [-0.562222, 42.781387],
              [-0.54944, 42.77861],
              [-0.39194, 42.796387],
              [-0.323611, 42.82666],
              [-0.31778, 42.83111],
              [-0.315, 42.835831],
              [-0.308739, 42.848381],
              [-0.30556, 42.844162],
              [-0.300833, 42.839439],
              [-0.2625, 42.817497],
              [-0.20556, 42.794167],
              [-0.18, 42.78444],
              [-0.151944, 42.776657],
              [-0.12361, 42.7575],
              [-0.063056, 42.71583],
              [-0.060833, 42.70916],
              [-0.06194, 42.703331],
              [-0.06194, 42.69778],
              [-0.057222, 42.69416],
              [-0.05056, 42.69194],
              [-0.00556, 42.684998],
              [0, 42.68544],
              [0.008333, 42.68693],
              [0.11194400000011, 42.709442],
              [0.14417, 42.722221],
              [0.172222, 42.73333],
              [0.178611, 42.735275],
              [0.186389, 42.734718],
              [0.26194400000014, 42.717499],
              [0.26972200000011, 42.707771],
              [0.2725, 42.702499],
              [0.43278, 42.686661],
              [0.50166700000011, 42.69138],
              [0.509167, 42.69194],
              [0.56, 42.695831],
              [0.59556, 42.695],
              [0.661667, 42.69194],
              [0.675506, 42.688484],
              [0.68000000000012, 42.693329],
              [0.683056, 42.70805],
              [0.683889, 42.713051],
              [0.68138900000014, 42.729439],
              [0.668056, 42.748055],
              [0.65555500000011, 42.754166],
              [0.651944, 42.784996],
              [0.66778, 42.839165],
              [0.692778, 42.853607],
              [0.712222, 42.858604],
              [0.72, 42.859161],
              [0.82361100000014, 42.833054],
              [0.896944, 42.813049],
              [1.085, 42.785271],
              [1.091666, 42.78444],
              [1.121111, 42.768608],
              [1.1322220000001, 42.760826],
              [1.1400000000001, 42.753052],
              [1.1408330000001, 42.741661],
              [1.1377780000001, 42.736938],
              [1.1408330000001, 42.731941],
              [1.144722, 42.727776],
              [1.150833, 42.72361],
              [1.17389, 42.709717],
              [1.321666, 42.714996],
              [1.328333, 42.719994],
              [1.3591670000001, 42.715271],
              [1.3902780000001, 42.688332],
              [1.41722, 42.65083],
              [1.4458330000001, 42.601944],
              [1.43444, 42.576385],
              [1.42139, 42.54583],
              [1.424166, 42.493332],
              [1.448333, 42.45083],
              [1.454722, 42.44167],
              [1.5122220000001, 42.436386],
              [1.53333, 42.436104],
              [1.54167, 42.43722],
              [1.65444, 42.467773],
              [1.661111, 42.471382],
              [1.7188890000001, 42.503052],
              [1.723611, 42.50944],
              [1.78, 42.488327],
              [1.851389, 42.469994],
              [1.9063890000001, 42.446938],
              [1.959167, 42.41083],
              [1.968889, 42.384163],
              [1.9766660000001, 42.374718],
              [1.9877780000001, 42.367775],
              [2.0047220000001, 42.357216],
              [2.017222, 42.35305],
              [2.0238890000001, 42.352219],
              [2.062222, 42.356941],
              [2.093611, 42.364166],
              [2.116944, 42.383331],
              [2.1230550000001, 42.393326],
              [2.124166, 42.39833],
              [2.1291670000001, 42.408051],
              [2.137777, 42.417221],
              [2.151389, 42.421387],
              [2.2625, 42.436661],
              [2.269166, 42.43722],
              [2.280534, 42.434288],
              [2.332222, 42.418053],
              [2.438889, 42.380554],
              [2.442778, 42.376389],
              [2.46972, 42.353333],
              [2.484722, 42.343048],
              [2.525833, 42.333328],
              [2.54194, 42.332497],
              [2.666389, 42.341942],
              [2.6744440000001, 42.357216],
              [2.656944, 42.37944],
              [2.65722, 42.38444],
              [2.678333, 42.401665],
              [2.724722, 42.419441],
              [2.95, 42.48055],
              [3.045278, 42.474716],
              [3.0477780000001, 42.469719],
              [3.0494440000001, 42.459717],
              [3.075833, 42.439438],
              [3.092222, 42.429993],
              [3.106111, 42.429161],
              [3.1583330000001, 42.433327],
              [3.1711110000001, 42.435555],
              [3.1776550000001, 42.436806],
              [3.169167, 42.426109],
              [3.1591660000001, 42.3825],
              [3.1591660000001, 42.378883],
              [3.1661110000001, 42.361938],
              [3.170833, 42.357498],
              [3.189444, 42.344994],
              [3.193889, 42.342216],
              [3.198333, 42.34083],
              [3.2025, 42.342499],
              [3.2025, 42.346107],
              [3.206666, 42.348328],
              [3.218055, 42.349442],
              [3.234167, 42.349716],
              [3.266388, 42.344444],
              [3.279722, 42.339439],
              [3.317222, 42.324997],
              [3.319167, 42.32139],
              [3.317778, 42.317772],
              [3.286666, 42.267776],
              [3.279722, 42.258049],
              [3.266388, 42.243332],
              [3.262777, 42.240829],
              [3.218611, 42.232498],
              [3.208889, 42.234993],
              [3.1966660000001, 42.24139],
              [3.185, 42.251938],
              [3.1822220000001, 42.255829],
              [3.178333, 42.259163],
              [3.164444, 42.263054],
              [3.158611, 42.262497],
              [3.153611, 42.261383],
              [3.142222, 42.253609],
              [3.119722, 42.22888],
              [3.1163890000001, 42.221382],
              [3.11444, 42.214165],
              [3.1108330000001, 42.196663],
              [3.110278, 42.19221],
              [3.11444, 42.151939],
              [3.119722, 42.13694],
              [3.133889, 42.118332],
              [3.14333, 42.115829],
              [3.148056, 42.116661],
              [3.162222, 42.115555],
              [3.1669440000001, 42.114441],
              [3.179444, 42.107216],
              [3.185, 42.1011],
              [3.208889, 42.071938],
              [3.21333, 42.061104],
              [3.220555, 41.94694],
              [3.2016660000001, 41.892776],
              [3.175278, 41.867493],
              [3.123611, 41.84861],
              [3.011944, 41.773048],
              [2.946389, 41.724716],
              [2.939444, 41.719994],
              [2.9319440000001, 41.71583],
              [2.7175, 41.627495],
              [2.676666, 41.612778],
              [2.605833, 41.590828],
              [2.5577770000001, 41.577217],
              [2.53778, 41.57027],
              [2.273056, 41.463333],
              [2.261111, 41.456383],
              [2.253889, 41.449997],
              [2.248888, 41.444717],
              [2.24278, 41.437492],
              [2.16472, 41.342499],
              [2.153055, 41.315277],
              [2.149444, 41.308609],
              [2.1238880000001, 41.29277],
              [2.11083, 41.285828],
              [2.07833, 41.275276],
              [2.054166, 41.26861],
              [2.0169440000001, 41.263054],
              [2.0075, 41.263054],
              [1.998055, 41.263329],
              [1.89, 41.251106],
              [1.76167, 41.218605],
              [1.701389, 41.205551],
              [1.6758330000001, 41.20166],
              [1.651389, 41.199165],
              [1.616389, 41.195831],
              [1.531944, 41.184998],
              [1.498333, 41.178604],
              [1.3225, 41.12944],
              [1.205, 41.101387],
              [1.039444, 41.062492],
              [0.993055, 41.04805],
              [0.964444, 41.032776],
              [0.94333, 41.016663],
              [0.936389, 41.0075],
              [0.92472, 40.991104],
              [0.905555, 40.984993],
              [0.893333, 40.975555],
              [0.704167, 40.813049],
              [0.70028, 40.80555],
              [0.699444, 40.801941],
              [0.698889, 40.798332],
              [0.7, 40.794716],
              [0.713055, 40.783333],
              [0.723055, 40.775833],
              [0.73805, 40.766388],
              [0.83861100000013, 40.73027],
              [0.8575, 40.728607],
              [0.867222, 40.731384],
              [0.87333300000012, 40.7336],
              [0.88861, 40.73055],
              [0.895, 40.728333],
              [0.9, 40.724442],
              [0.90277800000013, 40.719719],
              [0.885278, 40.702774],
              [0.864167, 40.684441],
              [0.85167, 40.676109],
              [0.689722, 40.571663],
              [0.671111, 40.564163],
              [0.6575, 40.561386],
              [0.64333, 40.560272],
              [0.629444, 40.563332],
              [0.623055, 40.565552],
              [0.60722, 40.575829],
              [0.60805, 40.580551],
              [0.615, 40.593605],
              [0.621667, 40.59166],
              [0.6275, 40.588882],
              [0.634444, 40.589439],
              [0.709167, 40.59583],
              [0.73805, 40.639717],
              [0.73139, 40.64027],
              [0.696667, 40.637497],
              [0.616667, 40.626389],
              [0.60361100000011, 40.623604],
              [0.58917, 40.61278],
              [0.541944, 40.56916],
              [0.51917, 40.533882],
              [0.5189390000001, 40.52874],
              [0.458333, 40.44722],
              [0.358333, 40.30305],
              [0.354444, 40.298607],
              [0.280556, 40.23666],
              [0.213056, 40.183601],
              [0.048889, 40.036102],
              [0.04611100000011, 40.03138],
              [0.032778, 40.007767],
              [-0.03722, 39.893326],
              [-0.08444, 39.85139],
              [-0.10722, 39.82861],
              [-0.115833, 39.818604],
              [-0.179167, 39.736107],
              [-0.31472, 39.519722],
              [-0.32056, 39.509995],
              [-0.326111, 39.49472],
              [-0.337222, 39.440552],
              [-0.338056, 39.435555],
              [-0.24111, 39.143883],
              [-0.195, 39.053604],
              [-0.1825, 39.02916],
              [-0.14333, 38.978333],
              [-0.09222, 38.929718],
              [-0.07, 38.908882],
              [-0.06, 38.901108],
              [-0.04917, 38.894165],
              [-0.033063, 38.884254],
              [0.008889, 38.862213],
              [0.029167, 38.857208],
              [0.048611, 38.858879],
              [0.055, 38.861099],
              [0.061389000000133, 38.861656],
              [0.06778, 38.860268],
              [0.086389, 38.854988],
              [0.14777800000013, 38.828323],
              [0.195556, 38.805824],
              [0.201389, 38.801659],
              [0.215278, 38.758041],
              [0.207222, 38.73221],
              [0.164167, 38.697487],
              [0.14417, 38.684708],
              [0.041667, 38.638046],
              [-0.006667, 38.62861],
              [-0.0175, 38.622498],
              [-0.05028, 38.595551],
              [-0.055278, 38.59111],
              [-0.138611, 38.53805],
              [-0.15167, 38.53583],
              [-0.288611, 38.486382],
              [-0.30056, 38.481667],
              [-0.31722, 38.473053],
              [-0.322778, 38.46999],
              [-0.37194, 38.441666],
              [-0.38667, 38.430832],
              [-0.51167, 38.324997],
              [-0.600278, 38.185272],
              [-0.656667, 38.046944],
              [-0.749167, 37.89222],
              [-0.75194, 37.887215],
              [-0.75944, 37.861938],
              [-0.760556, 37.856941],
              [-0.76102, 37.845955],
              [-0.80139, 37.801384],
              [-0.84194, 37.748886],
              [-0.858333, 37.72166],
              [-0.86, 37.71666],
              [-0.8575, 37.711937],
              [-0.81417, 37.664719],
              [-0.804722, 37.657219],
              [-0.786945, 37.647774],
              [-0.74083, 37.630272],
              [-0.73472, 37.62944],
              [-0.721944, 37.635826],
              [-0.71833, 37.640549],
              [-0.71833, 37.645554],
              [-0.710278, 37.643883],
              [-0.69667, 37.6325],
              [-0.70833, 37.616386],
              [-0.715556, 37.606941],
              [-0.73139, 37.5975],
              [-0.744167, 37.593887],
              [-0.915, 37.552216],
              [-0.92167, 37.551384],
              [-0.9525, 37.555832],
              [-0.976111, 37.572777],
              [-0.97972, 37.576942],
              [-1.048333, 37.579163],
              [-1.23861, 37.575272],
              [-1.3275, 37.558052],
              [-1.350833, 37.549438],
              [-1.44278, 37.494438],
              [-1.45389, 37.48749],
              [-1.46278, 37.479164],
              [-1.471945, 37.465553],
              [-1.48389, 37.44111],
              [-1.48556, 37.436104],
              [-1.50944, 37.421944],
              [-1.56778, 37.399719],
              [-1.633415, 37.376862],
              [-1.64361, 37.372772],
              [-1.678889, 37.349442],
              [-1.68917, 37.3425],
              [-1.791111, 37.232216],
              [-1.79806, 37.22277],
              [-1.80917, 37.202499],
              [-1.81167, 37.196388],
              [-1.81611, 37.181389],
              [-1.82361, 37.150833],
              [-1.825556, 37.130554],
              [-1.82778, 37.11944],
              [-1.846667, 37.08194],
              [-1.902222, 36.972221],
              [-1.928889, 36.93972],
              [-1.93528, 36.938889],
              [-1.98639, 36.895828],
              [-1.998889, 36.88416],
              [-2.058333, 36.810555],
              [-2.059167, 36.80555],
              [-2.05889, 36.789719],
              [-2.06, 36.779442],
              [-2.06361, 36.774994],
              [-2.116667, 36.73555],
              [-2.129167, 36.731384],
              [-2.1875, 36.716385],
              [-2.19667, 36.72444],
              [-2.217223, 36.745552],
              [-2.23111, 36.764442],
              [-2.281389, 36.82],
              [-2.28667, 36.823608],
              [-2.29861, 36.829437],
              [-2.34389, 36.840271],
              [-2.350278, 36.84083],
              [-2.481945, 36.829994],
              [-2.55528, 36.81472],
              [-2.56056, 36.811386],
              [-2.578333, 36.79305],
              [-2.590278, 36.779999],
              [-2.59556, 36.769722],
              [-2.59722, 36.764717],
              [-2.60056, 36.752777],
              [-2.6, 36.747215],
              [-2.60556, 36.736938],
              [-2.616667, 36.722221],
              [-2.63944, 36.701111],
              [-2.650278, 36.69444],
              [-2.6925, 36.685272],
              [-2.7225, 36.681664],
              [-2.768889, 36.678329],
              [-2.859445, 36.69527],
              [-2.87417, 36.705276],
              [-2.878889, 36.710274],
              [-2.881389, 36.715553],
              [-2.888056, 36.724716],
              [-2.89611, 36.733604],
              [-2.91806, 36.744995],
              [-2.928889, 36.749718],
              [-3.125, 36.750275],
              [-3.230834, 36.748055],
              [-3.25917, 36.746941],
              [-3.3275, 36.739716],
              [-3.34639, 36.734718],
              [-3.35556, 36.726944],
              [-3.36, 36.721939],
              [-3.36056, 36.716942],
              [-3.36361, 36.712219],
              [-3.418334, 36.69444],
              [-3.43278, 36.692772],
              [-3.452778, 36.691666],
              [-3.467223, 36.69221],
              [-3.47972, 36.69444],
              [-3.486667, 36.696663],
              [-3.529445, 36.715828],
              [-3.59528, 36.746941],
              [-3.607778, 36.745827],
              [-3.63972, 36.740555],
              [-3.66944, 36.733604],
              [-3.67556, 36.730553],
              [-3.69444, 36.728333],
              [-3.72556, 36.72861],
              [-3.78556, 36.742493],
              [-3.81639, 36.75],
              [-3.84889, 36.752495],
              [-4.024723, 36.741386],
              [-4.17049, 36.719864],
              [-4.23972, 36.713333],
              [-4.32167, 36.710548],
              [-4.327778, 36.710548],
              [-4.35972, 36.7175],
              [-4.39167, 36.723053],
              [-4.398334, 36.722221],
              [-4.40472, 36.720276],
              [-4.43417, 36.69944],
              [-4.43694, 36.694717],
              [-4.46194, 36.65583],
              [-4.485278, 36.62221],
              [-4.495001, 36.60833],
              [-4.633056, 36.510551],
              [-4.646389, 36.506104],
              [-4.70833, 36.488609],
              [-4.714723, 36.487778],
              [-4.754168, 36.485832],
              [-4.76139, 36.48555],
              [-4.781667, 36.487221],
              [-4.794168, 36.490273],
              [-4.81361, 36.496384],
              [-4.832223, 36.498886],
              [-4.852501, 36.500832],
              [-4.87806, 36.500832],
              [-4.91389, 36.498886],
              [-4.940001, 36.491661],
              [-5.07361, 36.448883],
              [-5.086667, 36.44416],
              [-5.16528, 36.415276],
              [-5.171945, 36.412773],
              [-5.176667, 36.409721],
              [-5.219167, 36.370552],
              [-5.311389, 36.233604],
              [-5.31361, 36.228607],
              [-5.326112, 36.19749],
              [-5.33333, 36.171944],
              [-5.334508, 36.16256],
              [-5.355799, 36.163307],
              [-5.38139, 36.178329],
              [-5.395278, 36.179443],
              [-5.41611, 36.17889],
              [-5.4225, 36.177773],
              [-5.431667, 36.169167],
              [-5.44528, 36.143883],
              [-5.44389, 36.133606],
              [-5.431667, 36.083885],
              [-5.42194, 36.075829],
              [-5.42528, 36.070831],
              [-5.44889, 36.05222],
              [-5.61361, 36.006104],
              [-5.79722, 36.073883],
              [-5.807222, 36.08055],
              [-5.81111, 36.085],
              [-5.822223, 36.098328],
              [-5.82917, 36.107773],
              [-5.83639, 36.116386],
              [-5.84028, 36.12083],
              [-5.854167, 36.134995],
              [-5.87944, 36.16055],
              [-5.88417, 36.16416],
              [-5.91139, 36.179161],
              [-5.91833, 36.181107],
              [-6.025556, 36.184441],
              [-6.03267, 36.181156],
              [-6.0375, 36.180275],
              [-6.050834, 36.19194],
              [-6.158334, 36.305275],
              [-6.22694, 36.404716],
              [-6.26139, 36.469994],
              [-6.26306, 36.481667],
              [-6.24972, 36.46833],
              [-6.239722, 36.461937],
              [-6.233334, 36.461388],
              [-6.22611, 36.463608],
              [-6.22, 36.466942],
              [-6.21528, 36.470833],
              [-6.172778, 36.512215],
              [-6.17667, 36.516663],
              [-6.230834, 36.574997],
              [-6.238056, 36.581383],
              [-6.2975, 36.613884],
              [-6.33722, 36.620552],
              [-6.361945, 36.61639],
              [-6.36833, 36.616943],
              [-6.38667, 36.623886],
              [-6.3925, 36.626389],
              [-6.40083, 36.634163],
              [-6.427501, 36.68278],
              [-6.432501, 36.69221],
              [-6.435, 36.69722],
              [-6.44361, 36.718887],
              [-6.441668, 36.739441],
              [-6.437222, 36.743607],
              [-6.35556, 36.860832],
              [-6.578889, 37.01944],
              [-6.725834, 37.091942],
              [-6.904723, 37.16555],
              [-6.95992, 37.221836],
              [-6.978722, 37.212608],
              [-6.97223, 37.17775],
              [-6.99684, 37.19107],
              [-7.053334, 37.213051],
              [-7.080278, 37.217499],
              [-7.12722, 37.220551],
              [-7.17333, 37.217216],
              [-7.258612, 37.208054],
              [-7.28472, 37.204994],
              [-7.32556, 37.19722],
              [-7.34056, 37.188889],
              [-7.339445, 37.183609],
              [-7.344445, 37.179718],
              [-7.35639, 37.175827],
              [-7.384167, 37.169716],
              [-7.39861, 37.180832],
              [-7.40944, 37.20166],
              [-7.43185, 37.253189],
              [-7.43472, 37.366943],
              [-7.44722, 37.41861],
              [-7.46139, 37.457222],
              [-7.47139, 37.481384],
              [-7.48472, 37.498886],
              [-7.503056, 37.522499],
              [-7.512534, 37.528549],
              [-7.524445, 37.552498],
              [-7.446945, 37.69944],
              [-7.42306, 37.743889],
              [-7.394723, 37.764999],
              [-7.379168, 37.77444],
              [-7.320001, 37.815277],
              [-7.285, 37.860275],
              [-7.27833, 37.87083],
              [-7.25361, 37.928329],
              [-7.25194, 37.933609],
              [-7.25194, 37.959442],
              [-7.25472, 37.974716],
              [-7.259445, 37.981667],
              [-7.25444, 37.987495],
              [-7.24556, 37.990829],
              [-7.21083, 37.996941],
              [-7.12361, 38.009995],
              [-7.006667, 38.028053],
              [-7.00139, 38.034164],
              [-6.95167, 38.14],
              [-6.94389, 38.162773],
              [-6.939167, 38.17805],
              [-6.93375, 38.209068],
              [-6.94056, 38.217773],
              [-6.947779, 38.21833],
              [-6.96139, 38.21583],
              [-6.993334, 38.209442],
              [-7.01028, 38.200554],
              [-7.01167, 38.195549],
              [-7.01694, 38.191666],
              [-7.02833, 38.187492],
              [-7.081112, 38.17472],
              [-7.08778, 38.174438],
              [-7.10111, 38.184166],
              [-7.10222, 38.189163],
              [-7.13, 38.22583],
              [-7.145, 38.246109],
              [-7.16972, 38.284439],
              [-7.192223, 38.320274],
              [-7.274445, 38.41666],
              [-7.280834, 38.422218],
              [-7.28889, 38.426941],
              [-7.304167, 38.435829],
              [-7.313056, 38.439995],
              [-7.32111, 38.44944],
              [-7.267222, 38.703331],
              [-7.265556, 38.708328],
              [-7.260279, 38.723053],
              [-7.257223, 38.728333],
              [-7.24556, 38.73389],
              [-7.207355, 38.749268],
              [-7.16417, 38.781944],
              [-7.084167, 38.835548],
              [-7.06, 38.86055],
              [-6.956944, 39.019997],
              [-6.95479, 39.026382],
              [-6.961112, 39.056664],
              [-6.98278, 39.09138],
              [-7.005, 39.107216],
              [-7.02139, 39.11639],
              [-7.040278, 39.122772],
              [-7.05056, 39.124161],
              [-7.05667, 39.11805],
              [-7.065556, 39.114716],
              [-7.10278, 39.104721],
              [-7.115834, 39.104164],
              [-7.13389, 39.108604],
              [-7.1425, 39.111107],
              [-7.149167, 39.116661],
              [-7.24278, 39.213051],
              [-7.31361, 39.344719],
              [-7.32278, 39.388329],
              [-7.371389, 39.491386],
              [-7.38, 39.496109],
              [-7.499722, 39.599716],
              [-7.505834, 39.605827],
              [-7.523056, 39.633331],
              [-7.526945, 39.64],
              [-7.5325, 39.669418],
              [-7.41472, 39.649162],
              [-7.4075, 39.64833],
              [-7.3375, 39.643883],
              [-7.33083, 39.644722],
              [-7.32556, 39.648605],
              [-7.307222, 39.656662],
              [-7.266945, 39.671944],
              [-7.260279, 39.672218],
              [-7.205556, 39.66722],
              [-7.166112, 39.661942],
              [-7.1525, 39.658882],
              [-7.146111, 39.658607],
              [-7.05763, 39.662254],
              [-7.04812, 39.665253],
              [-7.01722, 39.674995],
              [-6.989722, 39.724716],
              [-6.87083, 40.01028],
              [-6.87056, 40.02166],
              [-6.8825, 40.044167],
              [-6.928889, 40.101662],
              [-6.93472, 40.1075],
              [-6.9425, 40.112778],
              [-6.95056, 40.11666],
              [-6.96, 40.115829],
              [-6.97806, 40.117775],
              [-6.98722, 40.120552],
              [-7.004723, 40.126106],
              [-7.013056, 40.139442],
              [-7.02722, 40.18777],
              [-7.01083, 40.222771],
              [-7.005834, 40.23083],
              [-6.946526, 40.25898],
              [-6.91028, 40.256386],
              [-6.88278, 40.260277],
              [-6.873889, 40.263329],
              [-6.862303, 40.271523],
              [-6.83111, 40.317215],
              [-6.815556, 40.38777],
              [-6.79611, 40.52444],
              [-6.81944, 40.73333],
              [-6.801667, 40.848885],
              [-6.79972, 40.85611],
              [-6.803889, 40.874161],
              [-6.85722, 40.947495],
              [-6.865556, 40.956383],
              [-6.87167, 40.95916],
              [-6.891389, 40.974716],
              [-6.92944, 41.013054],
              [-6.931667, 41.018051],
              [-6.92441, 41.03096],
              [-6.848333, 41.02861],
              [-6.835, 41.031662],
              [-6.805556, 41.045555],
              [-6.780278, 41.063606],
              [-6.768612, 41.07777],
              [-6.75444, 41.102493],
              [-6.75417, 41.112495],
              [-6.75333, 41.136665],
              [-6.690556, 41.208054],
              [-6.686389, 41.212494],
              [-6.64389, 41.24472],
              [-6.618056, 41.246384],
              [-6.59833, 41.244164],
              [-6.58, 41.239716],
              [-6.558333, 41.242218],
              [-6.51028, 41.265],
              [-6.43806, 41.318886],
              [-6.357779, 41.380554],
              [-6.29583, 41.436104],
              [-6.217501, 41.529442],
              [-6.210556, 41.538887],
              [-6.203611, 41.548332],
              [-6.191389, 41.569717],
              [-6.18875, 41.576057],
              [-6.18722, 41.57972],
              [-6.19444, 41.593048],
              [-6.25222, 41.637772],
              [-6.26, 41.643051],
              [-6.303612, 41.66333],
              [-6.34722, 41.67222],
              [-6.42472, 41.679718],
              [-6.434167, 41.680275],
              [-6.452778, 41.67472],
              [-6.469167, 41.666664],
              [-6.4975, 41.65749],
              [-6.50611, 41.661385],
              [-6.539445, 41.679443],
              [-6.55139, 41.691109],
              [-6.55222, 41.698051],
              [-6.547501, 41.764999],
              [-6.52806, 41.839439],
              [-6.548612, 41.921944],
              [-6.594167, 41.95361],
              [-6.6025, 41.94888],
              [-6.618334, 41.940552],
              [-6.6875, 41.936661],
              [-6.696945, 41.936661],
              [-6.71694, 41.936661],
              [-6.90611, 41.944717],
              [-6.93611, 41.94944],
              [-6.94472, 41.952774],
              [-6.982848, 41.973862],
              [-7.003056, 41.956665],
              [-7.01444, 41.952499],
              [-7.05611, 41.95111],
              [-7.06306, 41.951385],
              [-7.0775, 41.957497],
              [-7.08167, 41.961388],
              [-7.081112, 41.966385],
              [-7.092501, 41.98027],
              [-7.10528, 41.986938],
              [-7.12556, 41.99305],
              [-7.13361, 41.994995],
              [-7.14, 41.994164],
              [-7.18278, 41.979439],
              [-7.187222, 41.975273],
              [-7.183056, 41.93777],
              [-7.17472, 41.928055],
              [-7.17361, 41.922775],
              [-7.18694, 41.898331],
              [-7.200556, 41.88361],
              [-7.207348, 41.883835],
              [-7.26833, 41.863609],
              [-7.331112, 41.84499],
              [-7.41056, 41.823326],
              [-7.426667, 41.82222],
              [-7.607779, 41.83111],
              [-7.611945, 41.834999],
              [-7.609167, 41.845551],
              [-7.59806, 41.865273],
              [-7.686389, 41.903053],
              [-7.6925, 41.904999],
              [-7.70583, 41.904442],
              [-7.759445, 41.8975],
              [-7.84917, 41.864441],
              [-7.866945, 41.85555],
              [-7.873334, 41.85249],
              [-7.88, 41.852776],
              [-7.921112, 41.880829],
              [-7.93222, 41.874718],
              [-8.035278, 41.827217],
              [-8.055065, 41.81952],
              [-8.067501, 41.815277],
              [-8.08778, 41.809441],
              [-8.13167, 41.809166],
              [-8.140556, 41.809166],
              [-8.163807, 41.817184],
              [-8.16167, 41.8275],
              [-8.16, 41.842773],
              [-8.16111, 41.857498],
              [-8.16528, 41.86305],
              [-8.175556, 41.871109],
              [-8.181114, 41.872498],
              [-8.187778, 41.873886],
              [-8.201117, 41.872498],
              [-8.20472, 41.874718],
              [-8.217779, 41.903885],
              [-8.219168, 41.90861],
              [-8.218613, 41.9136],
              [-8.212778, 41.92388],
              [-8.20472, 41.933609],
              [-8.16528, 41.974442],
              [-8.134724, 41.99889],
              [-8.10889, 42.008606],
              [-8.09556, 42.013329],
              [-8.08944, 42.01639],
              [-8.085, 42.020271],
              [-8.0825, 42.025276],
              [-8.08167, 42.03],
              [-8.079723, 42.054161],
              [-8.085556, 42.06472],
              [-8.09, 42.068886],
              [-8.19444, 42.1486],
              [-8.201223, 42.15274],
              [-8.25194, 42.13861],
              [-8.31056, 42.103607],
              [-8.44611, 42.084717],
              [-8.47361, 42.084717],
              [-8.51472, 42.083328],
              [-8.521389, 42.082771],
              [-8.606945, 42.059166],
              [-8.62083, 42.053604],
              [-8.64, 42.045273],
              [-8.73861, 41.971382],
              [-8.743057, 41.96666],
              [-8.74445, 41.961937],
              [-8.74501, 41.952499],
              [-8.757223, 41.940552],
              [-8.77278, 41.929443],
              [-8.78389, 41.922775],
              [-8.816443, 41.920189],
              [-8.84804, 41.899582],
              [-8.86528, 41.87555],
              [-8.871946, 41.875832],
              [-8.881668, 41.883331],
              [-8.88833, 41.933609],
              [-8.898613, 42.108055],
              [-8.89639, 42.11305],
              [-8.81083, 42.186943],
              [-8.77389, 42.213108],
              [-8.75889, 42.21944],
              [-8.722778, 42.240273],
              [-8.64417, 42.28833],
              [-8.58, 42.346382],
              [-8.57972, 42.351662],
              [-8.6, 42.353607],
              [-8.61972, 42.349998],
              [-8.632223, 42.340553],
              [-8.653057, 42.319717],
              [-8.656389, 42.314995],
              [-8.65806, 42.30971],
              [-8.65, 42.301384],
              [-8.649723, 42.29583],
              [-8.65472, 42.292221],
              [-8.683613, 42.279716],
              [-8.76083, 42.259163],
              [-8.79411, 42.253384],
              [-8.85722, 42.247772],
              [-8.86389, 42.248055],
              [-8.869167, 42.251389],
              [-8.85278, 42.2961],
              [-8.821945, 42.328331],
              [-8.793612, 42.337776],
              [-8.69222, 42.400833],
              [-8.67195, 42.414444],
              [-8.65611, 42.427773],
              [-8.689167, 42.439438],
              [-8.70306, 42.435829],
              [-8.742224, 42.416664],
              [-8.751667, 42.408607],
              [-8.775167, 42.399994],
              [-8.777168, 42.39716],
              [-8.784667, 42.395332],
              [-8.84083, 42.391388],
              [-8.879168, 42.419441],
              [-8.88194, 42.423882],
              [-8.908335, 42.467499],
              [-8.90389, 42.48277],
              [-8.89139, 42.496666],
              [-8.88611, 42.50027],
              [-8.871668, 42.500832],
              [-8.86444, 42.499718],
              [-8.85889, 42.49638],
              [-8.85639, 42.491661],
              [-8.855001, 42.486664],
              [-8.856668, 42.478882],
              [-8.85806, 42.473885],
              [-8.864723, 42.471382],
              [-8.870001, 42.46833],
              [-8.872501, 42.46333],
              [-8.86945, 42.453606],
              [-8.862501, 42.453888],
              [-8.836113, 42.46194],
              [-8.81444, 42.491661],
              [-8.80972, 42.51944],
              [-8.825556, 42.535828],
              [-8.833612, 42.550278],
              [-8.834167, 42.555275],
              [-8.827778, 42.574715],
              [-8.8225, 42.578331],
              [-8.81583, 42.576942],
              [-8.81056, 42.573883],
              [-8.80444, 42.576111],
              [-8.77889, 42.596107],
              [-8.74695, 42.638054],
              [-8.71972, 42.675278],
              [-8.719446, 42.695831],
              [-8.72155, 42.701149],
              [-8.85139, 42.66111],
              [-8.91833, 42.628326],
              [-8.92333, 42.625275],
              [-8.935, 42.61055],
              [-8.93639, 42.604721],
              [-8.93528, 42.599998],
              [-8.943056, 42.586105],
              [-8.99556, 42.532494],
              [-9.016945, 42.52138],
              [-9.02333, 42.521111],
              [-9.03583, 42.525276],
              [-9.04139, 42.528885],
              [-9.06139, 42.57944],
              [-9.056667, 42.609993],
              [-9.03472, 42.67083],
              [-9.024723, 42.69444],
              [-9.020279, 42.70472],
              [-9.00639, 42.720833],
              [-8.92, 42.784721],
              [-8.911667, 42.79333],
              [-9.00861, 42.776382],
              [-9.08667, 42.740273],
              [-9.10583, 42.75249],
              [-9.12333, 42.768883],
              [-9.140278, 42.794998],
              [-9.13593, 42.799164],
              [-9.12667, 42.802498],
              [-9.12444, 42.839996],
              [-9.14389, 42.893326],
              [-9.16278, 42.925827],
              [-9.185001, 42.9525],
              [-9.19139, 42.949997],
              [-9.257223, 42.915833],
              [-9.270557, 42.911659],
              [-9.293335, 42.922493],
              [-9.259167, 43.04722],
              [-9.209446, 43.152771],
              [-9.206945, 43.15749],
              [-9.16972, 43.185829],
              [-9.145279, 43.193054],
              [-9.13194, 43.196663],
              [-9.125557, 43.197495],
              [-9.089445, 43.190552],
              [-9.03528, 43.203888],
              [-8.952223, 43.23055],
              [-8.93583, 43.239441],
              [-8.979168, 43.270828],
              [-8.981668, 43.27611],
              [-8.980278, 43.28139],
              [-8.96889, 43.28611],
              [-8.95028, 43.29361],
              [-8.87639, 43.319717],
              [-8.824446, 43.327217],
              [-8.78278, 43.303055],
              [-8.72417, 43.291107],
              [-8.70139, 43.287216],
              [-8.68944, 43.292221],
              [-8.6575, 43.303329],
              [-8.40556, 43.38472],
              [-8.329723, 43.403885],
              [-8.265556, 43.55277],
              [-8.006668, 43.703888],
              [-7.898056, 43.76416],
              [-7.865834, 43.772217],
              [-7.85611, 43.765],
              [-7.85556, 43.759995]
            ]
          ]
        ]
      }
    }
  ]
}
