{
  "type": "FeatureCollection",
  "features": [
    {
      "type": "Feature",
      "properties": { "cca2": "gg" },
      "geometry": {
        "type": "Polygon",
        "coordinates": [
          [
            [-2.59083, 49.422493],
            [-2.59722, 49.422493],
            [-2.654445, 49.425827],
            [-2.66583, 49.428055],
            [-2.66917, 49.43055],
            [-2.670278, 49.434166],
            [-2.66917, 49.438332],
            [-2.656111, 49.456665],
            [-2.65222, 49.458885],
            [-2.57917, 49.490829],
            [-2.539167, 49.5075],
            [-2.53389, 49.508888],
            [-2.501667, 49.507774],
            [-2.50028, 49.5],
            [-2.52667, 49.427498],
            [-2.53028, 49.425278],
            [-2.55556, 49.423332],
            [-2.59083, 49.422493]
          ]
        ]
      }
    }
  ]
}
