{
  "type": "FeatureCollection",
  "features": [
    {
      "type": "Feature",
      "properties": { "cca2": "gw" },
      "geometry": {
        "type": "MultiPolygon",
        "coordinates": [
          [
            [
              [-15.88583, 11.052221],
              [-15.92556, 11.04305],
              [-15.97556, 11.048332],
              [-15.98111, 11.049444],
              [-15.98306, 11.061943],
              [-15.96134, 11.100753],
              [-15.94442, 11.12982],
              [-15.95752, 11.15126],
              [-15.960556, 11.17861],
              [-15.9525, 11.191387],
              [-15.94639, 11.195],
              [-15.934446, 11.19361],
              [-15.914446, 11.171665],
              [-15.89917, 11.144722],
              [-15.879723, 11.083611],
              [-15.878056, 11.07805],
              [-15.877501, 11.07139],
              [-15.879168, 11.059444],
              [-15.88194, 11.055277],
              [-15.88583, 11.052221]
            ]
          ],
          [
            [
              [-16.00584, 11.068333],
              [-16.01083, 11.06611],
              [-16.01722, 11.066666],
              [-16.02084, 11.069721],
              [-16.03306, 11.094166],
              [-16.06195, 11.156944],
              [-16.06139, 11.163055],
              [-16.053059, 11.175278],
              [-16.04639, 11.182499],
              [-16.03806, 11.18833],
              [-16.033337, 11.190554],
              [-16.016113, 11.197498],
              [-15.98611, 11.202221],
              [-15.98056, 11.202499],
              [-15.97695, 11.19916],
              [-15.975, 11.195276],
              [-15.97361, 11.189722],
              [-15.968889, 11.134165],
              [-15.96917, 11.128054],
              [-15.97417, 11.1125],
              [-16.00194, 11.07139],
              [-16.00584, 11.068333]
            ]
          ],
          [
            [
              [-16.08806, 11.025555],
              [-16.15472, 11.024721],
              [-16.16056, 11.02583],
              [-16.18417, 11.035],
              [-16.19278, 11.039999],
              [-16.21389, 11.05361],
              [-16.217503, 11.05694],
              [-16.23445, 11.07472],
              [-16.240559, 11.082777],
              [-16.24278, 11.0875],
              [-16.24417, 11.100555],
              [-16.242226, 11.105555],
              [-16.23639, 11.113333],
              [-16.16361, 11.166943],
              [-16.11056, 11.204443],
              [-16.0825, 11.206944],
              [-16.078056, 11.204443],
              [-16.05528, 11.190277],
              [-16.05278, 11.185555],
              [-16.06782, 11.16698],
              [-16.066395, 11.142443],
              [-16.05377, 11.128387],
              [-16.05139, 11.116714],
              [-16.05424, 11.0998],
              [-16.04861, 11.077499],
              [-16.04889, 11.07055],
              [-16.06, 11.03972],
              [-16.08195, 11.026388],
              [-16.08806, 11.025555]
            ]
          ],
          [
            [
              [-15.86222, 11.199999],
              [-15.87195, 11.195555],
              [-15.878056, 11.19611],
              [-15.8825, 11.19861],
              [-15.89417, 11.207777],
              [-15.90417, 11.220276],
              [-15.90639, 11.224998],
              [-15.88833, 11.261665],
              [-15.88583, 11.26583],
              [-15.86917, 11.290833],
              [-15.863335, 11.298611],
              [-15.85417, 11.3025],
              [-15.830278, 11.300833],
              [-15.82583, 11.298332],
              [-15.82083, 11.289444],
              [-15.821667, 11.283888],
              [-15.83583, 11.223888],
              [-15.86222, 11.199999]
            ]
          ],
          [
            [
              [-15.74, 11.166943],
              [-15.763056, 11.16389],
              [-15.76889, 11.164999],
              [-15.77167, 11.168888],
              [-15.77861, 11.197498],
              [-15.77639, 11.225832],
              [-15.75306, 11.269722],
              [-15.721668, 11.293055],
              [-15.71361, 11.29889],
              [-15.691389, 11.305277],
              [-15.687223, 11.305555],
              [-15.6675, 11.306389],
              [-15.66306, 11.303888],
              [-15.661112, 11.301943],
              [-15.65806, 11.29361],
              [-15.655556, 11.241388],
              [-15.655279, 11.234444],
              [-15.656946, 11.229721],
              [-15.65972, 11.22555],
              [-15.66389, 11.2225],
              [-15.74, 11.166943]
            ]
          ],
          [
            [
              [-16.17778, 11.215277],
              [-16.23917, 11.209721],
              [-16.245556, 11.21],
              [-16.28139, 11.22361],
              [-16.28445, 11.22611],
              [-16.278336, 11.247221],
              [-16.27639, 11.252222],
              [-16.264446, 11.28167],
              [-16.260559, 11.284443],
              [-16.228615, 11.30722],
              [-16.222225, 11.308332],
              [-16.208057, 11.304722],
              [-16.16611, 11.29222],
              [-16.16083, 11.290277],
              [-16.15806, 11.28639],
              [-16.145, 11.266943],
              [-16.14333, 11.26139],
              [-16.172501, 11.21666],
              [-16.17778, 11.215277]
            ]
          ],
          [
            [
              [-15.679724, 11.439444],
              [-15.71194, 11.434166],
              [-15.717501, 11.435276],
              [-15.74083, 11.453609],
              [-15.74306, 11.458332],
              [-15.74056, 11.4625],
              [-15.69833, 11.49333],
              [-15.69361, 11.495554],
              [-15.66583, 11.502222],
              [-15.66056, 11.50028],
              [-15.651112, 11.46],
              [-15.67445, 11.44111],
              [-15.679724, 11.439444]
            ]
          ],
          [
            [
              [-16.21278, 11.439722],
              [-16.24, 11.436388],
              [-16.29528, 11.440832],
              [-16.29889, 11.444166],
              [-16.300556, 11.449444],
              [-16.294445, 11.457499],
              [-16.24111, 11.501665],
              [-16.20917, 11.512777],
              [-16.20361, 11.514444],
              [-16.181393, 11.519722],
              [-16.175835, 11.52],
              [-16.16445, 11.515],
              [-16.16139, 11.510832],
              [-16.16167, 11.504721],
              [-16.16445, 11.485832],
              [-16.16639, 11.48111],
              [-16.16972, 11.477499],
              [-16.20389, 11.443609],
              [-16.208057, 11.440554],
              [-16.21278, 11.439722]
            ]
          ],
          [
            [
              [-16.250557, 11.53666],
              [-16.26833, 11.5],
              [-16.27917, 11.488333],
              [-16.31222, 11.477221],
              [-16.322781, 11.487778],
              [-16.32639, 11.49111],
              [-16.333614, 11.49778],
              [-16.338058, 11.50028],
              [-16.36861, 11.50778],
              [-16.38389, 11.500832],
              [-16.38806, 11.49778],
              [-16.39222, 11.488609],
              [-16.39584, 11.484999],
              [-16.406948, 11.481943],
              [-16.41389, 11.481667],
              [-16.419445, 11.482777],
              [-16.422501, 11.528055],
              [-16.42195, 11.532776],
              [-16.41806, 11.535831],
              [-16.39389, 11.545832],
              [-16.38806, 11.547499],
              [-16.27195, 11.576944],
              [-16.244724, 11.5775],
              [-16.24167, 11.57361],
              [-16.238892, 11.564722],
              [-16.245003, 11.549999],
              [-16.250557, 11.53666]
            ]
          ],
          [
            [
              [-15.9525, 11.423054],
              [-16.034725, 11.417221],
              [-16.065002, 11.44972],
              [-16.01472, 11.546944],
              [-15.98139, 11.57667],
              [-15.95833, 11.59417],
              [-15.917778, 11.585833],
              [-15.90556, 11.5775],
              [-15.90306, 11.54222],
              [-15.90972, 11.470276],
              [-15.915001, 11.44861],
              [-15.94139, 11.426109],
              [-15.94639, 11.423887],
              [-15.9525, 11.423054]
            ]
          ],
          [
            [
              [-15.55306, 11.517221],
              [-15.56944, 11.505554],
              [-15.575279, 11.506666],
              [-15.630001, 11.520277],
              [-15.6325, 11.530554],
              [-15.63361, 11.53528],
              [-15.595, 11.57194],
              [-15.53389, 11.608332],
              [-15.5, 11.624443],
              [-15.47583, 11.633055],
              [-15.47222, 11.631109],
              [-15.47083, 11.625555],
              [-15.47639, 11.610832],
              [-15.500834, 11.560276],
              [-15.545, 11.523333],
              [-15.55306, 11.517221]
            ]
          ],
          [
            [
              [-16.031948, 11.755833],
              [-16.08528, 11.753611],
              [-16.090836, 11.754721],
              [-16.09528, 11.75722],
              [-16.15389, 11.804165],
              [-16.1575, 11.807499],
              [-16.16, 11.812222],
              [-16.16556, 11.84083],
              [-16.16222, 11.86861],
              [-16.15917, 11.870832],
              [-16.153614, 11.8725],
              [-15.98389, 11.905554],
              [-15.97833, 11.90583],
              [-15.983334, 11.879999],
              [-15.985001, 11.873055],
              [-15.991945, 11.852777],
              [-16.025837, 11.763611],
              [-16.027779, 11.758888],
              [-16.031948, 11.755833]
            ]
          ],
          [
            [
              [-16.23639, 11.836943],
              [-16.261112, 11.833887],
              [-16.291946, 11.851387],
              [-16.31611, 11.890276],
              [-16.303337, 11.965277],
              [-16.30167, 11.971666],
              [-16.295002, 11.968054],
              [-16.250992, 11.918128],
              [-16.23067, 11.898361],
              [-16.184723, 11.876665],
              [-16.18195, 11.870832],
              [-16.216946, 11.842222],
              [-16.23, 11.837776],
              [-16.23639, 11.836943]
            ]
          ],
          [
            [
              [-14.51694, 12.679722],
              [-14.393057, 12.678888],
              [-14.34175, 12.678888],
              [-14.14583, 12.677776],
              [-14.128056, 12.676943],
              [-13.99861, 12.676109],
              [-13.8575, 12.67639],
              [-13.713139, 12.67722],
              [-13.718334, 12.642776],
              [-13.72083, 12.618332],
              [-13.72083, 12.59833],
              [-13.71667, 12.57444],
              [-13.712778, 12.56416],
              [-13.70583, 12.549999],
              [-13.69389, 12.533888],
              [-13.68056, 12.519165],
              [-13.65861, 12.499166],
              [-13.65222, 12.49194],
              [-13.6475, 12.482498],
              [-13.64417, 12.471388],
              [-13.643057, 12.458332],
              [-13.644724, 12.446665],
              [-13.666945, 12.323055],
              [-13.671667, 12.314165],
              [-13.69559, 12.292961],
              [-13.703611, 12.280554],
              [-13.73167, 12.258055],
              [-13.8, 12.25361],
              [-13.805557, 12.25361],
              [-13.811388, 12.25472],
              [-13.811388, 12.26028],
              [-13.808054, 12.263887],
              [-13.8, 12.269722],
              [-13.79667, 12.273054],
              [-13.79389, 12.277498],
              [-13.792778, 12.283054],
              [-13.795, 12.287777],
              [-13.804167, 12.29222],
              [-13.810556, 12.292776],
              [-13.859444, 12.27861],
              [-13.956381, 12.209721],
              [-13.963114, 12.202526],
              [-13.966133, 12.196672],
              [-13.9684, 12.187233],
              [-13.971035, 12.154758],
              [-13.956926, 12.152222],
              [-13.926378, 12.148611],
              [-13.88138, 12.123333],
              [-13.87222, 12.11139],
              [-13.79306, 12.044443],
              [-13.77639, 12.03472],
              [-13.747223, 12.029442],
              [-13.740837, 12.02916],
              [-13.71972, 12.023052],
              [-13.71167, 12.016941],
              [-13.708612, 12.012775],
              [-13.706945, 12.0075],
              [-13.70645, 12],
              [-13.70389, 11.780832],
              [-13.707224, 11.719999],
              [-13.70917, 11.71528],
              [-13.76722, 11.688332],
              [-13.778612, 11.68528],
              [-13.995, 11.64083],
              [-14.00833, 11.641109],
              [-14.074614, 11.642946],
              [-14.079445, 11.64083],
              [-14.085556, 11.639721],
              [-14.10472, 11.639721],
              [-14.11028, 11.64083],
              [-14.115557, 11.64278],
              [-14.13695, 11.655832],
              [-14.147223, 11.66639],
              [-14.27639, 11.678888],
              [-14.27972, 11.675278],
              [-14.285278, 11.666943],
              [-14.30917, 11.628887],
              [-14.401945, 11.574999],
              [-14.43132, 11.559118],
              [-14.505835, 11.516666],
              [-14.51528, 11.51222],
              [-14.53528, 11.509998],
              [-14.56333, 11.508888],
              [-14.582779, 11.509443],
              [-14.59222, 11.51417],
              [-14.60361, 11.516388],
              [-14.63722, 11.516388],
              [-14.665279, 11.515276],
              [-14.67806, 11.513611],
              [-14.68222, 11.511944],
              [-14.68694, 11.509722],
              [-14.698612, 11.50028],
              [-14.71194, 11.485832],
              [-14.781389, 11.389444],
              [-14.803057, 11.356388],
              [-14.808334, 11.347776],
              [-14.82583, 11.310555],
              [-14.83083, 11.295277],
              [-14.83806, 11.26889],
              [-14.84222, 11.252777],
              [-14.847778, 11.23111],
              [-14.86806, 11.176666],
              [-14.925001, 11.075832],
              [-14.961945, 11.016388],
              [-15.009167, 10.960278],
              [-15.01685, 10.956451],
              [-15.04972, 10.935833],
              [-15.08083, 10.924166],
              [-15.085, 10.922777],
              [-15.090557, 10.92389],
              [-15.095, 10.92639],
              [-15.09722, 10.93111],
              [-15.115835, 10.974443],
              [-15.115557, 10.980833],
              [-15.09944, 11.065554],
              [-15.075, 11.102777],
              [-15.03972, 11.137499],
              [-15.035833, 11.14028],
              [-15.02611, 11.145],
              [-15.02278, 11.195276],
              [-15.09778, 11.132221],
              [-15.152224, 11.086111],
              [-15.167278, 11.06772],
              [-15.170945, 11.062888],
              [-15.17244, 11.060388],
              [-15.176946, 11.047889],
              [-15.185, 11.035],
              [-15.20444, 11.00528],
              [-15.22278, 10.995554],
              [-15.227501, 10.993332],
              [-15.23389, 10.993889],
              [-15.2475, 11.00083],
              [-15.273056, 11.023888],
              [-15.27417, 11.029999],
              [-15.272223, 11.035],
              [-15.24722, 11.058611],
              [-15.237501, 11.062498],
              [-15.231112, 11.06361],
              [-15.22022, 11.079109],
              [-15.21806, 11.081277],
              [-15.216557, 11.083776],
              [-15.21389, 11.08928],
              [-15.21272, 11.092278],
              [-15.2025, 11.12611],
              [-15.20195, 11.132221],
              [-15.20389, 11.226665],
              [-15.20417, 11.231943],
              [-15.208889, 11.233889],
              [-15.21528, 11.234444],
              [-15.226667, 11.23111],
              [-15.235834, 11.219721],
              [-15.237501, 11.208055],
              [-15.23556, 11.195555],
              [-15.230001, 11.179998],
              [-15.221668, 11.167221],
              [-15.220001, 11.161943],
              [-15.21945, 11.148054],
              [-15.220001, 11.141943],
              [-15.22361, 11.131943],
              [-15.22639, 11.127777],
              [-15.236668, 11.123888],
              [-15.24306, 11.123055],
              [-15.279446, 11.125555],
              [-15.307222, 11.130554],
              [-15.349167, 11.13917],
              [-15.357779, 11.144444],
              [-15.400557, 11.177776],
              [-15.40722, 11.184999],
              [-15.41111, 11.195276],
              [-15.41222, 11.201387],
              [-15.42639, 11.282776],
              [-15.42722, 11.28889],
              [-15.426668, 11.295277],
              [-15.41528, 11.32472],
              [-15.38917, 11.369165],
              [-15.386391, 11.373333],
              [-15.381668, 11.37555],
              [-15.37528, 11.375277],
              [-15.36, 11.362778],
              [-15.35583, 11.360277],
              [-15.35, 11.358889],
              [-15.3375, 11.360832],
              [-15.32861, 11.36611],
              [-15.312223, 11.377777],
              [-15.28917, 11.397499],
              [-15.27833, 11.4075],
              [-15.26639, 11.423054],
              [-15.26528, 11.425913],
              [-15.32556, 11.38],
              [-15.345057, 11.377555],
              [-15.360075, 11.383506],
              [-15.36234, 11.395974],
              [-15.38076, 11.405325],
              [-15.42157, 11.383223],
              [-15.44225, 11.345534],
              [-15.492224, 11.3275],
              [-15.498335, 11.328054],
              [-15.503334, 11.33],
              [-15.50694, 11.333055],
              [-15.509167, 11.338055],
              [-15.50861, 11.350277],
              [-15.47528, 11.457777],
              [-15.32583, 11.585278],
              [-15.28444, 11.618055],
              [-15.27972, 11.620554],
              [-15.18778, 11.64083],
              [-15.115002, 11.617498],
              [-15.110001, 11.61555],
              [-15.10694, 11.611666],
              [-15.092779, 11.590832],
              [-15.09611, 11.571388],
              [-15.03722, 11.576387],
              [-15.02722, 11.59417],
              [-15.087223, 11.628332],
              [-15.172779, 11.65639],
              [-15.28722, 11.649166],
              [-15.3225, 11.631666],
              [-15.32639, 11.64194],
              [-15.339035, 11.68146],
              [-15.34167, 11.68194],
              [-15.346111, 11.679722],
              [-15.384167, 11.624998],
              [-15.3725, 11.601387],
              [-15.37083, 11.595833],
              [-15.37195, 11.590555],
              [-15.391111, 11.578609],
              [-15.439167, 11.550278],
              [-15.44417, 11.550833],
              [-15.448612, 11.553333],
              [-15.45139, 11.557499],
              [-15.45389, 11.56222],
              [-15.46722, 11.595276],
              [-15.467501, 11.60222],
              [-15.464445, 11.612778],
              [-15.460279, 11.61555],
              [-15.45, 11.619444],
              [-15.44722, 11.623888],
              [-15.43222, 11.648611],
              [-15.42639, 11.660555],
              [-15.42472, 11.669443],
              [-15.42306, 11.68278],
              [-15.42353, 11.683666],
              [-15.45139, 11.672499],
              [-15.52833, 11.674166],
              [-15.53389, 11.675278],
              [-15.54722, 11.683054],
              [-15.55139, 11.697222],
              [-15.55667, 11.723331],
              [-15.55556, 11.727499],
              [-15.530001, 11.7775],
              [-15.458612, 11.865276],
              [-15.43806, 11.879999],
              [-15.384724, 11.885],
              [-15.37917, 11.885],
              [-15.36278, 11.881109],
              [-15.347778, 11.87528],
              [-15.332779, 11.86972],
              [-15.32139, 11.867498],
              [-15.25, 11.865555],
              [-15.21556, 11.865],
              [-15.20278, 11.865555],
              [-15.18611, 11.87028],
              [-15.130835, 11.893332],
              [-15.08889, 11.854166],
              [-15.0875, 11.848888],
              [-15.07083, 11.808887],
              [-15.06556, 11.799999],
              [-15.05889, 11.792776],
              [-14.98278, 11.754444],
              [-14.968334, 11.748055],
              [-14.962778, 11.74694],
              [-14.94917, 11.74694],
              [-14.94278, 11.747776],
              [-14.93195, 11.750832],
              [-14.92445, 11.7575],
              [-14.92306, 11.76305],
              [-14.92412, 11.763216],
              [-14.92944, 11.76055],
              [-14.94556, 11.756666],
              [-14.9575, 11.758055],
              [-15.05222, 11.818609],
              [-15.05528, 11.822498],
              [-15.06444, 11.841389],
              [-15.06611, 11.846943],
              [-15.0675, 11.85861],
              [-15.02722, 11.948332],
              [-15.017223, 11.952221],
              [-14.99089, 11.956791],
              [-14.991112, 11.958054],
              [-15, 11.969929],
              [-15.003889, 11.974165],
              [-15.01167, 11.98],
              [-15.0175, 11.98111],
              [-15.06695, 11.98472],
              [-15.080278, 11.985],
              [-15.08583, 11.983332],
              [-15.13583, 11.961943],
              [-15.14, 11.959166],
              [-15.14667, 11.951944],
              [-15.154446, 11.939165],
              [-15.16, 11.931944],
              [-15.17056, 11.921944],
              [-15.187223, 11.91028],
              [-15.20167, 11.903332],
              [-15.208057, 11.902498],
              [-15.22556, 11.905277],
              [-15.31028, 11.92305],
              [-15.31695, 11.930555],
              [-15.32778, 11.940277],
              [-15.35056, 11.959444],
              [-15.36056, 11.963055],
              [-15.379723, 11.964443],
              [-15.40639, 11.963333],
              [-15.430834, 11.958887],
              [-15.491945, 11.938332],
              [-15.49695, 11.93611],
              [-15.50111, 11.933054],
              [-15.539045, 11.896879],
              [-15.58611, 11.850832],
              [-15.60028, 11.83722],
              [-15.643612, 11.809999],
              [-15.652224, 11.804722],
              [-15.66833, 11.799166],
              [-15.681672, 11.797863],
              [-15.7425, 11.78916],
              [-15.851946, 11.767776],
              [-15.952223, 11.734444],
              [-15.9575, 11.73305],
              [-15.96333, 11.734165],
              [-15.964724, 11.739443],
              [-15.965557, 11.770555],
              [-15.965, 11.776667],
              [-15.93333, 11.866943],
              [-15.92972, 11.876944],
              [-15.921112, 11.890276],
              [-15.868057, 11.96167],
              [-15.857779, 11.9725],
              [-15.84639, 11.981943],
              [-15.83667, 11.986387],
              [-15.800835, 12.00111],
              [-15.79444, 12.00194],
              [-15.78806, 12.001665],
              [-15.781389, 12],
              [-15.77528, 11.995277],
              [-15.7725, 11.98361],
              [-15.769445, 11.979721],
              [-15.76083, 11.974443],
              [-15.726667, 11.965],
              [-15.722502, 11.967777],
              [-15.71972, 11.972221],
              [-15.705929, 12],
              [-15.70444, 12.004444],
              [-15.70581, 12.0099],
              [-15.728613, 11.994444],
              [-15.732779, 11.99166],
              [-15.758057, 11.99111],
              [-15.763056, 11.993055],
              [-15.76667, 11.996387],
              [-15.76685, 12],
              [-15.76639, 12.008055],
              [-15.77, 12.011389],
              [-15.779446, 12.01583],
              [-15.79222, 12.01667],
              [-15.852779, 12.01667],
              [-15.898056, 12],
              [-15.919168, 11.988888],
              [-15.92861, 11.980276],
              [-15.93889, 11.956388],
              [-15.94028, 11.950832],
              [-15.94528, 11.942499],
              [-15.952223, 11.93444],
              [-15.96667, 11.921389],
              [-15.975, 11.915554],
              [-15.98, 11.913332],
              [-16.11528, 11.8825],
              [-16.12167, 11.881388],
              [-16.12806, 11.88194],
              [-16.20278, 11.905554],
              [-16.245003, 11.925554],
              [-16.25333, 11.930832],
              [-16.27911, 11.979097],
              [-16.296091, 11.988841],
              [-16.33028, 11.99278],
              [-16.33389, 11.996664],
              [-16.335659, 11.999998],
              [-16.338058, 12.006943],
              [-16.343613, 12.03139],
              [-16.34972, 12.105833],
              [-16.336113, 12.146387],
              [-16.334446, 12.15111],
              [-16.331669, 12.155554],
              [-16.32833, 12.159166],
              [-16.26, 12.22222],
              [-16.221947, 12.24805],
              [-16.19778, 12.259443],
              [-16.144169, 12.281666],
              [-16.136112, 12.287777],
              [-16.13278, 12.29139],
              [-16.11056, 12.330832],
              [-16.120003, 12.335833],
              [-16.21722, 12.289444],
              [-16.22972, 12.28083],
              [-16.28139, 12.24111],
              [-16.34639, 12.19611],
              [-16.35472, 12.191666],
              [-16.4525, 12.171944],
              [-16.458057, 12.171665],
              [-16.493057, 12.183332],
              [-16.497501, 12.185833],
              [-16.506668, 12.210833],
              [-16.5075, 12.217222],
              [-16.543892, 12.2575],
              [-16.55528, 12.267221],
              [-16.56361, 12.272499],
              [-16.5725, 12.277498],
              [-16.676392, 12.33555],
              [-16.68195, 12.336666],
              [-16.6875, 12.336388],
              [-16.692501, 12.334166],
              [-16.71777, 12.322426],
              [-16.710281, 12.336666],
              [-16.70167, 12.348888],
              [-16.69472, 12.35611],
              [-16.690281, 12.358332],
              [-16.68445, 12.359999],
              [-16.66333, 12.360832],
              [-16.5525, 12.358332],
              [-16.54695, 12.357498],
              [-16.5425, 12.354721],
              [-16.522224, 12.3475],
              [-16.515, 12.347776],
              [-16.381668, 12.374722],
              [-16.20917, 12.460833],
              [-16.10222, 12.471388],
              [-16.08195, 12.472776],
              [-16.06278, 12.47167],
              [-16.04, 12.467222],
              [-16.019169, 12.460554],
              [-16.000557, 12.451666],
              [-15.962223, 12.43611],
              [-15.88847, 12.44811],
              [-15.809446, 12.440554],
              [-15.68528, 12.429998],
              [-15.614723, 12.462776],
              [-15.4194, 12.551407],
              [-15.36139, 12.598055],
              [-15.334446, 12.615833],
              [-15.21806, 12.684721],
              [-14.923334, 12.682777],
              [-14.87445, 12.681944],
              [-14.658335, 12.681389],
              [-14.64028, 12.680555],
              [-14.51694, 12.679722]
            ]
          ]
        ]
      }
    }
  ]
}
