{
  "type": "FeatureCollection",
  "features": [
    {
      "type": "Feature",
      "properties": { "cca2": "gy" },
      "geometry": {
        "type": "MultiPolygon",
        "coordinates": [
          [
            [
              [-58.450562, 6.8969440000001],
              [-58.463058, 6.881666],
              [-58.46528, 6.8913880000001],
              [-58.46556, 6.897778],
              [-58.464729, 6.9038890000001],
              [-58.46278, 6.909166],
              [-58.4375, 6.947222],
              [-58.42195, 6.963611],
              [-58.41833, 6.966666],
              [-58.41334, 6.96917],
              [-58.40223, 6.971389],
              [-58.395836, 6.971666],
              [-58.37723, 6.971389],
              [-58.33778, 6.9675],
              [-58.33334, 6.965],
              [-58.328056, 6.956666],
              [-58.329727, 6.952499],
              [-58.363335, 6.9316660000001],
              [-58.37195, 6.92639],
              [-58.410004, 6.9175],
              [-58.429726, 6.910277],
              [-58.44667, 6.900277],
              [-58.450562, 6.8969440000001]
            ]
          ],
          [
            [
              [-59.78917, 8.34111],
              [-59.78334, 8.34083],
              [-59.76889, 8.344721],
              [-59.76056, 8.353333],
              [-59.77389, 8.367777],
              [-59.779167, 8.3763890000001],
              [-59.781952, 8.386665],
              [-59.78223, 8.393055],
              [-59.780838, 8.398333],
              [-59.77389, 8.405554],
              [-59.76973, 8.4083330000001],
              [-59.76472, 8.41],
              [-59.75861, 8.41028],
              [-59.75362, 8.408054],
              [-59.668335, 8.359999],
              [-59.650841, 8.3494430000001],
              [-59.355835, 8.17389],
              [-59.15472, 8.05639],
              [-59.137222, 8.045832],
              [-59.121391, 8.0341660000001],
              [-59.11195, 8.022778],
              [-59.10695, 8.01417],
              [-59.09889, 7.99528],
              [-59.09389, 7.98667],
              [-59.090561, 7.98305],
              [-59.07584, 7.969166],
              [-58.943893, 7.8511100000001],
              [-58.80695, 7.730556],
              [-58.76889, 7.679722],
              [-58.7514, 7.63611],
              [-58.72167, 7.5975],
              [-58.718338, 7.593888],
              [-58.71473, 7.593055],
              [-58.641945, 7.569444],
              [-58.489723, 7.37444],
              [-58.480835, 7.362778],
              [-58.47278, 7.3499990000001],
              [-58.46861, 7.340833],
              [-58.46639, 7.329721],
              [-58.46556, 7.135833],
              [-58.46667, 7.115],
              [-58.47695, 7.024722],
              [-58.47889, 7.0125],
              [-58.483612, 7.003333],
              [-58.486671, 6.999166],
              [-58.4975, 6.989444],
              [-58.510742, 6.98025],
              [-58.52972, 6.967222],
              [-58.54445, 6.95417],
              [-58.553337, 6.942222],
              [-58.55806, 6.932777],
              [-58.563057, 6.91639],
              [-58.59222, 6.8105550000001],
              [-58.59584, 6.79306],
              [-58.597778, 6.78083],
              [-58.599449, 6.767777],
              [-58.60917, 6.656666],
              [-58.61909, 6.48949],
              [-58.64612, 6.42611],
              [-58.628059, 6.417777],
              [-58.60072, 6.413944],
              [-58.593338, 6.42],
              [-58.58133, 6.464975],
              [-58.57528, 6.500278],
              [-58.57278, 6.519444],
              [-58.57278, 6.5325],
              [-58.576118, 6.562222],
              [-58.57417, 6.59639],
              [-58.57223, 6.608889],
              [-58.553894, 6.6683330000001],
              [-58.550003, 6.67861],
              [-58.5475, 6.68305],
              [-58.479446, 6.794444],
              [-58.460007, 6.8238890000001],
              [-58.4539, 6.83167],
              [-58.425835, 6.86611],
              [-58.413612, 6.874444],
              [-58.403618, 6.87778],
              [-58.39306, 6.880833],
              [-58.327225, 6.895277],
              [-58.32084, 6.8955550000001],
              [-58.314728, 6.8947220000001],
              [-58.30361, 6.8913880000001],
              [-58.258057, 6.877222],
              [-58.253334, 6.874999],
              [-58.208618, 6.843055],
              [-58.17261, 6.812222],
              [-58.162506, 6.8238890000001],
              [-58.15889, 6.827222],
              [-58.14917, 6.8308320000001],
              [-58.04445, 6.817222],
              [-58.03334, 6.8138890000001],
              [-57.986389, 6.79055],
              [-57.97028, 6.77861],
              [-57.963058, 6.77222],
              [-57.94334, 6.750555],
              [-57.92778, 6.7316670000001],
              [-57.91445, 6.711111],
              [-57.902779, 6.69528],
              [-57.89306, 6.68444],
              [-57.88251, 6.674166],
              [-57.757782, 6.57],
              [-57.648613, 6.49111],
              [-57.632782, 6.479166],
              [-57.59695, 6.4388890000001],
              [-57.591667, 6.430277],
              [-57.526115, 6.304166],
              [-57.52056, 6.289444],
              [-57.519447, 6.2838890000001],
              [-57.51919, 6.270767],
              [-57.50362, 6.33333],
              [-57.50111, 6.338055],
              [-57.497505, 6.34111],
              [-57.492226, 6.342222],
              [-57.47945, 6.343055],
              [-57.47333, 6.34194],
              [-57.463058, 6.338055],
              [-57.363617, 6.29],
              [-57.33667, 6.274722],
              [-57.261116, 6.211389],
              [-57.220284, 6.1691670000001],
              [-57.199722, 6.1475],
              [-57.188896, 6.13111],
              [-57.17778, 6.108333],
              [-57.163895, 6.062222],
              [-57.16083, 6.051666],
              [-57.136948, 5.96611],
              [-57.13556, 5.960833],
              [-57.135, 5.947778],
              [-57.13556, 5.941667],
              [-57.17445, 5.643611],
              [-57.176117, 5.6313890000001],
              [-57.18084, 5.608889],
              [-57.184723, 5.5925],
              [-57.19306, 5.573333],
              [-57.198059, 5.564444],
              [-57.2485, 5.486111],
              [-57.26584, 5.401388],
              [-57.27, 5.3849990000001],
              [-57.272224, 5.380278],
              [-57.27834, 5.372777],
              [-57.29945, 5.35972],
              [-57.324448, 5.30361],
              [-57.28639, 5.229444],
              [-57.27917, 5.223332],
              [-57.268059, 5.2205550000001],
              [-57.256393, 5.2227770000001],
              [-57.235207, 5.259945],
              [-57.2125, 5.23222],
              [-57.20251, 5.215],
              [-57.18861, 5.1808330000001],
              [-57.18861, 5.16861],
              [-57.19833, 5.157777],
              [-57.222778, 5.1413880000001],
              [-57.22889, 5.140833],
              [-57.23584, 5.1463880000001],
              [-57.23862, 5.157222],
              [-57.246391, 5.169999],
              [-57.254723, 5.175278],
              [-57.26584, 5.177777],
              [-57.27834, 5.17639],
              [-57.28778, 5.17222],
              [-57.29695, 5.160277],
              [-57.32084, 5.082222],
              [-57.32306, 5.0697220000001],
              [-57.32722, 5.026111],
              [-57.41389, 4.989721],
              [-57.42028, 4.9891660000001],
              [-57.47362, 4.9891660000001],
              [-57.60806, 4.9919440000001],
              [-57.61389, 4.992499],
              [-57.63417, 5.000278],
              [-57.67028, 5.011666],
              [-57.676392, 5.0125],
              [-57.688057, 5.010278],
              [-57.84112, 4.9277770000001],
              [-57.90139, 4.85556],
              [-57.92334, 4.82194],
              [-57.92639, 4.804999],
              [-57.92334, 4.787777],
              [-57.917778, 4.77944],
              [-57.900284, 4.776111],
              [-57.890839, 4.772222],
              [-57.88473, 4.764444],
              [-57.84417, 4.681944],
              [-57.84, 4.6725000000001],
              [-57.838615, 4.666944],
              [-57.838615, 4.654722],
              [-57.846947, 4.62889],
              [-57.902779, 4.503611],
              [-57.948616, 4.349166],
              [-57.94917, 4.317222],
              [-57.95251, 4.29306],
              [-57.9539, 4.28778],
              [-57.95917, 4.279444],
              [-58.002785, 4.23972],
              [-58.03417, 4.216666],
              [-58.04111, 4.209722],
              [-58.047226, 4.2024990000001],
              [-58.05806, 4.18611],
              [-58.065559, 4.174166],
              [-58.0714, 4.159166],
              [-58.0714, 4.152222],
              [-58.047226, 4.0083330000001],
              [-58.04028, 3.9947220000001],
              [-58.0164, 3.9636110000001],
              [-57.96889, 3.9291660000001],
              [-57.9539, 3.9166670000001],
              [-57.946945, 3.90972],
              [-57.93472, 3.894722],
              [-57.92917, 3.8866660000001],
              [-57.87667, 3.809166],
              [-57.8675, 3.79083],
              [-57.85945, 3.771667],
              [-57.850563, 3.74611],
              [-57.84917, 3.740833],
              [-57.846947, 3.7225],
              [-57.84639, 3.6955550000001],
              [-57.84556, 3.6897220000001],
              [-57.84112, 3.673611],
              [-57.83584, 3.665],
              [-57.821114, 3.6527780000001],
              [-57.81222, 3.6477780000001],
              [-57.760559, 3.6241660000001],
              [-57.74695, 3.617222],
              [-57.73473, 3.61028],
              [-57.66862, 3.5383330000001],
              [-57.65445, 3.518611],
              [-57.638062, 3.466666],
              [-57.636948, 3.4611110000001],
              [-57.63722, 3.455],
              [-57.6414, 3.44528],
              [-57.65778, 3.41389],
              [-57.642227, 3.356389],
              [-57.61806, 3.36],
              [-57.60612, 3.36055],
              [-57.599449, 3.3594440000001],
              [-57.53056, 3.34639],
              [-57.42945, 3.34722],
              [-57.30695, 3.38333],
              [-57.301392, 3.3775],
              [-57.28334, 3.33028],
              [-57.28111, 3.323889],
              [-57.28139, 3.3166670000001],
              [-57.288338, 3.3038890000001],
              [-57.292503, 3.270555],
              [-57.292503, 3.264166],
              [-57.290001, 3.1813890000001],
              [-57.28528, 3.143888],
              [-57.28195, 3.138055],
              [-57.255, 3.103611],
              [-57.220284, 3.065],
              [-57.21028, 3.0358330000001],
              [-57.205, 3.0125000000001],
              [-57.2039, 3.0055550000001],
              [-57.20612, 2.9997220000001],
              [-57.2125, 2.9925],
              [-57.21528, 2.986111],
              [-57.213341, 2.878889],
              [-57.2039, 2.827777],
              [-57.20139, 2.8213890000001],
              [-57.194168, 2.81444],
              [-57.125282, 2.75972],
              [-57.118896, 2.757778],
              [-57.111671, 2.75694],
              [-57.10528, 2.754722],
              [-57.098061, 2.749166],
              [-56.94472, 2.48305],
              [-56.91778, 2.42805],
              [-56.85389, 2.283333],
              [-56.81056, 2.193333],
              [-56.775, 2.1408330000001],
              [-56.69187, 2.02874],
              [-56.68417, 2.026111],
              [-56.682045, 2.026111],
              [-56.67028, 2.026111],
              [-56.646118, 2.028055],
              [-56.58584, 2.028055],
              [-56.573616, 2.026667],
              [-56.56278, 2.0238890000001],
              [-56.54917, 2.017222],
              [-56.48112, 1.9686110000001],
              [-56.47362, 1.955555],
              [-56.47063, 1.9444990000001],
              [-56.52556, 1.9225],
              [-56.57417, 1.918611],
              [-56.58167, 1.92472],
              [-56.595, 1.932222],
              [-56.62167, 1.9397220000001],
              [-56.63473, 1.939167],
              [-56.724449, 1.92055],
              [-56.729172, 1.918611],
              [-56.74139, 1.910278],
              [-56.745003, 1.906944],
              [-56.751114, 1.8994440000001],
              [-56.75306, 1.8944440000001],
              [-56.76083, 1.88139],
              [-56.766945, 1.875278],
              [-56.77167, 1.8733330000001],
              [-56.78334, 1.8725000000001],
              [-56.873894, 1.891667],
              [-56.99667, 1.91972],
              [-57.01112, 1.926111],
              [-57.041115, 1.9438890000001],
              [-57.05278, 1.95278],
              [-57.054726, 1.956111],
              [-57.06084, 1.984167],
              [-57.06417, 2.00694],
              [-57.070557, 2.014444],
              [-57.078613, 2.0197220000001],
              [-57.08362, 2.021944],
              [-57.089172, 2.023333],
              [-57.100563, 2.0238890000001],
              [-57.10556, 2.021944],
              [-57.163063, 1.996666],
              [-57.19917, 1.971111],
              [-57.22723, 1.951389],
              [-57.23139, 1.948611],
              [-57.23695, 1.947222],
              [-57.24583, 1.951944],
              [-57.26973, 1.976111],
              [-57.27389, 1.978889],
              [-57.27889, 1.9808330000001],
              [-57.284172, 1.982222],
              [-57.29056, 1.9827780000001],
              [-57.296669, 1.982222],
              [-57.30278, 1.981389],
              [-57.32472, 1.975278],
              [-57.33917, 1.9691670000001],
              [-57.420006, 1.913055],
              [-57.42612, 1.905555],
              [-57.427505, 1.9],
              [-57.42834, 1.886944],
              [-57.427505, 1.880833],
              [-57.42861, 1.861666],
              [-57.44667, 1.81778],
              [-57.448616, 1.814444],
              [-57.45417, 1.806111],
              [-57.50751, 1.73639],
              [-57.51723, 1.725278],
              [-57.528061, 1.715833],
              [-57.55417, 1.701389],
              [-57.56444, 1.69806],
              [-57.63028, 1.6925],
              [-57.636391, 1.693055],
              [-57.65362, 1.696666],
              [-57.679726, 1.7047220000001],
              [-57.69528, 1.7102780000001],
              [-57.716667, 1.716389],
              [-57.72834, 1.718611],
              [-57.74695, 1.72056],
              [-57.753616, 1.72056],
              [-57.763893, 1.717222],
              [-57.773338, 1.713055],
              [-57.87611, 1.6650000000001],
              [-57.97223, 1.62],
              [-57.97278, 1.606944],
              [-57.98056, 1.580278],
              [-57.98528, 1.564444],
              [-58.00167, 1.520555],
              [-58.004448, 1.5163890000001],
              [-58.008614, 1.5136110000001],
              [-58.01389, 1.5122220000001],
              [-58.127785, 1.5177780000001],
              [-58.26833, 1.570555],
              [-58.29723, 1.5827780000001],
              [-58.37862, 1.482778],
              [-58.38195, 1.479444],
              [-58.386116, 1.476666],
              [-58.402504, 1.4725000000001],
              [-58.502289, 1.4546740000001],
              [-58.471672, 1.3663890000001],
              [-58.46695, 1.350555],
              [-58.46695, 1.3438890000001],
              [-58.468338, 1.331389],
              [-58.47111, 1.3205550000001],
              [-58.479172, 1.3075],
              [-58.502785, 1.27583],
              [-58.510284, 1.269722],
              [-58.51556, 1.26778],
              [-58.52167, 1.266944],
              [-58.52667, 1.269166],
              [-58.5725, 1.275278],
              [-58.682785, 1.288333],
              [-58.68973, 1.288333],
              [-58.695282, 1.286944],
              [-58.70417, 1.275278],
              [-58.708336, 1.265555],
              [-58.70945, 1.260278],
              [-58.71973, 1.236111],
              [-58.726112, 1.228611],
              [-58.745003, 1.2130550000001],
              [-58.7589, 1.206111],
              [-58.796669, 1.188889],
              [-58.80695, 1.185555],
              [-58.813614, 1.185555],
              [-58.825562, 1.1875000000001],
              [-58.83639, 1.190278],
              [-58.865837, 1.201944],
              [-58.873337, 1.20805],
              [-58.88834, 1.2205560000001],
              [-58.899445, 1.23],
              [-58.90223, 1.234167],
              [-58.903618, 1.23972],
              [-58.898613, 1.248611],
              [-58.894447, 1.251389],
              [-58.8925, 1.25611],
              [-58.894447, 1.260833],
              [-58.89667, 1.265555],
              [-58.902779, 1.273333],
              [-58.921394, 1.2958330000001],
              [-58.92834, 1.3027780000001],
              [-58.9575, 1.314444],
              [-58.97278, 1.3197220000001],
              [-59.104729, 1.3447220000001],
              [-59.232506, 1.3791670000001],
              [-59.241669, 1.383611],
              [-59.24556, 1.38667],
              [-59.25611, 1.396667],
              [-59.41445, 1.5633330000001],
              [-59.47834, 1.6425],
              [-59.48889, 1.65861],
              [-59.50751, 1.6875],
              [-59.59889, 1.7188890000001],
              [-59.61195, 1.72],
              [-59.63361, 1.72667],
              [-59.64278, 1.731111],
              [-59.653336, 1.7413890000001],
              [-59.67278, 1.762778],
              [-59.67778, 1.771389],
              [-59.653618, 1.80222],
              [-59.631668, 1.834722],
              [-59.63, 1.841389],
              [-59.63411, 1.846419],
              [-59.714729, 1.857222],
              [-59.72445, 1.853611],
              [-59.730003, 1.8525000000001],
              [-59.73611, 1.8533330000001],
              [-59.746117, 1.8575000000001],
              [-59.75194, 1.8652780000001],
              [-59.75611, 1.90583],
              [-59.75639, 1.911944],
              [-59.743614, 2.072778],
              [-59.7275, 2.233611],
              [-59.726669, 2.23972],
              [-59.72695, 2.245833],
              [-59.73028, 2.27805],
              [-59.73195, 2.2830550000001],
              [-59.73445, 2.287222],
              [-59.74528, 2.29055],
              [-59.778061, 2.2936110000001],
              [-59.79028, 2.29555],
              [-59.795563, 2.297222],
              [-59.808891, 2.3047220000001],
              [-59.84972, 2.3305550000001],
              [-59.88722, 2.35639],
              [-59.8914, 2.3594440000001],
              [-59.89389, 2.3636110000001],
              [-59.900558, 2.376944],
              [-59.9025, 2.381667],
              [-59.90084, 2.387222],
              [-59.88917, 2.403611],
              [-59.888618, 2.4105550000001],
              [-59.892227, 2.4516660000001],
              [-59.89333, 2.457222],
              [-59.92556, 2.56778],
              [-59.95417, 2.616389],
              [-59.98611, 2.678333],
              [-59.988892, 2.687222],
              [-59.98945, 2.693611],
              [-59.98278, 2.8602780000001],
              [-59.97889, 2.899167],
              [-59.962784, 3.02583],
              [-59.94972, 3.07194],
              [-59.90472, 3.20417],
              [-59.86973, 3.2763890000001],
              [-59.85612, 3.297778],
              [-59.840004, 3.316111],
              [-59.83139, 3.328055],
              [-59.81195, 3.357222],
              [-59.809723, 3.361944],
              [-59.81028, 3.49083],
              [-59.81195, 3.4958330000001],
              [-59.81778, 3.5041670000001],
              [-59.83195, 3.524167],
              [-59.78612, 3.620555],
              [-59.66556, 3.711389],
              [-59.56861, 3.899444],
              [-59.58167, 3.998888],
              [-59.70528, 4.16722],
              [-59.711945, 4.174166],
              [-59.72223, 4.191388],
              [-59.72945, 4.210833],
              [-59.73278, 4.2275000000001],
              [-59.730835, 4.2933330000001],
              [-59.675285, 4.3733330000001],
              [-59.67278, 4.3783330000001],
              [-59.67334, 4.384444],
              [-59.675835, 4.388888],
              [-59.71722, 4.414166],
              [-59.791115, 4.4561110000001],
              [-59.929726, 4.506389],
              [-59.935005, 4.50778],
              [-59.94139, 4.508888],
              [-59.961113, 4.509166],
              [-59.967781, 4.501944],
              [-60.035561, 4.494166],
              [-60.055, 4.493889],
              [-60.128059, 4.508888],
              [-60.13334, 4.510555],
              [-60.147507, 4.5175],
              [-60.14944, 4.522499],
              [-60.15223, 4.573333],
              [-60.123894, 4.596666],
              [-60.10167, 4.598332],
              [-60.09556, 4.5975000000001],
              [-60.08973, 4.598611],
              [-60.07917, 4.6083330000001],
              [-60.07333, 4.6161110000001],
              [-60.07084, 4.620832],
              [-60.025841, 4.70722],
              [-60.020561, 4.7344440000001],
              [-60.00584, 4.8369440000001],
              [-59.983063, 5.0225],
              [-60.013893, 5.11],
              [-60.08087, 5.1615130000001],
              [-60.081947, 5.17305],
              [-60.09833, 5.217222],
              [-60.11306, 5.243889],
              [-60.116112, 5.2475],
              [-60.188896, 5.27111],
              [-60.200562, 5.273611],
              [-60.2075, 5.273889],
              [-60.2125, 5.272222],
              [-60.2475, 5.25944],
              [-60.252502, 5.2575],
              [-60.261948, 5.246388],
              [-60.26667, 5.236944],
              [-60.27251, 5.228889],
              [-60.31111, 5.199166],
              [-60.315834, 5.197499],
              [-60.32223, 5.19694],
              [-60.53973, 5.191388],
              [-60.55306, 5.191388],
              [-60.565285, 5.193333],
              [-60.57084, 5.195],
              [-60.575562, 5.197222],
              [-60.58362, 5.203055],
              [-60.59084, 5.20972],
              [-60.59556, 5.2119440000001],
              [-60.60167, 5.213055],
              [-60.680557, 5.2175],
              [-60.69833, 5.2147220000001],
              [-60.73037, 5.2048],
              [-60.748894, 5.2225],
              [-60.781113, 5.258333],
              [-60.86028, 5.3480550000001],
              [-61.11611, 5.634722],
              [-61.388771, 5.938934],
              [-61.389725, 5.9400000000001],
              [-61.383797, 5.957494],
              [-61.379723, 5.960833],
              [-61.37361, 5.961111],
              [-61.35667, 5.964444],
              [-61.341949, 5.97],
              [-61.33384, 5.97556],
              [-61.32306, 5.992499],
              [-61.28282, 6.05634],
              [-61.270279, 6.086389],
              [-61.26445, 6.106111],
              [-61.261116, 6.109444],
              [-61.16445, 6.179999],
              [-61.155838, 6.184999],
              [-61.138618, 6.299166],
              [-61.14001, 6.40861],
              [-61.191673, 6.529722],
              [-61.19667, 6.532222],
              [-61.198891, 6.536388],
              [-61.20473, 6.574444],
              [-61.20473, 6.58139],
              [-61.17556, 6.65639],
              [-61.17334, 6.6611110000001],
              [-61.134026, 6.71104],
              [-61.12917, 6.714167],
              [-61.118614, 6.716944],
              [-61.05972, 6.730833],
              [-61.04973, 6.72694],
              [-61.041115, 6.721666],
              [-61.030838, 6.717777],
              [-60.95251, 6.720277],
              [-60.941116, 6.7225],
              [-60.932503, 6.72778],
              [-60.89584, 6.759722],
              [-60.892227, 6.76305],
              [-60.89333, 6.7686110000001],
              [-60.81612, 6.788333],
              [-60.725281, 6.759999],
              [-60.71306, 6.758055],
              [-60.7039, 6.7625],
              [-60.691673, 6.77083],
              [-60.676392, 6.79],
              [-60.665, 6.8075],
              [-60.64973, 6.8275],
              [-60.64167, 6.833888],
              [-60.63722, 6.836389],
              [-60.622505, 6.841944],
              [-60.59084, 6.8508330000001],
              [-60.526947, 6.87472],
              [-60.498894, 6.8877770000001],
              [-60.463615, 6.90667],
              [-60.40834, 6.9474990000001],
              [-60.302505, 7.043611],
              [-60.288612, 7.057221],
              [-60.28695, 7.062778],
              [-60.28139, 7.089999],
              [-60.276947, 7.116666],
              [-60.279167, 7.1208320000001],
              [-60.306671, 7.141944],
              [-60.311394, 7.145],
              [-60.33667, 7.1552770000001],
              [-60.34972, 7.1694440000001],
              [-60.35778, 7.17555],
              [-60.367226, 7.179999],
              [-60.456116, 7.195833],
              [-60.501114, 7.180277],
              [-60.504723, 7.176944],
              [-60.50695, 7.172222],
              [-60.51028, 7.161388],
              [-60.512222, 7.148889],
              [-60.51389, 7.14361],
              [-60.51694, 7.139722],
              [-60.53556, 7.123888],
              [-60.54056, 7.1249990000001],
              [-60.6175, 7.194444],
              [-60.63084, 7.221944],
              [-60.63444, 7.244721],
              [-60.635, 7.251111],
              [-60.63444, 7.258055],
              [-60.63306, 7.26333],
              [-60.62195, 7.28],
              [-60.61528, 7.28805],
              [-60.60778, 7.294444],
              [-60.59584, 7.302777],
              [-60.58973, 7.3108330000001],
              [-60.588058, 7.316388],
              [-60.59084, 7.333611],
              [-60.59195, 7.339167],
              [-60.610001, 7.381944],
              [-60.64556, 7.436666],
              [-60.660835, 7.449166],
              [-60.66584, 7.451388],
              [-60.671112, 7.45167],
              [-60.68306, 7.45],
              [-60.68778, 7.45222],
              [-60.69112, 7.455832],
              [-60.71223, 7.49611],
              [-60.715836, 7.505833],
              [-60.71973, 7.528889],
              [-60.71917, 7.535555],
              [-60.71528, 7.5458330000001],
              [-60.7125, 7.549722],
              [-60.69361, 7.56611],
              [-60.688614, 7.568055],
              [-60.675285, 7.568055],
              [-60.66445, 7.56472],
              [-60.65834, 7.56389],
              [-60.650284, 7.569444],
              [-60.590279, 7.63694],
              [-60.58723, 7.641666],
              [-60.570557, 7.702777],
              [-60.57001, 7.709722],
              [-60.578613, 7.721666],
              [-60.57917, 7.726666],
              [-60.53528, 7.80222],
              [-60.53139, 7.8055550000001],
              [-60.52, 7.814722],
              [-60.506393, 7.821666],
              [-60.319725, 7.8775],
              [-60.25754, 7.921573],
              [-60.23723, 7.94639],
              [-60.13139, 8.02444],
              [-60.11834, 8.03222],
              [-60.09972, 8.040833],
              [-60.0875, 8.041666],
              [-60.05112, 8.035],
              [-60.043892, 8.034721],
              [-60.032784, 8.036943],
              [-60.023338, 8.041388],
              [-60.01694, 8.048611],
              [-60.013893, 8.053333],
              [-60.00695, 8.0675],
              [-59.983063, 8.128054],
              [-59.98222, 8.134443],
              [-59.983063, 8.139999],
              [-59.988892, 8.1477780000001],
              [-59.99028, 8.15333],
              [-59.98917, 8.159443],
              [-59.98473, 8.168888],
              [-59.97472, 8.18083],
              [-59.946182, 8.1999950000001],
              [-59.922226, 8.211111],
              [-59.888893, 8.2186110000001],
              [-59.848335, 8.2249980000001],
              [-59.83195, 8.22889],
              [-59.82556, 8.236111],
              [-59.801392, 8.275],
              [-59.804726, 8.2916660000001],
              [-59.80917, 8.3008330000001],
              [-59.815002, 8.311388],
              [-59.886116, 8.400833],
              [-59.98112, 8.51833],
              [-59.99028, 8.535276],
              [-59.96389, 8.51889],
              [-59.95251, 8.509165],
              [-59.932503, 8.487778],
              [-59.92612, 8.48055],
              [-59.90834, 8.456944],
              [-59.90334, 8.44833],
              [-59.90167, 8.443333],
              [-59.89695, 8.43444],
              [-59.88945, 8.4216650000001],
              [-59.8725, 8.397221],
              [-59.855835, 8.37944],
              [-59.831673, 8.36167],
              [-59.78917, 8.34111]
            ]
          ]
        ]
      }
    }
  ]
}
