{
  "type": "FeatureCollection",
  "features": [
    {
      "type": "Feature",
      "properties": { "cca2": "hn" },
      "geometry": {
        "type": "MultiPolygon",
        "coordinates": [
          [
            [
              [-87.62251, 13.246387],
              [-87.628891, 13.246111],
              [-87.64667, 13.248333],
              [-87.656677, 13.24861],
              [-87.65945, 13.249443],
              [-87.66112, 13.251389],
              [-87.67001, 13.275],
              [-87.66972, 13.278332],
              [-87.66307, 13.28555],
              [-87.6564, 13.289444],
              [-87.63917, 13.296944],
              [-87.63612, 13.296665],
              [-87.618896, 13.28889],
              [-87.614731, 13.28611],
              [-87.61334, 13.284166],
              [-87.61139, 13.279165],
              [-87.610001, 13.266943],
              [-87.610291, 13.25778],
              [-87.61111, 13.254999],
              [-87.614456, 13.251389],
              [-87.62001, 13.247221],
              [-87.62251, 13.246387]
            ]
          ],
          [
            [
              [-87.57194, 13.36861],
              [-87.56723, 13.36305],
              [-87.57333, 13.322777],
              [-87.577789, 13.310555],
              [-87.57973, 13.305277],
              [-87.58168, 13.30361],
              [-87.58806, 13.302776],
              [-87.61584, 13.304722],
              [-87.631393, 13.310276],
              [-87.63612, 13.312777],
              [-87.65279, 13.327221],
              [-87.65611, 13.33111],
              [-87.65834, 13.33583],
              [-87.65834, 13.339167],
              [-87.65279, 13.359165],
              [-87.65112, 13.36111],
              [-87.637222, 13.36972],
              [-87.63473, 13.370832],
              [-87.61017, 13.363637],
              [-87.591949, 13.372499],
              [-87.585556, 13.372499],
              [-87.57194, 13.36861]
            ]
          ],
          [
            [
              [-85.841949, 16.010555],
              [-85.767227, 15.997221],
              [-85.7614, 15.996111],
              [-85.65945, 15.95666],
              [-85.656952, 15.95555],
              [-85.63473, 15.939165],
              [-85.623337, 15.93278],
              [-85.6064, 15.924999],
              [-85.5914, 15.91889],
              [-85.563614, 15.908054],
              [-85.55278, 15.904722],
              [-85.497787, 15.889166],
              [-85.49445, 15.888887],
              [-85.4064, 15.890554],
              [-85.39334, 15.890833],
              [-85.245834, 15.898888],
              [-85.177231, 15.908888],
              [-85.11945, 15.921944],
              [-85.113892, 15.923887],
              [-85.10583, 15.927221],
              [-85.099731, 15.931665],
              [-85.088058, 15.94528],
              [-85.07223, 15.960554],
              [-85.050568, 15.974443],
              [-85.030838, 15.98361],
              [-85.023056, 15.986111],
              [-84.996964, 15.991278],
              [-84.920563, 15.977499],
              [-84.67522, 15.884998],
              [-84.67406, 15.884],
              [-84.673561, 15.8825],
              [-84.67406, 15.881166],
              [-84.68123, 15.87133],
              [-84.62556, 15.835833],
              [-84.629181, 15.822222],
              [-84.62556, 15.808332],
              [-84.61696, 15.792776],
              [-84.60583, 15.77916],
              [-84.60196, 15.77611],
              [-84.597229, 15.773888],
              [-84.59167, 15.773054],
              [-84.51112, 15.782499],
              [-84.43945, 15.821388],
              [-84.44278, 15.830276],
              [-84.525558, 15.846109],
              [-84.479736, 15.849998],
              [-84.26472, 15.82861],
              [-84.255569, 15.823332],
              [-84.11528, 15.702499],
              [-84.03778, 15.631109],
              [-83.85556, 15.459999],
              [-83.910568, 15.477777],
              [-83.941681, 15.509998],
              [-83.943893, 15.511389],
              [-84.00667, 15.534721],
              [-84.015015, 15.536665],
              [-84.161957, 15.550278],
              [-84.20529, 15.550278],
              [-84.20862, 15.549999],
              [-84.210281, 15.548332],
              [-84.210846, 15.545555],
              [-84.210281, 15.542776],
              [-84.20001, 15.51861],
              [-84.10251, 15.37611],
              [-84.09917, 15.371944],
              [-84.07751, 15.351387],
              [-84.0714, 15.346943],
              [-83.92279, 15.242222],
              [-83.91585, 15.23889],
              [-83.906403, 15.237778],
              [-83.900284, 15.239166],
              [-83.83389, 15.256666],
              [-83.8289, 15.25861],
              [-83.82417, 15.264444],
              [-83.824722, 15.271111],
              [-83.825562, 15.273611],
              [-83.8289, 15.277222],
              [-83.837234, 15.283054],
              [-83.892227, 15.319166],
              [-83.89473, 15.320276],
              [-83.94694, 15.342222],
              [-83.95917, 15.34417],
              [-83.97278, 15.343611],
              [-83.9789, 15.344444],
              [-83.98639, 15.347776],
              [-83.99445, 15.353333],
              [-84.001404, 15.360277],
              [-84.01001, 15.369165],
              [-84.02834, 15.393055],
              [-84.030838, 15.397499],
              [-84.02834, 15.405277],
              [-84.023346, 15.407776],
              [-84.001953, 15.414165],
              [-83.995285, 15.415],
              [-83.97168, 15.41055],
              [-83.95612, 15.404722],
              [-83.92778, 15.390554],
              [-83.9189, 15.38528],
              [-83.824722, 15.325277],
              [-83.813904, 15.318333],
              [-83.7764, 15.286943],
              [-83.77444, 15.285],
              [-83.76862, 15.277777],
              [-83.765015, 15.271111],
              [-83.758347, 15.19666],
              [-83.74474, 15.200554],
              [-83.633896, 15.264721],
              [-83.631905, 15.266722],
              [-83.626236, 15.269554],
              [-83.624573, 15.270054],
              [-83.57923, 15.260887],
              [-83.531403, 15.268888],
              [-83.520569, 15.250555],
              [-83.51918, 15.244999],
              [-83.528061, 15.217222],
              [-83.542511, 15.197222],
              [-83.545563, 15.196943],
              [-83.548065, 15.198055],
              [-83.551392, 15.201387],
              [-83.55751, 15.213055],
              [-83.55778, 15.215832],
              [-83.56334, 15.224443],
              [-83.5739, 15.231388],
              [-83.57973, 15.232777],
              [-83.589447, 15.23361],
              [-83.59251, 15.233332],
              [-83.597229, 15.23111],
              [-83.622787, 15.1975],
              [-83.62418, 15.19528],
              [-83.625, 15.189165],
              [-83.62195, 15.174999],
              [-83.61835, 15.171389],
              [-83.61418, 15.16861],
              [-83.57806, 15.157776],
              [-83.57167, 15.157221],
              [-83.568344, 15.1575],
              [-83.56361, 15.16],
              [-83.49695, 15.203054],
              [-83.496399, 15.23222],
              [-83.50639, 15.279722],
              [-83.50806, 15.281387],
              [-83.52389, 15.293333],
              [-83.54162, 15.299776],
              [-83.566284, 15.308277],
              [-83.62529, 15.333445],
              [-83.62811, 15.334944],
              [-83.62962, 15.337611],
              [-83.62946, 15.339443],
              [-83.624947, 15.347444],
              [-83.62295, 15.349777],
              [-83.619278, 15.352444],
              [-83.61779, 15.35294],
              [-83.61595, 15.353277],
              [-83.612289, 15.352611],
              [-83.60628, 15.35011],
              [-83.60112, 15.34678],
              [-83.5056, 15.301],
              [-83.44501, 15.278889],
              [-83.43001, 15.27305],
              [-83.400284, 15.260277],
              [-83.38667, 15.252499],
              [-83.35918, 15.227777],
              [-83.353897, 15.22167],
              [-83.33389, 15.175554],
              [-83.33223, 15.170555],
              [-83.325562, 15.139166],
              [-83.314728, 15.10861],
              [-83.30917, 15.096943],
              [-83.30307, 15.088888],
              [-83.28723, 15.07],
              [-83.27806, 15.061388],
              [-83.27, 15.055555],
              [-83.26363, 15.05139],
              [-83.24251, 15.03778],
              [-83.23334, 15.033054],
              [-83.22612, 15.03],
              [-83.190292, 15.015833],
              [-83.13185, 14.992979],
              [-83.15889, 14.987221],
              [-83.222778, 14.981388],
              [-83.233612, 14.981388],
              [-83.239731, 14.982498],
              [-83.32417, 15.004721],
              [-83.3589, 15.014999],
              [-83.38417, 15.022221],
              [-83.48584, 15.006109],
              [-83.5464, 14.948332],
              [-83.56445, 14.920555],
              [-83.569458, 14.915277],
              [-83.84112, 14.78611],
              [-83.84361, 14.785],
              [-83.864456, 14.777777],
              [-83.93806, 14.753887],
              [-83.97862, 14.755278],
              [-84.03528, 14.75444],
              [-84.19667, 14.716389],
              [-84.260284, 14.681944],
              [-84.47473, 14.61972],
              [-84.482788, 14.617777],
              [-84.489731, 14.618055],
              [-84.688614, 14.678333],
              [-84.7939, 14.81],
              [-84.79834, 14.81611],
              [-84.80196, 14.81944],
              [-84.810562, 14.824999],
              [-84.823624, 14.829443],
              [-84.8325, 14.83111],
              [-84.8389, 14.830555],
              [-84.906677, 14.808611],
              [-84.913345, 14.804722],
              [-84.98436, 14.741312],
              [-84.995285, 14.72611],
              [-85.030014, 14.669998],
              [-85.018929, 14.598236],
              [-85.022507, 14.58833],
              [-85.03241, 14.573465],
              [-85.06111, 14.553333],
              [-85.071945, 14.546665],
              [-85.07695, 14.544167],
              [-85.083069, 14.543333],
              [-85.089447, 14.54389],
              [-85.14639, 14.489166],
              [-85.18056, 14.426666],
              [-85.181122, 14.386944],
              [-85.17778, 14.38361],
              [-85.16223, 14.363888],
              [-85.15807, 14.35778],
              [-85.156113, 14.35305],
              [-85.15529, 14.346943],
              [-85.1563, 14.337627],
              [-85.158615, 14.333332],
              [-85.16631, 14.324722],
              [-85.174728, 14.318054],
              [-85.18584, 14.311388],
              [-85.210556, 14.297499],
              [-85.21556, 14.295277],
              [-85.23222, 14.295555],
              [-85.254181, 14.298332],
              [-85.2764, 14.295832],
              [-85.29834, 14.289444],
              [-85.314728, 14.281111],
              [-85.32973, 14.271387],
              [-85.376114, 14.238609],
              [-85.38028, 14.232498],
              [-85.40695, 14.179165],
              [-85.41196, 14.163332],
              [-85.41473, 14.149166],
              [-85.418335, 14.142221],
              [-85.436951, 14.122499],
              [-85.54396, 14.045719],
              [-85.55307, 14.044998],
              [-85.558624, 14.04361],
              [-85.56612, 14.040554],
              [-85.72612, 13.964998],
              [-85.73056, 13.9625],
              [-85.732788, 13.957777],
              [-85.7489, 13.891666],
              [-85.74972, 13.885832],
              [-85.7489, 13.883055],
              [-85.74556, 13.879721],
              [-85.72696, 13.869999],
              [-85.72307, 13.863609],
              [-85.72195, 13.854443],
              [-85.725006, 13.836943],
              [-85.73231, 13.82923],
              [-85.736389, 13.828609],
              [-85.79028, 13.835278],
              [-85.79834, 13.837776],
              [-85.8289, 13.85944],
              [-85.968338, 13.958887],
              [-85.99612, 13.980276],
              [-86.0175, 13.997221],
              [-86.020844, 14.000832],
              [-86.02444, 14.00778],
              [-86.025284, 14.0175],
              [-86.02167, 14.027777],
              [-86.006668, 14.043888],
              [-86.003067, 14.050833],
              [-86.00334, 14.057499],
              [-86.008057, 14.063332],
              [-86.015839, 14.065832],
              [-86.02223, 14.065277],
              [-86.066391, 14.057499],
              [-86.0739, 14.05444],
              [-86.11639, 14.034443],
              [-86.12195, 14.029444],
              [-86.1239, 14.024443],
              [-86.12862, 14.001944],
              [-86.13306, 13.992498],
              [-86.13917, 13.984444],
              [-86.31279, 13.770832],
              [-86.32085, 13.764999],
              [-86.33029, 13.760277],
              [-86.33835, 13.757776],
              [-86.398056, 13.748888],
              [-86.404175, 13.74944],
              [-86.47, 13.764166],
              [-86.566391, 13.77916],
              [-86.69778, 13.777498],
              [-86.70723, 13.776388],
              [-86.712784, 13.775],
              [-86.725281, 13.769722],
              [-86.754181, 13.756388],
              [-86.763016, 13.751621],
              [-86.76421, 13.71069],
              [-86.75084, 13.567778],
              [-86.727051, 13.465471],
              [-86.71085, 13.43417],
              [-86.696121, 13.353888],
              [-86.693344, 13.305555],
              [-86.695007, 13.296944],
              [-86.70251, 13.287222],
              [-86.733063, 13.265276],
              [-86.737228, 13.262499],
              [-86.739731, 13.261389],
              [-86.745285, 13.260832],
              [-86.77139, 13.28111],
              [-86.780014, 13.28639],
              [-86.813065, 13.29889],
              [-86.81612, 13.299166],
              [-86.827789, 13.296665],
              [-86.86, 13.283333],
              [-86.89723, 13.253887],
              [-86.9064, 13.245554],
              [-86.90945, 13.24111],
              [-86.91806, 13.195],
              [-86.91334, 13.16333],
              [-86.92473, 13.082777],
              [-86.954727, 13.037498],
              [-86.95668, 13.03583],
              [-87.020279, 12.989166],
              [-87.025284, 12.98722],
              [-87.04056, 12.98139],
              [-87.046112, 12.979721],
              [-87.04918, 12.98055],
              [-87.05196, 12.98472],
              [-87.05196, 12.99361],
              [-87.063614, 13.00028],
              [-87.09306, 12.99861],
              [-87.30139, 12.986599],
              [-87.31557, 13.029444],
              [-87.3414, 13.089722],
              [-87.360565, 13.109165],
              [-87.4425, 13.195],
              [-87.51083, 13.269165],
              [-87.513062, 13.273611],
              [-87.51334, 13.279722],
              [-87.51001, 13.28666],
              [-87.500565, 13.29805],
              [-87.45113, 13.346109],
              [-87.44723, 13.349165],
              [-87.43945, 13.35222],
              [-87.38, 13.373751],
              [-87.38, 13.378887],
              [-87.38, 13.3925],
              [-87.381119, 13.394722],
              [-87.39639, 13.41083],
              [-87.400284, 13.413887],
              [-87.446396, 13.415277],
              [-87.452225, 13.413887],
              [-87.47473, 13.397778],
              [-87.476395, 13.3925],
              [-87.47612, 13.38611],
              [-87.47057, 13.374166],
              [-87.468338, 13.365833],
              [-87.469177, 13.363333],
              [-87.47223, 13.359165],
              [-87.475845, 13.35611],
              [-87.531403, 13.346388],
              [-87.551926, 13.35697],
              [-87.56174, 13.371357],
              [-87.58982, 13.382586],
              [-87.60736, 13.374164],
              [-87.614731, 13.38048],
              [-87.614029, 13.405745],
              [-87.614029, 13.43101],
              [-87.615433, 13.449606],
              [-87.62526, 13.461185],
              [-87.63509, 13.462939],
              [-87.641052, 13.46013],
              [-87.64912, 13.452062],
              [-87.651222, 13.420833],
              [-87.66, 13.385392],
              [-87.681053, 13.362584],
              [-87.710556, 13.353611],
              [-87.73361, 13.354721],
              [-87.74251, 13.35611],
              [-87.764175, 13.369165],
              [-87.81558, 13.405386],
              [-87.75029, 13.443054],
              [-87.713348, 13.471109],
              [-87.71109, 13.481657],
              [-87.71251, 13.5],
              [-87.713, 13.502563],
              [-87.71596, 13.506744],
              [-87.7198, 13.509706],
              [-87.74785, 13.52103],
              [-87.75064, 13.521729],
              [-87.752548, 13.519985],
              [-87.75621, 13.510056],
              [-87.75778, 13.508055],
              [-87.760223, 13.50692],
              [-87.765793, 13.50831],
              [-87.782516, 13.523296],
              [-87.784256, 13.525038],
              [-87.776947, 13.572426],
              [-87.72501, 13.733332],
              [-87.69467, 13.819008],
              [-87.70306, 13.82028],
              [-87.71223, 13.82472],
              [-87.723068, 13.831944],
              [-87.72835, 13.837221],
              [-87.75029, 13.864166],
              [-87.80084, 13.896944],
              [-87.89751, 13.899088],
              [-87.90834, 13.89583],
              [-87.940567, 13.895],
              [-87.953339, 13.896111],
              [-88.00586, 13.875046],
              [-88.040436, 13.93117],
              [-88.060013, 13.963888],
              [-88.12195, 13.990555],
              [-88.16167, 13.976944],
              [-88.19688, 13.987619],
              [-88.235, 13.94028],
              [-88.25961, 13.905283],
              [-88.310562, 13.885277],
              [-88.32806, 13.892221],
              [-88.34523, 13.87486],
              [-88.35223, 13.867777],
              [-88.37056, 13.880833],
              [-88.38139, 13.884165],
              [-88.393616, 13.88444],
              [-88.413071, 13.88361],
              [-88.429169, 13.874443],
              [-88.43417, 13.865833],
              [-88.46501, 13.854166],
              [-88.47084, 13.855276],
              [-88.48889, 13.865833],
              [-88.49834, 13.91],
              [-88.500565, 13.921665],
              [-88.49501, 13.97028],
              [-88.504181, 13.98139],
              [-88.50917, 13.983332],
              [-88.62801, 14.01466],
              [-88.631958, 14.014999],
              [-88.66148, 14.014086],
              [-88.69862, 14.03639],
              [-88.704727, 14.041111],
              [-88.70889, 14.04694],
              [-88.710556, 14.05222],
              [-88.71722, 14.087221],
              [-88.72139, 14.0975],
              [-88.73418, 14.11555],
              [-88.7489, 14.1325],
              [-88.755569, 14.136389],
              [-88.761124, 14.138332],
              [-88.76723, 14.137777],
              [-88.778061, 14.131666],
              [-88.78334, 14.12611],
              [-88.798065, 14.102777],
              [-88.80278, 14.096943],
              [-88.80917, 14.093054],
              [-88.81529, 14.091944],
              [-88.82167, 14.09333],
              [-88.827515, 14.0975],
              [-88.83, 14.102221],
              [-88.83112, 14.107498],
              [-88.83112, 14.114166],
              [-88.835556, 14.13028],
              [-88.843338, 14.14667],
              [-88.860291, 14.17111],
              [-88.87001, 14.182499],
              [-88.88028, 14.192778],
              [-88.897781, 14.203609],
              [-88.90861, 14.207222],
              [-88.914734, 14.207777],
              [-88.926392, 14.205555],
              [-88.93112, 14.203333],
              [-88.9489, 14.189165],
              [-88.95473, 14.188332],
              [-88.960007, 14.19305],
              [-88.960556, 14.205],
              [-88.95947, 14.216984],
              [-88.960556, 14.221943],
              [-88.97778, 14.253887],
              [-89.02196, 14.324999],
              [-89.027512, 14.330276],
              [-89.03723, 14.334721],
              [-89.1089, 14.322498],
              [-89.11528, 14.322498],
              [-89.12112, 14.32361],
              [-89.133621, 14.328888],
              [-89.17445, 14.354721],
              [-89.213348, 14.375832],
              [-89.29779, 14.40111],
              [-89.315567, 14.404091],
              [-89.327515, 14.4075],
              [-89.33389, 14.41083],
              [-89.33974, 14.416111],
              [-89.34831, 14.431982],
              [-89.35196, 14.466944],
              [-89.35084, 14.472776],
              [-89.347229, 14.479443],
              [-89.239456, 14.58083],
              [-89.235001, 14.583332],
              [-89.22945, 14.584721],
              [-89.200012, 14.585833],
              [-89.19446, 14.58417],
              [-89.137787, 14.68472],
              [-89.13107, 14.71507],
              [-89.15085, 14.729721],
              [-89.156403, 14.734444],
              [-89.16139, 14.74028],
              [-89.22, 14.83917],
              [-89.22223, 14.843887],
              [-89.224731, 14.855555],
              [-89.224731, 14.865],
              [-89.22139, 14.87889],
              [-89.209732, 14.891388],
              [-89.20334, 14.89583],
              [-89.185989, 14.90761],
              [-89.17917, 14.917221],
              [-89.17445, 14.926109],
              [-89.170288, 14.935833],
              [-89.154175, 14.978054],
              [-89.154175, 14.981388],
              [-89.156952, 14.985832],
              [-89.17001, 14.993889],
              [-89.17778, 14.996387],
              [-89.18056, 15.000555],
              [-89.181396, 15.00333],
              [-89.17084, 15.03],
              [-89.15834, 15.056944],
              [-89.150375, 15.073481],
              [-89.14279, 15.076944],
              [-88.98056, 15.135555],
              [-88.837234, 15.247221],
              [-88.75812, 15.295523],
              [-88.668335, 15.349998],
              [-88.552505, 15.44972],
              [-88.486511, 15.50462],
              [-88.32779, 15.635277],
              [-88.317024, 15.663283],
              [-88.3139, 15.67139],
              [-88.240005, 15.714167],
              [-88.214737, 15.72444],
              [-88.20815, 15.716941],
              [-88.20195, 15.71],
              [-88.190292, 15.700554],
              [-88.175568, 15.690832],
              [-88.16362, 15.684721],
              [-88.152512, 15.681944],
              [-88.13863, 15.681665],
              [-88.13223, 15.682499],
              [-88.124451, 15.685276],
              [-88.11751, 15.688889],
              [-88.10335, 15.70278],
              [-88.03195, 15.78639],
              [-87.916397, 15.864721],
              [-87.86473, 15.887777],
              [-87.816681, 15.898611],
              [-87.807785, 15.900555],
              [-87.797791, 15.900555],
              [-87.762787, 15.89361],
              [-87.7489, 15.894444],
              [-87.74251, 15.898333],
              [-87.73695, 15.90361],
              [-87.727234, 15.91805],
              [-87.725571, 15.919722],
              [-87.72084, 15.921944],
              [-87.714447, 15.922777],
              [-87.704727, 15.922499],
              [-87.69917, 15.920832],
              [-87.62862, 15.882776],
              [-87.59418, 15.862499],
              [-87.53334, 15.808332],
              [-87.527237, 15.803888],
              [-87.520569, 15.799721],
              [-87.48695, 15.787498],
              [-87.476669, 15.783888],
              [-87.47057, 15.783054],
              [-87.46362, 15.783333],
              [-87.44751, 15.785276],
              [-87.4425, 15.787498],
              [-87.38473, 15.82],
              [-87.38028, 15.822777],
              [-87.31334, 15.836111],
              [-87.28639, 15.82778],
              [-87.163345, 15.799444],
              [-86.96474, 15.75889],
              [-86.938904, 15.756388],
              [-86.897507, 15.75555],
              [-86.82501, 15.768888],
              [-86.811951, 15.773888],
              [-86.797501, 15.784166],
              [-86.72778, 15.788332],
              [-86.48834, 15.801109],
              [-86.43501, 15.779999],
              [-86.41808, 15.77147],
              [-86.4164, 15.770277],
              [-86.405838, 15.766943],
              [-86.39917, 15.766388],
              [-86.3925, 15.766666],
              [-86.357788, 15.769444],
              [-86.2764, 15.808887],
              [-86.266678, 15.81361],
              [-86.256393, 15.820833],
              [-86.2489, 15.82778],
              [-86.24583, 15.831388],
              [-86.230835, 15.854721],
              [-86.22751, 15.85861],
              [-86.2014, 15.87444],
              [-86.186676, 15.880833],
              [-86.178894, 15.88361],
              [-86.129181, 15.894722],
              [-86.12001, 15.896111],
              [-86.10278, 15.896944],
              [-86.04445, 15.894999],
              [-86.020279, 15.894999],
              [-85.99695, 15.896944],
              [-85.98584, 15.899721],
              [-85.95946, 15.91222],
              [-85.944458, 15.921944],
              [-85.93056, 15.93278],
              [-85.91806, 15.94444],
              [-85.91196, 15.952499],
              [-85.90834, 15.95917],
              [-85.90445, 15.972776],
              [-85.90334, 15.978333],
              [-85.90334, 15.988609],
              [-85.905014, 15.997499],
              [-85.906952, 15.999166],
              [-85.912506, 16.000553],
              [-85.931122, 16.001663],
              [-85.94473, 16.00222],
              [-85.95195, 16.00222],
              [-85.967514, 16],
              [-85.974731, 16],
              [-85.98029, 16.001663],
              [-86.012787, 16.015],
              [-86.01472, 16.016666],
              [-86.01556, 16.018887],
              [-86.01501, 16.021664],
              [-86.01334, 16.023888],
              [-86.0114, 16.02528],
              [-86.008621, 16.025833],
              [-86.0014, 16.025833],
              [-85.923889, 16.02],
              [-85.841949, 16.010555]
            ]
          ],
          [
            [
              [-86.883621, 16.086666],
              [-86.954178, 16.069443],
              [-86.96556, 16.071388],
              [-86.98251, 16.079166],
              [-86.989182, 16.082775],
              [-86.99084, 16.084721],
              [-86.991669, 16.087219],
              [-86.99084, 16.092499],
              [-86.98445, 16.099442],
              [-86.98222, 16.10083],
              [-86.92389, 16.11777],
              [-86.87611, 16.121666],
              [-86.87167, 16.119442],
              [-86.87028, 16.117222],
              [-86.87112, 16.114166],
              [-86.88028, 16.090553],
              [-86.881668, 16.088055],
              [-86.883621, 16.086666]
            ]
          ],
          [
            [
              [-86.59973, 16.296108],
              [-86.62668, 16.270275],
              [-86.632507, 16.271385],
              [-86.635284, 16.275555],
              [-86.634445, 16.29305],
              [-86.62195, 16.310555],
              [-86.60806, 16.328331],
              [-86.59639, 16.337776],
              [-86.58667, 16.34222],
              [-86.44723, 16.405552],
              [-86.44473, 16.406666],
              [-86.41028, 16.421665],
              [-86.401947, 16.42388],
              [-86.340286, 16.435276],
              [-86.33417, 16.436386],
              [-86.30334, 16.431942],
              [-86.26334, 16.423332],
              [-86.27945, 16.416111],
              [-86.315292, 16.413055],
              [-86.37112, 16.400555],
              [-86.37695, 16.399166],
              [-86.574722, 16.309998],
              [-86.59778, 16.297775],
              [-86.59973, 16.296108]
            ]
          ],
          [
            [
              [-85.94473, 16.409721],
              [-85.950562, 16.40833],
              [-85.9539, 16.408607],
              [-85.95529, 16.41333],
              [-85.94112, 16.441666],
              [-85.93834, 16.445831],
              [-85.90028, 16.49472],
              [-85.88057, 16.504719],
              [-85.86528, 16.506664],
              [-85.841125, 16.503609],
              [-85.835556, 16.498886],
              [-85.83473, 16.49277],
              [-85.83639, 16.487778],
              [-85.839737, 16.484165],
              [-85.87112, 16.45583],
              [-85.94473, 16.409721]
            ]
          ],
          [
            [
              [-83.94667, 17.405277],
              [-83.952515, 17.405277],
              [-83.95612, 17.408607],
              [-83.95889, 17.414165],
              [-83.95529, 17.417774],
              [-83.948624, 17.416943],
              [-83.944458, 17.414165],
              [-83.94307, 17.408607],
              [-83.94667, 17.405277]
            ]
          ],
          [
            [
              [-83.910568, 17.409721],
              [-83.916397, 17.40833],
              [-83.92279, 17.40916],
              [-83.926392, 17.412777],
              [-83.926392, 17.416664],
              [-83.92279, 17.420277],
              [-83.91, 17.41861],
              [-83.90779, 17.41389],
              [-83.910568, 17.409721]
            ]
          ]
        ]
      }
    }
  ]
}
