{
    "abbrev": "I.C.",
    "abbrev_len": "4",
    "adm0_a3": "CIV",
    "adm0_a3_is": "CIV",
    "adm0_a3_un": "-99",
    "adm0_a3_us": "CIV",
    "adm0_a3_wb": "-99",
    "adm0_dif": "0",
    "admin": "Ivory Coast",
    "alt_spellings": [
        "CI",
        "C\u00f4te d'Ivoire",
        "Ivory Coast",
        "Republic of C\u00f4te d'Ivoire",
        "R\u00e9publique de C\u00f4te d'Ivoire"
    ],
    "borders": [
        "BFA",
        "GHA",
        "GIN",
        "LBR",
        "MLI"
    ],
    "brk_a3": "CIV",
    "brk_diff": "0",
    "brk_group": "",
    "brk_name": "C\u00c3\u00b4te d'Ivoire",
    "capital": [
        "Yamoussoukro"
    ],
    "capital_rinvex": "Yamoussoukro",
    "cca2": "CI",
    "cca3": "CIV",
    "ccn3": "384",
    "cioc": "CIV",
    "currencies": [
        "XOF"
    ],
    "data_sources": [
        "mledoze",
        "natural"
    ],
    "demonym": "Ivorian",
    "dialling": {
        "calling_code": [
            "225"
        ],
        "international_prefix": "00",
        "national_destination_code_lengths": [
            2
        ],
        "national_number_lengths": [
            8
        ],
        "national_prefix": "0"
    },
    "economy": "6. Developing region",
    "extra": {
        "address_format": null,
        "ar5": "MAF",
        "cowc": "CDI",
        "cown": 437,
        "ds": "CI",
        "edgar": 0,
        "emoji": "\ud83c\udde8\ud83c\uddee",
        "eu_member": null,
        "fao": 107,
        "fifa": "CIV",
        "fips": "IV",
        "gaul": 66,
        "geonameid": 2287781,
        "imf": 662,
        "ioc": "CIV",
        "itu": "CTI",
        "marc": "iv",
        "vat_rates": null,
        "wmo": "IV"
    },
    "featurecla": "Admin-0 country",
    "fips_10_": "IV",
    "flag": {
        "emoji": "\ud83c\udde8\ud83c\uddee"
    },
    "formal_en": "Republic of Ivory Coast",
    "formal_fr": "Republic of Cote D'Ivoire",
    "gdp_md_est": "87120.00",
    "gdp_year": "2016",
    "geo": {
        "area": 322463,
        "borders": [
            "BFA",
            "GHA",
            "GIN",
            "LBR",
            "MLI"
        ],
        "continent": {
            "AF": "Africa"
        },
        "independent": "Yes",
        "landlocked": false,
        "latitude": "8 00 N",
        "latitude_desc": "7.598755359649658",
        "latlng": [
            8,
            -5
        ],
        "longitude": "5 00 W",
        "longitude_desc": "-5.552574634552002",
        "max_latitude": "10.652222",
        "max_longitude": "-2.566667",
        "min_latitude": "4.35",
        "min_longitude": "-8.538889",
        "postal_code": false,
        "region": "Africa",
        "region_code": "002",
        "region_un": "Africa",
        "region_wb": "Sub-Saharan Africa",
        "subregion": "Western Africa",
        "subregion_code": "011",
        "world_region": "EMEA"
    },
    "geou_dif": "0",
    "geounit": "Ivory Coast",
    "gu_a3": "CIV",
    "homepart": "1",
    "idd": {
        "root": "+2",
        "suffixes": [
            "25"
        ]
    },
    "income_grp": "4. Lower middle income",
    "independent": true,
    "iso_3166_1_alpha2": "CI",
    "iso_3166_1_alpha3": "CIV",
    "iso_3166_1_numeric": "384",
    "iso_a2": "CI",
    "iso_a3": "CIV",
    "iso_a3_eh": "CIV",
    "iso_n3": "384",
    "labelrank": "3",
    "languages": {
        "fra": "French"
    },
    "lastcensus": "1998",
    "level": "2",
    "long_len": "13",
    "mapcolor7": "4",
    "mapcolor8": "6",
    "mapcolor9": "3",
    "mapcolor13": "3",
    "max_label": "8.0",
    "min_label": "3.0",
    "min_zoom": "0.0",
    "name": {
        "common": "Ivory Coast",
        "native": {
            "fra": {
                "common": "C\u00f4te d'Ivoire",
                "official": "R\u00e9publique de C\u00f4te d'Ivoire"
            }
        },
        "official": "Republic of C\u00f4te d'Ivoire"
    },
    "name_alt": "",
    "name_ar": "\u00d8\u00b3\u00d8\u00a7\u00d8\u00ad\u00d9\u0084 \u00d8\u00a7\u00d9\u0084\u00d8\u00b9\u00d8\u00a7\u00d8\u00ac",
    "name_bn": "\u00e0\u00a6\u0095\u00e0\u00a7\u008b\u00e0\u00a6\u00a4 \u00e0\u00a6\u00a6\u00e0\u00a6\u00bf\u00e0\u00a6\u00ad\u00e0\u00a7\u008b\u00e0\u00a6\u00af\u00e0\u00a6\u00bc\u00e0\u00a6\u00be\u00e0\u00a6\u00b0",
    "name_ciawf": "Cote D'ivoire",
    "name_de": "Elfenbeink\u00c3\u00bcste",
    "name_el": "\u00ce\u0091\u00ce\u00ba\u00cf\u0084\u00ce\u00ae \u00ce\u0095\u00ce\u00bb\u00ce\u00b5\u00cf\u0086\u00ce\u00b1\u00ce\u00bd\u00cf\u0084\u00ce\u00bf\u00cf\u0083\u00cf\u0084\u00ce\u00bf\u00cf\u008d",
    "name_en": "Ivory Coast",
    "name_es": "Costa de Marfil",
    "name_fr": "C\u00c3\u00b4te d'Ivoire",
    "name_hi": "\u00e0\u00a4\u0095\u00e0\u00a5\u008b\u00e0\u00a4\u00a4 \u00e0\u00a4\u00a6'\u00e0\u00a4\u0088\u00e0\u00a4\u00b5\u00e0\u00a5\u008b\u00e0\u00a4\u0086\u00e0\u00a4\u00b0",
    "name_hu": "Elef\u00c3\u00a1ntcsontpart",
    "name_id": "Pantai Gading",
    "name_it": "Costa d'Avorio",
    "name_ja": "\u00e3\u0082\u00b3\u00e3\u0083\u00bc\u00e3\u0083\u0088\u00e3\u0082\u00b8\u00e3\u0083\u009c\u00e3\u0083\u00af\u00e3\u0083\u00bc\u00e3\u0083\u00ab",
    "name_ko": "\u00ec\u00bd\u0094\u00ed\u008a\u00b8\u00eb\u0094\u0094\u00eb\u00b6\u0080\u00ec\u0095\u0084\u00eb\u00a5\u00b4",
    "name_len": "13",
    "name_long": "C\u00c3\u00b4te d'Ivoire",
    "name_nev": "C\u00c3\u00b4te d'Ivoire",
    "name_nl": "Ivoorkust",
    "name_pl": "Wybrze\u00c5\u00bce Ko\u00c5\u009bci S\u00c5\u0082oniowej",
    "name_pt": "Costa do Marfim",
    "name_ru": "\u00d0\u009a\u00d0\u00be\u00d1\u0082-\u00d0\u00b4\u00e2\u0080\u0099\u00d0\u0098\u00d0\u00b2\u00d1\u0083\u00d0\u00b0\u00d1\u0080",
    "name_sort": "C\u00c3\u00b4te d'Ivoire",
    "name_sv": "Elfenbenskusten",
    "name_tr": "Fildi\u00c5\u009fi Sahili",
    "name_vi": "B\u00e1\u00bb\u009d Bi\u00e1\u00bb\u0083n Ng\u00c3\u00a0",
    "name_zh": "\u00e7\u00a7\u0091\u00e7\u0089\u00b9\u00e8\u00bf\u00aa\u00e7\u0093\u00a6",
    "ne_id": "1159320507",
    "note_adm0": "",
    "note_brk": "",
    "pop_est": "24184810",
    "pop_rank": "15",
    "pop_year": "2017",
    "postal": "CI",
    "record_type": "country",
    "scalerank": "0",
    "sov_a3": "CIV",
    "sovereignt": "Ivory Coast",
    "status": "officially-assigned",
    "su_a3": "CIV",
    "su_dif": "0",
    "subunit": "Ivory Coast",
    "tiny": "-99",
    "tld": [
        ".ci"
    ],
    "translations": {
        "ces": {
            "common": "Pob\u0159e\u017e\u00ed slonoviny",
            "official": "Republika Pob\u0159e\u017e\u00ed slonoviny"
        },
        "deu": {
            "common": "Elfenbeink\u00fcste",
            "official": "Republik C\u00f4te d'Ivoire"
        },
        "est": {
            "common": "Elevandiluurannik",
            "official": "C\u00f4te d\u2019Ivoire\u2019i Vabariik"
        },
        "fin": {
            "common": "Norsunluurannikko",
            "official": "Norsunluurannikon tasavalta"
        },
        "fra": {
            "common": "C\u00f4te d'Ivoire",
            "official": "R\u00e9publique de C\u00f4te d' Ivoire"
        },
        "hrv": {
            "common": "Obala Bjelokosti",
            "official": "Republika C\u00f4te d'Ivoire"
        },
        "ita": {
            "common": "Costa d'Avorio",
            "official": "Repubblica della Costa d'Avorio"
        },
        "jpn": {
            "common": "\u30b3\u30fc\u30c8\u30b8\u30dc\u30ef\u30fc\u30eb",
            "official": "\u30b3\u30fc\u30c8\u30b8\u30dc\u30ef\u30fc\u30eb\u5171\u548c\u56fd"
        },
        "kor": {
            "common": "\ucf54\ud2b8\ub514\ubd80\uc544\ub974",
            "official": "\ucf54\ud2b8\ub514\ubd80\uc544\ub974 \uacf5\ud654\uad6d"
        },
        "nld": {
            "common": "Ivoorkust",
            "official": "Republiek Ivoorkust"
        },
        "per": {
            "common": "\u0633\u0627\u062d\u0644 \u0639\u0627\u062c",
            "official": "\u062c\u0645\u0647\u0648\u0631\u06cc \u0633\u0627\u062d\u0644 \u0639\u0627\u062c"
        },
        "pol": {
            "common": "Wybrze\u017be Ko\u015bci S\u0142oniowej",
            "official": "Republika Wybrze\u017ba Ko\u015bci S\u0142oniowej"
        },
        "por": {
            "common": "Costa do Marfim",
            "official": "Rep\u00fablica da C\u00f4te d'Ivoire"
        },
        "rus": {
            "common": "\u041a\u043e\u0442-\u0434\u2019\u0418\u0432\u0443\u0430\u0440",
            "official": "\u0420\u0435\u0441\u043f\u0443\u0431\u043b\u0438\u043a\u0430 \u041a\u043e\u0442-\u0434'\u0418\u0432\u0443\u0430\u0440\u0435"
        },
        "slk": {
            "common": "Pobr\u017eie Slonoviny",
            "official": "Republika Pobre\u017eie Slonoviny"
        },
        "spa": {
            "common": "Costa de Marfil",
            "official": "Rep\u00fablica de C\u00f4te d'Ivoire"
        },
        "urd": {
            "common": "\u0622\u0626\u06cc\u0648\u0631\u06cc \u06a9\u0648\u0633\u0679",
            "official": "\u062c\u0645\u06c1\u0648\u0631\u06cc\u06c1 \u06a9\u0648\u062a \u062f\u06cc\u0648\u0627\u063a"
        },
        "zho": {
            "common": "\u79d1\u7279\u8fea\u74e6",
            "official": "\u79d1\u7279\u8fea\u74e6\u5171\u548c\u56fd"
        }
    },
    "type": "Sovereign country",
    "un_a3": "384",
    "wb_a2": "CI",
    "wb_a3": "CIV",
    "wikidataid": "Q1008",
    "wikipedia": "-99",
    "woe_id": "23424854",
    "woe_id_eh": "23424854",
    "woe_note": "Exact WOE match as country"
}