{
    "abbrev": "Den.",
    "abbrev_len": "4",
    "adm0_a3": "DNK",
    "adm0_a3_is": "DNK",
    "adm0_a3_un": "-99",
    "adm0_a3_us": "DNK",
    "adm0_a3_wb": "-99",
    "adm0_dif": "1",
    "admin": "Denmark",
    "alt_spellings": [
        "DK",
        "Danmark",
        "Kingdom of Denmark",
        "Kongeriget Danmark"
    ],
    "borders": [
        "DEU"
    ],
    "brk_a3": "DNK",
    "brk_diff": "0",
    "brk_group": "",
    "brk_name": "Denmark",
    "capital": [
        "Copenhagen"
    ],
    "capital_rinvex": "Copenhagen",
    "cca2": "DK",
    "cca3": "DNK",
    "ccn3": "208",
    "cioc": "DEN",
    "currencies": [
        "DKK"
    ],
    "data_sources": [
        "mledoze",
        "natural"
    ],
    "demonym": "Danish",
    "dialling": {
        "calling_code": [
            "45"
        ],
        "international_prefix": "00",
        "national_destination_code_lengths": [
            2
        ],
        "national_number_lengths": [
            8
        ],
        "national_prefix": null
    },
    "economy": "2. Developed region: nonG7",
    "extra": {
        "address_format": "{{recipient}}{{street}}{{postalcode}} {{city}}{{region}}{{country}}",
        "ar5": "OECD1990",
        "cowc": "DEN",
        "cown": 390,
        "ds": "DK",
        "edgar": "G7",
        "emoji": "\ud83c\udde9\ud83c\uddf0",
        "eu_member": true,
        "fao": 54,
        "fifa": "DEN",
        "fips": "DA",
        "gaul": 69,
        "geonameid": 2623032,
        "imf": 128,
        "ioc": "DEN",
        "itu": "DNK",
        "marc": "dk",
        "vat_rates": {
            "parking": null,
            "reduced": [],
            "standard": 25,
            "super_reduced": null
        },
        "wmo": "DN"
    },
    "featurecla": "Admin-0 country",
    "fips_10_": "DA",
    "flag": {
        "emoji": "\ud83c\udde9\ud83c\uddf0"
    },
    "formal_en": "Kingdom of Denmark",
    "formal_fr": "",
    "gdp_md_est": "264800.00",
    "gdp_year": "2016",
    "geo": {
        "area": 43094,
        "borders": [
            "DEU"
        ],
        "continent": {
            "EU": "Europe"
        },
        "independent": "Yes",
        "landlocked": false,
        "latitude": "56 00 N",
        "latitude_desc": "56.10176086425781",
        "latlng": [
            56,
            10
        ],
        "longitude": "10 00 E",
        "longitude_desc": "9.555907249450684",
        "max_latitude": "64",
        "max_longitude": "18",
        "min_latitude": "53.583333",
        "min_longitude": "4.516667",
        "postal_code": true,
        "region": "Europe",
        "region_code": "150",
        "region_un": "Europe",
        "region_wb": "Europe & Central Asia",
        "subregion": "Northern Europe",
        "subregion_code": "154",
        "world_region": "EMEA"
    },
    "geou_dif": "0",
    "geounit": "Denmark",
    "gu_a3": "DNK",
    "homepart": "1",
    "idd": {
        "root": "+4",
        "suffixes": [
            "5"
        ]
    },
    "income_grp": "1. High income: OECD",
    "independent": true,
    "iso_3166_1_alpha2": "DK",
    "iso_3166_1_alpha3": "DNK",
    "iso_3166_1_numeric": "208",
    "iso_a2": "DK",
    "iso_a3": "DNK",
    "iso_a3_eh": "DNK",
    "iso_n3": "208",
    "labelrank": "4",
    "languages": {
        "dan": "Danish"
    },
    "lastcensus": "2011",
    "level": "2",
    "long_len": "7",
    "mapcolor7": "4",
    "mapcolor8": "1",
    "mapcolor9": "3",
    "mapcolor13": "12",
    "max_label": "8.0",
    "min_label": "3.0",
    "min_zoom": "0.0",
    "name": {
        "common": "Denmark",
        "native": {
            "dan": {
                "common": "Danmark",
                "official": "Kongeriget Danmark"
            }
        },
        "official": "Kingdom of Denmark"
    },
    "name_alt": "",
    "name_ar": "\u00d8\u00a7\u00d9\u0084\u00d8\u00af\u00d9\u0086\u00d9\u0085\u00d8\u00a7\u00d8\u00b1\u00d9\u0083",
    "name_bn": "\u00e0\u00a6\u00a1\u00e0\u00a7\u0087\u00e0\u00a6\u00a8\u00e0\u00a6\u00ae\u00e0\u00a6\u00be\u00e0\u00a6\u00b0\u00e0\u00a7\u008d\u00e0\u00a6\u0095",
    "name_ciawf": "Denmark",
    "name_de": "D\u00c3\u00a4nemark",
    "name_el": "\u00ce\u0094\u00ce\u00b1\u00ce\u00bd\u00ce\u00af\u00ce\u00b1",
    "name_en": "Denmark",
    "name_es": "Dinamarca",
    "name_fr": "Danemark",
    "name_hi": "\u00e0\u00a4\u00a1\u00e0\u00a5\u0087\u00e0\u00a4\u00a8\u00e0\u00a4\u00ae\u00e0\u00a4\u00be\u00e0\u00a4\u00b0\u00e0\u00a5\u008d\u00e0\u00a4\u0095",
    "name_hu": "D\u00c3\u00a1nia",
    "name_id": "Denmark",
    "name_it": "Danimarca",
    "name_ja": "\u00e3\u0083\u0087\u00e3\u0083\u00b3\u00e3\u0083\u009e\u00e3\u0083\u00bc\u00e3\u0082\u00af",
    "name_ko": "\u00eb\u008d\u00b4\u00eb\u00a7\u0088\u00ed\u0081\u00ac",
    "name_len": "7",
    "name_long": "Denmark",
    "name_nev": "Denmark",
    "name_nl": "Denemarken",
    "name_pl": "Dania",
    "name_pt": "Dinamarca",
    "name_ru": "\u00d0\u0094\u00d0\u00b0\u00d0\u00bd\u00d0\u00b8\u00d1\u008f",
    "name_sort": "Denmark",
    "name_sv": "Danmark",
    "name_tr": "Danimarka",
    "name_vi": "\u00c4\u0090an M\u00e1\u00ba\u00a1ch",
    "name_zh": "\u00e4\u00b8\u00b9\u00e9\u00ba\u00a6",
    "ne_id": "1159320547",
    "note_adm0": "",
    "note_brk": "",
    "pop_est": "5605948",
    "pop_rank": "13",
    "pop_year": "2017",
    "postal": "DK",
    "record_type": "country",
    "scalerank": "0",
    "sov_a3": "DN1",
    "sovereignt": "Denmark",
    "status": "officially-assigned",
    "su_a3": "DNK",
    "su_dif": "0",
    "subunit": "Denmark",
    "tiny": "-99",
    "tld": [
        ".dk"
    ],
    "translations": {
        "ces": {
            "common": "D\u00e1nsko",
            "official": "D\u00e1nsk\u00e9 kr\u00e1lovstv\u00ed"
        },
        "cym": {
            "common": "Denmarc",
            "official": "Kingdom of Denmark"
        },
        "deu": {
            "common": "D\u00e4nemark",
            "official": "K\u00f6nigreich D\u00e4nemark"
        },
        "est": {
            "common": "Taani",
            "official": "Taani Kuningriik"
        },
        "fin": {
            "common": "Tanska",
            "official": "Tanskan kuningaskunta"
        },
        "fra": {
            "common": "Danemark",
            "official": "Royaume du Danemark"
        },
        "hrv": {
            "common": "Danska",
            "official": "Kraljevina Danska"
        },
        "ita": {
            "common": "Danimarca",
            "official": "Regno di Danimarca"
        },
        "jpn": {
            "common": "\u30c7\u30f3\u30de\u30fc\u30af",
            "official": "\u30c7\u30f3\u30de\u30fc\u30af\u738b\u56fd"
        },
        "kor": {
            "common": "\ub374\ub9c8\ud06c",
            "official": "\ub374\ub9c8\ud06c \uc655\uad6d"
        },
        "nld": {
            "common": "Denemarken",
            "official": "Koninkrijk Denemarken"
        },
        "per": {
            "common": "\u062f\u0627\u0646\u0645\u0627\u0631\u06a9",
            "official": "\u067e\u0627\u062f\u0634\u0627\u0647\u06cc \u062f\u0627\u0646\u0645\u0627\u0631\u06a9"
        },
        "pol": {
            "common": "Dania",
            "official": "Kr\u00f3lestwo Danii"
        },
        "por": {
            "common": "Dinamarca",
            "official": "Reino da Dinamarca"
        },
        "rus": {
            "common": "\u0414\u0430\u043d\u0438\u044f",
            "official": "\u041a\u043e\u0440\u043e\u043b\u0435\u0432\u0441\u0442\u0432\u043e \u0414\u0430\u043d\u0438\u044f"
        },
        "slk": {
            "common": "D\u00e1nsko",
            "official": "D\u00e1nske kr\u00e1\u013eovstvo"
        },
        "spa": {
            "common": "Dinamarca",
            "official": "Reino de Dinamarca"
        },
        "urd": {
            "common": "\u0688\u0646\u0645\u0627\u0631\u06a9",
            "official": "\u0645\u0645\u0644\u06a9\u062a\u0650 \u0688\u0646\u0645\u0627\u0631\u06a9"
        },
        "zho": {
            "common": "\u4e39\u9ea6",
            "official": "\u4e39\u9ea6\u738b\u56fd"
        }
    },
    "type": "Country",
    "un_a3": "208",
    "wb_a2": "DK",
    "wb_a3": "DNK",
    "wikidataid": "Q35",
    "wikipedia": "-99",
    "woe_id": "23424796",
    "woe_id_eh": "23424796",
    "woe_note": "Exact WOE match as country"
}