{
    "abbrev": "India",
    "abbrev_len": "5",
    "adm0_a3": "IND",
    "adm0_a3_is": "IND",
    "adm0_a3_un": "-99",
    "adm0_a3_us": "IND",
    "adm0_a3_wb": "-99",
    "adm0_dif": "0",
    "admin": "India",
    "alt_spellings": [
        "IN",
        "Bh\u0101rat",
        "Republic of India",
        "Bharat Ganrajya",
        "\u0b87\u0ba8\u0bcd\u0ba4\u0bbf\u0baf\u0bbe"
    ],
    "borders": [
        "BGD",
        "BTN",
        "MMR",
        "CHN",
        "NPL",
        "PAK"
    ],
    "brk_a3": "IND",
    "brk_diff": "0",
    "brk_group": "",
    "brk_name": "India",
    "capital": [
        "New Delhi"
    ],
    "capital_rinvex": "New Delhi",
    "cca2": "IN",
    "cca3": "IND",
    "ccn3": "356",
    "cioc": "IND",
    "currencies": [
        "INR"
    ],
    "data_sources": [
        "mledoze",
        "natural"
    ],
    "demonym": "Indian",
    "dialling": {
        "calling_code": [
            "91"
        ],
        "international_prefix": "00",
        "national_destination_code_lengths": [
            2
        ],
        "national_number_lengths": [
            10
        ],
        "national_prefix": "0"
    },
    "economy": "3. Emerging region: BRIC",
    "extra": {
        "address_format": "{{recipient}}{{street}}{{region}}{{city}} {{postalcode}}{{country}}",
        "ar5": "ASIA",
        "cowc": "IND",
        "cown": 750,
        "ds": "IND",
        "edgar": "K7",
        "emoji": "\ud83c\uddee\ud83c\uddf3",
        "eu_member": null,
        "fao": 100,
        "fifa": "IND",
        "fips": "IN",
        "gaul": 115,
        "geonameid": 1269750,
        "imf": 534,
        "ioc": "IND",
        "itu": "IND",
        "marc": "ii",
        "vat_rates": null,
        "wmo": "IN"
    },
    "featurecla": "Admin-0 country",
    "fips_10_": "IN",
    "flag": {
        "emoji": "\ud83c\uddee\ud83c\uddf3"
    },
    "formal_en": "Republic of India",
    "formal_fr": "",
    "gdp_md_est": "8721000.00",
    "gdp_year": "2016",
    "geo": {
        "area": 3287590,
        "borders": [
            "AFG",
            "BGD",
            "BTN",
            "MMR",
            "CHN",
            "NPL",
            "PAK",
            "LKA"
        ],
        "continent": {
            "AS": "Asia"
        },
        "independent": "Yes",
        "landlocked": false,
        "latitude": "20 00 N",
        "latitude_desc": "23.4060115814209",
        "latlng": [
            20,
            77
        ],
        "longitude": "77 00 E",
        "longitude_desc": "79.45809173583984",
        "max_latitude": "35.9558333333",
        "max_longitude": "97.35",
        "min_latitude": "6.755556",
        "min_longitude": "67.016667",
        "postal_code": true,
        "region": "Asia",
        "region_code": "142",
        "region_un": "Asia",
        "region_wb": "South Asia",
        "subregion": "Southern Asia",
        "subregion_code": "034",
        "world_region": "APAC"
    },
    "geou_dif": "0",
    "geounit": "India",
    "gu_a3": "IND",
    "homepart": "1",
    "idd": {
        "root": "+9",
        "suffixes": [
            "1"
        ]
    },
    "income_grp": "4. Lower middle income",
    "independent": true,
    "iso_3166_1_alpha2": "IN",
    "iso_3166_1_alpha3": "IND",
    "iso_3166_1_numeric": "356",
    "iso_a2": "IN",
    "iso_a3": "IND",
    "iso_a3_eh": "IND",
    "iso_n3": "356",
    "labelrank": "2",
    "languages": {
        "eng": "English",
        "hin": "Hindi",
        "tam": "Tamil"
    },
    "lastcensus": "2011",
    "level": "2",
    "long_len": "5",
    "mapcolor7": "1",
    "mapcolor8": "3",
    "mapcolor9": "2",
    "mapcolor13": "2",
    "max_label": "6.7",
    "min_label": "1.7",
    "min_zoom": "0.0",
    "name": {
        "common": "India",
        "native": {
            "eng": {
                "common": "India",
                "official": "Republic of India"
            },
            "hin": {
                "common": "\u092d\u093e\u0930\u0924",
                "official": "\u092d\u093e\u0930\u0924 \u0917\u0923\u0930\u093e\u091c\u094d\u092f"
            },
            "tam": {
                "common": "\u0b87\u0ba8\u0bcd\u0ba4\u0bbf\u0baf\u0bbe",
                "official": "\u0b87\u0ba8\u0bcd\u0ba4\u0bbf\u0baf\u0b95\u0bcd \u0b95\u0bc1\u0b9f\u0bbf\u0baf\u0bb0\u0b9a\u0bc1"
            }
        },
        "official": "Republic of India"
    },
    "name_alt": "",
    "name_ar": "\u00d8\u00a7\u00d9\u0084\u00d9\u0087\u00d9\u0086\u00d8\u00af",
    "name_bn": "\u00e0\u00a6\u00ad\u00e0\u00a6\u00be\u00e0\u00a6\u00b0\u00e0\u00a6\u00a4",
    "name_ciawf": "India",
    "name_de": "Indien",
    "name_el": "\u00ce\u0099\u00ce\u00bd\u00ce\u00b4\u00ce\u00af\u00ce\u00b1",
    "name_en": "India",
    "name_es": "India",
    "name_fr": "Inde",
    "name_hi": "\u00e0\u00a4\u00ad\u00e0\u00a4\u00be\u00e0\u00a4\u00b0\u00e0\u00a4\u00a4",
    "name_hu": "India",
    "name_id": "India",
    "name_it": "India",
    "name_ja": "\u00e3\u0082\u00a4\u00e3\u0083\u00b3\u00e3\u0083\u0089",
    "name_ko": "\u00ec\u009d\u00b8\u00eb\u008f\u0084",
    "name_len": "5",
    "name_long": "India",
    "name_nev": "India",
    "name_nl": "India",
    "name_pl": "Indie",
    "name_pt": "\u00c3\u008dndia",
    "name_ru": "\u00d0\u0098\u00d0\u00bd\u00d0\u00b4\u00d0\u00b8\u00d1\u008f",
    "name_sort": "India",
    "name_sv": "Indien",
    "name_tr": "Hindistan",
    "name_vi": "\u00e1\u00ba\u00a4n \u00c4\u0090\u00e1\u00bb\u0099",
    "name_zh": "\u00e5\u008d\u00b0\u00e5\u00ba\u00a6",
    "ne_id": "1159320847",
    "note_adm0": "",
    "note_brk": "",
    "pop_est": "1281935911",
    "pop_rank": "18",
    "pop_year": "2017",
    "postal": "IND",
    "record_type": "country",
    "scalerank": "0",
    "sov_a3": "IND",
    "sovereignt": "India",
    "status": "officially-assigned",
    "su_a3": "IND",
    "su_dif": "0",
    "subunit": "India",
    "tiny": "-99",
    "tld": [
        ".in"
    ],
    "translations": {
        "ces": {
            "common": "Indie",
            "official": "Indick\u00e1 republika"
        },
        "deu": {
            "common": "Indien",
            "official": "Republik Indien"
        },
        "est": {
            "common": "India",
            "official": "India Vabariik"
        },
        "fin": {
            "common": "Intia",
            "official": "Intian tasavalta"
        },
        "fra": {
            "common": "Inde",
            "official": "R\u00e9publique de l'Inde"
        },
        "hrv": {
            "common": "Indija",
            "official": "Republika Indija"
        },
        "ita": {
            "common": "India",
            "official": "Repubblica dell'India"
        },
        "jpn": {
            "common": "\u30a4\u30f3\u30c9",
            "official": "\u30a4\u30f3\u30c9\u5171\u548c\u56fd"
        },
        "kor": {
            "common": "\uc778\ub3c4",
            "official": "\uc778\ub3c4 \uacf5\ud654\uad6d"
        },
        "nld": {
            "common": "India",
            "official": "Republiek India"
        },
        "per": {
            "common": "\u0647\u0646\u062f",
            "official": "\u062c\u0645\u0647\u0648\u0631\u06cc \u0647\u0646\u062f\u0648\u0633\u062a\u0627\u0646"
        },
        "pol": {
            "common": "Indie",
            "official": "Republika Indii"
        },
        "por": {
            "common": "\u00cdndia",
            "official": "Rep\u00fablica da \u00cdndia"
        },
        "rus": {
            "common": "\u0418\u043d\u0434\u0438\u044f",
            "official": "\u0420\u0435\u0441\u043f\u0443\u0431\u043b\u0438\u043a\u0430 \u0418\u043d\u0434\u0438\u044f"
        },
        "slk": {
            "common": "India",
            "official": "Indick\u00e1 republika"
        },
        "spa": {
            "common": "India",
            "official": "Rep\u00fablica de la India"
        },
        "urd": {
            "common": "\u0628\u06be\u0627\u0631\u062a",
            "official": "\u062c\u0645\u06c1\u0648\u0631\u06cc\u06c1 \u0628\u06be\u0627\u0631\u062a"
        },
        "zho": {
            "common": "\u5370\u5ea6",
            "official": "\u5370\u5ea6\u5171\u548c\u56fd"
        }
    },
    "type": "Sovereign country",
    "un_a3": "356",
    "wb_a2": "IN",
    "wb_a3": "IND",
    "wikidataid": "Q668",
    "wikipedia": "-99",
    "woe_id": "23424848",
    "woe_id_eh": "23424848",
    "woe_note": "Exact WOE match as country"
}