{
    "abbrev": "Bayk.",
    "abbrev_len": "5",
    "adm0_a3": "KAB",
    "adm0_a3_is": "KAZ",
    "adm0_a3_un": "-99",
    "adm0_a3_us": "KAB",
    "adm0_a3_wb": "-99",
    "adm0_dif": "1",
    "admin": "Baykonur Cosmodrome",
    "borders": [],
    "brk_a3": "B40",
    "brk_diff": "1",
    "brk_group": "",
    "brk_name": "Baykonur",
    "cca2": "KAB",
    "cca3": "KAB",
    "ccn3": "KAB",
    "curencies": [],
    "currencies": [],
    "data_sources": [
        "natural"
    ],
    "economy": "2. Developed region: nonG7",
    "featurecla": "Admin-0 country",
    "fips_10_": "-99",
    "formal_en": "",
    "formal_fr": "",
    "gdp_md_est": "1155.00",
    "gdp_year": "2013",
    "geo": {
        "continent": "Asia",
        "region": "Asia",
        "region_un": "Asia",
        "region_wb": "Europe & Central Asia",
        "subregion": "Central Asia"
    },
    "geou_dif": "0",
    "geounit": "Baykonur Cosmodrome",
    "gu_a3": "KAB",
    "homepart": "-99",
    "income_grp": "3. Upper middle income",
    "iso_a2": "-99",
    "iso_a3": "-99",
    "iso_a3_eh": "-99",
    "iso_n3": "-99",
    "labelrank": "5",
    "lastcensus": "-99",
    "level": "2",
    "long_len": "19",
    "mapcolor7": "6",
    "mapcolor8": "1",
    "mapcolor9": "6",
    "mapcolor13": "1",
    "max_label": "9.5",
    "min_label": "6.0",
    "min_zoom": "5.0",
    "name": {
        "common": "Baikonur",
        "official": ""
    },
    "name_alt": "Baykonur Cosmodrome",
    "name_ar": "\u00d8\u00a8\u00d8\u00a7\u00d9\u008a\u00d9\u0083\u00d9\u0088\u00d9\u0086\u00d9\u0088\u00d8\u00b1",
    "name_bn": "\u00e0\u00a6\u00ac\u00e0\u00a6\u00be\u00e0\u00a6\u0087\u00e0\u00a6\u0095\u00e0\u00a7\u0081\u00e0\u00a6\u00a8\u00e0\u00a7\u008b\u00e0\u00a6\u00b0",
    "name_ciawf": "",
    "name_de": "Baikonur",
    "name_el": "\u00ce\u009c\u00cf\u0080\u00ce\u00b1\u00cf\u008a\u00ce\u00ba\u00ce\u00bf\u00ce\u00bd\u00ce\u00bf\u00cf\u008d\u00cf\u0081",
    "name_en": "Baikonur",
    "name_es": "Baikonur",
    "name_fr": "Ba\u00c3\u00afkonour",
    "name_hi": "\u00e0\u00a4\u00ac\u00e0\u00a4\u00be\u00e0\u00a4\u00af\u00e0\u00a4\u0095\u00e0\u00a5\u008b\u00e0\u00a4\u00a8\u00e0\u00a5\u0082\u00e0\u00a4\u00b0",
    "name_hu": "Bajkonur",
    "name_id": "Baykonur",
    "name_it": "Bayqo\u00c3\u00b1yr",
    "name_ja": "\u00e3\u0083\u0090\u00e3\u0082\u00a4\u00e3\u0082\u00b3\u00e3\u0083\u008c\u00e3\u0083\u00bc\u00e3\u0083\u00ab",
    "name_ko": "\u00eb\u00b0\u0094\u00ec\u009d\u00b4\u00ec\u00bd\u0094\u00eb\u0088\u0084\u00eb\u00a5\u00b4",
    "name_len": "8",
    "name_long": "Baikonur Cosmodrome",
    "name_nev": "Baikonur",
    "name_nl": "Bajkonoer",
    "name_pl": "Bajkonur",
    "name_pt": "Baikonur",
    "name_ru": "\u00d0\u0091\u00d0\u00b0\u00d0\u00b9\u00d0\u00ba\u00d0\u00be\u00d0\u00bd\u00d1\u0083\u00d1\u0080",
    "name_sort": "Baikonur Cosmodrome",
    "name_sv": "Bajkonur",
    "name_tr": "Baykonur",
    "name_vi": "Baikonur",
    "name_zh": "\u00e6\u008b\u009c\u00e7\u00a7\u0091\u00e5\u008a\u00aa\u00e7\u0088\u00be",
    "ne_id": "1159320965",
    "note_adm0": "Leased by Russia",
    "note_brk": "Leased to Russia by Kazakhstan",
    "notes": [
        "Incomplete record due to missing mledoze country."
    ],
    "pop_est": "70000",
    "pop_rank": "8",
    "pop_year": "2013",
    "postal": "BK",
    "record_type": "country",
    "scalerank": "0",
    "sov_a3": "KAZ",
    "sovereignt": "Kazakhstan",
    "su_a3": "KAB",
    "su_dif": "0",
    "subunit": "Baykonur Cosmodrome",
    "tiny": "-99",
    "type": "Lease",
    "un_a3": "-099",
    "wb_a2": "-99",
    "wb_a3": "-99",
    "wikidataid": "Q165413",
    "wikipedia": "0",
    "woe_id": "-90",
    "woe_id_eh": "20070177",
    "woe_note": "A subunit of Kazakhstan in WOE."
}