{
    "abbrev": "S.L.",
    "abbrev_len": "4",
    "adm0_a3": "LCA",
    "adm0_a3_is": "LCA",
    "adm0_a3_un": "-99",
    "adm0_a3_us": "LCA",
    "adm0_a3_wb": "-99",
    "adm0_dif": "0",
    "admin": "Saint Lucia",
    "alt_spellings": [
        "LC"
    ],
    "borders": [],
    "brk_a3": "LCA",
    "brk_diff": "0",
    "brk_group": "",
    "brk_name": "Saint Lucia",
    "capital": [
        "Castries"
    ],
    "capital_rinvex": "Castries",
    "cca2": "LC",
    "cca3": "LCA",
    "ccn3": "662",
    "cioc": "LCA",
    "currencies": [
        "XCD"
    ],
    "data_sources": [
        "mledoze",
        "natural"
    ],
    "demonym": "Saint Lucian",
    "dialling": {
        "calling_code": [
            "1758"
        ],
        "international_prefix": "011",
        "national_destination_code_lengths": [
            3
        ],
        "national_number_lengths": [
            10
        ],
        "national_prefix": "1"
    },
    "economy": "6. Developing region",
    "extra": {
        "address_format": null,
        "ar5": "LAM",
        "cowc": "SLU",
        "cown": 56,
        "ds": "WL",
        "edgar": "U9",
        "emoji": "\ud83c\uddf1\ud83c\udde8",
        "eu_member": null,
        "fao": 189,
        "fifa": "LCA",
        "fips": "ST",
        "gaul": 209,
        "geonameid": 3576468,
        "imf": 362,
        "ioc": "LCA",
        "itu": "LCA",
        "marc": "xk",
        "vat_rates": null,
        "wmo": "LC"
    },
    "featurecla": "Admin-0 country",
    "fips_10_": "ST",
    "flag": {
        "emoji": "\ud83c\uddf1\ud83c\udde8"
    },
    "formal_en": "Saint Lucia",
    "formal_fr": "",
    "gdp_md_est": "2083.00",
    "gdp_year": "2016",
    "geo": {
        "area": 616,
        "borders": [],
        "continent": {
            "NA": "North America"
        },
        "independent": "Yes",
        "landlocked": false,
        "latitude": "13 53 N",
        "latitude_desc": "13.86330509185791",
        "latlng": [
            13.88333333,
            -60.96666666
        ],
        "longitude": "60 58 W",
        "longitude_desc": "-60.9665641784668",
        "max_latitude": "14.1",
        "max_longitude": "-60.866667",
        "min_latitude": "13.7",
        "min_longitude": "-61.066667",
        "postal_code": false,
        "region": "Americas",
        "region_code": "019",
        "region_un": "Americas",
        "region_wb": "Latin America & Caribbean",
        "subregion": "Caribbean",
        "subregion_code": "029",
        "world_region": "AMER"
    },
    "geou_dif": "0",
    "geounit": "Saint Lucia",
    "gu_a3": "LCA",
    "homepart": "1",
    "idd": {
        "root": "+1",
        "suffixes": [
            "758"
        ]
    },
    "income_grp": "3. Upper middle income",
    "independent": true,
    "iso_3166_1_alpha2": "LC",
    "iso_3166_1_alpha3": "LCA",
    "iso_3166_1_numeric": "662",
    "iso_a2": "LC",
    "iso_a3": "LCA",
    "iso_a3_eh": "LCA",
    "iso_n3": "662",
    "labelrank": "6",
    "languages": {
        "eng": "English"
    },
    "lastcensus": "2010",
    "level": "2",
    "long_len": "11",
    "mapcolor7": "3",
    "mapcolor8": "4",
    "mapcolor9": "3",
    "mapcolor13": "4",
    "max_label": "9.5",
    "min_label": "5.0",
    "min_zoom": "0.0",
    "name": {
        "common": "Saint Lucia",
        "native": {
            "eng": {
                "common": "Saint Lucia",
                "official": "Saint Lucia"
            }
        },
        "official": "Saint Lucia"
    },
    "name_alt": "",
    "name_ar": "\u00d8\u00b3\u00d8\u00a7\u00d9\u0086\u00d8\u00aa \u00d9\u0084\u00d9\u0088\u00d8\u00b3\u00d9\u008a\u00d8\u00a7",
    "name_bn": "\u00e0\u00a6\u00b8\u00e0\u00a7\u0087\u00e0\u00a6\u00a8\u00e0\u00a7\u008d\u00e0\u00a6\u009f \u00e0\u00a6\u00b2\u00e0\u00a7\u0081\u00e0\u00a6\u00b8\u00e0\u00a6\u00bf\u00e0\u00a6\u00af\u00e0\u00a6\u00bc\u00e0\u00a6\u00be",
    "name_ciawf": "Saint Lucia",
    "name_de": "St. Lucia",
    "name_el": "\u00ce\u0091\u00ce\u00b3\u00ce\u00af\u00ce\u00b1 \u00ce\u009b\u00ce\u00bf\u00cf\u0085\u00ce\u00ba\u00ce\u00af\u00ce\u00b1",
    "name_en": "Saint Lucia",
    "name_es": "Santa Luc\u00c3\u00ada",
    "name_fr": "Sainte-Lucie",
    "name_hi": "\u00e0\u00a4\u00b8\u00e0\u00a5\u0087\u00e0\u00a4\u0082\u00e0\u00a4\u009f \u00e0\u00a4\u00b2\u00e0\u00a5\u0082\u00e0\u00a4\u00b8\u00e0\u00a4\u00bf\u00e0\u00a4\u00af\u00e0\u00a4\u00be",
    "name_hu": "Saint Lucia",
    "name_id": "Saint Lucia",
    "name_it": "Santa Lucia",
    "name_ja": "\u00e3\u0082\u00bb\u00e3\u0083\u00b3\u00e3\u0083\u0088\u00e3\u0083\u00ab\u00e3\u0082\u00b7\u00e3\u0082\u00a2",
    "name_ko": "\u00ec\u0084\u00b8\u00ec\u009d\u00b8\u00ed\u008a\u00b8\u00eb\u00a3\u00a8\u00ec\u008b\u009c\u00ec\u0095\u0084",
    "name_len": "11",
    "name_long": "Saint Lucia",
    "name_nev": "Saint Lucia",
    "name_nl": "Saint Lucia",
    "name_pl": "Saint Lucia",
    "name_pt": "Santa L\u00c3\u00bacia",
    "name_ru": "\u00d0\u00a1\u00d0\u00b5\u00d0\u00bd\u00d1\u0082-\u00d0\u009b\u00d1\u008e\u00d1\u0081\u00d0\u00b8\u00d1\u008f",
    "name_sort": "St. Lucia",
    "name_sv": "Saint Lucia",
    "name_tr": "Saint Lucia",
    "name_vi": "Saint Lucia",
    "name_zh": "\u00e5\u009c\u00a3\u00e5\u008d\u00a2\u00e8\u00a5\u00bf\u00e4\u00ba\u009a",
    "ne_id": "1159321019",
    "note_adm0": "",
    "note_brk": "",
    "pop_est": "164994",
    "pop_rank": "9",
    "pop_year": "2017",
    "postal": "LC",
    "record_type": "country",
    "scalerank": "3",
    "sov_a3": "LCA",
    "sovereignt": "Saint Lucia",
    "status": "officially-assigned",
    "su_a3": "LCA",
    "su_dif": "0",
    "subunit": "Saint Lucia",
    "tiny": "4",
    "tld": [
        ".lc"
    ],
    "translations": {
        "ces": {
            "common": "Svat\u00e1 Lucie",
            "official": "Svat\u00e1 Lucie"
        },
        "deu": {
            "common": "Saint Lucia",
            "official": "St. Lucia"
        },
        "est": {
            "common": "Saint Lucia",
            "official": "Saint Lucia"
        },
        "fin": {
            "common": "Saint Lucia",
            "official": "Saint Lucia"
        },
        "fra": {
            "common": "Sainte-Lucie",
            "official": "Sainte-Lucie"
        },
        "hrv": {
            "common": "Sveta Lucija",
            "official": "Sveta Lucija"
        },
        "ita": {
            "common": "Santa Lucia",
            "official": "Santa Lucia"
        },
        "jpn": {
            "common": "\u30bb\u30f3\u30c8\u30eb\u30b7\u30a2",
            "official": "\u30bb\u30f3\u30c8\u30eb\u30b7\u30a2"
        },
        "kor": {
            "common": "\uc138\uc778\ud2b8\ub8e8\uc2dc\uc544",
            "official": "\uc138\uc778\ud2b8\ub8e8\uc2dc\uc544"
        },
        "nld": {
            "common": "Saint Lucia",
            "official": "Saint Lucia"
        },
        "per": {
            "common": "\u0633\u0646\u062a \u0644\u0648\u0633\u06cc\u0627",
            "official": "\u0633\u0646\u062a \u0644\u0648\u0633\u06cc\u0627"
        },
        "pol": {
            "common": "Saint Lucia",
            "official": "Saint Lucia"
        },
        "por": {
            "common": "Santa L\u00facia",
            "official": "Santa L\u00facia"
        },
        "rus": {
            "common": "\u0421\u0435\u043d\u0442-\u041b\u044e\u0441\u0438\u044f",
            "official": "\u0421\u0435\u043d\u0442-\u041b\u044e\u0441\u0438\u044f"
        },
        "slk": {
            "common": "Sv\u00e4t\u00e1 Lucia",
            "official": "Sv\u00e4t\u00e1 Lucia"
        },
        "spa": {
            "common": "Santa Luc\u00eda",
            "official": "Santa Luc\u00eda"
        },
        "urd": {
            "common": "\u0633\u06cc\u0646\u0679 \u0644\u0648\u0633\u06cc\u0627",
            "official": "\u0633\u06cc\u0646\u0679 \u0644\u0648\u0633\u06cc\u0627"
        },
        "zho": {
            "common": "\u5723\u5362\u897f\u4e9a",
            "official": "\u5723\u5362\u897f\u4e9a"
        }
    },
    "type": "Sovereign country",
    "un_a3": "662",
    "wb_a2": "LC",
    "wb_a3": "LCA",
    "wikidataid": "Q760",
    "wikipedia": "-99",
    "woe_id": "23424951",
    "woe_id_eh": "23424951",
    "woe_note": "Exact WOE match as country"
}