{
    "abbrev": "Sri L.",
    "abbrev_len": "6",
    "adm0_a3": "LKA",
    "adm0_a3_is": "LKA",
    "adm0_a3_un": "-99",
    "adm0_a3_us": "LKA",
    "adm0_a3_wb": "-99",
    "adm0_dif": "0",
    "admin": "Sri Lanka",
    "alt_spellings": [
        "LK",
        "ila\u1e45kai",
        "Democratic Socialist Republic of Sri Lanka"
    ],
    "borders": [
        "IND"
    ],
    "brk_a3": "LKA",
    "brk_diff": "0",
    "brk_group": "",
    "brk_name": "Sri Lanka",
    "capital": [
        "Colombo"
    ],
    "capital_rinvex": "Colombo",
    "cca2": "LK",
    "cca3": "LKA",
    "ccn3": "144",
    "cioc": "SRI",
    "currencies": [
        "LKR"
    ],
    "data_sources": [
        "mledoze",
        "natural"
    ],
    "demonym": "Sri Lankan",
    "dialling": {
        "calling_code": [
            "94"
        ],
        "international_prefix": "00",
        "national_destination_code_lengths": [
            2
        ],
        "national_number_lengths": [
            10
        ],
        "national_prefix": "0"
    },
    "economy": "6. Developing region",
    "extra": {
        "address_format": null,
        "ar5": "ASIA",
        "cowc": "SRI",
        "cown": 780,
        "ds": "CL",
        "edgar": "F1",
        "emoji": "\ud83c\uddf1\ud83c\uddf0",
        "eu_member": null,
        "fao": 38,
        "fifa": "SRI",
        "fips": "CE",
        "gaul": 231,
        "geonameid": 1227603,
        "imf": 524,
        "ioc": "SRI",
        "itu": "CLN",
        "marc": "ce",
        "vat_rates": null,
        "wmo": "SB"
    },
    "featurecla": "Admin-0 country",
    "fips_10_": "CE",
    "flag": {
        "emoji": "\ud83c\uddf1\ud83c\uddf0"
    },
    "formal_en": "Democratic Socialist Republic of Sri Lanka",
    "formal_fr": "",
    "gdp_md_est": "236700.00",
    "gdp_year": "2016",
    "geo": {
        "area": 65610,
        "borders": [
            "IND"
        ],
        "continent": {
            "AS": "Asia"
        },
        "independent": "Yes",
        "landlocked": false,
        "latitude": "7 00 N",
        "latitude_desc": "7.789133548736572",
        "latlng": [
            7,
            81
        ],
        "longitude": "81 00 E",
        "longitude_desc": "80.68072509765625",
        "max_latitude": "9.833333",
        "max_longitude": "81.866667",
        "min_latitude": "5.916667",
        "min_longitude": "79.516667",
        "postal_code": true,
        "region": "Asia",
        "region_code": "142",
        "region_un": "Asia",
        "region_wb": "South Asia",
        "subregion": "Southern Asia",
        "subregion_code": "034",
        "world_region": "APAC"
    },
    "geou_dif": "0",
    "geounit": "Sri Lanka",
    "gu_a3": "LKA",
    "homepart": "1",
    "idd": {
        "root": "+9",
        "suffixes": [
            "4"
        ]
    },
    "income_grp": "4. Lower middle income",
    "independent": true,
    "iso_3166_1_alpha2": "LK",
    "iso_3166_1_alpha3": "LKA",
    "iso_3166_1_numeric": "144",
    "iso_a2": "LK",
    "iso_a3": "LKA",
    "iso_a3_eh": "LKA",
    "iso_n3": "144",
    "labelrank": "3",
    "languages": {
        "sin": "Sinhala",
        "tam": "Tamil"
    },
    "lastcensus": "2001",
    "level": "2",
    "long_len": "9",
    "mapcolor7": "3",
    "mapcolor8": "5",
    "mapcolor9": "4",
    "mapcolor13": "9",
    "max_label": "8.0",
    "min_label": "3.0",
    "min_zoom": "0.0",
    "name": {
        "common": "Sri Lanka",
        "native": {
            "sin": {
                "common": "\u0dc1\u0dca\u200d\u0dbb\u0dd3 \u0dbd\u0d82\u0d9a\u0dcf\u0dc0",
                "official": "\u0dc1\u0dca\u200d\u0dbb\u0dd3 \u0dbd\u0d82\u0d9a\u0dcf \u0db4\u0dca\u200d\u0dbb\u0da2\u0dcf\u0dad\u0dcf\u0db1\u0dca\u0dad\u0dca\u200d\u0dbb\u0dd2\u0d9a \u0dc3\u0db8\u0dcf\u0da2\u0dc0\u0dcf\u0daf\u0dd3 \u0da2\u0db1\u0dbb\u0da2\u0dba"
            },
            "tam": {
                "common": "\u0b87\u0bb2\u0b99\u0bcd\u0b95\u0bc8",
                "official": "\u0b87\u0bb2\u0b99\u0bcd\u0b95\u0bc8 \u0b9a\u0ba9\u0ba8\u0bbe\u0baf\u0b95 \u0b9a\u0bcb\u0b9a\u0bb2\u0bbf\u0b9a\u0b95\u0bcd \u0b95\u0bc1\u0b9f\u0bbf\u0baf\u0bb0\u0b9a\u0bc1"
            }
        },
        "official": "Democratic Socialist Republic of Sri Lanka"
    },
    "name_alt": "",
    "name_ar": "\u00d8\u00b3\u00d8\u00b1\u00d9\u008a\u00d9\u0084\u00d8\u00a7\u00d9\u0086\u00d9\u0083\u00d8\u00a7",
    "name_bn": "\u00e0\u00a6\u00b6\u00e0\u00a7\u008d\u00e0\u00a6\u00b0\u00e0\u00a7\u0080\u00e0\u00a6\u00b2\u00e0\u00a6\u0099\u00e0\u00a7\u008d\u00e0\u00a6\u0095\u00e0\u00a6\u00be",
    "name_ciawf": "Sri Lanka",
    "name_de": "Sri Lanka",
    "name_el": "\u00ce\u00a3\u00cf\u0081\u00ce\u00b9 \u00ce\u009b\u00ce\u00ac\u00ce\u00bd\u00ce\u00ba\u00ce\u00b1",
    "name_en": "Sri Lanka",
    "name_es": "Sri Lanka",
    "name_fr": "Sri Lanka",
    "name_hi": "\u00e0\u00a4\u00b6\u00e0\u00a5\u008d\u00e0\u00a4\u00b0\u00e0\u00a5\u0080\u00e0\u00a4\u00b2\u00e0\u00a4\u0082\u00e0\u00a4\u0095\u00e0\u00a4\u00be",
    "name_hu": "Sr\u00c3\u00ad Lanka",
    "name_id": "Sri Lanka",
    "name_it": "Sri Lanka",
    "name_ja": "\u00e3\u0082\u00b9\u00e3\u0083\u00aa\u00e3\u0083\u00a9\u00e3\u0083\u00b3\u00e3\u0082\u00ab",
    "name_ko": "\u00ec\u008a\u00a4\u00eb\u00a6\u00ac\u00eb\u009e\u0091\u00ec\u00b9\u00b4",
    "name_len": "9",
    "name_long": "Sri Lanka",
    "name_nev": "Sri Lanka",
    "name_nl": "Sri Lanka",
    "name_pl": "Sri Lanka",
    "name_pt": "Sri Lanka",
    "name_ru": "\u00d0\u00a8\u00d1\u0080\u00d0\u00b8-\u00d0\u009b\u00d0\u00b0\u00d0\u00bd\u00d0\u00ba\u00d0\u00b0",
    "name_sort": "Sri Lanka",
    "name_sv": "Sri Lanka",
    "name_tr": "Sri Lanka",
    "name_vi": "Sri Lanka",
    "name_zh": "\u00e6\u0096\u00af\u00e9\u0087\u008c\u00e8\u0098\u00ad\u00e5\u008d\u00a1",
    "ne_id": "1159321025",
    "note_adm0": "",
    "note_brk": "",
    "pop_est": "22409381",
    "pop_rank": "15",
    "pop_year": "2017",
    "postal": "LK",
    "record_type": "country",
    "scalerank": "0",
    "sov_a3": "LKA",
    "sovereignt": "Sri Lanka",
    "status": "officially-assigned",
    "su_a3": "LKA",
    "su_dif": "0",
    "subunit": "Sri Lanka",
    "tiny": "-99",
    "tld": [
        ".lk",
        ".\u0b87\u0bb2\u0b99\u0bcd\u0b95\u0bc8",
        ".\u0dbd\u0d82\u0d9a\u0dcf"
    ],
    "translations": {
        "ces": {
            "common": "Sr\u00ed Lanka",
            "official": "Sr\u00edlansk\u00e1 demokratick\u00e1 socialistick\u00e1 republika"
        },
        "deu": {
            "common": "Sri Lanka",
            "official": "Demokratische Sozialistische Republik Sri Lanka"
        },
        "est": {
            "common": "Sri Lanka",
            "official": "Sri Lanka Demokraatlik Sotsialistlik Vabariik"
        },
        "fin": {
            "common": "Sri Lanka",
            "official": "Sri Lankan demokraattinen sosialistinen tasavalta"
        },
        "fra": {
            "common": "Sri Lanka",
            "official": "R\u00e9publique d\u00e9mocratique socialiste du Sri Lanka"
        },
        "hrv": {
            "common": "\u0160ri Lanka",
            "official": "Demokratska Socijalisti\u010dke Republike \u0160ri Lanke"
        },
        "ita": {
            "common": "Sri Lanka",
            "official": "Repubblica democratica socialista dello Sri Lanka"
        },
        "jpn": {
            "common": "\u30b9\u30ea\u30e9\u30f3\u30ab",
            "official": "\u30b9\u30ea\u30e9\u30f3\u30ab\u6c11\u4e3b\u793e\u4f1a\u4e3b\u7fa9\u5171\u548c\u56fd"
        },
        "kor": {
            "common": "\uc2a4\ub9ac\ub791\uce74",
            "official": "\uc2a4\ub9ac\ub791\uce74 \ubbfc\uc8fc \uc0ac\ud68c\uc8fc\uc758 \uacf5\ud654\uad6d"
        },
        "nld": {
            "common": "Sri Lanka",
            "official": "Democratische Socialistische Republiek Sri Lanka"
        },
        "per": {
            "common": "\u0633\u0631\u06cc\u200c\u0644\u0627\u0646\u06a9\u0627",
            "official": "\u062c\u0645\u0647\u0648\u0631\u06cc \u062f\u0645\u0648\u06a9\u0631\u0627\u062a\u06cc\u06a9 \u0633\u0648\u0633\u06cc\u0627\u0644\u06cc\u0633\u062a\u06cc \u0633\u0631\u06cc\u200c\u0644\u0627\u0646\u06a9\u0627"
        },
        "pol": {
            "common": "Sri Lanka",
            "official": "Demokratyczno-Socjalistyczna Republika Sri Lanki"
        },
        "por": {
            "common": "Sri Lanka",
            "official": "Rep\u00fablica Democr\u00e1tica Socialista do Sri Lanka"
        },
        "rus": {
            "common": "\u0428\u0440\u0438-\u041b\u0430\u043d\u043a\u0430",
            "official": "\u0414\u0435\u043c\u043e\u043a\u0440\u0430\u0442\u0438\u0447\u0435\u0441\u043a\u0430\u044f \u0421\u043e\u0446\u0438\u0430\u043b\u0438\u0441\u0442\u0438\u0447\u0435\u0441\u043a\u0430\u044f \u0420\u0435\u0441\u043f\u0443\u0431\u043b\u0438\u043a\u0430 \u0428\u0440\u0438-\u041b\u0430\u043d\u043a\u0430"
        },
        "slk": {
            "common": "Sr\u00ed Lanka",
            "official": "Sr\u00edlansk\u00e1 demokratick\u00e1 socialistick\u00e1 republika"
        },
        "spa": {
            "common": "Sri Lanka",
            "official": "Rep\u00fablica Democr\u00e1tica Socialista de Sri Lanka"
        },
        "urd": {
            "common": "\u0633\u0631\u06cc \u0644\u0646\u06a9\u0627",
            "official": "\u062c\u0645\u06c1\u0648\u0631\u06cc \u0648 \u0627\u0634\u062a\u0631\u0627\u06a9\u06cc \u062c\u0645\u06c1\u0648\u0631\u06cc\u06c1 \u0633\u0631\u06cc \u0644\u0646\u06a9\u0627"
        },
        "zho": {
            "common": "\u65af\u91cc\u5170\u5361",
            "official": "\u65af\u91cc\u5170\u5361\u6c11\u4e3b\u793e\u4f1a\u4e3b\u4e49\u5171\u548c\u56fd"
        }
    },
    "type": "Sovereign country",
    "un_a3": "144",
    "wb_a2": "LK",
    "wb_a3": "LKA",
    "wikidataid": "Q854",
    "wikipedia": "-99",
    "woe_id": "23424778",
    "woe_id_eh": "23424778",
    "woe_note": "Exact WOE match as country"
}