{
    "abbrev": "Nigeria",
    "abbrev_len": "7",
    "adm0_a3": "NGA",
    "adm0_a3_is": "NGA",
    "adm0_a3_un": "-99",
    "adm0_a3_us": "NGA",
    "adm0_a3_wb": "-99",
    "adm0_dif": "0",
    "admin": "Nigeria",
    "alt_spellings": [
        "NG",
        "Nijeriya",
        "Na\u00edj\u00edr\u00ed\u00e0",
        "Federal Republic of Nigeria"
    ],
    "borders": [
        "BEN",
        "CMR",
        "TCD",
        "NER"
    ],
    "brk_a3": "NGA",
    "brk_diff": "0",
    "brk_group": "",
    "brk_name": "Nigeria",
    "capital": [
        "Abuja"
    ],
    "capital_rinvex": "Abuja",
    "cca2": "NG",
    "cca3": "NGA",
    "ccn3": "566",
    "cioc": "NGR",
    "currencies": [
        "NGN"
    ],
    "data_sources": [
        "mledoze",
        "natural"
    ],
    "demonym": "Nigerian",
    "dialling": {
        "calling_code": [
            "234"
        ],
        "international_prefix": 0,
        "national_destination_code_lengths": [
            2
        ],
        "national_number_lengths": [
            7,
            8
        ],
        "national_prefix": "0"
    },
    "economy": "5. Emerging region: G20",
    "extra": {
        "address_format": null,
        "ar5": "MAF",
        "cowc": "NIG",
        "cown": 475,
        "ds": "NGR",
        "edgar": "Q5",
        "emoji": "\ud83c\uddf3\ud83c\uddec",
        "eu_member": null,
        "fao": 159,
        "fifa": "NGA",
        "fips": "NI",
        "gaul": 182,
        "geonameid": 2328926,
        "imf": 694,
        "ioc": "NGR",
        "itu": "NIG",
        "marc": "nr",
        "vat_rates": null,
        "wmo": "NI"
    },
    "featurecla": "Admin-0 country",
    "fips_10_": "NI",
    "flag": {
        "emoji": "\ud83c\uddf3\ud83c\uddec"
    },
    "formal_en": "Federal Republic of Nigeria",
    "formal_fr": "",
    "gdp_md_est": "1089000.00",
    "gdp_year": "2016",
    "geo": {
        "area": 923768,
        "borders": [
            "BEN",
            "CMR",
            "TCD",
            "NER"
        ],
        "continent": {
            "AF": "Africa"
        },
        "independent": "Yes",
        "landlocked": false,
        "latitude": "10 00 N",
        "latitude_desc": "9.559505462646484",
        "latlng": [
            10,
            8
        ],
        "longitude": "8 00 E",
        "longitude_desc": "8.077880859375",
        "max_latitude": "13.866667",
        "max_longitude": "14.65",
        "min_latitude": "4.266667",
        "min_longitude": "2.716667",
        "postal_code": true,
        "region": "Africa",
        "region_code": "002",
        "region_un": "Africa",
        "region_wb": "Sub-Saharan Africa",
        "subregion": "Western Africa",
        "subregion_code": "011",
        "world_region": "EMEA"
    },
    "geou_dif": "0",
    "geounit": "Nigeria",
    "gu_a3": "NGA",
    "homepart": "1",
    "idd": {
        "root": "+2",
        "suffixes": [
            "34"
        ]
    },
    "income_grp": "4. Lower middle income",
    "independent": true,
    "iso_3166_1_alpha2": "NG",
    "iso_3166_1_alpha3": "NGA",
    "iso_3166_1_numeric": "566",
    "iso_a2": "NG",
    "iso_a3": "NGA",
    "iso_a3_eh": "NGA",
    "iso_n3": "566",
    "labelrank": "2",
    "languages": {
        "eng": "English"
    },
    "lastcensus": "2006",
    "level": "2",
    "long_len": "7",
    "mapcolor7": "3",
    "mapcolor8": "2",
    "mapcolor9": "5",
    "mapcolor13": "2",
    "max_label": "6.7",
    "min_label": "1.7",
    "min_zoom": "0.0",
    "name": {
        "common": "Nigeria",
        "native": {
            "eng": {
                "common": "Nigeria",
                "official": "Federal Republic of Nigeria"
            }
        },
        "official": "Federal Republic of Nigeria"
    },
    "name_alt": "",
    "name_ar": "\u00d9\u0086\u00d9\u008a\u00d8\u00ac\u00d9\u008a\u00d8\u00b1\u00d9\u008a\u00d8\u00a7",
    "name_bn": "\u00e0\u00a6\u00a8\u00e0\u00a6\u00be\u00e0\u00a6\u0087\u00e0\u00a6\u009c\u00e0\u00a7\u0087\u00e0\u00a6\u00b0\u00e0\u00a6\u00bf\u00e0\u00a6\u00af\u00e0\u00a6\u00bc\u00e0\u00a6\u00be",
    "name_ciawf": "Nigeria",
    "name_de": "Nigeria",
    "name_el": "\u00ce\u009d\u00ce\u00b9\u00ce\u00b3\u00ce\u00b7\u00cf\u0081\u00ce\u00af\u00ce\u00b1",
    "name_en": "Nigeria",
    "name_es": "Nigeria",
    "name_fr": "Nigeria",
    "name_hi": "\u00e0\u00a4\u00a8\u00e0\u00a4\u00be\u00e0\u00a4\u0088\u00e0\u00a4\u009c\u00e0\u00a5\u0080\u00e0\u00a4\u00b0\u00e0\u00a4\u00bf\u00e0\u00a4\u00af\u00e0\u00a4\u00be",
    "name_hu": "Nig\u00c3\u00a9ria",
    "name_id": "Nigeria",
    "name_it": "Nigeria",
    "name_ja": "\u00e3\u0083\u008a\u00e3\u0082\u00a4\u00e3\u0082\u00b8\u00e3\u0082\u00a7\u00e3\u0083\u00aa\u00e3\u0082\u00a2",
    "name_ko": "\u00eb\u0082\u0098\u00ec\u009d\u00b4\u00ec\u00a7\u0080\u00eb\u00a6\u00ac\u00ec\u0095\u0084",
    "name_len": "7",
    "name_long": "Nigeria",
    "name_nev": "Nigeria",
    "name_nl": "Nigeria",
    "name_pl": "Nigeria",
    "name_pt": "Nig\u00c3\u00a9ria",
    "name_ru": "\u00d0\u009d\u00d0\u00b8\u00d0\u00b3\u00d0\u00b5\u00d1\u0080\u00d0\u00b8\u00d1\u008f",
    "name_sort": "Nigeria",
    "name_sv": "Nigeria",
    "name_tr": "Nijerya",
    "name_vi": "Nigeria",
    "name_zh": "\u00e5\u00a5\u0088\u00e5\u008f\u008a\u00e5\u0088\u00a9\u00e4\u00ba\u009e",
    "ne_id": "1159321089",
    "note_adm0": "",
    "note_brk": "",
    "pop_est": "190632261",
    "pop_rank": "17",
    "pop_year": "2017",
    "postal": "NG",
    "record_type": "country",
    "scalerank": "0",
    "sov_a3": "NGA",
    "sovereignt": "Nigeria",
    "status": "officially-assigned",
    "su_a3": "NGA",
    "su_dif": "0",
    "subunit": "Nigeria",
    "tiny": "-99",
    "tld": [
        ".ng"
    ],
    "translations": {
        "ces": {
            "common": "Nig\u00e9rie",
            "official": "Nigerijsk\u00e1 federativn\u00ed republika"
        },
        "deu": {
            "common": "Nigeria",
            "official": "Bundesrepublik Nigeria"
        },
        "est": {
            "common": "Nigeeria",
            "official": "Nigeeria Liitvabariik"
        },
        "fin": {
            "common": "Nigeria",
            "official": "Nigerian liittotasavalta"
        },
        "fra": {
            "common": "Nig\u00e9ria",
            "official": "R\u00e9publique f\u00e9d\u00e9rale du Nigeria"
        },
        "hrv": {
            "common": "Nigerija",
            "official": "Savezna Republika Nigerija"
        },
        "ita": {
            "common": "Nigeria",
            "official": "Repubblica federale di Nigeria"
        },
        "jpn": {
            "common": "\u30ca\u30a4\u30b8\u30a7\u30ea\u30a2",
            "official": "\u30ca\u30a4\u30b8\u30a7\u30ea\u30a2\u9023\u90a6\u5171\u548c\u56fd"
        },
        "kor": {
            "common": "\ub098\uc774\uc9c0\ub9ac\uc544",
            "official": "\ub098\uc774\uc9c0\ub9ac\uc544 \uc5f0\ubc29 \uacf5\ud654\uad6d"
        },
        "nld": {
            "common": "Nigeria",
            "official": "Federale Republiek Nigeria"
        },
        "per": {
            "common": "\u0646\u06cc\u062c\u0631\u06cc\u0647",
            "official": "\u062c\u0645\u0647\u0648\u0631\u06cc \u0641\u062f\u0631\u0627\u0644 \u0646\u06cc\u062c\u0631\u06cc\u0647"
        },
        "pol": {
            "common": "Nigeria",
            "official": "Federalna Republika Nigerii"
        },
        "por": {
            "common": "Nig\u00e9ria",
            "official": "Rep\u00fablica Federal da Nig\u00e9ria"
        },
        "rus": {
            "common": "\u041d\u0438\u0433\u0435\u0440\u0438\u044f",
            "official": "\u0424\u0435\u0434\u0435\u0440\u0430\u0442\u0438\u0432\u043d\u0430\u044f \u0420\u0435\u0441\u043f\u0443\u0431\u043b\u0438\u043a\u0430 \u041d\u0438\u0433\u0435\u0440\u0438\u044f"
        },
        "slk": {
            "common": "Nig\u00e9ria",
            "official": "Nig\u00e9rijsk\u00e1 federat\u00edvna republika"
        },
        "spa": {
            "common": "Nigeria",
            "official": "Rep\u00fablica Federal de Nigeria"
        },
        "urd": {
            "common": "\u0646\u0627\u0626\u062c\u06cc\u0631\u06cc\u0627",
            "official": "\u0648\u0641\u0627\u0642\u06cc \u062c\u0645\u06c1\u0648\u0631\u06cc\u06c1 \u0646\u0627\u0626\u062c\u06cc\u0631\u06cc\u0627"
        },
        "zho": {
            "common": "\u5c3c\u65e5\u5229\u4e9a",
            "official": "\u5c3c\u65e5\u5229\u4e9a\u8054\u90a6\u5171\u548c\u56fd"
        }
    },
    "type": "Sovereign country",
    "un_a3": "566",
    "wb_a2": "NG",
    "wb_a3": "NGA",
    "wikidataid": "Q1033",
    "wikipedia": "-99",
    "woe_id": "23424908",
    "woe_id_eh": "23424908",
    "woe_note": "Exact WOE match as country"
}