{
    "abbrev": "Neth.",
    "abbrev_len": "5",
    "adm0_a3": "NLD",
    "adm0_a3_is": "NLD",
    "adm0_a3_un": "-99",
    "adm0_a3_us": "NLD",
    "adm0_a3_wb": "-99",
    "adm0_dif": "1",
    "admin": "Netherlands",
    "alt_spellings": [
        "NL",
        "Holland",
        "Nederland",
        "The Netherlands"
    ],
    "alt_spellings_rinvex": [
        "NL",
        "Holland",
        "Nederland"
    ],
    "borders": [
        "BEL",
        "DEU"
    ],
    "brk_a3": "NLD",
    "brk_diff": "0",
    "brk_group": "",
    "brk_name": "Netherlands",
    "capital": [
        "Amsterdam"
    ],
    "capital_rinvex": "Amsterdam",
    "cca2": "NL",
    "cca3": "NLD",
    "ccn3": "528",
    "cioc": "NED",
    "currencies": [
        "EUR"
    ],
    "data_sources": [
        "mledoze",
        "natural"
    ],
    "demonym": "Dutch",
    "dialling": {
        "calling_code": [
            "31"
        ],
        "international_prefix": "00",
        "national_destination_code_lengths": [
            2
        ],
        "national_number_lengths": [
            9
        ],
        "national_prefix": "0"
    },
    "economy": "2. Developed region: nonG7",
    "extra": {
        "address_format": "{{recipient}}{{street}}{{postalcode}} {{city}}{{country}}",
        "ar5": "OECD1990",
        "cowc": "NTH",
        "cown": 210,
        "ds": "NL",
        "edgar": "P7",
        "emoji": "\ud83c\uddf3\ud83c\uddf1",
        "eu_member": true,
        "fao": 150,
        "fifa": "NED",
        "fips": "NL",
        "gaul": 177,
        "geonameid": 2750405,
        "imf": 138,
        "ioc": "NED",
        "itu": "HOL",
        "marc": "ne",
        "vat_rates": {
            "parking": null,
            "reduced": [
                6
            ],
            "standard": 21,
            "super_reduced": null
        },
        "wmo": "NL"
    },
    "featurecla": "Admin-0 country",
    "fips_10_": "NL",
    "flag": {
        "emoji": "\ud83c\uddf3\ud83c\uddf1"
    },
    "formal_en": "Kingdom of the Netherlands",
    "formal_fr": "",
    "gdp_md_est": "870800.00",
    "gdp_year": "2016",
    "geo": {
        "area": 41850,
        "borders": [
            "BEL",
            "DEU"
        ],
        "continent": {
            "EU": "Europe"
        },
        "independent": "Yes",
        "landlocked": false,
        "latitude": "52 30 N",
        "latitude_desc": "52.34225845336914",
        "latlng": [
            52.5,
            5.75
        ],
        "longitude": "5 45 E",
        "longitude_desc": "5.5281572341918945",
        "max_latitude": "53.583333",
        "max_longitude": "7.2",
        "min_latitude": "50.75",
        "min_longitude": "3.133333",
        "postal_code": true,
        "region": "Europe",
        "region_code": "150",
        "region_un": "Europe",
        "region_wb": "Europe & Central Asia",
        "subregion": "Western Europe",
        "subregion_code": "155",
        "world_region": "EMEA"
    },
    "geou_dif": "0",
    "geounit": "Netherlands",
    "gu_a3": "NLD",
    "homepart": "1",
    "idd": {
        "root": "+3",
        "suffixes": [
            "1"
        ]
    },
    "income_grp": "1. High income: OECD",
    "independent": true,
    "iso_3166_1_alpha2": "NL",
    "iso_3166_1_alpha3": "NLD",
    "iso_3166_1_numeric": "528",
    "iso_a2": "NL",
    "iso_a3": "NLD",
    "iso_a3_eh": "NLD",
    "iso_n3": "528",
    "labelrank": "5",
    "languages": {
        "nld": "Dutch"
    },
    "lastcensus": "2011",
    "level": "2",
    "long_len": "11",
    "mapcolor7": "4",
    "mapcolor8": "2",
    "mapcolor9": "2",
    "mapcolor13": "9",
    "max_label": "10.0",
    "min_label": "5.0",
    "min_zoom": "0.0",
    "name": {
        "common": "Netherlands",
        "native": {
            "nld": {
                "common": "Nederland",
                "official": "Koninkrijk der Nederlanden"
            }
        },
        "official": "Kingdom of the Netherlands"
    },
    "name_alt": "",
    "name_ar": "\u00d9\u0087\u00d9\u0088\u00d9\u0084\u00d9\u0086\u00d8\u00af\u00d8\u00a7",
    "name_bn": "\u00e0\u00a6\u00a8\u00e0\u00a7\u0087\u00e0\u00a6\u00a6\u00e0\u00a6\u00be\u00e0\u00a6\u00b0\u00e0\u00a6\u00b2\u00e0\u00a7\u008d\u00e0\u00a6\u00af\u00e0\u00a6\u00be\u00e0\u00a6\u00a8\u00e0\u00a7\u008d\u00e0\u00a6\u00a1\u00e0\u00a6\u00b8",
    "name_ciawf": "Netherlands",
    "name_de": "Niederlande",
    "name_el": "\u00ce\u009f\u00ce\u00bb\u00ce\u00bb\u00ce\u00b1\u00ce\u00bd\u00ce\u00b4\u00ce\u00af\u00ce\u00b1",
    "name_en": "Netherlands",
    "name_es": "Pa\u00c3\u00adses Bajos",
    "name_fr": "Pays-Bas",
    "name_hi": "\u00e0\u00a4\u00a8\u00e0\u00a5\u0080\u00e0\u00a4\u00a6\u00e0\u00a4\u00b0\u00e0\u00a4\u00b2\u00e0\u00a5\u0088\u00e0\u00a4\u00a3\u00e0\u00a5\u008d\u00e0\u00a4\u00a1",
    "name_hu": "Hollandia",
    "name_id": "Belanda",
    "name_it": "Paesi Bassi",
    "name_ja": "\u00e3\u0082\u00aa\u00e3\u0083\u00a9\u00e3\u0083\u00b3\u00e3\u0083\u0080",
    "name_ko": "\u00eb\u0084\u00a4\u00eb\u008d\u009c\u00eb\u009e\u0080\u00eb\u0093\u009c",
    "name_len": "11",
    "name_long": "Netherlands",
    "name_nev": "Netherlands",
    "name_nl": "Nederland",
    "name_pl": "Holandia",
    "name_pt": "Pa\u00c3\u00adses Baixos",
    "name_rinvex": {
        "common": "Netherlands",
        "native": {
            "nld": {
                "common": "Nederland",
                "official": "Nederland"
            }
        },
        "official": "Netherlands"
    },
    "name_ru": "\u00d0\u009d\u00d0\u00b8\u00d0\u00b4\u00d0\u00b5\u00d1\u0080\u00d0\u00bb\u00d0\u00b0\u00d0\u00bd\u00d0\u00b4\u00d1\u008b",
    "name_sort": "Netherlands",
    "name_sv": "Nederl\u00c3\u00a4nderna",
    "name_tr": "Hollanda",
    "name_vi": "H\u00c3\u00a0 Lan",
    "name_zh": "\u00e8\u008d\u00b7\u00e8\u0098\u00ad",
    "ne_id": "1159321101",
    "note_adm0": "",
    "note_brk": "",
    "pop_est": "17084719",
    "pop_rank": "14",
    "pop_year": "2017",
    "postal": "NL",
    "record_type": "country",
    "scalerank": "0",
    "sov_a3": "NL1",
    "sovereignt": "Netherlands",
    "status": "officially-assigned",
    "su_a3": "NLD",
    "su_dif": "0",
    "subunit": "Netherlands",
    "tiny": "-99",
    "tld": [
        ".nl"
    ],
    "translations": {
        "ces": {
            "common": "Nizozemsko",
            "official": "Nizozemsk\u00e9 kr\u00e1lovstv\u00ed"
        },
        "deu": {
            "common": "Niederlande",
            "official": "Niederlande"
        },
        "est": {
            "common": "Holland",
            "official": "Madalmaade Kuningriik"
        },
        "fin": {
            "common": "Alankomaat",
            "official": "Alankomaat"
        },
        "fra": {
            "common": "Pays-Bas",
            "official": "Pays-Bas"
        },
        "hrv": {
            "common": "Nizozemska",
            "official": "Holandija"
        },
        "ita": {
            "common": "Paesi Bassi",
            "official": "Paesi Bassi"
        },
        "jpn": {
            "common": "\u30aa\u30e9\u30f3\u30c0",
            "official": "\u30aa\u30e9\u30f3\u30c0"
        },
        "kor": {
            "common": "\ub124\ub35c\ub780\ub4dc",
            "official": "\ub124\ub35c\ub780\ub4dc \uc655\uad6d"
        },
        "nld": {
            "common": "Nederland",
            "official": "Nederland"
        },
        "per": {
            "common": "\u0647\u0644\u0646\u062f",
            "official": "\u0647\u0644\u0646\u062f"
        },
        "pol": {
            "common": "Holandia",
            "official": "Kr\u00f3lestwo Niderland\u00f3w"
        },
        "por": {
            "common": "Holanda",
            "official": "Holanda"
        },
        "rus": {
            "common": "\u041d\u0438\u0434\u0435\u0440\u043b\u0430\u043d\u0434\u044b",
            "official": "\u041d\u0438\u0434\u0435\u0440\u043b\u0430\u043d\u0434\u044b"
        },
        "slk": {
            "common": "Holansko",
            "official": "Holandsk\u00e9 kr\u00e1\u013eovstvo"
        },
        "spa": {
            "common": "Pa\u00edses Bajos",
            "official": "Pa\u00edses Bajos"
        },
        "urd": {
            "common": "\u0646\u06cc\u062f\u0631\u0644\u06cc\u0646\u0688\u0632",
            "official": "\u0645\u0645\u0644\u06a9\u062a\u0650 \u0646\u06cc\u062f\u0631\u0644\u06cc\u0646\u0688\u0632"
        },
        "zho": {
            "common": "\u8377\u5170",
            "official": "\u8377\u5170"
        }
    },
    "type": "Country",
    "un_a3": "528",
    "wb_a2": "NL",
    "wb_a3": "NLD",
    "wikidataid": "Q55",
    "wikipedia": "-99",
    "woe_id": "-90",
    "woe_id_eh": "23424909",
    "woe_note": "Doesn't include new former units of Netherlands Antilles (24549811, 24549808, and 24549809)"
}