{
    "abbrev": "Nor.",
    "abbrev_len": "4",
    "adm0_a3": "NOR",
    "adm0_a3_is": "NOR",
    "adm0_a3_un": "-99",
    "adm0_a3_us": "NOR",
    "adm0_a3_wb": "-99",
    "adm0_dif": "0",
    "admin": "Norway",
    "alt_spellings": [
        "NO",
        "Norge",
        "Noreg",
        "Kingdom of Norway",
        "Kongeriket Norge",
        "Kongeriket Noreg"
    ],
    "borders": [
        "FIN",
        "SWE",
        "RUS"
    ],
    "brk_a3": "NOR",
    "brk_diff": "0",
    "brk_group": "",
    "brk_name": "Norway",
    "capital": [
        "Oslo"
    ],
    "capital_rinvex": "Oslo",
    "cca2": "NO",
    "cca3": "NOR",
    "ccn3": "578",
    "cioc": "NOR",
    "currencies": [
        "NOK"
    ],
    "data_sources": [
        "mledoze",
        "natural"
    ],
    "demonym": "Norwegian",
    "dialling": {
        "calling_code": [
            "47"
        ],
        "international_prefix": "00",
        "national_destination_code_lengths": [
            2
        ],
        "national_number_lengths": [
            8
        ],
        "national_prefix": null
    },
    "economy": "2. Developed region: nonG7",
    "extra": {
        "address_format": "{{recipient}}{{street}}{{postalcode}} {{city}}{{country}}",
        "ar5": "MAF",
        "cowc": "NOR",
        "cown": 385,
        "ds": "N",
        "edgar": "Q8",
        "emoji": "\ud83c\uddf3\ud83c\uddf4",
        "eu_member": null,
        "fao": 162,
        "fifa": "NOR",
        "fips": "NO",
        "gaul": 186,
        "geonameid": 3144096,
        "imf": 142,
        "ioc": "NOR",
        "itu": "NOR",
        "marc": "no",
        "vat_rates": null,
        "wmo": "NO"
    },
    "featurecla": "Admin-0 country",
    "fips_10_": "-99",
    "flag": {
        "emoji": "\ud83c\uddf3\ud83c\uddf4"
    },
    "formal_en": "Kingdom of Norway",
    "formal_fr": "",
    "gdp_md_est": "364700.00",
    "gdp_year": "2016",
    "geo": {
        "area": 323802,
        "borders": [
            "FIN",
            "SWE",
            "RUS"
        ],
        "continent": {
            "EU": "Europe"
        },
        "independent": "Yes",
        "landlocked": false,
        "latitude": "62 00 N",
        "latitude_desc": "66.76667022705078",
        "latlng": [
            62,
            10
        ],
        "longitude": "10 00 E",
        "longitude_desc": "14.899925231933594",
        "max_latitude": "71.181944",
        "max_longitude": "31.166667",
        "min_latitude": "56.15",
        "min_longitude": "3.033333",
        "postal_code": true,
        "region": "Europe",
        "region_code": "150",
        "region_un": "Europe",
        "region_wb": "Europe & Central Asia",
        "subregion": "Northern Europe",
        "subregion_code": "154",
        "world_region": "EMEA"
    },
    "geou_dif": "0",
    "geounit": "Norway",
    "gu_a3": "NOR",
    "homepart": "1",
    "idd": {
        "root": "+4",
        "suffixes": [
            "7"
        ]
    },
    "income_grp": "1. High income: OECD",
    "independent": true,
    "iso_3166_1_alpha2": "NO",
    "iso_3166_1_alpha3": "NOR",
    "iso_3166_1_numeric": "578",
    "iso_a2": "-99",
    "iso_a3": "-99",
    "iso_a3_eh": "-99",
    "iso_n3": "-99",
    "labelrank": "3",
    "languages": {
        "nno": "Norwegian Nynorsk",
        "nob": "Norwegian Bokm\u00e5l",
        "smi": "Sami"
    },
    "lastcensus": "2001",
    "level": "2",
    "long_len": "6",
    "mapcolor7": "5",
    "mapcolor8": "3",
    "mapcolor9": "8",
    "mapcolor13": "12",
    "max_label": "7.0",
    "min_label": "3.0",
    "min_zoom": "0.0",
    "name": {
        "common": "Norway",
        "native": {
            "nno": {
                "common": "Noreg",
                "official": "Kongeriket Noreg"
            },
            "nob": {
                "common": "Norge",
                "official": "Kongeriket Norge"
            },
            "smi": {
                "common": "Norgga",
                "official": "Norgga gonagasriika"
            }
        },
        "official": "Kingdom of Norway"
    },
    "name_alt": "",
    "name_ar": "\u00d8\u00a7\u00d9\u0084\u00d9\u0086\u00d8\u00b1\u00d9\u0088\u00d9\u008a\u00d8\u00ac",
    "name_bn": "\u00e0\u00a6\u00a8\u00e0\u00a6\u00b0\u00e0\u00a6\u0093\u00e0\u00a6\u00af\u00e0\u00a6\u00bc\u00e0\u00a7\u0087",
    "name_ciawf": "Norway",
    "name_de": "Norwegen",
    "name_el": "\u00ce\u009d\u00ce\u00bf\u00cf\u0081\u00ce\u00b2\u00ce\u00b7\u00ce\u00b3\u00ce\u00af\u00ce\u00b1",
    "name_en": "Norway",
    "name_es": "Noruega",
    "name_fr": "Norv\u00c3\u00a8ge",
    "name_hi": "\u00e0\u00a4\u00a8\u00e0\u00a5\u0089\u00e0\u00a4\u00b0\u00e0\u00a5\u008d\u00e0\u00a4\u00b5\u00e0\u00a5\u0087",
    "name_hu": "Norv\u00c3\u00a9gia",
    "name_id": "Norwegia",
    "name_it": "Norvegia",
    "name_ja": "\u00e3\u0083\u008e\u00e3\u0083\u00ab\u00e3\u0082\u00a6\u00e3\u0082\u00a7\u00e3\u0083\u00bc",
    "name_ko": "\u00eb\u0085\u00b8\u00eb\u00a5\u00b4\u00ec\u009b\u00a8\u00ec\u009d\u00b4",
    "name_len": "6",
    "name_long": "Norway",
    "name_nev": "Norway",
    "name_nl": "Noorwegen",
    "name_pl": "Norwegia",
    "name_pt": "Noruega",
    "name_ru": "\u00d0\u009d\u00d0\u00be\u00d1\u0080\u00d0\u00b2\u00d0\u00b5\u00d0\u00b3\u00d0\u00b8\u00d1\u008f",
    "name_sort": "Norway",
    "name_sv": "Norge",
    "name_tr": "Norve\u00c3\u00a7",
    "name_vi": "Na Uy",
    "name_zh": "\u00e6\u008c\u00aa\u00e5\u00a8\u0081",
    "ne_id": "1159321109",
    "note_adm0": "",
    "note_brk": "",
    "pop_est": "5320045",
    "pop_rank": "13",
    "pop_year": "2017",
    "postal": "N",
    "record_type": "country",
    "scalerank": "0",
    "sov_a3": "NOR",
    "sovereignt": "Norway",
    "status": "officially-assigned",
    "su_a3": "NOR",
    "su_dif": "0",
    "subunit": "Norway",
    "tiny": "-99",
    "tld": [
        ".no"
    ],
    "translations": {
        "ces": {
            "common": "Norsko",
            "official": "Norsk\u00e9 kr\u00e1lovstv\u00ed"
        },
        "deu": {
            "common": "Norwegen",
            "official": "K\u00f6nigreich Norwegen"
        },
        "est": {
            "common": "Norra",
            "official": "Norra Kuningriik"
        },
        "fin": {
            "common": "Norja",
            "official": "Norjan kuningaskunta"
        },
        "fra": {
            "common": "Norv\u00e8ge",
            "official": "Royaume de Norv\u00e8ge"
        },
        "hrv": {
            "common": "Norve\u0161ka",
            "official": "Kraljevina Norve\u0161ka"
        },
        "ita": {
            "common": "Norvegia",
            "official": "Regno di Norvegia"
        },
        "jpn": {
            "common": "\u30ce\u30eb\u30a6\u30a7\u30fc",
            "official": "\u30ce\u30eb\u30a6\u30a7\u30fc\u738b\u56fd"
        },
        "kor": {
            "common": "\ub178\ub974\uc6e8\uc774",
            "official": "\ub178\ub974\uc6e8\uc774 \uc655\uad6d"
        },
        "nld": {
            "common": "Noorwegen",
            "official": "Koninkrijk Noorwegen"
        },
        "per": {
            "common": "\u0646\u0631\u0648\u0698",
            "official": "\u067e\u0627\u062f\u0634\u0627\u0647\u06cc \u0646\u0631\u0648\u0698"
        },
        "pol": {
            "common": "Norwegia",
            "official": "Kr\u00f3lestwo Norwegii"
        },
        "por": {
            "common": "Noruega",
            "official": "Reino da Noruega"
        },
        "rus": {
            "common": "\u041d\u043e\u0440\u0432\u0435\u0433\u0438\u044f",
            "official": "\u041a\u043e\u0440\u043e\u043b\u0435\u0432\u0441\u0442\u0432\u043e \u041d\u043e\u0440\u0432\u0435\u0433\u0438\u044f"
        },
        "slk": {
            "common": "N\u00f3rsko",
            "official": "N\u00f3rske kr\u00e1\u013eovstvo"
        },
        "spa": {
            "common": "Noruega",
            "official": "Reino de Noruega"
        },
        "urd": {
            "common": "\u0646\u0627\u0631\u0648\u06d2",
            "official": "\u0645\u0645\u0644\u06a9\u062a\u0650 \u0646\u0627\u0631\u0648\u06d2"
        },
        "zho": {
            "common": "\u632a\u5a01",
            "official": "\u632a\u5a01\u738b\u56fd"
        }
    },
    "type": "Sovereign country",
    "un_a3": "-99",
    "wb_a2": "-99",
    "wb_a3": "-99",
    "wikidataid": "Q20",
    "wikipedia": "-99",
    "woe_id": "-90",
    "woe_id_eh": "23424910",
    "woe_note": "Does not include Svalbard, Jan Mayen, or Bouvet Islands (28289410)."
}