{
    "abbrev": "Para.",
    "abbrev_len": "5",
    "adm0_a3": "PRY",
    "adm0_a3_is": "PRY",
    "adm0_a3_un": "-99",
    "adm0_a3_us": "PRY",
    "adm0_a3_wb": "-99",
    "adm0_dif": "0",
    "admin": "Paraguay",
    "alt_spellings": [
        "PY",
        "Republic of Paraguay",
        "Rep\u00fablica del Paraguay",
        "Tet\u00e3 Paragu\u00e1i"
    ],
    "borders": [
        "ARG",
        "BOL",
        "BRA"
    ],
    "brk_a3": "PRY",
    "brk_diff": "0",
    "brk_group": "",
    "brk_name": "Paraguay",
    "capital": [
        "Asunci\u00f3n"
    ],
    "capital_rinvex": "Asunci\u00f3n",
    "cca2": "PY",
    "cca3": "PRY",
    "ccn3": "600",
    "cioc": "PAR",
    "currencies": [
        "PYG"
    ],
    "data_sources": [
        "mledoze",
        "natural"
    ],
    "demonym": "Paraguayan",
    "dialling": {
        "calling_code": [
            "595"
        ],
        "international_prefix": "002",
        "national_destination_code_lengths": [
            2
        ],
        "national_number_lengths": [
            9
        ],
        "national_prefix": "0"
    },
    "economy": "5. Emerging region: G20",
    "extra": {
        "address_format": null,
        "ar5": "LAM",
        "cowc": "PAR",
        "cown": 150,
        "ds": "PY",
        "edgar": "R4",
        "emoji": "\ud83c\uddf5\ud83c\uddfe",
        "eu_member": null,
        "fao": 169,
        "fifa": "PAR",
        "fips": "PA",
        "gaul": 194,
        "geonameid": 3437598,
        "imf": 288,
        "ioc": "PAR",
        "itu": "PRG",
        "marc": "py",
        "vat_rates": null,
        "wmo": "PY"
    },
    "featurecla": "Admin-0 country",
    "fips_10_": "PA",
    "flag": {
        "emoji": "\ud83c\uddf5\ud83c\uddfe"
    },
    "formal_en": "Republic of Paraguay",
    "formal_fr": "",
    "gdp_md_est": "64670.00",
    "gdp_year": "2016",
    "geo": {
        "area": 406752,
        "borders": [
            "ARG",
            "BOL",
            "BRA"
        ],
        "continent": {
            "SA": "South America"
        },
        "independent": "Yes",
        "landlocked": true,
        "latitude": "23 00 S",
        "latitude_desc": "-23.24028968811035",
        "latlng": [
            -23,
            -58
        ],
        "longitude": "58 00 W",
        "longitude_desc": "-58.395172119140625",
        "max_latitude": "-19.333333",
        "max_longitude": "-54.35",
        "min_latitude": "-27.533333",
        "min_longitude": "-62.633333",
        "postal_code": true,
        "region": "Americas",
        "region_code": "019",
        "region_un": "Americas",
        "region_wb": "Latin America & Caribbean",
        "subregion": "South America",
        "subregion_code": "005",
        "world_region": "AMER"
    },
    "geou_dif": "0",
    "geounit": "Paraguay",
    "gu_a3": "PRY",
    "homepart": "1",
    "idd": {
        "root": "+5",
        "suffixes": [
            "95"
        ]
    },
    "income_grp": "4. Lower middle income",
    "independent": true,
    "iso_3166_1_alpha2": "PY",
    "iso_3166_1_alpha3": "PRY",
    "iso_3166_1_numeric": "600",
    "iso_a2": "PY",
    "iso_a3": "PRY",
    "iso_a3_eh": "PRY",
    "iso_n3": "600",
    "labelrank": "4",
    "languages": {
        "grn": "Guaran\u00ed",
        "spa": "Spanish"
    },
    "lastcensus": "2002",
    "level": "2",
    "long_len": "8",
    "mapcolor7": "6",
    "mapcolor8": "3",
    "mapcolor9": "6",
    "mapcolor13": "2",
    "max_label": "8.0",
    "min_label": "3.0",
    "min_zoom": "0.0",
    "name": {
        "common": "Paraguay",
        "native": {
            "grn": {
                "common": "Paragu\u00e1i",
                "official": "Tet\u00e3 Paragu\u00e1i"
            },
            "spa": {
                "common": "Paraguay",
                "official": "Rep\u00fablica de Paraguay"
            }
        },
        "official": "Republic of Paraguay"
    },
    "name_alt": "",
    "name_ar": "\u00d8\u00a8\u00d8\u00a7\u00d8\u00b1\u00d8\u00a7\u00d8\u00ba\u00d9\u0088\u00d8\u00a7\u00d9\u008a",
    "name_bn": "\u00e0\u00a6\u00aa\u00e0\u00a7\u008d\u00e0\u00a6\u00af\u00e0\u00a6\u00be\u00e0\u00a6\u00b0\u00e0\u00a6\u00be\u00e0\u00a6\u0097\u00e0\u00a7\u0081\u00e0\u00a6\u00af\u00e0\u00a6\u00bc\u00e0\u00a7\u0087",
    "name_ciawf": "Paraguay",
    "name_de": "Paraguay",
    "name_el": "\u00ce\u00a0\u00ce\u00b1\u00cf\u0081\u00ce\u00b1\u00ce\u00b3\u00ce\u00bf\u00cf\u0085\u00ce\u00ac\u00ce\u00b7",
    "name_en": "Paraguay",
    "name_es": "Paraguay",
    "name_fr": "Paraguay",
    "name_hi": "\u00e0\u00a4\u00aa\u00e0\u00a5\u0088\u00e0\u00a4\u00b0\u00e0\u00a4\u00be\u00e0\u00a4\u0097\u00e0\u00a5\u008d\u00e0\u00a4\u00b5\u00e0\u00a5\u0087",
    "name_hu": "Paraguay",
    "name_id": "Paraguay",
    "name_it": "Paraguay",
    "name_ja": "\u00e3\u0083\u0091\u00e3\u0083\u00a9\u00e3\u0082\u00b0\u00e3\u0082\u00a2\u00e3\u0082\u00a4",
    "name_ko": "\u00ed\u008c\u008c\u00eb\u009d\u00bc\u00ea\u00b3\u00bc\u00ec\u009d\u00b4",
    "name_len": "8",
    "name_long": "Paraguay",
    "name_nev": "Paraguay",
    "name_nl": "Paraguay",
    "name_pl": "Paragwaj",
    "name_pt": "Paraguai",
    "name_ru": "\u00d0\u009f\u00d0\u00b0\u00d1\u0080\u00d0\u00b0\u00d0\u00b3\u00d0\u00b2\u00d0\u00b0\u00d0\u00b9",
    "name_sort": "Paraguay",
    "name_sv": "Paraguay",
    "name_tr": "Paraguay",
    "name_vi": "Paraguay",
    "name_zh": "\u00e5\u00b7\u00b4\u00e6\u008b\u0089\u00e5\u009c\u00ad",
    "ne_id": "1159321195",
    "note_adm0": "",
    "note_brk": "",
    "pop_est": "6943739",
    "pop_rank": "13",
    "pop_year": "2017",
    "postal": "PY",
    "record_type": "country",
    "scalerank": "0",
    "sov_a3": "PRY",
    "sovereignt": "Paraguay",
    "status": "officially-assigned",
    "su_a3": "PRY",
    "su_dif": "0",
    "subunit": "Paraguay",
    "tiny": "-99",
    "tld": [
        ".py"
    ],
    "translations": {
        "ces": {
            "common": "Paraguay",
            "official": "Paraguaysk\u00e1 republika"
        },
        "deu": {
            "common": "Paraguay",
            "official": "Republik Paraguay"
        },
        "est": {
            "common": "Paraguay",
            "official": "Paraguay Vabariik"
        },
        "fin": {
            "common": "Paraguay",
            "official": "Paraguayn tasavalta"
        },
        "fra": {
            "common": "Paraguay",
            "official": "R\u00e9publique du Paraguay"
        },
        "hrv": {
            "common": "Paragvaj",
            "official": "Republika Paragvaj"
        },
        "ita": {
            "common": "Paraguay",
            "official": "Repubblica del Paraguay"
        },
        "jpn": {
            "common": "\u30d1\u30e9\u30b0\u30a2\u30a4",
            "official": "\u30d1\u30e9\u30b0\u30a2\u30a4\u5171\u548c\u56fd"
        },
        "kor": {
            "common": "\ud30c\ub77c\uacfc\uc774",
            "official": "\ud30c\ub77c\uacfc\uc774 \uacf5\ud654\uad6d"
        },
        "nld": {
            "common": "Paraguay",
            "official": "Republiek Paraguay"
        },
        "per": {
            "common": "\u067e\u0627\u0631\u0627\u06af\u0648\u0626\u0647",
            "official": "\u062c\u0645\u0647\u0648\u0631\u06cc \u067e\u0627\u0631\u0627\u06af\u0648\u0626\u0647"
        },
        "pol": {
            "common": "Paragwaj",
            "official": "Republika Paragwaju"
        },
        "por": {
            "common": "Paraguai",
            "official": "Rep\u00fablica do Paraguai"
        },
        "rus": {
            "common": "\u041f\u0430\u0440\u0430\u0433\u0432\u0430\u0439",
            "official": "\u0420\u0435\u0441\u043f\u0443\u0431\u043b\u0438\u043a\u0430 \u041f\u0430\u0440\u0430\u0433\u0432\u0430\u0439"
        },
        "slk": {
            "common": "Paraguaj",
            "official": "Paraguajsk\u00e1 republika"
        },
        "spa": {
            "common": "Paraguay",
            "official": "Rep\u00fablica de Paraguay"
        },
        "urd": {
            "common": "\u067e\u06cc\u0631\u0627\u06af\u0648\u0626\u06d2",
            "official": "\u062c\u0645\u06c1\u0648\u0631\u06cc\u06c1 \u067e\u06cc\u0631\u0627\u06af\u0648\u0626\u06d2"
        },
        "zho": {
            "common": "\u5df4\u62c9\u572d",
            "official": "\u5df4\u62c9\u572d\u5171\u548c\u56fd"
        }
    },
    "type": "Sovereign country",
    "un_a3": "600",
    "wb_a2": "PY",
    "wb_a3": "PRY",
    "wikidataid": "Q733",
    "wikipedia": "-99",
    "woe_id": "23424917",
    "woe_id_eh": "23424917",
    "woe_note": "Exact WOE match as country"
}