{
    "abbrev": "Rwa.",
    "abbrev_len": "4",
    "adm0_a3": "RWA",
    "adm0_a3_is": "RWA",
    "adm0_a3_un": "-99",
    "adm0_a3_us": "RWA",
    "adm0_a3_wb": "-99",
    "adm0_dif": "0",
    "admin": "Rwanda",
    "alt_spellings": [
        "RW",
        "Republic of Rwanda",
        "Repubulika y'u Rwanda",
        "R\u00e9publique du Rwanda"
    ],
    "borders": [
        "BDI",
        "COD",
        "TZA",
        "UGA"
    ],
    "brk_a3": "RWA",
    "brk_diff": "0",
    "brk_group": "",
    "brk_name": "Rwanda",
    "capital": [
        "Kigali"
    ],
    "capital_rinvex": "Kigali",
    "cca2": "RW",
    "cca3": "RWA",
    "ccn3": "646",
    "cioc": "RWA",
    "currencies": [
        "RWF"
    ],
    "data_sources": [
        "mledoze",
        "natural"
    ],
    "demonym": "Rwandan",
    "dialling": {
        "calling_code": [
            "250"
        ],
        "international_prefix": "00",
        "national_destination_code_lengths": [
            2
        ],
        "national_number_lengths": [
            8,
            9
        ],
        "national_prefix": "0"
    },
    "economy": "7. Least developed region",
    "extra": {
        "address_format": null,
        "ar5": "MAF",
        "cowc": "RWA",
        "cown": 517,
        "ds": "RWA",
        "edgar": "S6",
        "emoji": "\ud83c\uddf7\ud83c\uddfc",
        "eu_member": null,
        "fao": 184,
        "fifa": "RWA",
        "fips": "RW",
        "gaul": 205,
        "geonameid": 49518,
        "imf": 714,
        "ioc": "RWA",
        "itu": "RRW",
        "marc": "rw",
        "vat_rates": null,
        "wmo": "RW"
    },
    "featurecla": "Admin-0 country",
    "fips_10_": "RW",
    "flag": {
        "emoji": "\ud83c\uddf7\ud83c\uddfc"
    },
    "formal_en": "Republic of Rwanda",
    "formal_fr": "",
    "gdp_md_est": "21970.00",
    "gdp_year": "2016",
    "geo": {
        "area": 26338,
        "borders": [
            "BDI",
            "COD",
            "TZA",
            "UGA"
        ],
        "continent": {
            "AF": "Africa"
        },
        "independent": "Yes",
        "landlocked": true,
        "latitude": "2 00 S",
        "latitude_desc": "-1.9999498128890991",
        "latlng": [
            -2,
            30
        ],
        "longitude": "30 00 E",
        "longitude_desc": "29.926057815551758",
        "max_latitude": "5",
        "max_longitude": "37",
        "min_latitude": "-2.8",
        "min_longitude": "28.866667",
        "postal_code": false,
        "region": "Africa",
        "region_code": "002",
        "region_un": "Africa",
        "region_wb": "Sub-Saharan Africa",
        "subregion": "Eastern Africa",
        "subregion_code": "014",
        "world_region": "EMEA"
    },
    "geou_dif": "0",
    "geounit": "Rwanda",
    "gu_a3": "RWA",
    "homepart": "1",
    "idd": {
        "root": "+2",
        "suffixes": [
            "50"
        ]
    },
    "income_grp": "5. Low income",
    "independent": true,
    "iso_3166_1_alpha2": "RW",
    "iso_3166_1_alpha3": "RWA",
    "iso_3166_1_numeric": "646",
    "iso_a2": "RW",
    "iso_a3": "RWA",
    "iso_a3_eh": "RWA",
    "iso_n3": "646",
    "labelrank": "3",
    "languages": {
        "eng": "English",
        "fra": "French",
        "kin": "Kinyarwanda"
    },
    "lastcensus": "2002",
    "level": "2",
    "long_len": "6",
    "mapcolor7": "5",
    "mapcolor8": "2",
    "mapcolor9": "3",
    "mapcolor13": "10",
    "max_label": "8.0",
    "min_label": "3.0",
    "min_zoom": "0.0",
    "name": {
        "common": "Rwanda",
        "native": {
            "eng": {
                "common": "Rwanda",
                "official": "Republic of Rwanda"
            },
            "fra": {
                "common": "Rwanda",
                "official": "R\u00e9publique rwandaise"
            },
            "kin": {
                "common": "Rwanda",
                "official": "Repubulika y'u Rwanda"
            }
        },
        "official": "Republic of Rwanda"
    },
    "name_alt": "",
    "name_ar": "\u00d8\u00b1\u00d9\u0088\u00d8\u00a7\u00d9\u0086\u00d8\u00af\u00d8\u00a7",
    "name_bn": "\u00e0\u00a6\u00b0\u00e0\u00a7\u0081\u00e0\u00a6\u00af\u00e0\u00a6\u00bc\u00e0\u00a6\u00be\u00e0\u00a6\u00a8\u00e0\u00a7\u008d\u00e0\u00a6\u00a1\u00e0\u00a6\u00be",
    "name_ciawf": "Rwanda",
    "name_de": "Ruanda",
    "name_el": "\u00ce\u00a1\u00ce\u00bf\u00cf\u0085\u00ce\u00ac\u00ce\u00bd\u00cf\u0084\u00ce\u00b1",
    "name_en": "Rwanda",
    "name_es": "Ruanda",
    "name_fr": "Rwanda",
    "name_hi": "\u00e0\u00a4\u00b0\u00e0\u00a4\u00b5\u00e0\u00a4\u00be\u00e0\u00a4\u00a3\u00e0\u00a5\u008d\u00e0\u00a4\u00a1\u00e0\u00a4\u00be",
    "name_hu": "Ruanda",
    "name_id": "Rwanda",
    "name_it": "Ruanda",
    "name_ja": "\u00e3\u0083\u00ab\u00e3\u0083\u00af\u00e3\u0083\u00b3\u00e3\u0083\u0080",
    "name_ko": "\u00eb\u00a5\u00b4\u00ec\u0099\u0084\u00eb\u008b\u00a4",
    "name_len": "6",
    "name_long": "Rwanda",
    "name_nev": "Rwanda",
    "name_nl": "Rwanda",
    "name_pl": "Rwanda",
    "name_pt": "Ruanda",
    "name_ru": "\u00d0\u00a0\u00d1\u0083\u00d0\u00b0\u00d0\u00bd\u00d0\u00b4\u00d0\u00b0",
    "name_sort": "Rwanda",
    "name_sv": "Rwanda",
    "name_tr": "Ruanda",
    "name_vi": "Rwanda",
    "name_zh": "\u00e5\u008d\u00a2\u00e6\u0097\u00ba\u00e8\u00be\u00be",
    "ne_id": "1159321219",
    "note_adm0": "",
    "note_brk": "",
    "pop_est": "11901484",
    "pop_rank": "14",
    "pop_year": "2017",
    "postal": "RW",
    "record_type": "country",
    "scalerank": "0",
    "sov_a3": "RWA",
    "sovereignt": "Rwanda",
    "status": "officially-assigned",
    "su_a3": "RWA",
    "su_dif": "0",
    "subunit": "Rwanda",
    "tiny": "-99",
    "tld": [
        ".rw"
    ],
    "translations": {
        "ces": {
            "common": "Rwanda",
            "official": "Rwandsk\u00e1 republika"
        },
        "deu": {
            "common": "Ruanda",
            "official": "Republik Ruanda"
        },
        "est": {
            "common": "Rwanda",
            "official": "Rwanda Vabariik"
        },
        "fin": {
            "common": "Ruanda",
            "official": "Ruandan tasavalta"
        },
        "fra": {
            "common": "Rwanda",
            "official": "R\u00e9publique rwandaise"
        },
        "hrv": {
            "common": "Ruanda",
            "official": "Republika Ruandi"
        },
        "ita": {
            "common": "Ruanda",
            "official": "Repubblica del Ruanda"
        },
        "jpn": {
            "common": "\u30eb\u30ef\u30f3\u30c0",
            "official": "\u30eb\u30ef\u30f3\u30c0\u5171\u548c\u56fd"
        },
        "kor": {
            "common": "\ub974\uc644\ub2e4",
            "official": "\ub974\uc644\ub2e4 \uacf5\ud654\uad6d"
        },
        "nld": {
            "common": "Rwanda",
            "official": "Republiek Rwanda"
        },
        "per": {
            "common": "\u0631\u0648\u0627\u0646\u062f\u0627",
            "official": "\u062c\u0645\u0647\u0648\u0631\u06cc \u0631\u0648\u0627\u0646\u062f\u0627"
        },
        "pol": {
            "common": "Rwanda",
            "official": "Republika Rwandy"
        },
        "por": {
            "common": "Ruanda",
            "official": "Rep\u00fablica do Ruanda"
        },
        "rus": {
            "common": "\u0420\u0443\u0430\u043d\u0434\u0430",
            "official": "\u0420\u0435\u0441\u043f\u0443\u0431\u043b\u0438\u043a\u0430 \u0420\u0443\u0430\u043d\u0434\u0430"
        },
        "slk": {
            "common": "Rwanda",
            "official": "Rwandsk\u00e1 republika"
        },
        "spa": {
            "common": "Ruanda",
            "official": "Rep\u00fablica de Rwanda"
        },
        "urd": {
            "common": "\u0631\u0648\u0627\u0646\u0688\u0627",
            "official": "\u062c\u0645\u06c1\u0648\u0631\u06cc\u06c1 \u0631\u0648\u0627\u0646\u0688\u0627"
        },
        "zho": {
            "common": "\u5362\u65fa\u8fbe",
            "official": "\u5362\u65fa\u8fbe\u5171\u548c\u56fd"
        }
    },
    "type": "Sovereign country",
    "un_a3": "646",
    "wb_a2": "RW",
    "wb_a3": "RWA",
    "wikidataid": "Q1037",
    "wikipedia": "-99",
    "woe_id": "23424937",
    "woe_id_eh": "23424937",
    "woe_note": "Exact WOE match as country"
}