{
    "abbrev": "S.R.",
    "abbrev_len": "4",
    "adm0_a3": "SCR",
    "adm0_a3_is": "-99",
    "adm0_a3_un": "-99",
    "adm0_a3_us": "SCR",
    "adm0_a3_wb": "-99",
    "adm0_dif": "0",
    "admin": "Scarborough Reef",
    "borders": [],
    "brk_a3": "B70",
    "brk_diff": "1",
    "brk_group": "",
    "brk_name": "Scarborough Reef",
    "cca2": "SCR",
    "cca3": "SCR",
    "ccn3": "SCR",
    "curencies": [],
    "currencies": [],
    "data_sources": [
        "natural"
    ],
    "economy": "7. Least developed region",
    "featurecla": "Admin-0 country",
    "fips_10_": "-99",
    "formal_en": "",
    "formal_fr": "",
    "gdp_md_est": "0.00",
    "gdp_year": "2016",
    "geo": {
        "continent": "Asia",
        "region": "Asia",
        "region_un": "Asia",
        "region_wb": "East Asia & Pacific",
        "subregion": "South-Eastern Asia"
    },
    "geou_dif": "0",
    "geounit": "Scarborough Reef",
    "gu_a3": "SCR",
    "homepart": "1",
    "income_grp": "5. Low income",
    "iso_a2": "-99",
    "iso_a3": "-99",
    "iso_a3_eh": "-99",
    "iso_n3": "-99",
    "labelrank": "6",
    "lastcensus": "-99",
    "level": "2",
    "long_len": "16",
    "mapcolor7": "3",
    "mapcolor8": "7",
    "mapcolor9": "6",
    "mapcolor13": "-99",
    "max_label": "10.0",
    "min_label": "6.0",
    "min_zoom": "7.0",
    "name": {
        "common": "Scarborough Reef",
        "official": ""
    },
    "name_alt": "",
    "name_ar": "\u00d8\u00b3\u00d9\u0083\u00d8\u00a7\u00d8\u00b1\u00d8\u00a8\u00d9\u0088\u00d8\u00b1\u00d9\u0088 \u00d8\u00b4\u00d9\u0088\u00d9\u0084",
    "name_bn": "\u00e0\u00a6\u00b8\u00e0\u00a7\u008d\u00e0\u00a6\u0095\u00e0\u00a6\u00be\u00e0\u00a6\u00b0\u00e0\u00a6\u00ac\u00e0\u00a7\u008b\u00e0\u00a6\u00b0\u00e0\u00a7\u008b \u00e0\u00a6\u00b8\u00e0\u00a7\u008b\u00e0\u00a6\u00af\u00e0\u00a6\u00bc\u00e0\u00a6\u00be\u00e0\u00a6\u00b2",
    "name_ciawf": "",
    "name_de": "Scarborough-Riff",
    "name_el": "\u00ce\u008e\u00cf\u0086\u00ce\u00b1\u00ce\u00bb\u00ce\u00bf\u00cf\u0082 \u00ce\u00a3\u00ce\u00ba\u00ce\u00ac\u00cf\u0081\u00ce\u00bc\u00cf\u0080\u00ce\u00bf\u00cf\u0081\u00ce\u00bf",
    "name_en": "Scarborough Shoal",
    "name_es": "Bajo de Masinloc",
    "name_fr": "R\u00c3\u00a9cif de Scarborough",
    "name_hi": "\u00e0\u00a4\u00b8\u00e0\u00a5\u008d\u00e0\u00a4\u0095\u00e0\u00a4\u00be\u00e0\u00a4\u00b0\u00e0\u00a4\u00ac\u00e0\u00a4\u00b0\u00e0\u00a5\u008b \u00e0\u00a4\u00b6\u00e0\u00a5\u008b\u00e0\u00a4\u00b2",
    "name_hu": "",
    "name_id": "Gosong Scarborough",
    "name_it": "Scarborough Shoal",
    "name_ja": "\u00e3\u0082\u00b9\u00e3\u0082\u00ab\u00e3\u0083\u009c\u00e3\u0083\u00ad\u00e3\u0083\u00bc\u00e7\u00a4\u0081",
    "name_ko": "\u00ec\u008a\u00a4\u00ec\u00b9\u00b4\u00eb\u00b2\u0084\u00eb\u009f\u00ac \u00ec\u0095\u0094\u00ec\u00b4\u0088",
    "name_len": "16",
    "name_long": "Scarborough Reef",
    "name_nev": "Scarborough Reef",
    "name_nl": "Scarborough-rif",
    "name_pl": "Huangyan Dao",
    "name_pt": "Recife de Scarborough",
    "name_ru": "\u00d0\u00a1\u00d0\u00ba\u00d0\u00b0\u00d1\u0080\u00d0\u00b1\u00d0\u00be\u00d1\u0080\u00d0\u00be-\u00d0\u00a8\u00d0\u00be\u00d0\u00bb",
    "name_sort": "",
    "name_sv": "Panatag",
    "name_tr": "Scarborough Shoal",
    "name_vi": "B\u00c3\u00a3i c\u00e1\u00ba\u00a1n Scarborough",
    "name_zh": "\u00e9\u00bb\u0084\u00e5\u00b2\u00a9\u00e5\u00b2\u009b",
    "ne_id": "1159321227",
    "note_adm0": "",
    "note_brk": "",
    "notes": [
        "Incomplete record due to missing mledoze country."
    ],
    "pop_est": "0",
    "pop_rank": "1",
    "pop_year": "2012",
    "postal": "SR",
    "record_type": "country",
    "scalerank": "6",
    "sov_a3": "SCR",
    "sovereignt": "Scarborough Reef",
    "su_a3": "SCR",
    "su_dif": "0",
    "subunit": "Scarborough Reef",
    "tiny": "-99",
    "type": "Indeterminate",
    "un_a3": "-099",
    "wb_a2": "-99",
    "wb_a3": "-99",
    "wikidataid": "Q628716",
    "wikipedia": "0",
    "woe_id": "-99",
    "woe_id_eh": "-99",
    "woe_note": "No WOE equivalent."
}