{
    "abbrev": "Solnd.",
    "abbrev_len": "6",
    "adm0_a3": "SOL",
    "adm0_a3_is": "SOM",
    "adm0_a3_un": "-99",
    "adm0_a3_us": "SOM",
    "adm0_a3_wb": "-99",
    "adm0_dif": "0",
    "admin": "Somaliland",
    "borders": [],
    "brk_a3": "B30",
    "brk_diff": "1",
    "brk_group": "",
    "brk_name": "Somaliland",
    "cca2": "SOL",
    "cca3": "SOL",
    "ccn3": "SOL",
    "curencies": [],
    "currencies": [],
    "data_sources": [
        "natural"
    ],
    "economy": "6. Developing region",
    "featurecla": "Admin-0 country",
    "fips_10_": "-99",
    "formal_en": "Republic of Somaliland",
    "formal_fr": "",
    "gdp_md_est": "12250.00",
    "gdp_year": "2013",
    "geo": {
        "continent": "Africa",
        "region": "Africa",
        "region_un": "Africa",
        "region_wb": "Sub-Saharan Africa",
        "subregion": "Eastern Africa"
    },
    "geou_dif": "0",
    "geounit": "Somaliland",
    "gu_a3": "SOL",
    "homepart": "1",
    "income_grp": "4. Lower middle income",
    "iso_a2": "-99",
    "iso_a3": "-99",
    "iso_a3_eh": "-99",
    "iso_n3": "-99",
    "labelrank": "5",
    "lastcensus": "-99",
    "level": "2",
    "long_len": "10",
    "mapcolor7": "3",
    "mapcolor8": "6",
    "mapcolor9": "5",
    "mapcolor13": "2",
    "max_label": "9.0",
    "min_label": "4.5",
    "min_zoom": "4.0",
    "name": {
        "common": "Somaliland",
        "official": "Republic of Somaliland"
    },
    "name_alt": "",
    "name_ar": "\u00d8\u00b5\u00d9\u0088\u00d9\u0085\u00d8\u00a7\u00d9\u0084\u00d9\u008a\u00d9\u0084\u00d8\u00a7\u00d9\u0086\u00d8\u00af",
    "name_bn": "\u00e0\u00a6\u00b8\u00e0\u00a7\u008b\u00e0\u00a6\u00ae\u00e0\u00a6\u00be\u00e0\u00a6\u00b2\u00e0\u00a6\u00bf\u00e0\u00a6\u00b2\u00e0\u00a7\u008d\u00e0\u00a6\u00af\u00e0\u00a6\u00be\u00e0\u00a6\u00a8\u00e0\u00a7\u008d\u00e0\u00a6\u00a1",
    "name_ciawf": "",
    "name_de": "Somaliland",
    "name_el": "\u00ce\u00a3\u00ce\u00bf\u00ce\u00bc\u00ce\u00b1\u00ce\u00bb\u00ce\u00b9\u00ce\u00bb\u00ce\u00ac\u00ce\u00bd\u00ce\u00b4\u00ce\u00b7",
    "name_en": "Somaliland",
    "name_es": "Somalilandia",
    "name_fr": "Somaliland",
    "name_hi": "\u00e0\u00a4\u00b8\u00e0\u00a5\u008b\u00e0\u00a4\u00ae\u00e0\u00a4\u00be\u00e0\u00a4\u00b2\u00e0\u00a5\u0080\u00e0\u00a4\u00a6\u00e0\u00a5\u0087\u00e0\u00a4\u00b6",
    "name_hu": "Szom\u00c3\u00a1lif\u00c3\u00b6ld",
    "name_id": "Somaliland",
    "name_it": "Somaliland",
    "name_ja": "\u00e3\u0082\u00bd\u00e3\u0083\u009e\u00e3\u0083\u00aa\u00e3\u0083\u00a9\u00e3\u0083\u00b3\u00e3\u0083\u0089",
    "name_ko": "\u00ec\u0086\u008c\u00eb\u00a7\u0090\u00eb\u00a6\u00b4\u00eb\u009e\u0080\u00eb\u0093\u009c",
    "name_len": "10",
    "name_long": "Somaliland",
    "name_nev": "Somaliland",
    "name_nl": "Somaliland",
    "name_pl": "Somaliland",
    "name_pt": "Somalil\u00c3\u00a2ndia",
    "name_ru": "\u00d0\u00a1\u00d0\u00be\u00d0\u00bc\u00d0\u00b0\u00d0\u00bb\u00d0\u00b8\u00d0\u00bb\u00d0\u00b5\u00d0\u00bd\u00d0\u00b4",
    "name_sort": "Somaliland",
    "name_sv": "Somaliland",
    "name_tr": "Somaliland",
    "name_vi": "Somaliland",
    "name_zh": "\u00e7\u00b4\u00a2\u00e9\u00a9\u00ac\u00e9\u0087\u008c\u00e5\u0085\u00b0",
    "ne_id": "1159321259",
    "note_adm0": "Self admin.",
    "note_brk": "Self admin.; Claimed by Somalia",
    "notes": [
        "Incomplete record due to missing mledoze country."
    ],
    "pop_est": "3500000",
    "pop_rank": "12",
    "pop_year": "2013",
    "postal": "SL",
    "record_type": "country",
    "scalerank": "0",
    "sov_a3": "SOL",
    "sovereignt": "Somaliland",
    "su_a3": "SOL",
    "su_dif": "0",
    "subunit": "Somaliland",
    "tiny": "-99",
    "type": "Indeterminate",
    "un_a3": "-099",
    "wb_a2": "-99",
    "wb_a3": "-99",
    "wikidataid": "Q34754",
    "wikipedia": "-99",
    "woe_id": "-99",
    "woe_id_eh": "-99",
    "woe_note": "Includes old states of 2347021, 2347020, 2347017 and portion of 2347016."
}