{
    "abbrev": "Turkm.",
    "abbrev_len": "6",
    "adm0_a3": "TKM",
    "adm0_a3_is": "TKM",
    "adm0_a3_un": "-99",
    "adm0_a3_us": "TKM",
    "adm0_a3_wb": "-99",
    "adm0_dif": "0",
    "admin": "Turkmenistan",
    "alt_spellings": [
        "TM"
    ],
    "borders": [
        "AFG",
        "IRN",
        "KAZ",
        "UZB"
    ],
    "brk_a3": "TKM",
    "brk_diff": "0",
    "brk_group": "",
    "brk_name": "Turkmenistan",
    "capital": [
        "Ashgabat"
    ],
    "capital_rinvex": "Ashgabat",
    "cca2": "TM",
    "cca3": "TKM",
    "ccn3": "795",
    "cioc": "TKM",
    "currencies": [
        "TMT"
    ],
    "data_sources": [
        "mledoze",
        "natural"
    ],
    "demonym": "Turkmen",
    "dialling": {
        "calling_code": [
            "993"
        ],
        "international_prefix": "810",
        "national_destination_code_lengths": [
            2
        ],
        "national_number_lengths": [
            8
        ],
        "national_prefix": "8"
    },
    "economy": "6. Developing region",
    "extra": {
        "address_format": null,
        "ar5": "EIT",
        "cowc": "TKM",
        "cown": 701,
        "ds": "TM",
        "edgar": "2E",
        "emoji": "\ud83c\uddf9\ud83c\uddf2",
        "eu_member": null,
        "fao": 213,
        "fifa": "TKM",
        "fips": "TX",
        "gaul": 250,
        "geonameid": 1218197,
        "imf": 925,
        "ioc": "TKM",
        "itu": "TKM",
        "marc": "tk",
        "vat_rates": null,
        "wmo": "TR"
    },
    "featurecla": "Admin-0 country",
    "fips_10_": "TX",
    "flag": {
        "emoji": "\ud83c\uddf9\ud83c\uddf2"
    },
    "formal_en": "Turkmenistan",
    "formal_fr": "",
    "gdp_md_est": "94720.00",
    "gdp_year": "2016",
    "geo": {
        "area": 488100,
        "borders": [
            "AFG",
            "IRN",
            "KAZ",
            "UZB"
        ],
        "continent": {
            "AS": "Asia"
        },
        "independent": "Yes",
        "landlocked": true,
        "latitude": "40 00 N",
        "latitude_desc": "39.2012825012207",
        "latlng": [
            40,
            60
        ],
        "longitude": "60 00 E",
        "longitude_desc": "59.082252502441406",
        "max_latitude": "42.566667",
        "max_longitude": "66.65",
        "min_latitude": "35.216667",
        "min_longitude": "52.5",
        "postal_code": true,
        "region": "Asia",
        "region_code": "142",
        "region_un": "Asia",
        "region_wb": "Europe & Central Asia",
        "subregion": "Central Asia",
        "subregion_code": "143",
        "world_region": "EMEA"
    },
    "geou_dif": "0",
    "geounit": "Turkmenistan",
    "gu_a3": "TKM",
    "homepart": "1",
    "idd": {
        "root": "+9",
        "suffixes": [
            "93"
        ]
    },
    "income_grp": "3. Upper middle income",
    "independent": true,
    "iso_3166_1_alpha2": "TM",
    "iso_3166_1_alpha3": "TKM",
    "iso_3166_1_numeric": "795",
    "iso_a2": "TM",
    "iso_a3": "TKM",
    "iso_a3_eh": "TKM",
    "iso_n3": "795",
    "labelrank": "4",
    "languages": {
        "rus": "Russian",
        "tuk": "Turkmen"
    },
    "lastcensus": "1995",
    "level": "2",
    "long_len": "12",
    "mapcolor7": "3",
    "mapcolor8": "2",
    "mapcolor9": "1",
    "mapcolor13": "9",
    "max_label": "8.0",
    "min_label": "3.0",
    "min_zoom": "0.0",
    "name": {
        "common": "Turkmenistan",
        "native": {
            "rus": {
                "common": "\u0422\u0443\u0440\u043a\u043c\u0435\u043d\u0438\u044f",
                "official": "\u0422\u0443\u0440\u043a\u043c\u0435\u043d\u0438\u0441\u0442\u0430\u043d"
            },
            "tuk": {
                "common": "T\u00fcrkmenistan",
                "official": "T\u00fcrkmenistan"
            }
        },
        "official": "Turkmenistan"
    },
    "name_alt": "",
    "name_ar": "\u00d8\u00aa\u00d8\u00b1\u00d9\u0083\u00d9\u0085\u00d8\u00a7\u00d9\u0086\u00d8\u00b3\u00d8\u00aa\u00d8\u00a7\u00d9\u0086",
    "name_bn": "\u00e0\u00a6\u00a4\u00e0\u00a7\u0081\u00e0\u00a6\u00b0\u00e0\u00a7\u008d\u00e0\u00a6\u0095\u00e0\u00a6\u00ae\u00e0\u00a7\u0087\u00e0\u00a6\u00a8\u00e0\u00a6\u00bf\u00e0\u00a6\u00b8\u00e0\u00a7\u008d\u00e0\u00a6\u00a4\u00e0\u00a6\u00be\u00e0\u00a6\u00a8",
    "name_ciawf": "Turkmenistan",
    "name_de": "Turkmenistan",
    "name_el": "\u00ce\u00a4\u00ce\u00bf\u00cf\u0085\u00cf\u0081\u00ce\u00ba\u00ce\u00bc\u00ce\u00b5\u00ce\u00bd\u00ce\u00b9\u00cf\u0083\u00cf\u0084\u00ce\u00ac\u00ce\u00bd",
    "name_en": "Turkmenistan",
    "name_es": "Turkmenist\u00c3\u00a1n",
    "name_fr": "Turkm\u00c3\u00a9nistan",
    "name_hi": "\u00e0\u00a4\u00a4\u00e0\u00a5\u0081\u00e0\u00a4\u00b0\u00e0\u00a5\u008d\u00e0\u00a4\u0095\u00e0\u00a4\u00ae\u00e0\u00a5\u0087\u00e0\u00a4\u00a8\u00e0\u00a4\u00bf\u00e0\u00a4\u00b8\u00e0\u00a5\u008d\u00e0\u00a4\u00a4\u00e0\u00a4\u00be\u00e0\u00a4\u00a8",
    "name_hu": "T\u00c3\u00bcrkmeniszt\u00c3\u00a1n",
    "name_id": "Turkmenistan",
    "name_it": "Turkmenistan",
    "name_ja": "\u00e3\u0083\u0088\u00e3\u0083\u00ab\u00e3\u0082\u00af\u00e3\u0083\u00a1\u00e3\u0083\u008b\u00e3\u0082\u00b9\u00e3\u0082\u00bf\u00e3\u0083\u00b3",
    "name_ko": "\u00ed\u0088\u00ac\u00eb\u00a5\u00b4\u00ed\u0081\u00ac\u00eb\u00a9\u0094\u00eb\u008b\u0088\u00ec\u008a\u00a4\u00ed\u0083\u0084",
    "name_len": "12",
    "name_long": "Turkmenistan",
    "name_nev": "Turkmenistan",
    "name_nl": "Turkmenistan",
    "name_pl": "Turkmenistan",
    "name_pt": "Turquemenist\u00c3\u00a3o",
    "name_ru": "\u00d0\u00a2\u00d1\u0083\u00d1\u0080\u00d0\u00ba\u00d0\u00bc\u00d0\u00b5\u00d0\u00bd\u00d0\u00b8\u00d1\u008f",
    "name_sort": "Turkmenistan",
    "name_sv": "Turkmenistan",
    "name_tr": "T\u00c3\u00bcrkmenistan",
    "name_vi": "Turkmenistan",
    "name_zh": "\u00e5\u009c\u009f\u00e5\u00ba\u0093\u00e6\u009b\u00bc\u00e6\u0096\u00af\u00e5\u009d\u00a6",
    "ne_id": "1159321309",
    "note_adm0": "",
    "note_brk": "",
    "pop_est": "5351277",
    "pop_rank": "13",
    "pop_year": "2017",
    "postal": "TM",
    "record_type": "country",
    "scalerank": "0",
    "sov_a3": "TKM",
    "sovereignt": "Turkmenistan",
    "status": "officially-assigned",
    "su_a3": "TKM",
    "su_dif": "0",
    "subunit": "Turkmenistan",
    "tiny": "-99",
    "tld": [
        ".tm"
    ],
    "translations": {
        "ces": {
            "common": "Turkmenist\u00e1n",
            "official": "Turkmenist\u00e1n"
        },
        "deu": {
            "common": "Turkmenistan",
            "official": "Turkmenistan"
        },
        "est": {
            "common": "T\u00fcrkmenistan",
            "official": "T\u00fcrkmenistan"
        },
        "fin": {
            "common": "Turkmenistan",
            "official": "Turkmenistan"
        },
        "fra": {
            "common": "Turkm\u00e9nistan",
            "official": "Turkm\u00e9nistan"
        },
        "hrv": {
            "common": "Turkmenistan",
            "official": "Turkmenistan"
        },
        "ita": {
            "common": "Turkmenistan",
            "official": "Turkmenistan"
        },
        "jpn": {
            "common": "\u30c8\u30eb\u30af\u30e1\u30cb\u30b9\u30bf\u30f3",
            "official": "\u30c8\u30eb\u30af\u30e1\u30cb\u30b9\u30bf\u30f3"
        },
        "kor": {
            "common": "\ud22c\ub974\ud06c\uba54\ub2c8\uc2a4\ud0c4",
            "official": "\ud22c\ub974\ud06c\uba54\ub2c8\uc2a4\ud0c4"
        },
        "nld": {
            "common": "Turkmenistan",
            "official": "Turkmenistan"
        },
        "per": {
            "common": "\u062a\u0631\u06a9\u0645\u0646\u0633\u062a\u0627\u0646",
            "official": "\u062c\u0645\u0647\u0648\u0631\u06cc \u062e\u0644\u0642 \u062a\u0631\u06a9\u0645\u0646\u0633\u062a\u0627\u0646"
        },
        "pol": {
            "common": "Turkmenistan",
            "official": "Republika Turkmenistanu"
        },
        "por": {
            "common": "Turquemenist\u00e3o",
            "official": "Turcomenist\u00e3o"
        },
        "rus": {
            "common": "\u0422\u0443\u0440\u043a\u043c\u0435\u043d\u0438\u044f",
            "official": "\u0422\u0443\u0440\u043a\u043c\u0435\u043d\u0438\u0441\u0442\u0430\u043d"
        },
        "slk": {
            "common": "Turkm\u00e9nsko",
            "official": "Turkm\u00e9nsko"
        },
        "spa": {
            "common": "Turkmenist\u00e1n",
            "official": "Turkmenist\u00e1n"
        },
        "urd": {
            "common": "\u062a\u0631\u06a9\u0645\u0627\u0646\u0633\u062a\u0627\u0646",
            "official": "\u062a\u0631\u06a9\u0645\u0627\u0646\u0633\u062a\u0627\u0646"
        },
        "zho": {
            "common": "\u571f\u5e93\u66fc\u65af\u5766",
            "official": "\u571f\u5e93\u66fc\u65af\u5766"
        }
    },
    "type": "Sovereign country",
    "un_a3": "795",
    "wb_a2": "TM",
    "wb_a3": "TKM",
    "wikidataid": "Q874",
    "wikipedia": "-99",
    "woe_id": "23424972",
    "woe_id_eh": "23424972",
    "woe_note": "Exact WOE match as country"
}