{
    "abbrev": "Viet.",
    "abbrev_len": "5",
    "adm0_a3": "VNM",
    "adm0_a3_is": "VNM",
    "adm0_a3_un": "-99",
    "adm0_a3_us": "VNM",
    "adm0_a3_wb": "-99",
    "adm0_dif": "0",
    "admin": "Vietnam",
    "alt_spellings": [
        "VN",
        "Socialist Republic of Vietnam",
        "C\u1ed9ng h\u00f2a X\u00e3 h\u1ed9i ch\u1ee7 ngh\u0129a Vi\u1ec7t Nam",
        "Viet Nam"
    ],
    "borders": [
        "KHM",
        "CHN",
        "LAO"
    ],
    "brk_a3": "VNM",
    "brk_diff": "0",
    "brk_group": "",
    "brk_name": "Vietnam",
    "capital": [
        "Hanoi"
    ],
    "capital_rinvex": "Hanoi",
    "cca2": "VN",
    "cca3": "VNM",
    "ccn3": "704",
    "cioc": "VIE",
    "currencies": [
        "VND"
    ],
    "data_sources": [
        "mledoze",
        "natural"
    ],
    "demonym": "Vietnamese",
    "dialling": {
        "calling_code": [
            "84"
        ],
        "international_prefix": "00",
        "national_destination_code_lengths": [
            2
        ],
        "national_number_lengths": [
            7,
            8,
            9,
            10
        ],
        "national_prefix": "0"
    },
    "economy": "5. Emerging region: G20",
    "extra": {
        "address_format": null,
        "ar5": "ASIA",
        "cowc": "DRV",
        "cown": 816,
        "ds": "VN",
        "edgar": "Q1",
        "emoji": "\ud83c\uddfb\ud83c\uddf3",
        "eu_member": null,
        "fao": 237,
        "fifa": "VIE",
        "fips": "VM",
        "gaul": 264,
        "geonameid": 1562822,
        "imf": 582,
        "ioc": "VIE",
        "itu": "VTN",
        "marc": "vm",
        "vat_rates": null,
        "wmo": "VS"
    },
    "featurecla": "Admin-0 country",
    "fips_10_": "VM",
    "flag": {
        "emoji": "\ud83c\uddfb\ud83c\uddf3"
    },
    "formal_en": "Socialist Republic of Vietnam",
    "formal_fr": "",
    "gdp_md_est": "594900.00",
    "gdp_year": "2016",
    "geo": {
        "area": 331212,
        "borders": [
            "KHM",
            "CHN",
            "LAO"
        ],
        "continent": {
            "AS": "Asia"
        },
        "independent": "Yes",
        "landlocked": false,
        "latitude": "16 10 N",
        "latitude_desc": "16.9404296875",
        "latlng": [
            16.16666666,
            107.83333333
        ],
        "longitude": "107 50 E",
        "longitude_desc": "106.8164291381836",
        "max_latitude": "23.666667",
        "max_longitude": "109.466667",
        "min_latitude": "8.383333",
        "min_longitude": "102.216667",
        "postal_code": true,
        "region": "Asia",
        "region_code": "142",
        "region_un": "Asia",
        "region_wb": "East Asia & Pacific",
        "subregion": "South-Eastern Asia",
        "subregion_code": "035",
        "world_region": "APAC"
    },
    "geou_dif": "0",
    "geounit": "Vietnam",
    "gu_a3": "VNM",
    "homepart": "1",
    "idd": {
        "root": "+8",
        "suffixes": [
            "4"
        ]
    },
    "income_grp": "4. Lower middle income",
    "independent": true,
    "iso_3166_1_alpha2": "VN",
    "iso_3166_1_alpha3": "VNM",
    "iso_3166_1_numeric": "704",
    "iso_a2": "VN",
    "iso_a3": "VNM",
    "iso_a3_eh": "VNM",
    "iso_n3": "704",
    "labelrank": "2",
    "languages": {
        "vie": "Vietnamese"
    },
    "lastcensus": "2009",
    "level": "2",
    "long_len": "7",
    "mapcolor7": "5",
    "mapcolor8": "6",
    "mapcolor9": "5",
    "mapcolor13": "4",
    "max_label": "7.0",
    "min_label": "2.0",
    "min_zoom": "0.0",
    "name": {
        "common": "Vietnam",
        "native": {
            "vie": {
                "common": "Vi\u1ec7t Nam",
                "official": "C\u1ed9ng h\u00f2a x\u00e3 h\u1ed9i ch\u1ee7 ngh\u0129a Vi\u1ec7t Nam"
            }
        },
        "official": "Socialist Republic of Vietnam"
    },
    "name_alt": "",
    "name_ar": "\u00d9\u0081\u00d9\u008a\u00d8\u00aa\u00d9\u0086\u00d8\u00a7\u00d9\u0085",
    "name_bn": "\u00e0\u00a6\u00ad\u00e0\u00a6\u00bf\u00e0\u00a6\u00af\u00e0\u00a6\u00bc\u00e0\u00a7\u0087\u00e0\u00a6\u00a4\u00e0\u00a6\u00a8\u00e0\u00a6\u00be\u00e0\u00a6\u00ae",
    "name_ciawf": "Vietnam",
    "name_de": "Vietnam",
    "name_el": "\u00ce\u0092\u00ce\u00b9\u00ce\u00b5\u00cf\u0084\u00ce\u00bd\u00ce\u00ac\u00ce\u00bc",
    "name_en": "Vietnam",
    "name_es": "Vietnam",
    "name_fr": "Vi\u00c3\u00aat Nam",
    "name_hi": "\u00e0\u00a4\u00b5\u00e0\u00a4\u00bf\u00e0\u00a4\u00af\u00e0\u00a4\u00a4\u00e0\u00a4\u00a8\u00e0\u00a4\u00be\u00e0\u00a4\u00ae",
    "name_hu": "Vietnam",
    "name_id": "Vietnam",
    "name_it": "Vietnam",
    "name_ja": "\u00e3\u0083\u0099\u00e3\u0083\u0088\u00e3\u0083\u008a\u00e3\u0083\u00a0",
    "name_ko": "\u00eb\u00b2\u00a0\u00ed\u008a\u00b8\u00eb\u0082\u00a8",
    "name_len": "7",
    "name_long": "Vietnam",
    "name_nev": "Vietnam",
    "name_nl": "Vietnam",
    "name_pl": "Wietnam",
    "name_pt": "Vietname",
    "name_ru": "\u00d0\u0092\u00d1\u008c\u00d0\u00b5\u00d1\u0082\u00d0\u00bd\u00d0\u00b0\u00d0\u00bc",
    "name_sort": "Vietnam",
    "name_sv": "Vietnam",
    "name_tr": "Vietnam",
    "name_vi": "Vi\u00e1\u00bb\u0087t Nam",
    "name_zh": "\u00e8\u00b6\u008a\u00e5\u008d\u0097",
    "ne_id": "1159321417",
    "note_adm0": "",
    "note_brk": "",
    "pop_est": "96160163",
    "pop_rank": "16",
    "pop_year": "2017",
    "postal": "VN",
    "record_type": "country",
    "scalerank": "0",
    "sov_a3": "VNM",
    "sovereignt": "Vietnam",
    "status": "officially-assigned",
    "su_a3": "VNM",
    "su_dif": "0",
    "subunit": "Vietnam",
    "tiny": "2",
    "tld": [
        ".vn"
    ],
    "translations": {
        "ces": {
            "common": "Vietnam",
            "official": "Vietnamsk\u00e1 socialistick\u00e1 republika"
        },
        "deu": {
            "common": "Vietnam",
            "official": "Sozialistische Republik Vietnam"
        },
        "est": {
            "common": "Vietnam",
            "official": "Vietnami Sotsialistlik Vabariik"
        },
        "fin": {
            "common": "Vietnam",
            "official": "Vietnamin sosialistinen tasavalta"
        },
        "fra": {
            "common": "Vi\u00eat Nam",
            "official": "R\u00e9publique socialiste du Vi\u00eat Nam"
        },
        "hrv": {
            "common": "Vijetnam",
            "official": "Socijalisti\u010dka Republika Vijetnam"
        },
        "ita": {
            "common": "Vietnam",
            "official": "Repubblica socialista del Vietnam"
        },
        "jpn": {
            "common": "\u30d9\u30c8\u30ca\u30e0",
            "official": "\u30d9\u30c8\u30ca\u30e0\u793e\u4f1a\u4e3b\u7fa9\u5171\u548c\u56fd"
        },
        "kor": {
            "common": "\ubca0\ud2b8\ub0a8",
            "official": "\ubca0\ud2b8\ub0a8 \uc0ac\ud68c\uc8fc\uc758 \uacf5\ud654\uad6d"
        },
        "nld": {
            "common": "Vietnam",
            "official": "Socialistische Republiek Vietnam"
        },
        "per": {
            "common": "\u0648\u06cc\u062a\u0646\u0627\u0645",
            "official": "\u062c\u0645\u0647\u0648\u0631\u06cc \u0633\u0648\u0633\u06cc\u0627\u0644\u06cc\u0633\u062a\u06cc \u0648\u06cc\u062a\u0646\u0627\u0645"
        },
        "pol": {
            "common": "Wietnam",
            "official": "Socjalistyczna Republika Wietnamu"
        },
        "por": {
            "common": "Vietname",
            "official": "Rep\u00fablica Socialista do Vietname"
        },
        "rus": {
            "common": "\u0412\u044c\u0435\u0442\u043d\u0430\u043c",
            "official": "\u0421\u043e\u0446\u0438\u0430\u043b\u0438\u0441\u0442\u0438\u0447\u0435\u0441\u043a\u0430\u044f \u0420\u0435\u0441\u043f\u0443\u0431\u043b\u0438\u043a\u0430 \u0412\u044c\u0435\u0442\u043d\u0430\u043c"
        },
        "slk": {
            "common": "Vietnam",
            "official": "Vietnamsk\u00e1 socialistick\u00e1 republika"
        },
        "spa": {
            "common": "Vietnam",
            "official": "Rep\u00fablica Socialista de Vietnam"
        },
        "urd": {
            "common": "\u0648\u06cc\u062a\u0646\u0627\u0645",
            "official": "\u0627\u0634\u062a\u0631\u0627\u06a9\u06cc \u062c\u0645\u06c1\u0648\u0631\u06cc\u06c1 \u0648\u06cc\u062a\u0646\u0627\u0645"
        },
        "zho": {
            "common": "\u8d8a\u5357",
            "official": "\u8d8a\u5357\u793e\u4f1a\u4e3b\u4e49\u5171\u548c\u56fd"
        }
    },
    "type": "Sovereign country",
    "un_a3": "704",
    "wb_a2": "VN",
    "wb_a3": "VNM",
    "wikidataid": "Q881",
    "wikipedia": "-99",
    "woe_id": "23424984",
    "woe_id_eh": "23424984",
    "woe_note": "Exact WOE match as country"
}