{
    "vat": {
        "cca2": "BE",
        "cca3": "BEL",
        "data_sources": [
            "commerceguys"
        ],
        "display_inclusive": true,
        "generic_label": "vat",
        "name": "Belgian VAT",
        "rates": [
            {
                "amounts": [
                    {
                        "amount": 0.21,
                        "id": "be_vat_standard_1996",
                        "start_date": "1996-01-01"
                    }
                ],
                "default": true,
                "id": "be_vat_standard",
                "name": "Standard"
            },
            {
                "amounts": [
                    {
                        "amount": 0.12,
                        "id": "be_vat_intermediate_1992",
                        "start_date": "1992-04-01"
                    }
                ],
                "id": "be_vat_intermediate",
                "name": "Intermediate"
            },
            {
                "amounts": [
                    {
                        "amount": 0.06,
                        "id": "be_vat_reduced_1971",
                        "start_date": "1971-01-01"
                    }
                ],
                "id": "be_vat_reduced",
                "name": "Reduced"
            },
            {
                "amounts": [
                    {
                        "amount": 0,
                        "id": "be_vat_zero",
                        "start_date": "1971-01-01"
                    }
                ],
                "id": "be_vat_zero",
                "name": "Zero"
            }
        ],
        "record_type": "tax",
        "tag": "EU",
        "tax_modifier": "",
        "tax_type": "vat",
        "vat_id": "be_vat",
        "zone": "be_vat"
    }
}