{
    "vat": {
        "cca2": "BG",
        "cca3": "BGR",
        "data_sources": [
            "commerceguys"
        ],
        "display_inclusive": true,
        "generic_label": "vat",
        "name": "Bulgarian VAT",
        "rates": [
            {
                "amounts": [
                    {
                        "amount": 0.2,
                        "id": "bg_vat_standard_2007",
                        "start_date": "2007-01-01"
                    }
                ],
                "default": true,
                "id": "bg_vat_standard",
                "name": "Standard"
            },
            {
                "amounts": [
                    {
                        "amount": 0.07,
                        "end_date": "2011-03-31",
                        "id": "bg_vat_reduced_2007",
                        "start_date": "2007-01-01"
                    },
                    {
                        "amount": 0.09,
                        "id": "bg_vat_reduced_2011",
                        "start_date": "2011-04-01"
                    }
                ],
                "id": "bg_vat_reduced",
                "name": "Reduced"
            }
        ],
        "record_type": "tax",
        "tag": "EU",
        "tax_modifier": "",
        "tax_type": "vat",
        "vat_id": "bg_vat",
        "zone": "bg_vat"
    }
}