{
    "vat": {
        "cca2": "RO",
        "cca3": "ROU",
        "data_sources": [
            "commerceguys"
        ],
        "display_inclusive": true,
        "generic_label": "vat",
        "name": "Romanian VAT",
        "rates": [
            {
                "amounts": [
                    {
                        "amount": 0.19,
                        "end_date": "2010-06-30",
                        "id": "ro_vat_standard_2007",
                        "start_date": "2007-01-01"
                    },
                    {
                        "amount": 0.24,
                        "end_date": "2015-12-31",
                        "id": "ro_vat_standard_2010",
                        "start_date": "2010-07-01"
                    },
                    {
                        "amount": 0.2,
                        "end_date": "2016-12-31",
                        "id": "ro_vat_standard_2016",
                        "start_date": "2016-01-01"
                    },
                    {
                        "amount": 0.19,
                        "id": "ro_vat_standard_2017",
                        "start_date": "2017-01-01"
                    }
                ],
                "default": true,
                "id": "ro_vat_standard",
                "name": "Standard"
            },
            {
                "amounts": [
                    {
                        "amount": 0.09,
                        "id": "ro_vat_intermediate_2008",
                        "start_date": "2008-12-01"
                    }
                ],
                "id": "ro_vat_intermediate",
                "name": "Intermediate"
            },
            {
                "amounts": [
                    {
                        "amount": 0.05,
                        "id": "ro_vat_reduced_2008",
                        "start_date": "2008-12-01"
                    }
                ],
                "id": "ro_vat_reduced",
                "name": "Reduced"
            }
        ],
        "record_type": "tax",
        "tag": "EU",
        "tax_modifier": "",
        "tax_type": "vat",
        "vat_id": "ro_vat",
        "zone": "ro_vat"
    }
}