{
    "africa_luanda": {
        "abbreviations": [
            "LMT",
            "WAT"
        ],
        "cca2": "AO",
        "cca3": "AGO",
        "country_code": "AO",
        "data_sources": [
            "timezonedb"
        ],
        "record_type": "timezone",
        "zone_id": "8",
        "zone_name": "Africa\/Luanda"
    }
}