{
    "america_argentina_buenos__aires": {
        "abbreviations": [
            "-04",
            "-03",
            "-02",
            "CMT",
            "LMT"
        ],
        "cca2": "AR",
        "cca3": "ARG",
        "country_code": "AR",
        "data_sources": [
            "timezonedb"
        ],
        "record_type": "timezone",
        "zone_id": "19",
        "zone_name": "America\/Argentina\/Buenos_Aires"
    },
    "america_argentina_catamarca": {
        "abbreviations": [
            "-04",
            "-03",
            "-02",
            "CMT",
            "LMT"
        ],
        "cca2": "AR",
        "cca3": "ARG",
        "country_code": "AR",
        "data_sources": [
            "timezonedb"
        ],
        "record_type": "timezone",
        "zone_id": "24",
        "zone_name": "America\/Argentina\/Catamarca"
    },
    "america_argentina_cordoba": {
        "abbreviations": [
            "-04",
            "-03",
            "-02",
            "CMT",
            "LMT"
        ],
        "cca2": "AR",
        "cca3": "ARG",
        "country_code": "AR",
        "data_sources": [
            "timezonedb"
        ],
        "record_type": "timezone",
        "zone_id": "20",
        "zone_name": "America\/Argentina\/Cordoba"
    },
    "america_argentina_jujuy": {
        "abbreviations": [
            "-04",
            "-03",
            "-02",
            "CMT",
            "LMT"
        ],
        "cca2": "AR",
        "cca3": "ARG",
        "country_code": "AR",
        "data_sources": [
            "timezonedb"
        ],
        "record_type": "timezone",
        "zone_id": "22",
        "zone_name": "America\/Argentina\/Jujuy"
    },
    "america_argentina_la__rioja": {
        "abbreviations": [
            "-04",
            "-03",
            "-02",
            "CMT",
            "LMT"
        ],
        "cca2": "AR",
        "cca3": "ARG",
        "country_code": "AR",
        "data_sources": [
            "timezonedb"
        ],
        "record_type": "timezone",
        "zone_id": "25",
        "zone_name": "America\/Argentina\/La_Rioja"
    },
    "america_argentina_mendoza": {
        "abbreviations": [
            "-04",
            "-03",
            "-02",
            "CMT",
            "LMT"
        ],
        "cca2": "AR",
        "cca3": "ARG",
        "country_code": "AR",
        "data_sources": [
            "timezonedb"
        ],
        "record_type": "timezone",
        "zone_id": "27",
        "zone_name": "America\/Argentina\/Mendoza"
    },
    "america_argentina_rio__gallegos": {
        "abbreviations": [
            "-04",
            "-03",
            "-02",
            "CMT",
            "LMT"
        ],
        "cca2": "AR",
        "cca3": "ARG",
        "country_code": "AR",
        "data_sources": [
            "timezonedb"
        ],
        "record_type": "timezone",
        "zone_id": "29",
        "zone_name": "America\/Argentina\/Rio_Gallegos"
    },
    "america_argentina_salta": {
        "abbreviations": [
            "-04",
            "-03",
            "-02",
            "CMT",
            "LMT"
        ],
        "cca2": "AR",
        "cca3": "ARG",
        "country_code": "AR",
        "data_sources": [
            "timezonedb"
        ],
        "record_type": "timezone",
        "zone_id": "21",
        "zone_name": "America\/Argentina\/Salta"
    },
    "america_argentina_san__juan": {
        "abbreviations": [
            "-04",
            "-03",
            "-02",
            "CMT",
            "LMT"
        ],
        "cca2": "AR",
        "cca3": "ARG",
        "country_code": "AR",
        "data_sources": [
            "timezonedb"
        ],
        "record_type": "timezone",
        "zone_id": "26",
        "zone_name": "America\/Argentina\/San_Juan"
    },
    "america_argentina_san__luis": {
        "abbreviations": [
            "-04",
            "-03",
            "-02",
            "CMT",
            "LMT"
        ],
        "cca2": "AR",
        "cca3": "ARG",
        "country_code": "AR",
        "data_sources": [
            "timezonedb"
        ],
        "record_type": "timezone",
        "zone_id": "28",
        "zone_name": "America\/Argentina\/San_Luis"
    },
    "america_argentina_tucuman": {
        "abbreviations": [
            "-04",
            "-03",
            "-02",
            "CMT",
            "LMT"
        ],
        "cca2": "AR",
        "cca3": "ARG",
        "country_code": "AR",
        "data_sources": [
            "timezonedb"
        ],
        "record_type": "timezone",
        "zone_id": "23",
        "zone_name": "America\/Argentina\/Tucuman"
    },
    "america_argentina_ushuaia": {
        "abbreviations": [
            "-04",
            "-03",
            "-02",
            "CMT",
            "LMT"
        ],
        "cca2": "AR",
        "cca3": "ARG",
        "country_code": "AR",
        "data_sources": [
            "timezonedb"
        ],
        "record_type": "timezone",
        "zone_id": "30",
        "zone_name": "America\/Argentina\/Ushuaia"
    }
}