{
    "pacific_pago__pago": {
        "abbreviations": [
            "LMT",
            "SST"
        ],
        "cca2": "AS",
        "cca3": "ASM",
        "country_code": "AS",
        "data_sources": [
            "timezonedb"
        ],
        "record_type": "timezone",
        "zone_id": "31",
        "zone_name": "Pacific\/Pago_Pago"
    }
}