{
    "indian_kerguelen": {
        "abbreviations": [
            "+05"
        ],
        "cca2": "TF",
        "cca3": "ATF",
        "country_code": "TF",
        "data_sources": [
            "timezonedb"
        ],
        "record_type": "timezone",
        "zone_id": "360",
        "zone_name": "Indian\/Kerguelen"
    }
}