{
    "europe_brussels": {
        "abbreviations": [
            "BMT",
            "CEST",
            "CET",
            "LMT",
            "WEST",
            "WET"
        ],
        "cca2": "BE",
        "cca3": "BEL",
        "country_code": "BE",
        "data_sources": [
            "timezonedb"
        ],
        "record_type": "timezone",
        "zone_id": "52",
        "zone_name": "Europe\/Brussels"
    }
}