{
    "atlantic_cape__verde": {
        "abbreviations": [
            "-02",
            "-01",
            "LMT"
        ],
        "cca2": "CV",
        "cca3": "CPV",
        "country_code": "CV",
        "data_sources": [
            "timezonedb"
        ],
        "record_type": "timezone",
        "zone_id": "129",
        "zone_name": "Atlantic\/Cape_Verde"
    }
}