{
    "america_havana": {
        "abbreviations": [
            "CDT",
            "CST",
            "HMT",
            "LMT"
        ],
        "cca2": "CU",
        "cca3": "CUB",
        "country_code": "CU",
        "data_sources": [
            "timezonedb"
        ],
        "record_type": "timezone",
        "zone_id": "128",
        "zone_name": "America\/Havana"
    }
}