{
    "pacific_chuuk": {
        "abbreviations": [
            "+09",
            "+10",
            "LMT"
        ],
        "cca2": "FM",
        "cca3": "FSM",
        "country_code": "FM",
        "data_sources": [
            "timezonedb"
        ],
        "record_type": "timezone",
        "zone_id": "155",
        "zone_name": "Pacific\/Chuuk"
    },
    "pacific_kosrae": {
        "abbreviations": [
            "+09",
            "+10",
            "+11",
            "+12",
            "LMT"
        ],
        "cca2": "FM",
        "cca3": "FSM",
        "country_code": "FM",
        "data_sources": [
            "timezonedb"
        ],
        "record_type": "timezone",
        "zone_id": "157",
        "zone_name": "Pacific\/Kosrae"
    },
    "pacific_pohnpei": {
        "abbreviations": [
            "+09",
            "+10",
            "+11",
            "LMT"
        ],
        "cca2": "FM",
        "cca3": "FSM",
        "country_code": "FM",
        "data_sources": [
            "timezonedb"
        ],
        "record_type": "timezone",
        "zone_id": "156",
        "zone_name": "Pacific\/Pohnpei"
    }
}