{
    "america_guadeloupe": {
        "abbreviations": [
            "AST",
            "LMT"
        ],
        "cca2": "GP",
        "cca3": "GLP",
        "country_code": "GP",
        "data_sources": [
            "timezonedb"
        ],
        "record_type": "timezone",
        "zone_id": "174",
        "zone_name": "America\/Guadeloupe"
    }
}