{
    "africa_bissau": {
        "abbreviations": [
            "-01",
            "GMT",
            "LMT"
        ],
        "cca2": "GW",
        "cca3": "GNB",
        "country_code": "GW",
        "data_sources": [
            "timezonedb"
        ],
        "record_type": "timezone",
        "zone_id": "180",
        "zone_name": "Africa\/Bissau"
    }
}