{
    "africa_malabo": {
        "abbreviations": [
            "LMT",
            "WAT"
        ],
        "cca2": "GQ",
        "cca3": "GNQ",
        "country_code": "GQ",
        "data_sources": [
            "timezonedb"
        ],
        "record_type": "timezone",
        "zone_id": "175",
        "zone_name": "Africa\/Malabo"
    }
}