{
    "america_guatemala": {
        "abbreviations": [
            "CDT",
            "CST",
            "LMT"
        ],
        "cca2": "GT",
        "cca3": "GTM",
        "country_code": "GT",
        "data_sources": [
            "timezonedb"
        ],
        "record_type": "timezone",
        "zone_id": "178",
        "zone_name": "America\/Guatemala"
    }
}