{
    "america_cayenne": {
        "abbreviations": [
            "-04",
            "-03",
            "LMT"
        ],
        "cca2": "GF",
        "cca3": "GUF",
        "country_code": "GF",
        "data_sources": [
            "timezonedb"
        ],
        "record_type": "timezone",
        "zone_id": "164",
        "zone_name": "America\/Cayenne"
    }
}