{
    "america_guyana": {
        "abbreviations": [
            "-0345",
            "-04",
            "-03",
            "LMT"
        ],
        "cca2": "GY",
        "cca3": "GUY",
        "country_code": "GY",
        "data_sources": [
            "timezonedb"
        ],
        "record_type": "timezone",
        "zone_id": "181",
        "zone_name": "America\/Guyana"
    }
}