{
    "asia_hong__kong": {
        "abbreviations": [
            "HKST",
            "HKT",
            "HKWT",
            "JST",
            "LMT"
        ],
        "cca2": "HK",
        "cca3": "HKG",
        "country_code": "HK",
        "data_sources": [
            "timezonedb"
        ],
        "record_type": "timezone",
        "zone_id": "182",
        "zone_name": "Asia\/Hong_Kong"
    }
}