{
    "europe_zagreb": {
        "abbreviations": [
            "CEST",
            "CET",
            "LMT"
        ],
        "cca2": "HR",
        "cca3": "HRV",
        "country_code": "HR",
        "data_sources": [
            "timezonedb"
        ],
        "record_type": "timezone",
        "zone_id": "184",
        "zone_name": "Europe\/Zagreb"
    }
}