{
    "asia_amman": {
        "abbreviations": [
            "EEST",
            "EET",
            "LMT"
        ],
        "cca2": "JO",
        "cca3": "JOR",
        "country_code": "JO",
        "data_sources": [
            "timezonedb"
        ],
        "record_type": "timezone",
        "zone_id": "202",
        "zone_name": "Asia\/Amman"
    }
}