{
    "asia_phnom__penh": {
        "abbreviations": [
            "+07",
            "BMT",
            "LMT"
        ],
        "cca2": "KH",
        "cca3": "KHM",
        "country_code": "KH",
        "data_sources": [
            "timezonedb"
        ],
        "record_type": "timezone",
        "zone_id": "206",
        "zone_name": "Asia\/Phnom_Penh"
    }
}