{
    "asia_beirut": {
        "abbreviations": [
            "EEST",
            "EET",
            "LMT"
        ],
        "cca2": "LB",
        "cca3": "LBN",
        "country_code": "LB",
        "data_sources": [
            "timezonedb"
        ],
        "record_type": "timezone",
        "zone_id": "224",
        "zone_name": "Asia\/Beirut"
    }
}