{
    "africa_nouakchott": {
        "abbreviations": [
            "GMT",
            "LMT"
        ],
        "cca2": "MR",
        "cca3": "MRT",
        "country_code": "MR",
        "data_sources": [
            "timezonedb"
        ],
        "record_type": "timezone",
        "zone_id": "251",
        "zone_name": "Africa\/Nouakchott"
    }
}