{
    "europe_amsterdam": {
        "abbreviations": [
            "+0020",
            "+0120",
            "AMT",
            "CEST",
            "CET",
            "LMT",
            "NST"
        ],
        "cca2": "NL",
        "cca3": "NLD",
        "country_code": "NL",
        "data_sources": [
            "timezonedb"
        ],
        "record_type": "timezone",
        "zone_id": "277",
        "zone_name": "Europe\/Amsterdam"
    }
}