{
    "europe_warsaw": {
        "abbreviations": [
            "CEST",
            "CET",
            "EEST",
            "EET",
            "LMT",
            "WMT"
        ],
        "cca2": "PL",
        "cca3": "POL",
        "country_code": "PL",
        "data_sources": [
            "timezonedb"
        ],
        "record_type": "timezone",
        "zone_id": "294",
        "zone_name": "Europe\/Warsaw"
    }
}