{
    "asia_riyadh": {
        "abbreviations": [
            "+03",
            "LMT"
        ],
        "cca2": "SA",
        "cca3": "SAU",
        "country_code": "SA",
        "data_sources": [
            "timezonedb"
        ],
        "record_type": "timezone",
        "zone_id": "337",
        "zone_name": "Asia\/Riyadh"
    }
}