{
    "america_el__salvador": {
        "abbreviations": [
            "CDT",
            "CST",
            "LMT"
        ],
        "cca2": "SV",
        "cca3": "SLV",
        "country_code": "SV",
        "data_sources": [
            "timezonedb"
        ],
        "record_type": "timezone",
        "zone_id": "354",
        "zone_name": "America\/El_Salvador"
    }
}