{
    "africa_sao__tome": {
        "abbreviations": [
            "GMT",
            "LMT",
            "WAT"
        ],
        "cca2": "ST",
        "cca3": "STP",
        "country_code": "ST",
        "data_sources": [
            "timezonedb"
        ],
        "record_type": "timezone",
        "zone_id": "353",
        "zone_name": "Africa\/Sao_Tome"
    }
}