{
    "asia_damascus": {
        "abbreviations": [
            "EEST",
            "EET",
            "LMT"
        ],
        "cca2": "SY",
        "cca3": "SYR",
        "country_code": "SY",
        "data_sources": [
            "timezonedb"
        ],
        "record_type": "timezone",
        "zone_id": "356",
        "zone_name": "Asia\/Damascus"
    }
}