{
    "asia_dili": {
        "abbreviations": [
            "+08",
            "+09",
            "LMT"
        ],
        "cca2": "TL",
        "cca3": "TLS",
        "country_code": "TL",
        "data_sources": [
            "timezonedb"
        ],
        "record_type": "timezone",
        "zone_id": "365",
        "zone_name": "Asia\/Dili"
    }
}