{
    "america_port_of__spain": {
        "abbreviations": [
            "AST",
            "LMT"
        ],
        "cca2": "TT",
        "cca3": "TTO",
        "country_code": "TT",
        "data_sources": [
            "timezonedb"
        ],
        "record_type": "timezone",
        "zone_id": "370",
        "zone_name": "America\/Port_of_Spain"
    }
}