{
    "africa_dar_es__salaam": {
        "abbreviations": [
            "+0230",
            "+0245",
            "EAT",
            "LMT"
        ],
        "cca2": "TZ",
        "cca3": "TZA",
        "country_code": "TZ",
        "data_sources": [
            "timezonedb"
        ],
        "record_type": "timezone",
        "zone_id": "373",
        "zone_name": "Africa\/Dar_es_Salaam"
    }
}