{
    "asia_samarkand": {
        "abbreviations": [
            "+04",
            "+05",
            "+06",
            "LMT"
        ],
        "cca2": "UZ",
        "cca3": "UZB",
        "country_code": "UZ",
        "data_sources": [
            "timezonedb"
        ],
        "record_type": "timezone",
        "zone_id": "410",
        "zone_name": "Asia\/Samarkand"
    },
    "asia_tashkent": {
        "abbreviations": [
            "+05",
            "+06",
            "+07",
            "LMT"
        ],
        "cca2": "UZ",
        "cca3": "UZB",
        "country_code": "UZ",
        "data_sources": [
            "timezonedb"
        ],
        "record_type": "timezone",
        "zone_id": "411",
        "zone_name": "Asia\/Tashkent"
    }
}