{
    "america_st__thomas": {
        "abbreviations": [
            "AST",
            "LMT"
        ],
        "cca2": "VI",
        "cca3": "VIR",
        "country_code": "VI",
        "data_sources": [
            "timezonedb"
        ],
        "record_type": "timezone",
        "zone_id": "416",
        "zone_name": "America\/St_Thomas"
    }
}