{
    "pacific_wallis": {
        "abbreviations": [
            "+12",
            "LMT"
        ],
        "cca2": "WF",
        "cca3": "WLF",
        "country_code": "WF",
        "data_sources": [
            "timezonedb"
        ],
        "record_type": "timezone",
        "zone_id": "419",
        "zone_name": "Pacific\/Wallis"
    }
}