{
    "africa_johannesburg": {
        "abbreviations": [
            "LMT",
            "SAST"
        ],
        "cca2": "ZA",
        "cca3": "ZAF",
        "country_code": "ZA",
        "data_sources": [
            "timezonedb"
        ],
        "record_type": "timezone",
        "zone_id": "423",
        "zone_name": "Africa\/Johannesburg"
    }
}