{
    "X01~": {
        "alt_names": [
            ""
        ],
        "cca2": "AW",
        "cca3": "ABW",
        "code_hasc": "AW.AA",
        "extra": {
            "abbrev": "",
            "adm0_a3": "ABW",
            "adm0_label": "6",
            "adm0_sr": "3",
            "adm1_code": "ABW-5150",
            "admin": "Aruba",
            "area_sqkm": "0",
            "check_me": "0",
            "code_local": "",
            "data_sources": [
                "natural"
            ],
            "datarank": "10",
            "diss_me": "5150",
            "featurecla": "Admin-1 scale rank",
            "fips": "",
            "fips_alt": "",
            "gadm_level": "0",
            "geonunit": "Aruba",
            "gn_a1_code": "AW.",
            "gn_id": "-99",
            "gn_level": "0",
            "gn_name": "",
            "gn_region": "",
            "gns_adm1": "",
            "gns_id": "0",
            "gns_lang": "",
            "gns_level": "0",
            "gns_name": "",
            "gns_region": "",
            "gu_a3": "ABW",
            "hasc_maybe": "",
            "labelrank": "20",
            "mapcolor9": "2",
            "mapcolor13": "9",
            "max_label": "11.0",
            "min_label": "11.0",
            "min_zoom": "11.0",
            "name_ar": "\u00d8\u00a3\u00d8\u00b1\u00d9\u0088\u00d8\u00a8\u00d8\u00a7",
            "name_bn": "\u00e0\u00a6\u0086\u00e0\u00a6\u00b0\u00e0\u00a7\u0081\u00e0\u00a6\u00ac\u00e0\u00a6\u00be",
            "name_de": "Aruba",
            "name_el": "\u00ce\u0091\u00cf\u0081\u00ce\u00bf\u00cf\u008d\u00ce\u00bc\u00cf\u0080\u00ce\u00b1",
            "name_en": "Aruba",
            "name_es": "Aruba",
            "name_fr": "Aruba",
            "name_hi": "\u00e0\u00a4\u0085\u00e0\u00a4\u00b0\u00e0\u00a5\u0082\u00e0\u00a4\u00ac\u00e0\u00a4\u00be",
            "name_hu": "Aruba",
            "name_id": "Aruba",
            "name_it": "Aruba",
            "name_ja": "\u00e3\u0082\u00a2\u00e3\u0083\u00ab\u00e3\u0083\u0090",
            "name_ko": "\u00ec\u0095\u0084\u00eb\u00a3\u00a8\u00eb\u00b0\u0094",
            "name_len": "5",
            "name_local": "",
            "name_nl": "Aruba",
            "name_pl": "Aruba",
            "name_pt": "Aruba",
            "name_ru": "\u00d0\u0090\u00d1\u0080\u00d1\u0083\u00d0\u00b1\u00d0\u00b0",
            "name_sv": "Aruba",
            "name_tr": "Aruba",
            "name_vi": "Aruba",
            "name_zh": "\u00e9\u0098\u00bf\u00e9\u00ad\u00af\u00e5\u00b7\u00b4",
            "ne_id": "1159315531",
            "note": "",
            "provnum_ne": "0",
            "record_type": "state",
            "region": "",
            "region_cod": "",
            "region_sub": "",
            "sameascity": "-99",
            "scalerank": "10",
            "sov_a3": "NL1",
            "sub_code": "",
            "wikidataid": "Q21203",
            "wikipedia": "",
            "woe_id": "23424736",
            "woe_label": "",
            "woe_name": "Aruba"
        },
        "geo": {
            "latitude": "12.51470000",
            "longitude": "-69.9689000"
        },
        "iso_3166_2": "AW-X01~",
        "iso_a2": "AW",
        "iso_a3": "ABW",
        "name": "Aruba",
        "postal": "X01~",
        "type": "",
        "type_en": ""
    }
}