{
    "AG": {
        "alt_names": [
            "Aragac?otn"
        ],
        "cca2": "AM",
        "cca3": "ARM",
        "code_hasc": "AM.AG",
        "extra": {
            "abbrev": "",
            "adm0_a3": "ARM",
            "adm0_label": "2",
            "adm0_sr": "1",
            "adm1_code": "ARM-1553",
            "admin": "Armenia",
            "area_sqkm": "0",
            "check_me": "20",
            "code_local": "",
            "data_sources": [
                "natural"
            ],
            "datarank": "8",
            "diss_me": "1553",
            "featurecla": "Admin-1 scale rank",
            "fips": "AM01",
            "fips_alt": "",
            "gadm_level": "1",
            "geonunit": "Armenia",
            "gn_a1_code": "AM.01",
            "gn_id": "828259",
            "gn_level": "1",
            "gn_name": "Aragatsotni Marz",
            "gn_region": "",
            "gns_adm1": "AM01",
            "gns_id": "330409",
            "gns_lang": "hye",
            "gns_level": "1",
            "gns_name": "Aragatsotn",
            "gns_region": "",
            "gu_a3": "ARM",
            "hasc_maybe": "",
            "labelrank": "9",
            "mapcolor9": "2",
            "mapcolor13": "10",
            "max_label": "11.0",
            "min_label": "9.0",
            "min_zoom": "9.0",
            "name_ar": "\u00d9\u0085\u00d8\u00ad\u00d8\u00a7\u00d9\u0081\u00d8\u00b8\u00d8\u00a9 \u00d8\u00a2\u00d8\u00b1\u00d8\u00a7\u00d8\u00ba\u00d8\u00a7\u00d8\u00aa\u00d8\u00b3\u00d9\u0088\u00d8\u00aa\u00d9\u0086",
            "name_bn": "\u00e0\u00a6\u0086\u00e0\u00a6\u00b0\u00e0\u00a6\u00be\u00e0\u00a6\u00be\u00e0\u00a6\u0097\u00e0\u00a6\u00be\u00e0\u00a6\u009f\u00e0\u00a6\u00b8\u00e0\u00a6\u00a8 \u00e0\u00a6\u0085\u00e0\u00a6\u009e\u00e0\u00a7\u008d\u00e0\u00a6\u009a\u00e0\u00a6\u00b2",
            "name_de": "Aragazotn",
            "name_el": "\u00ce\u0095\u00cf\u0080\u00ce\u00b1\u00cf\u0081\u00cf\u0087\u00ce\u00af\u00ce\u00b1 \u00ce\u0091\u00cf\u0081\u00ce\u00b1\u00ce\u00b3\u00ce\u00ba\u00ce\u00b1\u00cf\u0084\u00cf\u0083\u00cf\u008c\u00cf\u0084\u00ce\u00bd",
            "name_en": "Aragatsotn Region",
            "name_es": "Aragatsotn",
            "name_fr": "Aragatsotn",
            "name_hi": "\u00e0\u00a4\u0085\u00e0\u00a4\u00b0\u00e0\u00a4\u00be\u00e0\u00a4\u0097\u00e0\u00a4\u00a4\u00e0\u00a5\u008d\u00e0\u00a4\u00b8\u00e0\u00a5\u008b\u00e0\u00a4\u00a4\u00e0\u00a5\u008d\u00e0\u00a4\u00a8",
            "name_hu": "Aragacotn tartom\u00c3\u00a1ny",
            "name_id": "Aragatsotn",
            "name_it": "Aragatsotn",
            "name_ja": "\u00e3\u0082\u00a2\u00e3\u0083\u00a9\u00e3\u0082\u00ac\u00e3\u0083\u0084\u00e3\u0082\u00a9\u00e3\u0083\u0088\u00e3\u0082\u00a5\u00e3\u0083\u00b3\u00e5\u009c\u00b0\u00e6\u0096\u00b9",
            "name_ko": "\u00ec\u0095\u0084\u00eb\u009d\u00bc\u00ea\u00b0\u0080\u00ec\u00b4\u0088\u00ed\u008a\u00bc \u00ec\u00a3\u00bc",
            "name_len": "10",
            "name_local": "\u00d4\u00b1\u00d6\u0080\u00d5\u00a1\u00d5\u00a3\u00d5\u00a1\u00d5\u00ae\u00d5\u00b8\u00d5\u00bf\u00d5\u00b6|\u00d0\u0090\u00d1\u0080\u00d0\u00b0\u00d0\u00b3\u00d0\u00b0\u00d1\u0086\u00d0\u00be\u00d1\u0082\u00d0\u00bd",
            "name_nl": "Aragatsotn",
            "name_pl": "Prowincja Aragacotn",
            "name_pt": "Aragatsotn",
            "name_ru": "\u00d0\u0090\u00d1\u0080\u00d0\u00b0\u00d0\u00b3\u00d0\u00b0\u00d1\u0086\u00d0\u00be\u00d1\u0082\u00d0\u00bd\u00d1\u0081\u00d0\u00ba\u00d0\u00b0\u00d1\u008f \u00d0\u00be\u00d0\u00b1\u00d0\u00bb\u00d0\u00b0\u00d1\u0081\u00d1\u0082\u00d1\u008c",
            "name_sv": "Aragatsotn",
            "name_tr": "Aragatsotn",
            "name_vi": "Aragatsotn",
            "name_zh": "\u00e9\u0098\u00bf\u00e6\u008b\u0089\u00e5\u008a\u00a0\u00e6\u008e\u00aa\u00e7\u0089\u00b9\u00e6\u0081\u00a9\u00e7\u009c\u0081",
            "ne_id": "1159310553",
            "note": "",
            "provnum_ne": "3",
            "record_type": "state",
            "region": "",
            "region_cod": "",
            "region_sub": "",
            "sameascity": "-99",
            "scalerank": "9",
            "sov_a3": "ARM",
            "sub_code": "",
            "wikidataid": "Q17915",
            "wikipedia": "",
            "woe_id": "20070209",
            "woe_label": "Aragatsotn, AM, Armenia",
            "woe_name": "Aragatsotn"
        },
        "geo": {
            "latitude": null,
            "longitude": null,
            "max_latitude": null,
            "max_longitude": null,
            "min_latitude": null,
            "min_longitude": null
        },
        "iso_3166_2": "AM-AG",
        "iso_a2": "AM",
        "iso_a3": "ARM",
        "name": "Aragac?otn",
        "postal": "AG",
        "type": "Marz",
        "type_en": "Province"
    },
    "AR": {
        "alt_names": [
            "Ararat"
        ],
        "cca2": "AM",
        "cca3": "ARM",
        "code_hasc": "AM.AR",
        "extra": {
            "abbrev": "",
            "adm0_a3": "ARM",
            "adm0_label": "2",
            "adm0_sr": "1",
            "adm1_code": "ARM-1671",
            "admin": "Armenia",
            "area_sqkm": "0",
            "check_me": "20",
            "code_local": "",
            "data_sources": [
                "natural"
            ],
            "datarank": "8",
            "diss_me": "1671",
            "featurecla": "Admin-1 scale rank",
            "fips": "AM02",
            "fips_alt": "",
            "gadm_level": "1",
            "geonunit": "Armenia",
            "gn_a1_code": "AM.02",
            "gn_id": "409313",
            "gn_level": "1",
            "gn_name": "Ararati Marz",
            "gn_region": "",
            "gns_adm1": "AM02",
            "gns_id": "330410",
            "gns_lang": "hye",
            "gns_level": "1",
            "gns_name": "Ararat",
            "gns_region": "",
            "gu_a3": "ARM",
            "hasc_maybe": "",
            "labelrank": "9",
            "mapcolor9": "2",
            "mapcolor13": "10",
            "max_label": "11.0",
            "min_label": "9.0",
            "min_zoom": "9.0",
            "name_ar": "\u00d9\u0085\u00d8\u00ad\u00d8\u00a7\u00d9\u0081\u00d8\u00b8\u00d8\u00a9 \u00d8\u00a3\u00d8\u00b1\u00d8\u00a7\u00d8\u00b1\u00d8\u00a7\u00d8\u00aa",
            "name_bn": "\u00e0\u00a6\u0086\u00e0\u00a6\u00b0\u00e0\u00a6\u00be\u00e0\u00a6\u00b0\u00e0\u00a6\u00be\u00e0\u00a6\u00a4 \u00e0\u00a6\u00aa\u00e0\u00a7\u008d\u00e0\u00a6\u00b0\u00e0\u00a6\u00a6\u00e0\u00a7\u0087\u00e0\u00a6\u00b6",
            "name_de": "Region Ararat",
            "name_el": "\u00ce\u0095\u00cf\u0080\u00ce\u00b1\u00cf\u0081\u00cf\u0087\u00ce\u00af\u00ce\u00b1 \u00ce\u0091\u00cf\u0081\u00ce\u00b1\u00cf\u0081\u00ce\u00ac\u00cf\u0084",
            "name_en": "Ararat Province",
            "name_es": "Ararat",
            "name_fr": "Ararat",
            "name_hi": "\u00e0\u00a4\u0085\u00e0\u00a4\u00b0\u00e0\u00a4\u00be\u00e0\u00a4\u00b0\u00e0\u00a4\u00a4 \u00e0\u00a4\u00aa\u00e0\u00a5\u008d\u00e0\u00a4\u00b0\u00e0\u00a4\u00be\u00e0\u00a4\u0082\u00e0\u00a4\u00a4",
            "name_hu": "Ararat tartom\u00c3\u00a1ny",
            "name_id": "Provinsi Ararat",
            "name_it": "provincia di Ararat",
            "name_ja": "\u00e3\u0082\u00a2\u00e3\u0083\u00a9\u00e3\u0083\u00a9\u00e3\u0083\u0088\u00e5\u009c\u00b0\u00e6\u0096\u00b9",
            "name_ko": "\u00ec\u0095\u0084\u00eb\u009d\u00bc\u00eb\u009d\u00bc\u00ed\u008a\u00b8 \u00ec\u00a3\u00bc",
            "name_len": "6",
            "name_local": "\u00d4\u00b1\u00d6\u0080\u00d5\u00a1\u00d6\u0080\u00d5\u00a1\u00d5\u00bf|\u00d0\u0090\u00d1\u0080\u00d0\u00b0\u00d1\u0080\u00d0\u00b0\u00d1\u0082",
            "name_nl": "Ararat",
            "name_pl": "Prowincja Ararat",
            "name_pt": "Ararate",
            "name_ru": "\u00d0\u0090\u00d1\u0080\u00d0\u00b0\u00d1\u0080\u00d0\u00b0\u00d1\u0082\u00d1\u0081\u00d0\u00ba\u00d0\u00b0\u00d1\u008f \u00d0\u00be\u00d0\u00b1\u00d0\u00bb\u00d0\u00b0\u00d1\u0081\u00d1\u0082\u00d1\u008c",
            "name_sv": "Ararat",
            "name_tr": "Ararat \u00c4\u00b0li",
            "name_vi": "Ararat",
            "name_zh": "\u00e4\u00ba\u009e\u00e6\u008b\u0089\u00e6\u008b\u0089\u00e7\u0089\u00b9\u00e7\u009c\u0081",
            "ne_id": "1159312161",
            "note": "",
            "provnum_ne": "8",
            "record_type": "state",
            "region": "",
            "region_cod": "",
            "region_sub": "",
            "sameascity": "-99",
            "scalerank": "9",
            "sov_a3": "ARM",
            "sub_code": "",
            "wikidataid": "Q199880",
            "wikipedia": "",
            "woe_id": "20070211",
            "woe_label": "Ararat, AM, Armenia",
            "woe_name": "Ararat"
        },
        "geo": {
            "latitude": 39.9753273,
            "longitude": 44.8338058,
            "max_latitude": 40.189931,
            "max_longitude": 45.117049,
            "min_latitude": 39.713722,
            "min_longitude": 44.3149281
        },
        "iso_3166_2": "AM-AR",
        "iso_a2": "AM",
        "iso_a3": "ARM",
        "name": "Ararat",
        "postal": "AR",
        "type": "Marz",
        "type_en": "Province"
    },
    "AV": {
        "alt_names": [
            "Armavir"
        ],
        "cca2": "AM",
        "cca3": "ARM",
        "code_hasc": "AM.AV",
        "extra": {
            "abbrev": "",
            "adm0_a3": "ARM",
            "adm0_label": "2",
            "adm0_sr": "1",
            "adm1_code": "ARM-1554",
            "admin": "Armenia",
            "area_sqkm": "0",
            "check_me": "20",
            "code_local": "",
            "data_sources": [
                "natural"
            ],
            "datarank": "8",
            "diss_me": "1554",
            "featurecla": "Admin-1 scale rank",
            "fips": "AM03",
            "fips_alt": "",
            "gadm_level": "1",
            "geonunit": "Armenia",
            "gn_a1_code": "AM.03",
            "gn_id": "828260",
            "gn_level": "1",
            "gn_name": "Armaviri Marz",
            "gn_region": "",
            "gns_adm1": "AM03",
            "gns_id": "330412",
            "gns_lang": "hye",
            "gns_level": "1",
            "gns_name": "Armavir",
            "gns_region": "",
            "gu_a3": "ARM",
            "hasc_maybe": "",
            "labelrank": "9",
            "mapcolor9": "2",
            "mapcolor13": "10",
            "max_label": "11.0",
            "min_label": "9.0",
            "min_zoom": "9.0",
            "name_ar": "\u00d9\u0085\u00d8\u00ad\u00d8\u00a7\u00d9\u0081\u00d8\u00b8\u00d8\u00a9 \u00d8\u00a2\u00d8\u00b1\u00d9\u0085\u00d8\u00a7\u00d9\u0088\u00d9\u008a\u00d8\u00b1",
            "name_bn": "\u00e0\u00a6\u0086\u00e0\u00a6\u00b0\u00e0\u00a6\u00ae\u00e0\u00a6\u00be\u00e0\u00a6\u00ad\u00e0\u00a6\u00bf\u00e0\u00a6\u00b0 \u00e0\u00a6\u0085\u00e0\u00a6\u009e\u00e0\u00a7\u008d\u00e0\u00a6\u009a\u00e0\u00a6\u00b2",
            "name_de": "Armawir",
            "name_el": "\u00ce\u0091\u00cf\u0081\u00ce\u00bc\u00ce\u00b1\u00ce\u00b2\u00ce\u00af\u00cf\u0081",
            "name_en": "Armavir Region",
            "name_es": "Armavir",
            "name_fr": "Armavir",
            "name_hi": "\u00e0\u00a4\u0085\u00e0\u00a4\u00b0\u00e0\u00a5\u008d\u00e0\u00a4\u00ae\u00e0\u00a4\u00be\u00e0\u00a4\u00b5\u00e0\u00a5\u0080\u00e0\u00a4\u00b0 \u00e0\u00a4\u00aa\u00e0\u00a5\u008d\u00e0\u00a4\u00b0\u00e0\u00a4\u00be\u00e0\u00a4\u0082\u00e0\u00a4\u00a4",
            "name_hu": "Armavir tartom\u00c3\u00a1ny",
            "name_id": "Armavir",
            "name_it": "provincia di Armavir",
            "name_ja": "\u00e3\u0082\u00a2\u00e3\u0083\u00ab\u00e3\u0083\u009e\u00e3\u0083\u00b4\u00e3\u0082\u00a3\u00e3\u0083\u00ab\u00e5\u009c\u00b0\u00e6\u0096\u00b9",
            "name_ko": "\u00ec\u0095\u0084\u00eb\u00a5\u00b4\u00eb\u00a7\u0088\u00eb\u00b9\u0084\u00eb\u00a5\u00b4 \u00ec\u00a3\u00bc",
            "name_len": "7",
            "name_local": "\u00d4\u00b1\u00d6\u0080\u00d5\u00b4\u00d5\u00a1\u00d5\u00be\u00d5\u00ab\u00d6\u0080|\u00d0\u0090\u00d1\u0080\u00d0\u00bc\u00d0\u00b0\u00d0\u00b2\u00d0\u00b8\u00d1\u0080",
            "name_nl": "Armavir",
            "name_pl": "Prowincja Armawir",
            "name_pt": "Armavir",
            "name_ru": "\u00d0\u0090\u00d1\u0080\u00d0\u00bc\u00d0\u00b0\u00d0\u00b2\u00d0\u00b8\u00d1\u0080\u00d1\u0081\u00d0\u00ba\u00d0\u00b0\u00d1\u008f \u00d0\u00be\u00d0\u00b1\u00d0\u00bb\u00d0\u00b0\u00d1\u0081\u00d1\u0082\u00d1\u008c",
            "name_sv": "Armavir",
            "name_tr": "Armavir \u00c4\u00b0dari B\u00c3\u00b6lgesi",
            "name_vi": "Armavir",
            "name_zh": "\u00e4\u00ba\u009e\u00e9\u00a6\u00ac\u00e7\u00b6\u00ad\u00e7\u0088\u00be\u00e7\u009c\u0081",
            "ne_id": "1159310555",
            "note": "",
            "provnum_ne": "5",
            "record_type": "state",
            "region": "",
            "region_cod": "",
            "region_sub": "",
            "sameascity": "-99",
            "scalerank": "9",
            "sov_a3": "ARM",
            "sub_code": "",
            "wikidataid": "Q201147",
            "wikipedia": "",
            "woe_id": "20070210",
            "woe_label": "Armavir, AM, Armenia",
            "woe_name": "Armavir"
        },
        "geo": {
            "latitude": 40.1315615,
            "longitude": 43.8325355,
            "max_latitude": 40.283289,
            "max_longitude": 44.4403099,
            "min_latitude": 40.018467,
            "min_longitude": 43.6464811
        },
        "iso_3166_2": "AM-AV",
        "iso_a2": "AM",
        "iso_a3": "ARM",
        "name": "Armavir",
        "postal": "AV",
        "type": "Marz",
        "type_en": "Province"
    },
    "ER": {
        "alt_names": [
            "Erevan"
        ],
        "cca2": "AM",
        "cca3": "ARM",
        "code_hasc": "AM.ER",
        "extra": {
            "abbrev": "",
            "adm0_a3": "ARM",
            "adm0_label": "2",
            "adm0_sr": "1",
            "adm1_code": "ARM-1675",
            "admin": "Armenia",
            "area_sqkm": "0",
            "check_me": "20",
            "code_local": "",
            "data_sources": [
                "natural"
            ],
            "datarank": "8",
            "diss_me": "1675",
            "featurecla": "Admin-1 scale rank",
            "fips": "AM11",
            "fips_alt": "",
            "gadm_level": "1",
            "geonunit": "Armenia",
            "gn_a1_code": "AM.11",
            "gn_id": "616051",
            "gn_level": "1",
            "gn_name": "Yerevan",
            "gn_region": "",
            "gns_adm1": "AM11",
            "gns_id": "-2325646",
            "gns_lang": "kat",
            "gns_level": "1",
            "gns_name": "Yerevan",
            "gns_region": "",
            "gu_a3": "ARM",
            "hasc_maybe": "",
            "labelrank": "9",
            "mapcolor9": "2",
            "mapcolor13": "10",
            "max_label": "11.0",
            "min_label": "9.0",
            "min_zoom": "9.0",
            "name_ar": "\u00d9\u008a\u00d8\u00b1\u00d9\u008a\u00d9\u0081\u00d8\u00a7\u00d9\u0086",
            "name_bn": "\u00e0\u00a6\u0087\u00e0\u00a6\u00af\u00e0\u00a6\u00bc\u00e0\u00a7\u0087\u00e0\u00a6\u00b0\u00e0\u00a7\u0087\u00e0\u00a6\u00ad\u00e0\u00a6\u00be\u00e0\u00a6\u00a8",
            "name_de": "Jerewan",
            "name_el": "\u00ce\u0093\u00ce\u00b5\u00cf\u0081\u00ce\u00b5\u00ce\u00b2\u00ce\u00ac\u00ce\u00bd",
            "name_en": "Yerevan",
            "name_es": "Erev\u00c3\u00a1n",
            "name_fr": "Erevan",
            "name_hi": "\u00e0\u00a4\u00af\u00e0\u00a5\u0087\u00e0\u00a4\u00b0\u00e0\u00a4\u00b5\u00e0\u00a4\u00be\u00e0\u00a4\u00a8",
            "name_hu": "Jerev\u00c3\u00a1n",
            "name_id": "Yerevan",
            "name_it": "Erevan",
            "name_ja": "\u00e3\u0082\u00a8\u00e3\u0083\u00ac\u00e3\u0083\u0090\u00e3\u0083\u00b3",
            "name_ko": "\u00ec\u0098\u0088\u00eb\u00a0\u0088\u00eb\u00b0\u0098",
            "name_len": "6",
            "name_local": "\u00d4\u00b5\u00d6\u0080\u00d6\u0087\u00d5\u00a1\u00d5\u00b6|\u00d0\u0095\u00d1\u0080\u00d0\u00b5\u00d0\u00b2\u00d0\u00b0\u00d0\u00bd",
            "name_nl": "Jerevan",
            "name_pl": "Erywa\u00c5\u0084",
            "name_pt": "Erevan",
            "name_ru": "\u00d0\u0095\u00d1\u0080\u00d0\u00b5\u00d0\u00b2\u00d0\u00b0\u00d0\u00bd",
            "name_sv": "Jerevan",
            "name_tr": "Erivan",
            "name_vi": "Yerevan",
            "name_zh": "\u00e8\u0091\u0089\u00e9\u0087\u008c\u00e6\u00ba\u00ab",
            "ne_id": "1159312171",
            "note": "",
            "provnum_ne": "10",
            "record_type": "state",
            "region": "",
            "region_cod": "",
            "region_sub": "",
            "sameascity": "-99",
            "scalerank": "9",
            "sov_a3": "ARM",
            "sub_code": "",
            "wikidataid": "Q1953",
            "wikipedia": "",
            "woe_id": "20070212",
            "woe_label": "Yerevan, AM, Armenia",
            "woe_name": "Erevan"
        },
        "geo": {
            "latitude": 40.183333,
            "longitude": 44.516667,
            "max_latitude": 40.2426667,
            "max_longitude": 44.6150493,
            "min_latitude": 40.0641141,
            "min_longitude": 44.3620849
        },
        "iso_3166_2": "AM-ER",
        "iso_a2": "AM",
        "iso_a3": "ARM",
        "name": "Erevan",
        "postal": "ER",
        "type": "Kaghak",
        "type_en": "City"
    },
    "GR": {
        "alt_names": [
            "Gegharkunick"
        ],
        "cca2": "AM",
        "cca3": "ARM",
        "code_hasc": "AM.GR",
        "extra": {
            "abbrev": "",
            "adm0_a3": "ARM",
            "adm0_label": "2",
            "adm0_sr": "1",
            "adm1_code": "ARM-1672",
            "admin": "Armenia",
            "area_sqkm": "0",
            "check_me": "0",
            "code_local": "",
            "data_sources": [
                "natural"
            ],
            "datarank": "8",
            "diss_me": "1672",
            "featurecla": "Admin-1 scale rank",
            "fips": "AM04",
            "fips_alt": "",
            "gadm_level": "1",
            "geonunit": "Armenia",
            "gn_a1_code": "AM.04",
            "gn_id": "828261",
            "gn_level": "1",
            "gn_name": "Geghark'unik'i Marz",
            "gn_region": "",
            "gns_adm1": "AM04",
            "gns_id": "330414",
            "gns_lang": "hye",
            "gns_level": "1",
            "gns_name": "Geghark'unik'",
            "gns_region": "",
            "gu_a3": "ARM",
            "hasc_maybe": "",
            "labelrank": "9",
            "mapcolor9": "2",
            "mapcolor13": "10",
            "max_label": "11.0",
            "min_label": "9.0",
            "min_zoom": "9.0",
            "name_ar": "\u00d9\u0085\u00d8\u00ad\u00d8\u00a7\u00d9\u0081\u00d8\u00b8\u00d8\u00a9 \u00d8\u00ba\u00d8\u00ba\u00d8\u00a7\u00d8\u00b1\u00d9\u0083\u00d9\u0088\u00d9\u0086\u00d9\u008a\u00d9\u0083",
            "name_bn": "\u00e0\u00a6\u0097\u00e0\u00a7\u0087\u00e0\u00a6\u0098\u00e0\u00a6\u00be\u00e0\u00a6\u00b0\u00e0\u00a6\u0095\u00e0\u00a7\u0081\u00e0\u00a6\u00a8\u00e0\u00a6\u00bf\u00e0\u00a6\u0095 \u00e0\u00a6\u00aa\u00e0\u00a7\u008d\u00e0\u00a6\u00b0\u00e0\u00a6\u00a6\u00e0\u00a7\u0087\u00e0\u00a6\u00b6",
            "name_de": "Gegharkunik",
            "name_el": "\u00ce\u0093\u00ce\u00ba\u00ce\u00b5\u00ce\u00b3\u00ce\u00ba\u00ce\u00b1\u00cf\u0081\u00ce\u00ba\u00ce\u00bf\u00cf\u0085\u00ce\u00bd\u00ce\u00af\u00ce\u00ba",
            "name_en": "Gegharkunik Province",
            "name_es": "Geghark'unik'",
            "name_fr": "Gegharkunik",
            "name_hi": "\u00e0\u00a4\u0097\u00e0\u00a5\u0087\u00e0\u00a4\u0098\u00e0\u00a4\u00be\u00e0\u00a4\u00b0\u00e0\u00a5\u008d\u00e0\u00a4\u0095\u00e0\u00a5\u0081\u00e0\u00a4\u00a8\u00e0\u00a4\u00bf\u00e0\u00a4\u0095 \u00e0\u00a4\u00aa\u00e0\u00a5\u008d\u00e0\u00a4\u00b0\u00e0\u00a4\u00be\u00e0\u00a4\u0082\u00e0\u00a4\u00a4",
            "name_hu": "Gegarkounik tartom\u00c3\u00a1ny",
            "name_id": "Provinsi Gegharkunik",
            "name_it": "Gegharkunik",
            "name_ja": "\u00e3\u0082\u00b2\u00e3\u0082\u00ac\u00e3\u0083\u00ab\u00e3\u0082\u00af\u00e3\u0083\u008b\u00e3\u0082\u00af\u00e5\u009c\u00b0\u00e6\u0096\u00b9",
            "name_ko": "\u00ea\u00b2\u008c\u00ea\u00b0\u0080\u00eb\u00a5\u00b4\u00ec\u00bf\u00a0\u00eb\u008b\u0088\u00ed\u0081\u00ac \u00ec\u00a3\u00bc",
            "name_len": "11",
            "name_local": "\u00d4\u00b3\u00d5\u00a5\u00d5\u00b2\u00d5\u00a1\u00d6\u0080\u00d6\u0084\u00d5\u00b8\u00d6\u0082\u00d5\u00b6\u00d5\u00ab\u00d6\u0084|\u00d0\u0093\u00d0\u00b5\u00d0\u00b3\u00d0\u00b0\u00d1\u0080\u00d0\u00ba\u00d1\u0083\u00d0\u00bd\u00d0\u00b8\u00d0\u00ba",
            "name_nl": "Gegharkoenik",
            "name_pl": "Prowincja Gegharkunik",
            "name_pt": "Gegharkunik",
            "name_ru": "\u00d0\u0093\u00d0\u00b5\u00d1\u0085\u00d0\u00b0\u00d1\u0080\u00d0\u00ba\u00d1\u0083\u00d0\u00bd\u00d0\u00b8\u00d0\u00ba\u00d1\u0081\u00d0\u00ba\u00d0\u00b0\u00d1\u008f \u00d0\u00be\u00d0\u00b1\u00d0\u00bb\u00d0\u00b0\u00d1\u0081\u00d1\u0082\u00d1\u008c",
            "name_sv": "Gegharkunik",
            "name_tr": "Ge\u00c4\u009farkunik",
            "name_vi": "Gegharkunik",
            "name_zh": "\u00e6\u00a0\u00bc\u00e5\u008a\u00a0\u00e7\u0088\u00be\u00e5\u00ba\u00ab\u00e5\u00b0\u00bc\u00e5\u0085\u008b\u00e7\u009c\u0081",
            "ne_id": "1159312163",
            "note": "",
            "provnum_ne": "1",
            "record_type": "state",
            "region": "",
            "region_cod": "",
            "region_sub": "",
            "sameascity": "-99",
            "scalerank": "9",
            "sov_a3": "ARM",
            "sub_code": "",
            "wikidataid": "Q199905",
            "wikipedia": "",
            "woe_id": "20070204",
            "woe_label": "Geghark'unik', AM, Armenia",
            "woe_name": "Gegharkunik"
        },
        "geo": {
            "latitude": null,
            "longitude": null,
            "max_latitude": null,
            "max_longitude": null,
            "min_latitude": null,
            "min_longitude": null
        },
        "iso_3166_2": "AM-GR",
        "iso_a2": "AM",
        "iso_a3": "ARM",
        "name": "Gegark'unik'",
        "postal": "GR",
        "type": "Marz",
        "type_en": "Province"
    },
    "KT": {
        "alt_names": [
            "Kotaik"
        ],
        "cca2": "AM",
        "cca3": "ARM",
        "code_hasc": "AM.KT",
        "extra": {
            "abbrev": "",
            "adm0_a3": "ARM",
            "adm0_label": "2",
            "adm0_sr": "1",
            "adm1_code": "ARM-1673",
            "admin": "Armenia",
            "area_sqkm": "0",
            "check_me": "20",
            "code_local": "",
            "data_sources": [
                "natural"
            ],
            "datarank": "8",
            "diss_me": "1673",
            "featurecla": "Admin-1 scale rank",
            "fips": "AM05",
            "fips_alt": "",
            "gadm_level": "1",
            "geonunit": "Armenia",
            "gn_a1_code": "AM.05",
            "gn_id": "828262",
            "gn_level": "1",
            "gn_name": "Kotayk'i Marz",
            "gn_region": "",
            "gns_adm1": "AM05",
            "gns_id": "330427",
            "gns_lang": "hye",
            "gns_level": "1",
            "gns_name": "Kotayk'",
            "gns_region": "",
            "gu_a3": "ARM",
            "hasc_maybe": "",
            "labelrank": "9",
            "mapcolor9": "2",
            "mapcolor13": "10",
            "max_label": "11.0",
            "min_label": "9.0",
            "min_zoom": "9.0",
            "name_ar": "\u00d9\u0085\u00d8\u00ad\u00d8\u00a7\u00d9\u0081\u00d8\u00b8\u00d8\u00a9 \u00d9\u0083\u00d9\u0088\u00d8\u00aa\u00d8\u00a7\u00d9\u008a\u00d9\u0083",
            "name_bn": "\u00e0\u00a6\u0095\u00e0\u00a7\u008b\u00e0\u00a6\u00a4\u00e0\u00a6\u00be\u00e0\u00a6\u00af\u00e0\u00a6\u00bc\u00e0\u00a7\u0087\u00e0\u00a6\u0095 \u00e0\u00a6\u0085\u00e0\u00a6\u009e\u00e0\u00a7\u008d\u00e0\u00a6\u009a\u00e0\u00a6\u00b2",
            "name_de": "Region Kotajk",
            "name_el": "\u00ce\u009a\u00cf\u008c\u00cf\u0084\u00ce\u00b1\u00ce\u00b3\u00ce\u00b9\u00ce\u00ba",
            "name_en": "Kotayk Region",
            "name_es": "Kotayk'",
            "name_fr": "Kotayk",
            "name_hi": "\u00e0\u00a4\u0095\u00e0\u00a5\u008b\u00e0\u00a4\u009f\u00e0\u00a4\u00be\u00e0\u00a4\u00af\u00e0\u00a4\u0095 \u00e0\u00a4\u00aa\u00e0\u00a5\u008d\u00e0\u00a4\u00b0\u00e0\u00a4\u00be\u00e0\u00a4\u0082\u00e0\u00a4\u00a4",
            "name_hu": "Kotajk tartom\u00c3\u00a1ny",
            "name_id": "Kotayk",
            "name_it": "provincia di Kotayk'",
            "name_ja": "\u00e3\u0082\u00b3\u00e3\u0082\u00bf\u00e3\u0082\u00a4\u00e3\u0082\u00af\u00e5\u009c\u00b0\u00e6\u0096\u00b9",
            "name_ko": "\u00ec\u00bd\u0094\u00ed\u0083\u0080\u00ec\u009d\u00b4\u00ed\u0081\u00ac \u00ec\u00a3\u00bc",
            "name_len": "6",
            "name_local": "\u00d4\u00bf\u00d5\u00b8\u00d5\u00bf\u00d5\u00a1\u00d5\u00b5\u00d6\u0084|\u00d0\u009a\u00d0\u00be\u00d1\u0082\u00d0\u00b0\u00d0\u00b9\u00d0\u00ba",
            "name_nl": "Kotayk",
            "name_pl": "Prowincja Kotajk",
            "name_pt": "Kotayk",
            "name_ru": "\u00d0\u009a\u00d0\u00be\u00d1\u0082\u00d0\u00b0\u00d0\u00b9\u00d0\u00ba\u00d1\u0081\u00d0\u00ba\u00d0\u00b0\u00d1\u008f \u00d0\u00be\u00d0\u00b1\u00d0\u00bb\u00d0\u00b0\u00d1\u0081\u00d1\u0082\u00d1\u008c",
            "name_sv": "Kotajk",
            "name_tr": "Kotayk",
            "name_vi": "Kotayk",
            "name_zh": "\u00e7\u00a7\u0091\u00e6\u00b3\u00b0\u00e5\u0085\u008b\u00e7\u009c\u0081",
            "ne_id": "1159312165",
            "note": "",
            "provnum_ne": "11",
            "record_type": "state",
            "region": "",
            "region_cod": "",
            "region_sub": "",
            "sameascity": "-99",
            "scalerank": "9",
            "sov_a3": "ARM",
            "sub_code": "",
            "wikidataid": "Q4511",
            "wikipedia": "",
            "woe_id": "20070208",
            "woe_label": "Kotayk', AM, Armenia",
            "woe_name": "Kotayk"
        },
        "geo": {
            "latitude": 40.4277896,
            "longitude": 44.6641741,
            "max_latitude": 40.71983,
            "max_longitude": 45.043105,
            "min_latitude": 40.0972899,
            "min_longitude": 44.398311
        },
        "iso_3166_2": "AM-KT",
        "iso_a2": "AM",
        "iso_a3": "ARM",
        "name": "Kotayk'",
        "postal": "KT",
        "type": "Marz",
        "type_en": "Province"
    },
    "LO": {
        "alt_names": [
            "Lorri"
        ],
        "cca2": "AM",
        "cca3": "ARM",
        "code_hasc": "AM.LO",
        "extra": {
            "abbrev": "",
            "adm0_a3": "ARM",
            "adm0_label": "2",
            "adm0_sr": "1",
            "adm1_code": "ARM-1674",
            "admin": "Armenia",
            "area_sqkm": "0",
            "check_me": "20",
            "code_local": "",
            "data_sources": [
                "natural"
            ],
            "datarank": "8",
            "diss_me": "1674",
            "featurecla": "Admin-1 scale rank",
            "fips": "AM06",
            "fips_alt": "",
            "gadm_level": "1",
            "geonunit": "Armenia",
            "gn_a1_code": "AM.06",
            "gn_id": "828263",
            "gn_level": "1",
            "gn_name": "Lorru Marz",
            "gn_region": "",
            "gns_adm1": "AM06",
            "gns_id": "330428",
            "gns_lang": "hye",
            "gns_level": "1",
            "gns_name": "Lorri",
            "gns_region": "",
            "gu_a3": "ARM",
            "hasc_maybe": "",
            "labelrank": "9",
            "mapcolor9": "2",
            "mapcolor13": "10",
            "max_label": "11.0",
            "min_label": "9.0",
            "min_zoom": "9.0",
            "name_ar": "\u00d9\u0085\u00d8\u00ad\u00d8\u00a7\u00d9\u0081\u00d8\u00b8\u00d8\u00a9 \u00d9\u0084\u00d9\u0088\u00d8\u00b1\u00d9\u008a",
            "name_bn": "\u00e0\u00a6\u00b2\u00e0\u00a6\u00b0\u00e0\u00a6\u00bf \u00e0\u00a6\u0085\u00e0\u00a6\u009e\u00e0\u00a7\u008d\u00e0\u00a6\u009a\u00e0\u00a6\u00b2",
            "name_de": "Lori",
            "name_el": "\u00ce\u009b\u00cf\u008c\u00cf\u0081\u00ce\u00b9",
            "name_en": "Lori Region",
            "name_es": "Lorri",
            "name_fr": "Lorri",
            "name_hi": "\u00e0\u00a4\u00b2\u00e0\u00a5\u008b\u00e0\u00a4\u00b0\u00e0\u00a5\u0080 \u00e0\u00a4\u00aa\u00e0\u00a5\u008d\u00e0\u00a4\u00b0\u00e0\u00a4\u00be\u00e0\u00a4\u0082\u00e0\u00a4\u00a4",
            "name_hu": "Lorj tartom\u00c3\u00a1ny",
            "name_id": "Lori",
            "name_it": "Lori",
            "name_ja": "\u00e3\u0083\u00ad\u00e3\u0083\u00aa\u00e5\u009c\u00b0\u00e6\u0096\u00b9",
            "name_ko": "\u00eb\u00a1\u009c\u00eb\u00a6\u00ac \u00ec\u00a3\u00bc",
            "name_len": "4",
            "name_local": "\u00d4\u00bc\u00d5\u00b8\u00d5\u00bc\u00d5\u00ab|\u00d0\u009b\u00d0\u00be\u00d1\u0080\u00d0\u00b8",
            "name_nl": "Lori",
            "name_pl": "Prowincja Lori",
            "name_pt": "Lorri",
            "name_ru": "\u00d0\u009b\u00d0\u00be\u00d1\u0080\u00d0\u00b8\u00d0\u00b9\u00d1\u0081\u00d0\u00ba\u00d0\u00b0\u00d1\u008f \u00d0\u00be\u00d0\u00b1\u00d0\u00bb\u00d0\u00b0\u00d1\u0081\u00d1\u0082\u00d1\u008c",
            "name_sv": "Lorri",
            "name_tr": "Lori",
            "name_vi": "Lori",
            "name_zh": "\u00e6\u00b4\u009b\u00e9\u0087\u008c\u00e7\u009c\u0081",
            "ne_id": "1159312169",
            "note": "",
            "provnum_ne": "9",
            "record_type": "state",
            "region": "",
            "region_cod": "",
            "region_sub": "",
            "sameascity": "-99",
            "scalerank": "9",
            "sov_a3": "ARM",
            "sub_code": "",
            "wikidataid": "Q200350",
            "wikipedia": "",
            "woe_id": "20070207",
            "woe_label": "Lorri, AM, Armenia",
            "woe_name": "Lori"
        },
        "geo": {
            "latitude": 40.969845,
            "longitude": 44.490014,
            "max_latitude": 41.299259,
            "max_longitude": 44.960212,
            "min_latitude": 40.668043,
            "min_longitude": 44.016761
        },
        "iso_3166_2": "AM-LO",
        "iso_a2": "AM",
        "iso_a3": "ARM",
        "name": "Lo?y",
        "postal": "LO",
        "type": "Marz",
        "type_en": "Province"
    },
    "SH": {
        "alt_names": [
            "\u0160irak"
        ],
        "cca2": "AM",
        "cca3": "ARM",
        "code_hasc": "AM.SH",
        "extra": {
            "abbrev": "",
            "adm0_a3": "ARM",
            "adm0_label": "2",
            "adm0_sr": "1",
            "adm1_code": "ARM-1555",
            "admin": "Armenia",
            "area_sqkm": "0",
            "check_me": "20",
            "code_local": "",
            "data_sources": [
                "natural"
            ],
            "datarank": "8",
            "diss_me": "1555",
            "featurecla": "Admin-1 scale rank",
            "fips": "AM07",
            "fips_alt": "",
            "gadm_level": "1",
            "geonunit": "Armenia",
            "gn_a1_code": "AM.07",
            "gn_id": "828264",
            "gn_level": "1",
            "gn_name": "Shiraki Marz",
            "gn_region": "",
            "gns_adm1": "AM07",
            "gns_id": "330429",
            "gns_lang": "hye",
            "gns_level": "1",
            "gns_name": "Shirak",
            "gns_region": "",
            "gu_a3": "ARM",
            "hasc_maybe": "",
            "labelrank": "9",
            "mapcolor9": "2",
            "mapcolor13": "10",
            "max_label": "11.0",
            "min_label": "9.0",
            "min_zoom": "9.0",
            "name_ar": "\u00d9\u0085\u00d8\u00ad\u00d8\u00a7\u00d9\u0081\u00d8\u00b8\u00d8\u00a9 \u00d8\u00b4\u00d9\u008a\u00d8\u00b1\u00d8\u00a7\u00d9\u0083",
            "name_bn": "\u00e0\u00a6\u00b6\u00e0\u00a6\u00bf\u00e0\u00a6\u00b0\u00e0\u00a6\u00be\u00e0\u00a6\u0095 \u00e0\u00a6\u0085\u00e0\u00a6\u009e\u00e0\u00a7\u008d\u00e0\u00a6\u009a\u00e0\u00a6\u00b2",
            "name_de": "Schirak",
            "name_el": "\u00ce\u00a3\u00ce\u00b9\u00cf\u0081\u00ce\u00ac\u00ce\u00ba",
            "name_en": "Shirak Region",
            "name_es": "Shirak",
            "name_fr": "Shirak",
            "name_hi": "\u00e0\u00a4\u00b6\u00e0\u00a4\u00bf\u00e0\u00a4\u00b0\u00e0\u00a4\u00be\u00e0\u00a4\u0095 \u00e0\u00a4\u00aa\u00e0\u00a5\u008d\u00e0\u00a4\u00b0\u00e0\u00a4\u00be\u00e0\u00a4\u0082\u00e0\u00a4\u00a4",
            "name_hu": "Sirak tartom\u00c3\u00a1ny",
            "name_id": "Shirak",
            "name_it": "provincia di Shirak",
            "name_ja": "\u00e3\u0082\u00b7\u00e3\u0083\u00a9\u00e3\u0082\u00af\u00e5\u009c\u00b0\u00e6\u0096\u00b9",
            "name_ko": "\u00ec\u008b\u009c\u00eb\u009d\u00bc\u00ed\u0081\u00ac \u00ec\u00a3\u00bc",
            "name_len": "6",
            "name_local": "\u00d5\u0087\u00d5\u00ab\u00d6\u0080\u00d5\u00a1\u00d5\u00af|\u00d0\u00a8\u00d0\u00b8\u00d1\u0080\u00d0\u00b0\u00d0\u00ba",
            "name_nl": "Sjirak",
            "name_pl": "Prowincja Szirak",
            "name_pt": "Shirak",
            "name_ru": "\u00d0\u00a8\u00d0\u00b8\u00d1\u0080\u00d0\u00b0\u00d0\u00ba\u00d1\u0081\u00d0\u00ba\u00d0\u00b0\u00d1\u008f \u00d0\u00be\u00d0\u00b1\u00d0\u00bb\u00d0\u00b0\u00d1\u0081\u00d1\u0082\u00d1\u008c",
            "name_sv": "Sjirak",
            "name_tr": "\u00c5\u009eirak \u00c4\u00b0dari B\u00c3\u00b6lgesi",
            "name_vi": "Shirak",
            "name_zh": "\u00e5\u00b8\u008c\u00e6\u008b\u0089\u00e5\u0085\u008b\u00e7\u009c\u0081",
            "ne_id": "1159310557",
            "note": "",
            "provnum_ne": "4",
            "record_type": "state",
            "region": "",
            "region_cod": "",
            "region_sub": "",
            "sameascity": "-99",
            "scalerank": "9",
            "sov_a3": "ARM",
            "sub_code": "",
            "wikidataid": "Q201063",
            "wikipedia": "",
            "woe_id": "20070203",
            "woe_label": "Shirak, AM, Armenia",
            "woe_name": "Shirak"
        },
        "geo": {
            "latitude": 40.9630814,
            "longitude": 43.8102461,
            "max_latitude": 41.1808931,
            "max_longitude": 44.2037191,
            "min_latitude": 40.439465,
            "min_longitude": 43.4497797
        },
        "iso_3166_2": "AM-SH",
        "iso_a2": "AM",
        "iso_a3": "ARM",
        "name": "\u0160irak",
        "postal": "SH",
        "type": "Marz",
        "type_en": "Province"
    },
    "SU": {
        "alt_names": [
            "Syunik'"
        ],
        "cca2": "AM",
        "cca3": "ARM",
        "code_hasc": "AM.SU",
        "extra": {
            "abbrev": "",
            "adm0_a3": "ARM",
            "adm0_label": "2",
            "adm0_sr": "1",
            "adm1_code": "ARM-1732",
            "admin": "Armenia",
            "area_sqkm": "0",
            "check_me": "0",
            "code_local": "",
            "data_sources": [
                "natural"
            ],
            "datarank": "8",
            "diss_me": "1732",
            "featurecla": "Admin-1 scale rank",
            "fips": "AM08",
            "fips_alt": "",
            "gadm_level": "1",
            "geonunit": "Armenia",
            "gn_a1_code": "AM.08",
            "gn_id": "409314",
            "gn_level": "1",
            "gn_name": "Syunik'i Marz",
            "gn_region": "",
            "gns_adm1": "AM08",
            "gns_id": "330430",
            "gns_lang": "hye",
            "gns_level": "1",
            "gns_name": "Syunik'",
            "gns_region": "",
            "gu_a3": "ARM",
            "hasc_maybe": "",
            "labelrank": "9",
            "mapcolor9": "2",
            "mapcolor13": "10",
            "max_label": "11.0",
            "min_label": "9.0",
            "min_zoom": "9.0",
            "name_ar": "\u00d9\u0085\u00d8\u00ad\u00d8\u00a7\u00d9\u0081\u00d8\u00b8\u00d8\u00a9 \u00d8\u00b3\u00d9\u008a\u00d9\u0088\u00d9\u0086\u00d9\u008a\u00d9\u0083",
            "name_bn": "\u00e0\u00a6\u00b8\u00e0\u00a6\u00be\u00e0\u00a6\u00af\u00e0\u00a6\u00bc\u00e0\u00a7\u0081\u00e0\u00a6\u00a8\u00e0\u00a6\u00bf\u00e0\u00a6\u0095 \u00e0\u00a6\u00aa\u00e0\u00a7\u008d\u00e0\u00a6\u00b0\u00e0\u00a6\u00a6\u00e0\u00a7\u0087\u00e0\u00a6\u00b6",
            "name_de": "Sjunik",
            "name_el": "\u00ce\u00a3\u00ce\u00b3\u00ce\u00b9\u00ce\u00bf\u00cf\u008d\u00ce\u00bd\u00ce\u00b9\u00ce\u00ba",
            "name_en": "Syunik Province",
            "name_es": "Syunik'",
            "name_fr": "Syunik",
            "name_hi": "\u00e0\u00a4\u00b8\u00e0\u00a5\u008d\u00e0\u00a4\u00af\u00e0\u00a5\u0081\u00e0\u00a4\u00a8\u00e0\u00a4\u00bf\u00e0\u00a4\u0095 \u00e0\u00a4\u00aa\u00e0\u00a5\u008d\u00e0\u00a4\u00b0\u00e0\u00a4\u00be\u00e0\u00a4\u0082\u00e0\u00a4\u00a4",
            "name_hu": "Szjounik tartom\u00c3\u00a1ny",
            "name_id": "Syunik",
            "name_it": "Syunik",
            "name_ja": "\u00e3\u0082\u00b7\u00e3\u0083\u00a5\u00e3\u0083\u008b\u00e3\u0082\u00af\u00e5\u009c\u00b0\u00e6\u0096\u00b9",
            "name_ko": "\u00ec\u008a\u0088\u00eb\u008b\u0088\u00ed\u0081\u00ac \u00ec\u00a3\u00bc",
            "name_len": "6",
            "name_local": "\u00d5\u008d\u00d5\u00b5\u00d5\u00b8\u00d6\u0082\u00d5\u00b6\u00d5\u00ab\u00d6\u0084|\u00d0\u00a1\u00d1\u008e\u00d0\u00bd\u00d0\u00b8\u00d0\u00ba",
            "name_nl": "Sjoenik",
            "name_pl": "Prowincja Sjunik",
            "name_pt": "Syunik",
            "name_ru": "\u00d0\u00a1\u00d1\u008e\u00d0\u00bd\u00d0\u00b8\u00d0\u00ba\u00d1\u0081\u00d0\u00ba\u00d0\u00b0\u00d1\u008f \u00d0\u00be\u00d0\u00b1\u00d0\u00bb\u00d0\u00b0\u00d1\u0081\u00d1\u0082\u00d1\u008c",
            "name_sv": "Siunik",
            "name_tr": "Syunik ili",
            "name_vi": "Syunik",
            "name_zh": "\u00e4\u00bc\u0091\u00e5\u00b0\u00bc\u00e5\u0085\u008b\u00e7\u009c\u0081",
            "ne_id": "1159309405",
            "note": "",
            "provnum_ne": "6",
            "record_type": "state",
            "region": "",
            "region_cod": "",
            "region_sub": "",
            "sameascity": "-99",
            "scalerank": "9",
            "sov_a3": "ARM",
            "sub_code": "",
            "wikidataid": "Q2523428",
            "wikipedia": "",
            "woe_id": "20070206",
            "woe_label": "Syunik', AM, Armenia",
            "woe_name": "Syunik"
        },
        "geo": {
            "latitude": 39.3194392,
            "longitude": 46.1460919,
            "max_latitude": 39.854328,
            "max_longitude": 46.630035,
            "min_latitude": 38.830521,
            "min_longitude": 45.7089391
        },
        "iso_3166_2": "AM-SU",
        "iso_a2": "AM",
        "iso_a3": "ARM",
        "name": "Syunik'",
        "postal": "SU",
        "type": "Marz",
        "type_en": "Province"
    },
    "TV": {
        "alt_names": [
            "Tavoush"
        ],
        "cca2": "AM",
        "cca3": "ARM",
        "code_hasc": "AM.TV",
        "extra": {
            "abbrev": "",
            "adm0_a3": "ARM",
            "adm0_label": "2",
            "adm0_sr": "1",
            "adm1_code": "ARM-1670",
            "admin": "Armenia",
            "area_sqkm": "0",
            "check_me": "10",
            "code_local": "",
            "data_sources": [
                "natural"
            ],
            "datarank": "8",
            "diss_me": "1670",
            "featurecla": "Admin-1 scale rank",
            "fips": "AM09",
            "fips_alt": "AM09",
            "gadm_level": "1",
            "geonunit": "Armenia",
            "gn_a1_code": "AM.09",
            "gn_id": "828265",
            "gn_level": "0",
            "gn_name": "Tavushi Marz",
            "gn_region": "",
            "gns_adm1": "AM09",
            "gns_id": "330432",
            "gns_lang": "hye",
            "gns_level": "1",
            "gns_name": "Tavush",
            "gns_region": "",
            "gu_a3": "ARM",
            "hasc_maybe": "",
            "labelrank": "9",
            "mapcolor9": "2",
            "mapcolor13": "10",
            "max_label": "11.0",
            "min_label": "9.0",
            "min_zoom": "9.0",
            "name_ar": "\u00d9\u0085\u00d8\u00ad\u00d8\u00a7\u00d9\u0081\u00d8\u00b8\u00d8\u00a9 \u00d8\u00aa\u00d8\u00a7\u00d9\u0088\u00d9\u0088\u00d8\u00b4",
            "name_bn": "\u00e0\u00a6\u00a4\u00e0\u00a6\u00be\u00e0\u00a6\u00ac\u00e0\u00a7\u0081\u00e0\u00a6\u00b6 \u00e0\u00a6\u0085\u00e0\u00a6\u009e\u00e0\u00a7\u008d\u00e0\u00a6\u009a\u00e0\u00a6\u00b2",
            "name_de": "Tawusch",
            "name_el": "\u00ce\u00a4\u00ce\u00b1\u00ce\u00b2\u00ce\u00bf\u00cf\u008d\u00cf\u0082",
            "name_en": "Tavush Region",
            "name_es": "Tavush",
            "name_fr": "Tavush",
            "name_hi": "\u00e0\u00a4\u00a4\u00e0\u00a4\u00be\u00e0\u00a4\u00b5\u00e0\u00a5\u0082\u00e0\u00a4\u00b6",
            "name_hu": "Tavous tartom\u00c3\u00a1ny",
            "name_id": "Provinsi Tavush",
            "name_it": "provincia di Tavow\u00c5\u00a1",
            "name_ja": "\u00e3\u0082\u00bf\u00e3\u0083\u00b4\u00e3\u0082\u00b7\u00e3\u0083\u00a5\u00e5\u009c\u00b0\u00e6\u0096\u00b9",
            "name_ko": "\u00ed\u0083\u0080\u00eb\u00b6\u0080\u00ec\u008b\u009c \u00ec\u00a3\u00bc",
            "name_len": "6",
            "name_local": "\u00d5\u008f\u00d5\u00a1\u00d5\u00be\u00d5\u00b8\u00d6\u0082\u00d5\u00b7|\u00d0\u00a2\u00d0\u00b0\u00d0\u00b2\u00d1\u0083\u00d1\u0088",
            "name_nl": "Tavoesj",
            "name_pl": "Prowincja Tawusz",
            "name_pt": "Tavush",
            "name_ru": "\u00d0\u00a2\u00d0\u00b0\u00d0\u00b2\u00d1\u0083\u00d1\u0088\u00d1\u0081\u00d0\u00ba\u00d0\u00b0\u00d1\u008f \u00d0\u00be\u00d0\u00b1\u00d0\u00bb\u00d0\u00b0\u00d1\u0081\u00d1\u0082\u00d1\u008c",
            "name_sv": "Tavusj",
            "name_tr": "Tavu\u00c5\u009f",
            "name_vi": "Tavush",
            "name_zh": "\u00e5\u00a1\u0094\u00e6\u00ad\u00a6\u00e4\u00bb\u0080\u00e7\u009c\u0081",
            "ne_id": "1159312159",
            "note": "",
            "provnum_ne": "2",
            "record_type": "state",
            "region": "",
            "region_cod": "",
            "region_sub": "",
            "sameascity": "-99",
            "scalerank": "9",
            "sov_a3": "ARM",
            "sub_code": "",
            "wikidataid": "Q201140",
            "wikipedia": "",
            "woe_id": "20070202",
            "woe_label": "Tavush, AM, Armenia",
            "woe_name": "Tavush"
        },
        "geo": {
            "latitude": 40.8866296,
            "longitude": 45.339349,
            "max_latitude": 41.3018379,
            "max_longitude": 45.5956799,
            "min_latitude": 40.648954,
            "min_longitude": 44.766082
        },
        "iso_3166_2": "AM-TV",
        "iso_a2": "AM",
        "iso_a3": "ARM",
        "name": "Tavu\u0161",
        "postal": "TV",
        "type": "Marz",
        "type_en": "Province"
    },
    "VD": {
        "alt_names": [
            "Vayoc Jor"
        ],
        "cca2": "AM",
        "cca3": "ARM",
        "code_hasc": "AM.VD",
        "extra": {
            "abbrev": "",
            "adm0_a3": "ARM",
            "adm0_label": "2",
            "adm0_sr": "1",
            "adm1_code": "ARM-1733",
            "admin": "Armenia",
            "area_sqkm": "0",
            "check_me": "0",
            "code_local": "",
            "data_sources": [
                "natural"
            ],
            "datarank": "8",
            "diss_me": "1733",
            "featurecla": "Admin-1 scale rank",
            "fips": "AM10",
            "fips_alt": "",
            "gadm_level": "1",
            "geonunit": "Armenia",
            "gn_a1_code": "AM.10",
            "gn_id": "409315",
            "gn_level": "1",
            "gn_name": "Vayots' Dzori Marz",
            "gn_region": "",
            "gns_adm1": "AM10",
            "gns_id": "330434",
            "gns_lang": "hye",
            "gns_level": "1",
            "gns_name": "Vayots' Dzor",
            "gns_region": "",
            "gu_a3": "ARM",
            "hasc_maybe": "",
            "labelrank": "9",
            "mapcolor9": "2",
            "mapcolor13": "10",
            "max_label": "11.0",
            "min_label": "9.0",
            "min_zoom": "9.0",
            "name_ar": "\u00d9\u0085\u00d8\u00ad\u00d8\u00a7\u00d9\u0081\u00d8\u00b8\u00d8\u00a9 \u00d9\u0088\u00d8\u00a7\u00d9\u008a\u00d9\u0088\u00d8\u00aa\u00d8\u00b3\u00e2\u0080\u008c\u00d8\u00ac\u00d9\u0088\u00d8\u00b1",
            "name_bn": "\u00e0\u00a6\u00ad\u00e0\u00a6\u00be\u00e0\u00a6\u00af\u00e0\u00a6\u00bc\u00e0\u00a7\u008b\u00e0\u00a6\u00a4 \u00e0\u00a6\u009c\u00e0\u00a7\u0081\u00e0\u00a6\u00b0 \u00e0\u00a6\u0085\u00e0\u00a6\u009e\u00e0\u00a7\u008d\u00e0\u00a6\u009a\u00e0\u00a6\u00b2",
            "name_de": "Wajoz Dsor",
            "name_el": "\u00ce\u0092\u00ce\u00ac\u00ce\u00b3\u00ce\u00b9\u00ce\u00bf\u00cf\u0084\u00cf\u0082 \u00ce\u009d\u00cf\u0084\u00ce\u00b6\u00ce\u00bf\u00cf\u0081",
            "name_en": "Vayots Dzor Region",
            "name_es": "Vayots' Dzor",
            "name_fr": "Vayots Dzor",
            "name_hi": "\u00e0\u00a4\u00b5\u00e0\u00a4\u00be\u00e0\u00a4\u00af\u00e0\u00a5\u008b\u00e0\u00a4\u00a4\u00e0\u00a5\u008d\u00e0\u00a4\u00b8 \u00e0\u00a4\u00a6\u00e0\u00a5\u008d\u00e0\u00a4\u009c\u00e0\u00a4\u00bc\u00e0\u00a5\u008b\u00e0\u00a4\u00b0",
            "name_hu": "Vajoc Dzor tartom\u00c3\u00a1ny",
            "name_id": "Provinsi Vayots Dzor",
            "name_it": "Vayots Dzor",
            "name_ja": "\u00e3\u0083\u00b4\u00e3\u0082\u00a1\u00e3\u0083\u00a8\u00e3\u0083\u0084\u00e3\u0083\u00bb\u00e3\u0082\u00be\u00e3\u0083\u00ab\u00e5\u009c\u00b0\u00e6\u0096\u00b9",
            "name_ko": "\u00eb\u00b0\u0094\u00ec\u009a\u0094\u00ec\u00b8\u00a0\u00ec\u00a1\u00b0\u00eb\u00a5\u00b4 \u00ec\u00a3\u00bc",
            "name_len": "11",
            "name_local": "\u00d5\u008e\u00d5\u00a1\u00d5\u00b5\u00d5\u00b8\u00d6\u0081 \u00d5\u0081\u00d5\u00b8\u00d6\u0080|\u00d0\u0092\u00d0\u00b0\u00d0\u00b9\u00d0\u00be\u00d1\u0086 \u00d0\u0094\u00d0\u00b7\u00d0\u00be\u00d1\u0080",
            "name_nl": "Vayots Dzor",
            "name_pl": "Prowincja Wajoc Dzor",
            "name_pt": "Vayots Dzor",
            "name_ru": "\u00d0\u0092\u00d0\u00b0\u00d0\u00b9\u00d0\u00be\u00d1\u0086\u00d0\u00b4\u00d0\u00b7\u00d0\u00be\u00d1\u0080\u00d1\u0081\u00d0\u00ba\u00d0\u00b0\u00d1\u008f \u00d0\u00be\u00d0\u00b1\u00d0\u00bb\u00d0\u00b0\u00d1\u0081\u00d1\u0082\u00d1\u008c",
            "name_sv": "Vajots Dzor",
            "name_tr": "Vayots Dzor",
            "name_vi": "Vayots Dzor",
            "name_zh": "\u00e7\u0093\u00a6\u00e7\u00b4\u0084\u00e8\u008c\u00a8\u00e4\u00bd\u0090\u00e7\u0088\u00be\u00e7\u009c\u0081",
            "ne_id": "1159309407",
            "note": "",
            "provnum_ne": "7",
            "record_type": "state",
            "region": "",
            "region_cod": "",
            "region_sub": "",
            "sameascity": "-99",
            "scalerank": "9",
            "sov_a3": "ARM",
            "sub_code": "",
            "wikidataid": "Q200124",
            "wikipedia": "",
            "woe_id": "20070205",
            "woe_label": "Vayots' Dzor, AM, Armenia",
            "woe_name": "Vayots Dzor"
        },
        "geo": {
            "latitude": 39.8107912,
            "longitude": 45.4967174,
            "max_latitude": 40.013809,
            "max_longitude": 45.825905,
            "min_latitude": 39.502243,
            "min_longitude": 45.066502
        },
        "iso_3166_2": "AM-VD",
        "iso_a2": "AM",
        "iso_a3": "ARM",
        "name": "Vayoc Jor",
        "postal": "VD",
        "type": "Marz",
        "type_en": "Province"
    }
}