{
    "AB": {
        "alt_names": [
            "Alberta"
        ],
        "cca2": "CA",
        "cca3": "CAN",
        "code_hasc": "CA.AB",
        "extra": {
            "abbrev": "Alta.",
            "adm0_a3": "CAN",
            "adm0_label": "2",
            "adm0_sr": "1",
            "adm1_code": "CAN-632",
            "admin": "Canada",
            "area_sqkm": "0",
            "check_me": "20",
            "code_local": "",
            "data_sources": [
                "natural"
            ],
            "datarank": "2",
            "diss_me": "632",
            "featurecla": "Admin-1 scale rank",
            "fips": "CA01",
            "fips_alt": "",
            "gadm_level": "1",
            "geonunit": "Canada",
            "gn_a1_code": "CA.01",
            "gn_id": "5883102",
            "gn_level": "1",
            "gn_name": "Alberta",
            "gn_region": "",
            "gns_adm1": "CA01",
            "gns_id": "-559990",
            "gns_lang": "fra",
            "gns_level": "1",
            "gns_name": "Alberta, Province d'",
            "gns_region": "",
            "gu_a3": "CAN",
            "hasc_maybe": "",
            "labelrank": "2",
            "mapcolor9": "2",
            "mapcolor13": "2",
            "max_label": "7.5",
            "min_label": "3.5",
            "min_zoom": "2.0",
            "name_ar": "\u00d8\u00a3\u00d9\u0084\u00d8\u00a8\u00d8\u00b1\u00d8\u00aa\u00d8\u00a7",
            "name_bn": "\u00e0\u00a6\u008f\u00e0\u00a7\u008d\u00e0\u00a6\u00af\u00e0\u00a6\u00be\u00e0\u00a6\u00b2\u00e0\u00a6\u00ac\u00e0\u00a6\u00be\u00e0\u00a6\u00b0\u00e0\u00a7\u008d\u00e0\u00a6\u009f\u00e0\u00a6\u00be",
            "name_de": "Alberta",
            "name_el": "\u00ce\u0091\u00ce\u00bb\u00ce\u00bc\u00cf\u0080\u00ce\u00ad\u00cf\u0081\u00cf\u0084\u00ce\u00b1",
            "name_en": "Alberta",
            "name_es": "Alberta",
            "name_fr": "Alberta",
            "name_hi": "\u00e0\u00a4\u0085\u00e0\u00a4\u00b2\u00e0\u00a5\u008d\u00e0\u00a4\u00ac\u00e0\u00a4\u00b0\u00e0\u00a5\u008d\u00e0\u00a4\u009f\u00e0\u00a4\u00be",
            "name_hu": "Alberta",
            "name_id": "Alberta",
            "name_it": "Alberta",
            "name_ja": "\u00e3\u0082\u00a2\u00e3\u0083\u00ab\u00e3\u0083\u0090\u00e3\u0083\u00bc\u00e3\u0082\u00bf\u00e5\u00b7\u009e",
            "name_ko": "\u00ec\u0095\u00a8\u00eb\u00b2\u0084\u00ed\u0083\u0080 \u00ec\u00a3\u00bc",
            "name_len": "7",
            "name_local": "",
            "name_nl": "Alberta",
            "name_pl": "Alberta",
            "name_pt": "Alberta",
            "name_ru": "\u00d0\u0090\u00d0\u00bb\u00d1\u008c\u00d0\u00b1\u00d0\u00b5\u00d1\u0080\u00d1\u0082\u00d0\u00b0",
            "name_sv": "Alberta",
            "name_tr": "Alberta",
            "name_vi": "Alberta",
            "name_zh": "\u00e8\u0089\u00be\u00e4\u00bc\u00af\u00e5\u00a1\u0094",
            "ne_id": "1159308775",
            "note": "",
            "provnum_ne": "12",
            "record_type": "state",
            "region": "Western Canada",
            "region_cod": "",
            "region_sub": "Prairies",
            "sameascity": "-99",
            "scalerank": "2",
            "sov_a3": "CAN",
            "sub_code": "",
            "wikidataid": "Q1951",
            "wikipedia": "http:\/\/en.wikipedia.org\/wiki\/Alberta",
            "woe_id": "2344915",
            "woe_label": "Alberta, CA, Canada",
            "woe_name": "Alberta"
        },
        "geo": {
            "latitude": 53.9332706,
            "longitude": -116.5765035,
            "max_latitude": 60.0000621,
            "max_longitude": -109.9998551,
            "min_latitude": 48.9966671,
            "min_longitude": -120.0005219
        },
        "iso_3166_2": "CA-AB",
        "iso_a2": "CA",
        "iso_a3": "CAN",
        "name": "Alberta",
        "postal": "AB",
        "type": "Province",
        "type_en": "Province"
    },
    "BC": {
        "alt_names": [
            "Colombie-Britannique"
        ],
        "cca2": "CA",
        "cca3": "CAN",
        "code_hasc": "CA.BC",
        "extra": {
            "abbrev": "B.C.",
            "adm0_a3": "CAN",
            "adm0_label": "2",
            "adm0_sr": "3",
            "adm1_code": "CAN-633",
            "admin": "Canada",
            "area_sqkm": "0",
            "check_me": "20",
            "code_local": "",
            "data_sources": [
                "natural"
            ],
            "datarank": "2",
            "diss_me": "633",
            "featurecla": "Admin-1 scale rank",
            "fips": "CA02",
            "fips_alt": "",
            "gadm_level": "1",
            "geonunit": "Canada",
            "gn_a1_code": "CA.02",
            "gn_id": "5909050",
            "gn_level": "1",
            "gn_name": "British Columbia",
            "gn_region": "",
            "gns_adm1": "CA02",
            "gns_id": "-561661",
            "gns_lang": "eng",
            "gns_level": "1",
            "gns_name": "British Columbia, Province of",
            "gns_region": "",
            "gu_a3": "CAN",
            "hasc_maybe": "",
            "labelrank": "2",
            "mapcolor9": "2",
            "mapcolor13": "2",
            "max_label": "7.5",
            "min_label": "3.5",
            "min_zoom": "2.0",
            "name_ar": "\u00d9\u0083\u00d9\u0088\u00d9\u0084\u00d9\u0088\u00d9\u0085\u00d8\u00a8\u00d9\u008a\u00d8\u00a7 \u00d8\u00a7\u00d9\u0084\u00d8\u00a8\u00d8\u00b1\u00d9\u008a\u00d8\u00b7\u00d8\u00a7\u00d9\u0086\u00d9\u008a\u00d8\u00a9",
            "name_bn": "\u00e0\u00a6\u00ac\u00e0\u00a7\u008d\u00e0\u00a6\u00b0\u00e0\u00a6\u00bf\u00e0\u00a6\u009f\u00e0\u00a6\u00bf\u00e0\u00a6\u00b6 \u00e0\u00a6\u0095\u00e0\u00a6\u00b2\u00e0\u00a6\u00be\u00e0\u00a6\u00ae\u00e0\u00a7\u008d\u00e0\u00a6\u00ac\u00e0\u00a6\u00bf\u00e0\u00a6\u00af\u00e0\u00a6\u00bc\u00e0\u00a6\u00be",
            "name_de": "British Columbia",
            "name_el": "\u00ce\u0092\u00cf\u0081\u00ce\u00b5\u00cf\u0084\u00ce\u00b1\u00ce\u00bd\u00ce\u00b9\u00ce\u00ba\u00ce\u00ae \u00ce\u009a\u00ce\u00bf\u00ce\u00bb\u00ce\u00bf\u00ce\u00bc\u00ce\u00b2\u00ce\u00af\u00ce\u00b1",
            "name_en": "British Columbia",
            "name_es": "Columbia Brit\u00c3\u00a1nica",
            "name_fr": "Colombie-Britannique",
            "name_hi": "\u00e0\u00a4\u00ac\u00e0\u00a5\u008d\u00e0\u00a4\u00b0\u00e0\u00a4\u00bf\u00e0\u00a4\u009f\u00e0\u00a4\u00bf\u00e0\u00a4\u00b6 \u00e0\u00a4\u0095\u00e0\u00a5\u008b\u00e0\u00a4\u00b2\u00e0\u00a4\u00ae\u00e0\u00a5\u008d\u00e0\u00a4\u00ac\u00e0\u00a4\u00bf\u00e0\u00a4\u00af\u00e0\u00a4\u00be",
            "name_hu": "Brit Columbia",
            "name_id": "British Columbia",
            "name_it": "Columbia Britannica",
            "name_ja": "\u00e3\u0083\u0096\u00e3\u0083\u00aa\u00e3\u0083\u0086\u00e3\u0082\u00a3\u00e3\u0083\u0083\u00e3\u0082\u00b7\u00e3\u0083\u00a5\u00e3\u0082\u00b3\u00e3\u0083\u00ad\u00e3\u0083\u00b3\u00e3\u0083\u0093\u00e3\u0082\u00a2\u00e5\u00b7\u009e",
            "name_ko": "\u00eb\u00b8\u008c\u00eb\u00a6\u00ac\u00ed\u008b\u00b0\u00ec\u008b\u009c\u00ec\u00bb\u00ac\u00eb\u009f\u00bc\u00eb\u00b9\u0084\u00ec\u0095\u0084 \u00ec\u00a3\u00bc",
            "name_len": "16",
            "name_local": "",
            "name_nl": "Brits-Columbia",
            "name_pl": "Kolumbia Brytyjska",
            "name_pt": "Col\u00c3\u00bambia Brit\u00c3\u00a2nica",
            "name_ru": "\u00d0\u0091\u00d1\u0080\u00d0\u00b8\u00d1\u0082\u00d0\u00b0\u00d0\u00bd\u00d1\u0081\u00d0\u00ba\u00d0\u00b0\u00d1\u008f \u00d0\u009a\u00d0\u00be\u00d0\u00bb\u00d1\u0083\u00d0\u00bc\u00d0\u00b1\u00d0\u00b8\u00d1\u008f",
            "name_sv": "British Columbia",
            "name_tr": "Britanya Kolumbiyas\u00c4\u00b1",
            "name_vi": "British Columbia",
            "name_zh": "\u00e4\u00b8\u008d\u00e5\u0088\u0097\u00e9\u00a2\u00a0\u00e5\u0093\u00a5\u00e4\u00bc\u00a6\u00e6\u00af\u0094\u00e4\u00ba\u009a",
            "ne_id": "1159307717",
            "note": "",
            "provnum_ne": "2",
            "record_type": "state",
            "region": "Western Canada",
            "region_cod": "",
            "region_sub": "British Columbia",
            "sameascity": "-99",
            "scalerank": "2",
            "sov_a3": "CAN",
            "sub_code": "",
            "wikidataid": "Q1974",
            "wikipedia": "http:\/\/en.wikipedia.org\/wiki\/British_Columbia",
            "woe_id": "2344916",
            "woe_label": "British Columbia, CA, Canada",
            "woe_name": "British Columbia"
        },
        "geo": {
            "latitude": 53.7266683,
            "longitude": -127.6476206,
            "max_latitude": 60.0001489,
            "max_longitude": -114.0542211,
            "min_latitude": 48.3089123,
            "min_longitude": -139.0570702
        },
        "iso_3166_2": "CA-BC",
        "iso_a2": "CA",
        "iso_a3": "CAN",
        "name": "British Columbia",
        "postal": "BC",
        "type": "Province",
        "type_en": "Province"
    },
    "MB": {
        "alt_names": [
            "Manitoba"
        ],
        "cca2": "CA",
        "cca3": "CAN",
        "code_hasc": "CA.MB",
        "extra": {
            "abbrev": "Man.",
            "adm0_a3": "CAN",
            "adm0_label": "2",
            "adm0_sr": "1",
            "adm1_code": "CAN-630",
            "admin": "Canada",
            "area_sqkm": "0",
            "check_me": "20",
            "code_local": "",
            "data_sources": [
                "natural"
            ],
            "datarank": "2",
            "diss_me": "630",
            "featurecla": "Admin-1 scale rank",
            "fips": "CA03",
            "fips_alt": "",
            "gadm_level": "1",
            "geonunit": "Canada",
            "gn_a1_code": "CA.03",
            "gn_id": "6065171",
            "gn_level": "1",
            "gn_name": "Manitoba",
            "gn_region": "",
            "gns_adm1": "CA03",
            "gns_id": "-568643",
            "gns_lang": "fra",
            "gns_level": "1",
            "gns_name": "Manitoba, Province de",
            "gns_region": "",
            "gu_a3": "CAN",
            "hasc_maybe": "",
            "labelrank": "2",
            "mapcolor9": "2",
            "mapcolor13": "2",
            "max_label": "7.5",
            "min_label": "3.5",
            "min_zoom": "2.0",
            "name_ar": "\u00d9\u0085\u00d8\u00a7\u00d9\u0086\u00d9\u008a\u00d8\u00aa\u00d9\u0088\u00d8\u00a8\u00d8\u00a7",
            "name_bn": "\u00e0\u00a6\u00ae\u00e0\u00a7\u008d\u00e0\u00a6\u00af\u00e0\u00a6\u00be\u00e0\u00a6\u00a8\u00e0\u00a6\u00bf\u00e0\u00a6\u009f\u00e0\u00a7\u008b\u00e0\u00a6\u00ac\u00e0\u00a6\u00be",
            "name_de": "Manitoba",
            "name_el": "\u00ce\u009c\u00ce\u00b1\u00ce\u00bd\u00ce\u00b9\u00cf\u0084\u00cf\u008c\u00ce\u00bc\u00cf\u0080\u00ce\u00b1",
            "name_en": "Manitoba",
            "name_es": "Manitoba",
            "name_fr": "Manitoba",
            "name_hi": "\u00e0\u00a4\u00ae\u00e0\u00a4\u00be\u00e0\u00a4\u00a8\u00e0\u00a4\u00bf\u00e0\u00a4\u009f\u00e0\u00a5\u008b\u00e0\u00a4\u00ac\u00e0\u00a4\u00be",
            "name_hu": "Manitoba",
            "name_id": "Manitoba",
            "name_it": "Manitoba",
            "name_ja": "\u00e3\u0083\u009e\u00e3\u0083\u008b\u00e3\u0083\u0088\u00e3\u0083\u0090\u00e5\u00b7\u009e",
            "name_ko": "\u00eb\u00a7\u00a4\u00eb\u008b\u0088\u00ed\u0086\u00a0\u00eb\u00b0\u0094 \u00ec\u00a3\u00bc",
            "name_len": "8",
            "name_local": "",
            "name_nl": "Manitoba",
            "name_pl": "Manitoba",
            "name_pt": "Manitoba",
            "name_ru": "\u00d0\u009c\u00d0\u00b0\u00d0\u00bd\u00d0\u00b8\u00d1\u0082\u00d0\u00be\u00d0\u00b1\u00d0\u00b0",
            "name_sv": "Manitoba",
            "name_tr": "Manitoba",
            "name_vi": "Manitoba",
            "name_zh": "\u00e6\u009b\u00bc\u00e5\u00b0\u00bc\u00e6\u0089\u0098\u00e5\u00b7\u00b4",
            "ne_id": "1159308777",
            "note": "",
            "provnum_ne": "11",
            "record_type": "state",
            "region": "Western Canada",
            "region_cod": "",
            "region_sub": "Prairies",
            "sameascity": "-99",
            "scalerank": "2",
            "sov_a3": "CAN",
            "sub_code": "",
            "wikidataid": "Q1948",
            "wikipedia": "http:\/\/en.wikipedia.org\/wiki\/Manitoba",
            "woe_id": "2344917",
            "woe_label": "Manitoba, CA, Canada",
            "woe_name": "Manitoba"
        },
        "geo": {
            "latitude": 53.7608608,
            "longitude": -98.8138763,
            "max_latitude": 60.0001031,
            "max_longitude": -88.9852265,
            "min_latitude": 48.998861,
            "min_longitude": -102.0000041
        },
        "iso_3166_2": "CA-MB",
        "iso_a2": "CA",
        "iso_a3": "CAN",
        "name": "Manitoba",
        "postal": "MB",
        "type": "Province",
        "type_en": "Province"
    },
    "NB": {
        "alt_names": [
            "Nouveau-Brunswick"
        ],
        "cca2": "CA",
        "cca3": "CAN",
        "code_hasc": "CA.NB",
        "extra": {
            "abbrev": "N.B.",
            "adm0_a3": "CAN",
            "adm0_label": "2",
            "adm0_sr": "5",
            "adm1_code": "CAN-684",
            "admin": "Canada",
            "area_sqkm": "0",
            "check_me": "20",
            "code_local": "",
            "data_sources": [
                "natural"
            ],
            "datarank": "2",
            "diss_me": "684",
            "featurecla": "Admin-1 scale rank",
            "fips": "CA04",
            "fips_alt": "",
            "gadm_level": "1",
            "geonunit": "Canada",
            "gn_a1_code": "CA.04",
            "gn_id": "6087430",
            "gn_level": "1",
            "gn_name": "New Brunswick",
            "gn_region": "",
            "gns_adm1": "CA04",
            "gns_id": "-570089",
            "gns_lang": "eng",
            "gns_level": "1",
            "gns_name": "New Brunswick, Province of",
            "gns_region": "",
            "gu_a3": "CAN",
            "hasc_maybe": "",
            "labelrank": "2",
            "mapcolor9": "2",
            "mapcolor13": "2",
            "max_label": "7.5",
            "min_label": "3.5",
            "min_zoom": "2.0",
            "name_ar": "\u00d9\u0086\u00d9\u008a\u00d9\u0088 \u00d8\u00a8\u00d8\u00b1\u00d9\u0088\u00d9\u0086\u00d8\u00b2\u00d9\u0088\u00d9\u008a\u00d9\u0083",
            "name_bn": "\u00e0\u00a6\u00a8\u00e0\u00a6\u00bf\u00e0\u00a6\u0089 \u00e0\u00a6\u00ac\u00e0\u00a7\u008d\u00e0\u00a6\u00b0\u00e0\u00a6\u00be\u00e0\u00a6\u00a8\u00e0\u00a7\u008d\u00e0\u00a6\u00b8\u00e0\u00a6\u0089\u00e0\u00a6\u0087\u00e0\u00a6\u0095",
            "name_de": "New Brunswick",
            "name_el": "\u00ce\u009d\u00ce\u00b9\u00ce\u00bf\u00cf\u0085 \u00ce\u009c\u00cf\u0080\u00cf\u0081\u00ce\u00ac\u00ce\u00bd\u00cf\u0083\u00ce\u00b3\u00ce\u00bf\u00cf\u0085\u00ce\u00b9\u00ce\u00ba",
            "name_en": "New Brunswick",
            "name_es": "Nuevo Brunswick",
            "name_fr": "Nouveau-Brunswick",
            "name_hi": "\u00e0\u00a4\u00a8\u00e0\u00a5\u008d\u00e0\u00a4\u00af\u00e0\u00a5\u0082 \u00e0\u00a4\u00ac\u00e0\u00a5\u008d\u00e0\u00a4\u00b0\u00e0\u00a4\u0082\u00e0\u00a4\u00b8\u00e0\u00a4\u00b5\u00e0\u00a4\u00bf\u00e0\u00a4\u0095",
            "name_hu": "\u00c3\u009aj-Brunswick",
            "name_id": "New Brunswick",
            "name_it": "Nuovo Brunswick",
            "name_ja": "\u00e3\u0083\u008b\u00e3\u0083\u00a5\u00e3\u0083\u00bc\u00e3\u0083\u0096\u00e3\u0083\u00a9\u00e3\u0083\u00b3\u00e3\u0082\u00ba\u00e3\u0082\u00a6\u00e3\u0082\u00a3\u00e3\u0083\u0083\u00e3\u0082\u00af\u00e5\u00b7\u009e",
            "name_ko": "\u00eb\u0089\u00b4\u00eb\u00b8\u008c\u00eb\u009f\u00b0\u00ec\u00a6\u0088\u00ec\u009c\u0085 \u00ec\u00a3\u00bc",
            "name_len": "13",
            "name_local": "",
            "name_nl": "New Brunswick",
            "name_pl": "Nowy Brunszwik",
            "name_pt": "Nova Brunswick",
            "name_ru": "\u00d0\u009d\u00d1\u008c\u00d1\u008e-\u00d0\u0091\u00d1\u0080\u00d0\u00b0\u00d0\u00bd\u00d1\u0081\u00d1\u0083\u00d0\u00b8\u00d0\u00ba",
            "name_sv": "New Brunswick",
            "name_tr": "New Brunswick",
            "name_vi": "New Brunswick",
            "name_zh": "\u00e6\u0096\u00b0\u00e4\u00b8\u008d\u00e5\u0080\u00ab\u00e7\u0091\u009e\u00e5\u0085\u008b",
            "ne_id": "1159308785",
            "note": "",
            "provnum_ne": "10",
            "record_type": "state",
            "region": "Eastern Canada",
            "region_cod": "",
            "region_sub": "Atlantic Canada",
            "sameascity": "-99",
            "scalerank": "2",
            "sov_a3": "CAN",
            "sub_code": "",
            "wikidataid": "Q1965",
            "wikipedia": "http:\/\/en.wikipedia.org\/wiki\/New_Brunswick",
            "woe_id": "2344918",
            "woe_label": "New Brunswick, CA, Canada",
            "woe_name": "New Brunswick"
        },
        "geo": {
            "latitude": 46.5653163,
            "longitude": -66.4619164,
            "max_latitude": 48.1735157,
            "max_longitude": -63.7706403,
            "min_latitude": 44.499574,
            "min_longitude": -69.0533929
        },
        "iso_3166_2": "CA-NB",
        "iso_a2": "CA",
        "iso_a3": "CAN",
        "name": "New Brunswick",
        "postal": "NB",
        "type": "Province",
        "type_en": "Province"
    },
    "NL": {
        "alt_names": [
            "Terre-Neuve-et-Labrador",
            "Newfoundland",
            "Terre-Neuve"
        ],
        "cca2": "CA",
        "cca3": "CAN",
        "code_hasc": "CA.NF",
        "extra": {
            "abbrev": "N.L.",
            "adm0_a3": "CAN",
            "adm0_label": "2",
            "adm0_sr": "6",
            "adm1_code": "CAN-686",
            "admin": "Canada",
            "area_sqkm": "0",
            "check_me": "20",
            "code_local": "",
            "data_sources": [
                "natural"
            ],
            "datarank": "2",
            "diss_me": "686",
            "featurecla": "Admin-1 scale rank",
            "fips": "CA05",
            "fips_alt": "",
            "gadm_level": "1",
            "geonunit": "Canada",
            "gn_a1_code": "CA.05",
            "gn_id": "6354959",
            "gn_level": "1",
            "gn_name": "Newfoundland and Labrador",
            "gn_region": "",
            "gns_adm1": "CA05",
            "gns_id": "-570103",
            "gns_lang": "eng",
            "gns_level": "1",
            "gns_name": "Newfoundland and Labrador, Province of",
            "gns_region": "",
            "gu_a3": "CAN",
            "hasc_maybe": "",
            "labelrank": "2",
            "mapcolor9": "2",
            "mapcolor13": "2",
            "max_label": "7.5",
            "min_label": "3.5",
            "min_zoom": "2.0",
            "name_ar": "\u00d9\u0086\u00d9\u008a\u00d9\u0088\u00d9\u0081\u00d8\u00a7\u00d9\u0088\u00d9\u0086\u00d8\u00af\u00d9\u0084\u00d8\u00a7\u00d9\u0086\u00d8\u00af \u00d9\u0088\u00d8\u00a7\u00d9\u0084\u00d9\u0084\u00d8\u00a7\u00d8\u00a8\u00d8\u00b1\u00d8\u00a7\u00d8\u00af\u00d9\u0088\u00d8\u00b1",
            "name_bn": "\u00e0\u00a6\u00a8\u00e0\u00a6\u00bf\u00e0\u00a6\u0089\u00e0\u00a6\u00ab\u00e0\u00a6\u00be\u00e0\u00a6\u0089\u00e0\u00a6\u00a8\u00e0\u00a7\u008d\u00e0\u00a6\u00a1\u00e0\u00a6\u00b2\u00e0\u00a7\u008d\u00e0\u00a6\u00af\u00e0\u00a6\u00be\u00e0\u00a6\u00a8\u00e0\u00a7\u008d\u00e0\u00a6\u00a1 \u00e0\u00a6\u008f\u00e0\u00a6\u00ac\u00e0\u00a6\u0082 \u00e0\u00a6\u00b2\u00e0\u00a7\u008d\u00e0\u00a6\u00af\u00e0\u00a6\u00be\u00e0\u00a6\u00ac\u00e0\u00a7\u008d\u00e0\u00a6\u00b0\u00e0\u00a6\u00be\u00e0\u00a6\u00a1\u00e0\u00a6\u00b0",
            "name_de": "Neufundland und Labrador",
            "name_el": "\u00ce\u009d\u00ce\u00ad\u00ce\u00b1 \u00ce\u0093\u00ce\u00b7 \u00ce\u00ba\u00ce\u00b1\u00ce\u00b9 \u00ce\u009b\u00ce\u00b1\u00ce\u00bc\u00cf\u0080\u00cf\u0081\u00ce\u00b1\u00ce\u00bd\u00cf\u0084\u00cf\u008c\u00cf\u0081",
            "name_en": "Newfoundland and Labrador",
            "name_es": "Terranova y Labrador",
            "name_fr": "Terre-Neuve-et-Labrador",
            "name_hi": "\u00e0\u00a4\u00a8\u00e0\u00a5\u008d\u00e0\u00a4\u00af\u00e0\u00a5\u0082\u00e0\u00a4\u00ab\u00e0\u00a4\u00be\u00e0\u00a4\u0089\u00e0\u00a4\u0082\u00e0\u00a4\u00a1\u00e0\u00a4\u00b2\u00e0\u00a5\u0088\u00e0\u00a4\u0082\u00e0\u00a4\u00a1 \u00e0\u00a4\u0094\u00e0\u00a4\u00b0 \u00e0\u00a4\u00b2\u00e0\u00a5\u0088\u00e0\u00a4\u00ac\u00e0\u00a5\u008d\u00e0\u00a4\u00b0\u00e0\u00a4\u00be\u00e0\u00a4\u00a1\u00e0\u00a5\u008b\u00e0\u00a4\u00b0",
            "name_hu": "\u00c3\u009aj-Fundland \u00c3\u00a9s Labrador",
            "name_id": "Newfoundland dan Labrador",
            "name_it": "Terranova e Labrador",
            "name_ja": "\u00e3\u0083\u008b\u00e3\u0083\u00a5\u00e3\u0083\u00bc\u00e3\u0083\u0095\u00e3\u0082\u00a1\u00e3\u0083\u00b3\u00e3\u0083\u0089\u00e3\u0083\u00a9\u00e3\u0083\u00b3\u00e3\u0083\u0089\u00e3\u0083\u00bb\u00e3\u0083\u00a9\u00e3\u0083\u0096\u00e3\u0083\u00a9\u00e3\u0083\u0089\u00e3\u0083\u00bc\u00e3\u0083\u00ab\u00e5\u00b7\u009e",
            "name_ko": "\u00eb\u0089\u00b4\u00ed\u008e\u0080\u00eb\u0093\u00a4\u00eb\u009e\u009c\u00eb\u0093\u009c \u00eb\u009e\u0098\u00eb\u00b8\u008c\u00eb\u009d\u00bc\u00eb\u008f\u0084 \u00ec\u00a3\u00bc",
            "name_len": "25",
            "name_local": "",
            "name_nl": "Newfoundland en Labrador",
            "name_pl": "Nowa Fundlandia i Labrador",
            "name_pt": "Terra Nova e Labrador",
            "name_ru": "\u00d0\u009d\u00d1\u008c\u00d1\u008e\u00d1\u0084\u00d0\u00b0\u00d1\u0083\u00d0\u00bd\u00d0\u00b4\u00d0\u00bb\u00d0\u00b5\u00d0\u00bd\u00d0\u00b4 \u00d0\u00b8 \u00d0\u009b\u00d0\u00b0\u00d0\u00b1\u00d1\u0080\u00d0\u00b0\u00d0\u00b4\u00d0\u00be\u00d1\u0080",
            "name_sv": "Newfoundland och Labrador",
            "name_tr": "Newfoundland ve Labrador",
            "name_vi": "Newfoundland v\u00c3\u00a0 Labrador",
            "name_zh": "\u00e7\u00b4\u0090\u00e8\u008a\u00ac\u00e8\u0098\u00ad\u00e8\u0088\u0087\u00e6\u008b\u0089\u00e5\u00b8\u0083\u00e6\u008b\u0089\u00e5\u00a4\u009a",
            "ne_id": "1159308713",
            "note": "",
            "provnum_ne": "6",
            "record_type": "state",
            "region": "Eastern Canada",
            "region_cod": "",
            "region_sub": "Atlantic Canada",
            "sameascity": "-99",
            "scalerank": "2",
            "sov_a3": "CAN",
            "sub_code": "",
            "wikidataid": "Q2003",
            "wikipedia": "http:\/\/en.wikipedia.org\/wiki\/Newfoundland_and_Labrador",
            "woe_id": "2344919",
            "woe_label": "Newfoundland and Labrador, CA, Canada",
            "woe_name": "Newfoundland and Labrador"
        },
        "geo": {
            "latitude": 53.1355091,
            "longitude": -57.6604364,
            "max_latitude": 60.3762701,
            "max_longitude": -52.6194086,
            "min_latitude": 46.6114571,
            "min_longitude": -67.8216849
        },
        "iso_3166_2": "CA-NL",
        "iso_a2": "CA",
        "iso_a3": "CAN",
        "name": "Newfoundland and Labrador",
        "postal": "NL",
        "type": "Province",
        "type_en": "Province"
    },
    "NS": {
        "alt_names": [
            "Nouvelle-\u00c9cosse"
        ],
        "cca2": "CA",
        "cca3": "CAN",
        "code_hasc": "CA.NS",
        "extra": {
            "abbrev": "N.S.",
            "adm0_a3": "CAN",
            "adm0_label": "2",
            "adm0_sr": "1",
            "adm1_code": "CAN-685",
            "admin": "Canada",
            "area_sqkm": "0",
            "check_me": "20",
            "code_local": "",
            "data_sources": [
                "natural"
            ],
            "datarank": "2",
            "diss_me": "685",
            "featurecla": "Admin-1 scale rank",
            "fips": "CA07",
            "fips_alt": "",
            "gadm_level": "1",
            "geonunit": "Canada",
            "gn_a1_code": "CA.07",
            "gn_id": "6091530",
            "gn_level": "1",
            "gn_name": "Nova Scotia",
            "gn_region": "",
            "gns_adm1": "CA07",
            "gns_id": "-570447",
            "gns_lang": "fra",
            "gns_level": "1",
            "gns_name": "Nouvelle-Ecosse, Province de",
            "gns_region": "",
            "gu_a3": "CAN",
            "hasc_maybe": "",
            "labelrank": "2",
            "mapcolor9": "2",
            "mapcolor13": "2",
            "max_label": "7.5",
            "min_label": "3.5",
            "min_zoom": "2.0",
            "name_ar": "\u00d9\u0086\u00d9\u0088\u00d9\u0081\u00d8\u00a7 \u00d8\u00b3\u00d9\u0083\u00d9\u0088\u00d8\u00b4\u00d8\u00a7",
            "name_bn": "\u00e0\u00a6\u00a8\u00e0\u00a6\u00ad\u00e0\u00a6\u00be \u00e0\u00a6\u00b8\u00e0\u00a7\u008d\u00e0\u00a6\u0095\u00e0\u00a6\u00b6\u00e0\u00a6\u00bf\u00e0\u00a6\u00af\u00e0\u00a6\u00bc\u00e0\u00a6\u00be",
            "name_de": "Nova Scotia",
            "name_el": "\u00ce\u009d\u00ce\u00ad\u00ce\u00b1 \u00ce\u00a3\u00ce\u00ba\u00cf\u0089\u00cf\u0084\u00ce\u00af\u00ce\u00b1",
            "name_en": "Nova Scotia",
            "name_es": "Nueva Escocia",
            "name_fr": "Nouvelle-\u00c3\u0089cosse",
            "name_hi": "\u00e0\u00a4\u00a8\u00e0\u00a5\u008b\u00e0\u00a4\u00b5\u00e0\u00a4\u00be \u00e0\u00a4\u00b8\u00e0\u00a5\u008d\u00e0\u00a4\u0095\u00e0\u00a5\u0089\u00e0\u00a4\u009f\u00e0\u00a4\u00bf\u00e0\u00a4\u00af\u00e0\u00a4\u00be",
            "name_hu": "\u00c3\u009aj-Sk\u00c3\u00b3cia",
            "name_id": "Nova Scotia",
            "name_it": "Nuova Scozia",
            "name_ja": "\u00e3\u0083\u008e\u00e3\u0083\u0090\u00e3\u0082\u00b9\u00e3\u0082\u00b3\u00e3\u0082\u00b7\u00e3\u0082\u00a2\u00e5\u00b7\u009e",
            "name_ko": "\u00eb\u0085\u00b8\u00eb\u00b0\u0094\u00ec\u008a\u00a4\u00ec\u00bd\u0094\u00ec\u0083\u00a4 \u00ec\u00a3\u00bc",
            "name_len": "11",
            "name_local": "",
            "name_nl": "Nova Scotia",
            "name_pl": "Nowa Szkocja",
            "name_pt": "Nova Esc\u00c3\u00b3cia",
            "name_ru": "\u00d0\u009d\u00d0\u00be\u00d0\u00b2\u00d0\u00b0\u00d1\u008f \u00d0\u00a8\u00d0\u00be\u00d1\u0082\u00d0\u00bb\u00d0\u00b0\u00d0\u00bd\u00d0\u00b4\u00d0\u00b8\u00d1\u008f",
            "name_sv": "Nova Scotia",
            "name_tr": "Yeni \u00c4\u00b0sko\u00c3\u00a7ya",
            "name_vi": "Nova Scotia",
            "name_zh": "\u00e6\u0096\u00b0\u00e6\u0096\u00af\u00e7\u00a7\u0091\u00e8\u0088\u008d",
            "ne_id": "1159309585",
            "note": "",
            "provnum_ne": "3",
            "record_type": "state",
            "region": "Eastern Canada",
            "region_cod": "",
            "region_sub": "Atlantic Canada",
            "sameascity": "-99",
            "scalerank": "2",
            "sov_a3": "CAN",
            "sub_code": "",
            "wikidataid": "Q1952",
            "wikipedia": "http:\/\/en.wikipedia.org\/wiki\/Nova_Scotia",
            "woe_id": "2344921",
            "woe_label": "Nova Scotia, CA, Canada",
            "woe_name": "Nova Scotia"
        },
        "geo": {
            "latitude": 44.6819866,
            "longitude": -63.744311,
            "max_latitude": 47.2277438,
            "max_longitude": -59.676914,
            "min_latitude": 43.3918805,
            "min_longitude": -66.3948186
        },
        "iso_3166_2": "CA-NS",
        "iso_a2": "CA",
        "iso_a3": "CAN",
        "name": "Nova Scotia",
        "postal": "NS",
        "type": "Province",
        "type_en": "Province"
    },
    "NT": {
        "alt_names": [
            "Territoires du Nord-Ouest"
        ],
        "cca2": "CA",
        "cca3": "CAN",
        "code_hasc": "CA.NT",
        "extra": {
            "abbrev": "N.W.T.",
            "adm0_a3": "CAN",
            "adm0_label": "2",
            "adm0_sr": "6",
            "adm1_code": "CAN-635",
            "admin": "Canada",
            "area_sqkm": "0",
            "check_me": "20",
            "code_local": "",
            "data_sources": [
                "natural"
            ],
            "datarank": "2",
            "diss_me": "635",
            "featurecla": "Admin-1 scale rank",
            "fips": "CA13",
            "fips_alt": "",
            "gadm_level": "1",
            "geonunit": "Canada",
            "gn_a1_code": "CA.13",
            "gn_id": "6091069",
            "gn_level": "1",
            "gn_name": "Northwest Territories",
            "gn_region": "",
            "gns_adm1": "CA13",
            "gns_id": "-570392",
            "gns_lang": "fra",
            "gns_level": "1",
            "gns_name": "Nord-Ouest, Territoires du",
            "gns_region": "",
            "gu_a3": "CAN",
            "hasc_maybe": "",
            "labelrank": "2",
            "mapcolor9": "2",
            "mapcolor13": "2",
            "max_label": "7.5",
            "min_label": "3.5",
            "min_zoom": "2.0",
            "name_ar": "\u00d8\u00a7\u00d9\u0084\u00d8\u00a3\u00d9\u0082\u00d8\u00a7\u00d9\u0084\u00d9\u008a\u00d9\u0085 \u00d8\u00a7\u00d9\u0084\u00d8\u00b4\u00d9\u0085\u00d8\u00a7\u00d9\u0084\u00d9\u008a\u00d8\u00a9 \u00d8\u00a7\u00d9\u0084\u00d8\u00ba\u00d8\u00b1\u00d8\u00a8\u00d9\u008a\u00d8\u00a9",
            "name_bn": "\u00e0\u00a6\u0089\u00e0\u00a6\u00a4\u00e0\u00a7\u008d\u00e0\u00a6\u00a4\u00e0\u00a6\u00b0 \u00e0\u00a6\u00aa\u00e0\u00a6\u00b6\u00e0\u00a7\u008d\u00e0\u00a6\u009a\u00e0\u00a6\u00bf\u00e0\u00a6\u00ae \u00e0\u00a6\u0085\u00e0\u00a6\u009e\u00e0\u00a7\u008d\u00e0\u00a6\u009a\u00e0\u00a6\u00b2",
            "name_de": "Nordwest-Territorien",
            "name_el": "\u00ce\u0092\u00ce\u00bf\u00cf\u0081\u00ce\u00b5\u00ce\u00b9\u00ce\u00bf\u00ce\u00b4\u00cf\u0085\u00cf\u0084\u00ce\u00b9\u00ce\u00ba\u00ce\u00ac \u00ce\u0095\u00ce\u00b4\u00ce\u00ac\u00cf\u0086\u00ce\u00b7",
            "name_en": "Northwest Territories",
            "name_es": "Territorios del Noroeste",
            "name_fr": "Territoires du Nord-Ouest",
            "name_hi": "\u00e0\u00a4\u00a8\u00e0\u00a5\u0089\u00e0\u00a4\u00b0\u00e0\u00a5\u008d\u00e0\u00a4\u00a5\u00e0\u00a4\u00b5\u00e0\u00a5\u0087\u00e0\u00a4\u00b8\u00e0\u00a5\u008d\u00e0\u00a4\u009f \u00e0\u00a4\u009f\u00e0\u00a5\u0087\u00e0\u00a4\u00b0\u00e0\u00a5\u0080\u00e0\u00a4\u009f\u00e0\u00a4\u00b0\u00e0\u00a5\u0080\u00e0\u00a4\u009c\u00e0\u00a4\u00bc",
            "name_hu": "\u00c3\u0089szaknyugati ter\u00c3\u00bcletek",
            "name_id": "Wilayah Barat Laut",
            "name_it": "Territori del Nord-Ovest",
            "name_ja": "\u00e3\u0083\u008e\u00e3\u0083\u00bc\u00e3\u0082\u00b9\u00e3\u0082\u00a6\u00e3\u0082\u00a8\u00e3\u0082\u00b9\u00e3\u0083\u0088\u00e6\u00ba\u0096\u00e5\u00b7\u009e",
            "name_ko": "\u00eb\u0085\u00b8\u00ec\u008a\u00a4\u00ec\u009b\u00a8\u00ec\u008a\u00a4\u00ed\u008a\u00b8 \u00ec\u00a4\u0080\u00ec\u00a3\u00bc",
            "name_len": "21",
            "name_local": "",
            "name_nl": "Northwest Territories",
            "name_pl": "Terytoria P\u00c3\u00b3\u00c5\u0082nocno-Zachodnie",
            "name_pt": "Territ\u00c3\u00b3rios do Noroeste",
            "name_ru": "\u00d0\u00a1\u00d0\u00b5\u00d0\u00b2\u00d0\u00b5\u00d1\u0080\u00d0\u00be-\u00d0\u0097\u00d0\u00b0\u00d0\u00bf\u00d0\u00b0\u00d0\u00b4\u00d0\u00bd\u00d1\u008b\u00d0\u00b5 \u00d1\u0082\u00d0\u00b5\u00d1\u0080\u00d1\u0080\u00d0\u00b8\u00d1\u0082\u00d0\u00be\u00d1\u0080\u00d0\u00b8\u00d0\u00b8",
            "name_sv": "Northwest Territories",
            "name_tr": "Kuzeybat\u00c4\u00b1 Topraklar\u00c4\u00b1",
            "name_vi": "C\u00c3\u00a1c L\u00c3\u00a3nh th\u00e1\u00bb\u0095 T\u00c3\u00a2y B\u00e1\u00ba\u00afc",
            "name_zh": "\u00e8\u00a5\u00bf\u00e5\u008c\u0097\u00e5\u009c\u00b0\u00e5\u008c\u00ba",
            "ne_id": "1159308771",
            "note": "",
            "provnum_ne": "5",
            "record_type": "state",
            "region": "Northern Canada",
            "region_cod": "Northern Canada",
            "region_sub": "",
            "sameascity": "-99",
            "scalerank": "2",
            "sov_a3": "CAN",
            "sub_code": "",
            "wikidataid": "Q2007",
            "wikipedia": "http:\/\/en.wikipedia.org\/wiki\/Northwest_Territories",
            "woe_id": "2344920",
            "woe_label": "Northwest Territories, CA, Canada",
            "woe_name": "Northwest Territories"
        },
        "geo": {
            "latitude": 64.8255441,
            "longitude": -124.8457334,
            "max_latitude": 78.7613421,
            "max_longitude": -101.999999,
            "min_latitude": 59.999954,
            "min_longitude": -136.4687053
        },
        "iso_3166_2": "CA-NT",
        "iso_a2": "CA",
        "iso_a3": "CAN",
        "name": "Northwest Territories",
        "postal": "NT",
        "type": "Territoire",
        "type_en": "Territory"
    },
    "NU": {
        "alt_names": [
            "Nunavut"
        ],
        "cca2": "CA",
        "cca3": "CAN",
        "code_hasc": "CA.NU",
        "extra": {
            "abbrev": "Nun.",
            "adm0_a3": "CAN",
            "adm0_label": "2",
            "adm0_sr": "5",
            "adm1_code": "CAN-634",
            "admin": "Canada",
            "area_sqkm": "0",
            "check_me": "20",
            "code_local": "",
            "data_sources": [
                "natural"
            ],
            "datarank": "2",
            "diss_me": "634",
            "featurecla": "Admin-1 scale rank",
            "fips": "CA14",
            "fips_alt": "CA14",
            "gadm_level": "1",
            "geonunit": "Canada",
            "gn_a1_code": "CA.14",
            "gn_id": "6091732",
            "gn_level": "1",
            "gn_name": "Nunavut",
            "gn_region": "",
            "gns_adm1": "CA14",
            "gns_id": "448560",
            "gns_lang": "iku",
            "gns_level": "1",
            "gns_name": "Nunavut",
            "gns_region": "",
            "gu_a3": "CAN",
            "hasc_maybe": "",
            "labelrank": "2",
            "mapcolor9": "2",
            "mapcolor13": "2",
            "max_label": "7.5",
            "min_label": "3.5",
            "min_zoom": "2.0",
            "name_ar": "\u00d9\u0086\u00d9\u0088\u00d9\u0086\u00d8\u00a7\u00d9\u0081\u00d9\u0088\u00d8\u00aa",
            "name_bn": "\u00e0\u00a6\u00a8\u00e0\u00a7\u0081\u00e0\u00a6\u00a8\u00e0\u00a6\u00be\u00e0\u00a6\u00ad\u00e0\u00a7\u0081\u00e0\u00a6\u00a4",
            "name_de": "Nunavut",
            "name_el": "\u00ce\u009d\u00ce\u00bf\u00cf\u008d\u00ce\u00bd\u00ce\u00b1\u00ce\u00b2\u00ce\u00bf\u00cf\u0085\u00cf\u0084",
            "name_en": "Nunavut",
            "name_es": "Nunavut",
            "name_fr": "Nunavut",
            "name_hi": "\u00e0\u00a4\u00a8\u00e0\u00a5\u0081\u00e0\u00a4\u00a8\u00e0\u00a4\u00be\u00e0\u00a4\u00b5\u00e0\u00a5\u0081\u00e0\u00a4\u00a4",
            "name_hu": "Nunavut",
            "name_id": "Nunavut",
            "name_it": "Nunavut",
            "name_ja": "\u00e3\u0083\u008c\u00e3\u0083\u008a\u00e3\u0083\u0096\u00e3\u0083\u0088\u00e6\u00ba\u0096\u00e5\u00b7\u009e",
            "name_ko": "\u00eb\u0088\u0084\u00eb\u0082\u0098\u00eb\u00b6\u0080\u00ed\u008a\u00b8 \u00ec\u00a4\u0080\u00ec\u00a3\u00bc",
            "name_len": "7",
            "name_local": "",
            "name_nl": "Nunavut",
            "name_pl": "Nunavut",
            "name_pt": "Nunavut",
            "name_ru": "\u00d0\u009d\u00d1\u0083\u00d0\u00bd\u00d0\u00b0\u00d0\u00b2\u00d1\u0083\u00d1\u0082",
            "name_sv": "Nunavut",
            "name_tr": "Nunavut",
            "name_vi": "Nunavut",
            "name_zh": "\u00e5\u008a\u00aa\u00e7\u00b4\u008d\u00e6\u00ad\u00a6\u00e7\u0089\u00b9",
            "ne_id": "1159307715",
            "note": "",
            "provnum_ne": "1",
            "record_type": "state",
            "region": "Northern Canada",
            "region_cod": "Northern Canada",
            "region_sub": "",
            "sameascity": "-99",
            "scalerank": "2",
            "sov_a3": "CAN",
            "sub_code": "",
            "wikidataid": "Q2023",
            "wikipedia": "http:\/\/en.wikipedia.org\/wiki\/Nunavut",
            "woe_id": "20069920",
            "woe_label": "Nunavut, CA, Canada",
            "woe_name": "Nunavut"
        },
        "geo": {
            "latitude": 70.2997711,
            "longitude": -83.1075769,
            "max_latitude": 83.0956638,
            "max_longitude": -61.1794384,
            "min_latitude": 51.6406985,
            "min_longitude": -121.0492491
        },
        "iso_3166_2": "CA-NU",
        "iso_a2": "CA",
        "iso_a3": "CAN",
        "name": "Nunavut",
        "postal": "NU",
        "type": "Territoire",
        "type_en": "Territory"
    },
    "ON": {
        "alt_names": [
            "Ontario"
        ],
        "cca2": "CA",
        "cca3": "CAN",
        "code_hasc": "CA.ON",
        "extra": {
            "abbrev": "Ont.",
            "adm0_a3": "CAN",
            "adm0_label": "2",
            "adm0_sr": "1",
            "adm1_code": "CAN-682",
            "admin": "Canada",
            "area_sqkm": "0",
            "check_me": "20",
            "code_local": "",
            "data_sources": [
                "natural"
            ],
            "datarank": "2",
            "diss_me": "682",
            "featurecla": "Admin-1 scale rank",
            "fips": "CA08",
            "fips_alt": "",
            "gadm_level": "1",
            "geonunit": "Canada",
            "gn_a1_code": "CA.08",
            "gn_id": "6093943",
            "gn_level": "1",
            "gn_name": "Ontario",
            "gn_region": "",
            "gns_adm1": "CA08",
            "gns_id": "-570663",
            "gns_lang": "fra",
            "gns_level": "1",
            "gns_name": "Ontario, Province d'",
            "gns_region": "",
            "gu_a3": "CAN",
            "hasc_maybe": "",
            "labelrank": "2",
            "mapcolor9": "2",
            "mapcolor13": "2",
            "max_label": "7.5",
            "min_label": "3.5",
            "min_zoom": "2.0",
            "name_ar": "\u00d8\u00a3\u00d9\u0088\u00d9\u0086\u00d8\u00aa\u00d8\u00a7\u00d8\u00b1\u00d9\u008a\u00d9\u0088",
            "name_bn": "\u00e0\u00a6\u0085\u00e0\u00a6\u00a8\u00e0\u00a7\u008d\u00e0\u00a6\u009f\u00e0\u00a6\u00be\u00e0\u00a6\u00b0\u00e0\u00a6\u00bf\u00e0\u00a6\u0093",
            "name_de": "Ontario",
            "name_el": "\u00ce\u009f\u00ce\u00bd\u00cf\u0084\u00ce\u00ac\u00cf\u0081\u00ce\u00b9\u00ce\u00bf",
            "name_en": "Ontario",
            "name_es": "Ontario",
            "name_fr": "Ontario",
            "name_hi": "\u00e0\u00a4\u0093\u00e0\u00a4\u00a3\u00e0\u00a5\u008d\u00e0\u00a4\u009f\u00e0\u00a4\u00be\u00e0\u00a4\u00b0\u00e0\u00a4\u00bf\u00e0\u00a4\u00af\u00e0\u00a5\u008b",
            "name_hu": "Ontario",
            "name_id": "Ontario",
            "name_it": "Ontario",
            "name_ja": "\u00e3\u0082\u00aa\u00e3\u0083\u00b3\u00e3\u0082\u00bf\u00e3\u0083\u00aa\u00e3\u0082\u00aa\u00e5\u00b7\u009e",
            "name_ko": "\u00ec\u0098\u00a8\u00ed\u0083\u0080\u00eb\u00a6\u00ac\u00ec\u0098\u00a4 \u00ec\u00a3\u00bc",
            "name_len": "7",
            "name_local": "",
            "name_nl": "Ontario",
            "name_pl": "Ontario",
            "name_pt": "Ont\u00c3\u00a1rio",
            "name_ru": "\u00d0\u009e\u00d0\u00bd\u00d1\u0082\u00d0\u00b0\u00d1\u0080\u00d0\u00b8\u00d0\u00be",
            "name_sv": "Ontario",
            "name_tr": "Ontario",
            "name_vi": "Ontario",
            "name_zh": "\u00e5\u00ae\u0089\u00e5\u00a4\u00a7\u00e7\u0095\u00a5",
            "ne_id": "1159309687",
            "note": "",
            "provnum_ne": "7",
            "record_type": "state",
            "region": "Eastern Canada",
            "region_cod": "",
            "region_sub": "Ontario",
            "sameascity": "-99",
            "scalerank": "2",
            "sov_a3": "CAN",
            "sub_code": "",
            "wikidataid": "Q1904",
            "wikipedia": "http:\/\/en.wikipedia.org\/wiki\/Ontario",
            "woe_id": "2344922",
            "woe_label": "Ontario, CA, Canada",
            "woe_name": "Ontario"
        },
        "geo": {
            "latitude": 51.253775,
            "longitude": -85.3232139,
            "max_latitude": 56.8565279,
            "max_longitude": -74.3438823,
            "min_latitude": 41.6813488,
            "min_longitude": -95.1562271
        },
        "iso_3166_2": "CA-ON",
        "iso_a2": "CA",
        "iso_a3": "CAN",
        "name": "Ontario",
        "postal": "ON",
        "type": "Province",
        "type_en": "Province"
    },
    "PE": {
        "alt_names": [
            "\u00cele-du-Prince-\u00c9douard"
        ],
        "cca2": "CA",
        "cca3": "CAN",
        "code_hasc": "CA.PE",
        "extra": {
            "abbrev": "P.E.I.",
            "adm0_a3": "CAN",
            "adm0_label": "2",
            "adm0_sr": "3",
            "adm1_code": "CAN-687",
            "admin": "Canada",
            "area_sqkm": "0",
            "check_me": "20",
            "code_local": "",
            "data_sources": [
                "natural"
            ],
            "datarank": "2",
            "diss_me": "687",
            "featurecla": "Admin-1 scale rank",
            "fips": "CA09",
            "fips_alt": "",
            "gadm_level": "1",
            "geonunit": "Canada",
            "gn_a1_code": "CA.09",
            "gn_id": "6113358",
            "gn_level": "1",
            "gn_name": "Prince Edward Island",
            "gn_region": "",
            "gns_adm1": "CA09",
            "gns_id": "-571729",
            "gns_lang": "fra",
            "gns_level": "1",
            "gns_name": "Ile-du-Prince-Edouard, Province d'",
            "gns_region": "",
            "gu_a3": "CAN",
            "hasc_maybe": "",
            "labelrank": "2",
            "mapcolor9": "2",
            "mapcolor13": "2",
            "max_label": "7.5",
            "min_label": "3.5",
            "min_zoom": "2.0",
            "name_ar": "\u00d8\u00ac\u00d8\u00b2\u00d9\u008a\u00d8\u00b1\u00d8\u00a9 \u00d8\u00a7\u00d9\u0084\u00d8\u00a3\u00d9\u0085\u00d9\u008a\u00d8\u00b1 \u00d8\u00a5\u00d8\u00af\u00d9\u0088\u00d8\u00a7\u00d8\u00b1\u00d8\u00af",
            "name_bn": "\u00e0\u00a6\u00aa\u00e0\u00a7\u008d\u00e0\u00a6\u00b0\u00e0\u00a6\u00bf\u00e0\u00a6\u00a8\u00e0\u00a7\u008d\u00e0\u00a6\u00b8 \u00e0\u00a6\u008f\u00e0\u00a6\u00a1\u00e0\u00a6\u0093\u00e0\u00a6\u00af\u00e0\u00a6\u00bc\u00e0\u00a6\u00be\u00e0\u00a6\u00b0\u00e0\u00a7\u008d\u00e0\u00a6\u00a1 \u00e0\u00a6\u00a6\u00e0\u00a7\u008d\u00e0\u00a6\u00ac\u00e0\u00a7\u0080\u00e0\u00a6\u00aa",
            "name_de": "Prince Edward Island",
            "name_el": "\u00ce\u009d\u00ce\u00ae\u00cf\u0083\u00ce\u00bf\u00cf\u0082 \u00cf\u0084\u00ce\u00bf\u00cf\u0085 \u00ce\u00a0\u00cf\u0081\u00ce\u00af\u00ce\u00b3\u00ce\u00ba\u00ce\u00b7\u00cf\u0080\u00ce\u00b1 \u00ce\u0095\u00ce\u00b4\u00ce\u00bf\u00cf\u0085\u00ce\u00ac\u00cf\u0081\u00ce\u00b4\u00ce\u00bf\u00cf\u0085",
            "name_en": "Prince Edward Island",
            "name_es": "Isla del Pr\u00c3\u00adncipe Eduardo",
            "name_fr": "\u00c3\u008ele-du-Prince-\u00c3\u0089douard",
            "name_hi": "\u00e0\u00a4\u00aa\u00e0\u00a5\u008d\u00e0\u00a4\u00b0\u00e0\u00a4\u00bf\u00e0\u00a4\u0082\u00e0\u00a4\u00b8 \u00e0\u00a4\u008f\u00e0\u00a4\u00a1\u00e0\u00a4\u00b5\u00e0\u00a4\u00b0\u00e0\u00a5\u008d\u00e0\u00a4\u00a1 \u00e0\u00a4\u00a6\u00e0\u00a5\u008d\u00e0\u00a4\u00b5\u00e0\u00a5\u0080\u00e0\u00a4\u00aa",
            "name_hu": "Prince Edward-sziget",
            "name_id": "Pulau Pangeran Edward",
            "name_it": "Isola del Principe Edoardo",
            "name_ja": "\u00e3\u0083\u0097\u00e3\u0083\u00aa\u00e3\u0083\u00b3\u00e3\u0082\u00b9\u00e3\u0082\u00a8\u00e3\u0083\u0089\u00e3\u0083\u00af\u00e3\u0083\u00bc\u00e3\u0083\u0089\u00e3\u0082\u00a2\u00e3\u0082\u00a4\u00e3\u0083\u00a9\u00e3\u0083\u00b3\u00e3\u0083\u0089\u00e5\u00b7\u009e",
            "name_ko": "\u00ed\u0094\u0084\u00eb\u00a6\u00b0\u00ec\u008a\u00a4\u00ec\u0097\u0090\u00eb\u0093\u009c\u00ec\u009b\u008c\u00eb\u0093\u009c\u00ec\u0095\u0084\u00ec\u009d\u00bc\u00eb\u009e\u009c\u00eb\u0093\u009c \u00ec\u00a3\u00bc",
            "name_len": "20",
            "name_local": "",
            "name_nl": "Prins Edwardeiland",
            "name_pl": "Wyspa Ksi\u00c4\u0099cia Edwarda",
            "name_pt": "Ilha do Pr\u00c3\u00adncipe Eduardo",
            "name_ru": "\u00d0\u009e\u00d1\u0081\u00d1\u0082\u00d1\u0080\u00d0\u00be\u00d0\u00b2 \u00d0\u009f\u00d1\u0080\u00d0\u00b8\u00d0\u00bd\u00d1\u0086\u00d0\u00b0 \u00d0\u00ad\u00d0\u00b4\u00d1\u0083\u00d0\u00b0\u00d1\u0080\u00d0\u00b4\u00d0\u00b0",
            "name_sv": "Prince Edward Island",
            "name_tr": "Prens Edward Adas\u00c4\u00b1",
            "name_vi": "\u00c4\u0090\u00e1\u00ba\u00a3o Ho\u00c3\u00a0ng t\u00e1\u00bb\u00ad Edward",
            "name_zh": "\u00e6\u0084\u009b\u00e5\u00be\u00b7\u00e8\u008f\u00af\u00e7\u008e\u008b\u00e5\u00ad\u0090\u00e5\u00b3\u00b6",
            "ne_id": "1159310911",
            "note": "",
            "provnum_ne": "9",
            "record_type": "state",
            "region": "Eastern Canada",
            "region_cod": "",
            "region_sub": "Atlantic Canada",
            "sameascity": "-99",
            "scalerank": "2",
            "sov_a3": "CAN",
            "sub_code": "",
            "wikidataid": "Q1979",
            "wikipedia": "http:\/\/en.wikipedia.org\/wiki\/Prince_Edward_Island",
            "woe_id": "2344923",
            "woe_label": "Prince Edward Island, CA, Canada",
            "woe_name": "Prince Edward Island"
        },
        "geo": {
            "latitude": 46.510712,
            "longitude": -63.4168136,
            "max_latitude": 47.4416628,
            "max_longitude": -61.9707546,
            "min_latitude": 45.9481845,
            "min_longitude": -64.5661238
        },
        "iso_3166_2": "CA-PE",
        "iso_a2": "CA",
        "iso_a3": "CAN",
        "name": "Prince Edward Island",
        "postal": "PE",
        "type": "Province",
        "type_en": "Province"
    },
    "QC": {
        "alt_names": [
            "Qu\u00e9bec"
        ],
        "cca2": "CA",
        "cca3": "CAN",
        "code_hasc": "CA.QC",
        "extra": {
            "abbrev": "Que.",
            "adm0_a3": "CAN",
            "adm0_label": "2",
            "adm0_sr": "6",
            "adm1_code": "CAN-683",
            "admin": "Canada",
            "area_sqkm": "0",
            "check_me": "20",
            "code_local": "",
            "data_sources": [
                "natural"
            ],
            "datarank": "2",
            "diss_me": "683",
            "featurecla": "Admin-1 scale rank",
            "fips": "CA10",
            "fips_alt": "",
            "gadm_level": "1",
            "geonunit": "Canada",
            "gn_a1_code": "CA.10",
            "gn_id": "6115047",
            "gn_level": "1",
            "gn_name": "Quebec",
            "gn_region": "",
            "gns_adm1": "CA10",
            "gns_id": "-571854",
            "gns_lang": "fra",
            "gns_level": "1",
            "gns_name": "Quebec, Province du",
            "gns_region": "",
            "gu_a3": "CAN",
            "hasc_maybe": "",
            "labelrank": "2",
            "mapcolor9": "2",
            "mapcolor13": "2",
            "max_label": "7.5",
            "min_label": "3.5",
            "min_zoom": "2.0",
            "name_ar": "\u00d9\u0083\u00d9\u008a\u00d8\u00a8\u00d9\u0083",
            "name_bn": "\u00e0\u00a6\u0095\u00e0\u00a7\u0081\u00e0\u00a6\u0087\u00e0\u00a6\u00ac\u00e0\u00a7\u0087\u00e0\u00a6\u0095",
            "name_de": "Qu\u00c3\u00a9bec",
            "name_el": "\u00ce\u009a\u00ce\u00b5\u00ce\u00bc\u00cf\u0080\u00ce\u00ad\u00ce\u00ba",
            "name_en": "Quebec",
            "name_es": "Quebec",
            "name_fr": "Qu\u00c3\u00a9bec",
            "name_hi": "\u00e0\u00a4\u0095\u00e0\u00a5\u008d\u00e0\u00a4\u00af\u00e0\u00a5\u0082\u00e0\u00a4\u00ac\u00e0\u00a5\u0087\u00e0\u00a4\u0095",
            "name_hu": "Qu\u00c3\u00a9bec",
            "name_id": "Quebec",
            "name_it": "Qu\u00c3\u00a9bec",
            "name_ja": "\u00e3\u0082\u00b1\u00e3\u0083\u0099\u00e3\u0083\u0083\u00e3\u0082\u00af\u00e5\u00b7\u009e",
            "name_ko": "\u00ed\u0080\u0098\u00eb\u00b2\u00a1 \u00ec\u00a3\u00bc",
            "name_len": "6",
            "name_local": "",
            "name_nl": "Quebec",
            "name_pl": "Quebec",
            "name_pt": "Quebec",
            "name_ru": "\u00d0\u009a\u00d0\u00b2\u00d0\u00b5\u00d0\u00b1\u00d0\u00b5\u00d0\u00ba",
            "name_sv": "Qu\u00c3\u00a9bec",
            "name_tr": "Qu\u00c3\u00a9bec",
            "name_vi": "Qu\u00c3\u00a9bec",
            "name_zh": "\u00e9\u00ad\u0081\u00e5\u008c\u0097\u00e5\u0085\u008b",
            "ne_id": "1159308703",
            "note": "",
            "provnum_ne": "4",
            "record_type": "state",
            "region": "Eastern Canada",
            "region_cod": "",
            "region_sub": "Qu\u00c3\u00a9bec",
            "sameascity": "-99",
            "scalerank": "2",
            "sov_a3": "CAN",
            "sub_code": "",
            "wikidataid": "Q176",
            "wikipedia": "http:\/\/en.wikipedia.org\/wiki\/Quebec",
            "woe_id": "2344924",
            "woe_label": "Quebec, CA, Canada",
            "woe_name": "Qu\u00c3\u00a9bec"
        },
        "geo": {
            "latitude": 52.9399159,
            "longitude": -73.5491361,
            "max_latitude": 62.5830552,
            "max_longitude": -57.1054859,
            "min_latitude": 44.9913581,
            "min_longitude": -79.7623371
        },
        "iso_3166_2": "CA-QC",
        "iso_a2": "CA",
        "iso_a3": "CAN",
        "name": "Quebec",
        "postal": "QC",
        "type": "Province",
        "type_en": "Province"
    },
    "SK": {
        "alt_names": [
            "Saskatchewan"
        ],
        "cca2": "CA",
        "cca3": "CAN",
        "code_hasc": "CA.SK",
        "extra": {
            "abbrev": "Sask.",
            "adm0_a3": "CAN",
            "adm0_label": "2",
            "adm0_sr": "1",
            "adm1_code": "CAN-631",
            "admin": "Canada",
            "area_sqkm": "0",
            "check_me": "20",
            "code_local": "",
            "data_sources": [
                "natural"
            ],
            "datarank": "2",
            "diss_me": "631",
            "featurecla": "Admin-1 scale rank",
            "fips": "CA11",
            "fips_alt": "",
            "gadm_level": "1",
            "geonunit": "Canada",
            "gn_a1_code": "CA.11",
            "gn_id": "6141242",
            "gn_level": "1",
            "gn_name": "Saskatchewan",
            "gn_region": "",
            "gns_adm1": "CA11",
            "gns_id": "-573211",
            "gns_lang": "fra",
            "gns_level": "1",
            "gns_name": "Saskatchewan, Province de",
            "gns_region": "",
            "gu_a3": "CAN",
            "hasc_maybe": "",
            "labelrank": "2",
            "mapcolor9": "2",
            "mapcolor13": "2",
            "max_label": "7.5",
            "min_label": "3.5",
            "min_zoom": "2.0",
            "name_ar": "\u00d8\u00b3\u00d8\u00a7\u00d8\u00b3\u00d9\u0083\u00d8\u00a7\u00d8\u00aa\u00d8\u00b4\u00d9\u0088\u00d8\u00a7\u00d9\u0086",
            "name_bn": "\u00e0\u00a6\u00b8\u00e0\u00a6\u00be\u00e0\u00a6\u00b8\u00e0\u00a7\u008d\u00e0\u00a6\u0095\u00e0\u00a6\u00be\u00e0\u00a6\u009a\u00e0\u00a7\u0081\u00e0\u00a6\u00af\u00e0\u00a6\u00bc\u00e0\u00a6\u00be\u00e0\u00a6\u00a8",
            "name_de": "Saskatchewan",
            "name_el": "\u00ce\u00a3\u00ce\u00b1\u00cf\u0083\u00ce\u00ba\u00ce\u00ac\u00cf\u0084\u00cf\u0083\u00ce\u00bf\u00cf\u0085\u00ce\u00b1\u00ce\u00bd",
            "name_en": "Saskatchewan",
            "name_es": "Saskatchewan",
            "name_fr": "Saskatchewan",
            "name_hi": "\u00e0\u00a4\u00b8\u00e0\u00a5\u0088\u00e0\u00a4\u00b8\u00e0\u00a5\u008d\u00e0\u00a4\u0095\u00e0\u00a5\u0088\u00e0\u00a4\u009a\u00e0\u00a5\u0087\u00e0\u00a4\u00b5\u00e0\u00a5\u0087\u00e0\u00a4\u00a8",
            "name_hu": "Saskatchewan",
            "name_id": "Saskatchewan",
            "name_it": "Saskatchewan",
            "name_ja": "\u00e3\u0082\u00b5\u00e3\u0082\u00b9\u00e3\u0082\u00ab\u00e3\u0083\u0081\u00e3\u0083\u00a5\u00e3\u0083\u00af\u00e3\u0083\u00b3\u00e5\u00b7\u009e",
            "name_ko": "\u00ec\u0084\u009c\u00ec\u008a\u00a4\u00ec\u00ba\u0090\u00ec\u00b2\u0098\u00ec\u009b\u0090 \u00ec\u00a3\u00bc",
            "name_len": "12",
            "name_local": "",
            "name_nl": "Saskatchewan",
            "name_pl": "Saskatchewan",
            "name_pt": "Saskatchewan",
            "name_ru": "\u00d0\u00a1\u00d0\u00b0\u00d1\u0081\u00d0\u00ba\u00d0\u00b0\u00d1\u0087\u00d0\u00b5\u00d0\u00b2\u00d0\u00b0\u00d0\u00bd",
            "name_sv": "Saskatchewan",
            "name_tr": "Saskatchewan",
            "name_vi": "Saskatchewan",
            "name_zh": "\u00e8\u0096\u00a9\u00e6\u0096\u00af\u00e5\u0096\u0080\u00e5\u00be\u00b9\u00e6\u00ba\u00ab",
            "ne_id": "1159308773",
            "note": "",
            "provnum_ne": "13",
            "record_type": "state",
            "region": "Western Canada",
            "region_cod": "",
            "region_sub": "Prairies",
            "sameascity": "-99",
            "scalerank": "2",
            "sov_a3": "CAN",
            "sub_code": "",
            "wikidataid": "Q1989",
            "wikipedia": "http:\/\/en.wikipedia.org\/wiki\/Saskatchewan",
            "woe_id": "2344925",
            "woe_label": "Saskatchewan, CA, Canada",
            "woe_name": "Saskatchewan"
        },
        "geo": {
            "latitude": 52.9399159,
            "longitude": -106.4508639,
            "max_latitude": 60.000063,
            "max_longitude": -101.362305,
            "min_latitude": 48.9988059,
            "min_longitude": -110.0077549
        },
        "iso_3166_2": "CA-SK",
        "iso_a2": "CA",
        "iso_a3": "CAN",
        "name": "Saskatchewan",
        "postal": "SK",
        "type": "Province",
        "type_en": "Province"
    },
    "YT": {
        "alt_names": [
            "Yukon Territory"
        ],
        "cca2": "CA",
        "cca3": "CAN",
        "code_hasc": "CA.YT",
        "extra": {
            "abbrev": "Yuk.",
            "adm0_a3": "CAN",
            "adm0_label": "2",
            "adm0_sr": "5",
            "adm1_code": "CAN-636",
            "admin": "Canada",
            "area_sqkm": "0",
            "check_me": "20",
            "code_local": "",
            "data_sources": [
                "natural"
            ],
            "datarank": "2",
            "diss_me": "636",
            "featurecla": "Admin-1 scale rank",
            "fips": "CA12",
            "fips_alt": "",
            "gadm_level": "1",
            "geonunit": "Canada",
            "gn_a1_code": "CA.12",
            "gn_id": "6185811",
            "gn_level": "1",
            "gn_name": "Yukon",
            "gn_region": "",
            "gns_adm1": "CA12",
            "gns_id": "-576336",
            "gns_lang": "por",
            "gns_level": "1",
            "gns_name": "Yukon",
            "gns_region": "",
            "gu_a3": "CAN",
            "hasc_maybe": "",
            "labelrank": "2",
            "mapcolor9": "2",
            "mapcolor13": "2",
            "max_label": "7.5",
            "min_label": "3.5",
            "min_zoom": "2.0",
            "name_ar": "\u00d9\u008a\u00d9\u0088\u00d9\u0083\u00d9\u0088\u00d9\u0086",
            "name_bn": "\u00e0\u00a6\u0087\u00e0\u00a6\u0089\u00e0\u00a6\u0095\u00e0\u00a7\u008b\u00e0\u00a6\u00a8",
            "name_de": "Yukon",
            "name_el": "\u00ce\u0093\u00ce\u00b9\u00ce\u00bf\u00cf\u008d\u00ce\u00ba\u00ce\u00bf\u00ce\u00bd",
            "name_en": "Yukon",
            "name_es": "Yuk\u00c3\u00b3n",
            "name_fr": "Yukon",
            "name_hi": "\u00e0\u00a4\u00af\u00e0\u00a5\u0081\u00e0\u00a4\u0095\u00e0\u00a5\u0089\u00e0\u00a4\u00a8 \u00e0\u00a4\u00aa\u00e0\u00a5\u008d\u00e0\u00a4\u00b0\u00e0\u00a4\u00be\u00e0\u00a4\u0082\u00e0\u00a4\u00a4",
            "name_hu": "Yukon",
            "name_id": "Yukon",
            "name_it": "Yukon",
            "name_ja": "\u00e3\u0083\u00a6\u00e3\u0083\u00bc\u00e3\u0082\u00b3\u00e3\u0083\u00b3\u00e6\u00ba\u0096\u00e5\u00b7\u009e",
            "name_ko": "\u00ec\u009c\u00a0\u00ec\u00bd\u0098 \u00ec\u00a4\u0080\u00ec\u00a3\u00bc",
            "name_len": "5",
            "name_local": "",
            "name_nl": "Yukon",
            "name_pl": "Jukon",
            "name_pt": "Yukon",
            "name_ru": "\u00d0\u00ae\u00d0\u00ba\u00d0\u00be\u00d0\u00bd",
            "name_sv": "Yukon",
            "name_tr": "Yukon",
            "name_vi": "Yukon",
            "name_zh": "\u00e8\u0082\u00b2\u00e7\u00a9\u00ba",
            "ne_id": "1159309667",
            "note": "",
            "provnum_ne": "8",
            "record_type": "state",
            "region": "Northern Canada",
            "region_cod": "Northern Canada",
            "region_sub": "",
            "sameascity": "-99",
            "scalerank": "2",
            "sov_a3": "CAN",
            "sub_code": "",
            "wikidataid": "Q2009",
            "wikipedia": "http:\/\/en.wikipedia.org\/wiki\/Yukon",
            "woe_id": "2344926",
            "woe_label": "Yukon Territory, CA, Canada",
            "woe_name": "Yukon"
        },
        "geo": {
            "latitude": 64.2823274,
            "longitude": -135,
            "max_latitude": 69.646498,
            "max_longitude": -123.8009179,
            "min_latitude": 59.996889,
            "min_longitude": -141.00187
        },
        "iso_3166_2": "CA-YT",
        "iso_a2": "CA",
        "iso_a3": "CAN",
        "name": "Yukon",
        "postal": "YT",
        "type": "Territoire",
        "type_en": "Territory"
    }
}