{
    "AD": {
        "alt_names": [
            "Adamawa"
        ],
        "cca2": "CM",
        "cca3": "CMR",
        "code_hasc": "CM.AD",
        "extra": {
            "abbrev": "",
            "adm0_a3": "CMR",
            "adm0_label": "2",
            "adm0_sr": "1",
            "adm1_code": "CMR-1482",
            "admin": "Cameroon",
            "area_sqkm": "0",
            "check_me": "0",
            "code_local": "",
            "data_sources": [
                "natural"
            ],
            "datarank": "6",
            "diss_me": "1482",
            "featurecla": "Admin-1 scale rank",
            "fips": "CM10",
            "fips_alt": "",
            "gadm_level": "1",
            "geonunit": "Cameroon",
            "gn_a1_code": "CM.10",
            "gn_id": "2236015",
            "gn_level": "1",
            "gn_name": "Adamaoua Region",
            "gn_region": "",
            "gns_adm1": "CM10",
            "gns_id": "-3144910",
            "gns_lang": "fra",
            "gns_level": "1",
            "gns_name": "Adamaoua, Region de l'",
            "gns_region": "",
            "gu_a3": "CMR",
            "hasc_maybe": "",
            "labelrank": "5",
            "mapcolor9": "1",
            "mapcolor13": "3",
            "max_label": "11.0",
            "min_label": "6.7",
            "min_zoom": "6.7",
            "name_ar": "\u00d9\u0085\u00d8\u00ad\u00d8\u00a7\u00d9\u0081\u00d8\u00b8\u00d8\u00a9 \u00d8\u00a2\u00d8\u00af\u00d8\u00a7\u00d9\u0085\u00d8\u00a7\u00d9\u0088\u00d8\u00a7",
            "name_bn": "\u00e0\u00a6\u0086\u00e0\u00a6\u00a6\u00e0\u00a6\u00be\u00e0\u00a6\u00ae\u00e0\u00a6\u00be\u00e0\u00a6\u0093\u00e0\u00a6\u00af\u00e0\u00a6\u00bc\u00e0\u00a6\u00be",
            "name_de": "Adamaoua",
            "name_el": "\u00ce\u0091\u00ce\u00bd\u00cf\u0084\u00ce\u00b1\u00ce\u00bc\u00ce\u00ac\u00ce\u00bf\u00cf\u0085\u00ce\u00b1",
            "name_en": "Adamawa",
            "name_es": "Regi\u00c3\u00b3n Adamawa",
            "name_fr": "R\u00c3\u00a9gion de l'Adamaoua",
            "name_hi": "\u00e0\u00a4\u0085\u00e0\u00a4\u00a6\u00e0\u00a4\u00be\u00e0\u00a4\u00ae\u00e0\u00a4\u00be\u00e0\u00a4\u00b5\u00e0\u00a4\u00be",
            "name_hu": "",
            "name_id": "Region Adamawa",
            "name_it": "regione di Adamaoua",
            "name_ja": "\u00e3\u0082\u00a2\u00e3\u0083\u0080\u00e3\u0083\u009e\u00e3\u0083\u00af\u00e5\u00b7\u009e",
            "name_ko": "\u00ec\u0095\u0084\u00eb\u008b\u00a4\u00eb\u00a7\u0088\u00ec\u0099\u0080 \u00ec\u00a3\u00bc",
            "name_len": "8",
            "name_local": "",
            "name_nl": "Adamaoua",
            "name_pl": "Adamawa",
            "name_pt": "Adamawa",
            "name_ru": "\u00d0\u0090\u00d0\u00b4\u00d0\u00b0\u00d0\u00bc\u00d0\u00b0\u00d0\u00b2\u00d0\u00b0",
            "name_sv": "Adamaouaregionen",
            "name_tr": "Adamawa B\u00c3\u00b6lgesi",
            "name_vi": "Adamawa",
            "name_zh": "\u00e9\u0098\u00bf\u00e8\u00be\u00be\u00e9\u00a9\u00ac\u00e7\u0093\u00a6\u00e5\u008c\u00ba",
            "ne_id": "1159311507",
            "note": "Formerly Nord",
            "provnum_ne": "9",
            "record_type": "state",
            "region": "",
            "region_cod": "",
            "region_sub": "",
            "sameascity": "-99",
            "scalerank": "5",
            "sov_a3": "CMR",
            "sub_code": "",
            "wikidataid": "Q351514",
            "wikipedia": "",
            "woe_id": "2345038",
            "woe_label": "Adamaoua, CM, Cameroon",
            "woe_name": "Adamaoua"
        },
        "geo": {
            "latitude": 6.9181954,
            "longitude": 12.8054753,
            "max_latitude": 8.1690449,
            "max_longitude": 15.2492441,
            "min_latitude": 5.992985,
            "min_longitude": 11.173742
        },
        "iso_3166_2": "CM-AD",
        "iso_a2": "CM",
        "iso_a3": "CMR",
        "name": "Adamaoua",
        "postal": "AD",
        "type": "Province",
        "type_en": "Province"
    },
    "CE": {
        "alt_names": [
            "Centre"
        ],
        "cca2": "CM",
        "cca3": "CMR",
        "code_hasc": "CM.CE",
        "extra": {
            "abbrev": "",
            "adm0_a3": "CMR",
            "adm0_label": "2",
            "adm0_sr": "1",
            "adm1_code": "CMR-1480",
            "admin": "Cameroon",
            "area_sqkm": "0",
            "check_me": "0",
            "code_local": "",
            "data_sources": [
                "natural"
            ],
            "datarank": "8",
            "diss_me": "1480",
            "featurecla": "Admin-1 scale rank",
            "fips": "CM11",
            "fips_alt": "",
            "gadm_level": "1",
            "geonunit": "Cameroon",
            "gn_a1_code": "CM.11",
            "gn_id": "2233376",
            "gn_level": "1",
            "gn_name": "Centre Region",
            "gn_region": "",
            "gns_adm1": "CM11",
            "gns_id": "-3147557",
            "gns_lang": "eng",
            "gns_level": "1",
            "gns_name": "Centre Region",
            "gns_region": "",
            "gu_a3": "CMR",
            "hasc_maybe": "",
            "labelrank": "5",
            "mapcolor9": "1",
            "mapcolor13": "3",
            "max_label": "11.0",
            "min_label": "6.7",
            "min_zoom": "6.7",
            "name_ar": "\u00d8\u00b3\u00d9\u0086\u00d8\u00aa\u00d8\u00b1",
            "name_bn": "\u00e0\u00a6\u00b8\u00e0\u00a7\u0087\u00e0\u00a6\u00a8\u00e0\u00a7\u008d\u00e0\u00a6\u009f\u00e0\u00a6\u00be\u00e0\u00a6\u00b0",
            "name_de": "Centre",
            "name_el": "\u00ce\u009a\u00ce\u00b5\u00ce\u00bd\u00cf\u0084\u00cf\u0081\u00ce\u00b9\u00ce\u00ba\u00ce\u00ae \u00ce\u00a0\u00ce\u00b5\u00cf\u0081\u00ce\u00b9\u00cf\u0086\u00ce\u00ad\u00cf\u0081\u00ce\u00b5\u00ce\u00b9\u00ce\u00b1",
            "name_en": "Centre",
            "name_es": "Regi\u00c3\u00b3n del Centro",
            "name_fr": "R\u00c3\u00a9gion du Centre",
            "name_hi": "\u00e0\u00a4\u00b8\u00e0\u00a5\u0087\u00e0\u00a4\u0082\u00e0\u00a4\u009f\u00e0\u00a4\u00b0",
            "name_hu": "",
            "name_id": "Region Tengah",
            "name_it": "regione Centrale",
            "name_ja": "\u00e4\u00b8\u00ad\u00e5\u00a4\u00ae\u00e5\u00b7\u009e",
            "name_ko": "\u00ec\u00a4\u0091\u00ec\u0095\u0099 \u00ec\u00a3\u00bc",
            "name_len": "6",
            "name_local": "",
            "name_nl": "Centre",
            "name_pl": "Region Centralny",
            "name_pt": "Centro",
            "name_ru": "\u00d0\u00a6\u00d0\u00b5\u00d0\u00bd\u00d1\u0082\u00d1\u0080\u00d0\u00b0\u00d0\u00bb\u00d1\u008c\u00d0\u00bd\u00d1\u008b\u00d0\u00b9 \u00d1\u0080\u00d0\u00b5\u00d0\u00b3\u00d0\u00b8\u00d0\u00be\u00d0\u00bd",
            "name_sv": "Centrumregionen",
            "name_tr": "Merkez B\u00c3\u00b6lgesi",
            "name_vi": "V\u00c3\u00b9ng Mi\u00e1\u00bb\u0081n Trung",
            "name_zh": "\u00e4\u00b8\u00ad\u00e9\u0083\u00a8\u00e5\u008c\u00ba",
            "ne_id": "1159310215",
            "note": "Formerly Centre-Su",
            "provnum_ne": "5",
            "record_type": "state",
            "region": "",
            "region_cod": "",
            "region_sub": "",
            "sameascity": "-99",
            "scalerank": "5",
            "sov_a3": "CMR",
            "sub_code": "",
            "wikidataid": "Q739951",
            "wikipedia": "",
            "woe_id": "2345039",
            "woe_label": "Centre, CM, Cameroon",
            "woe_name": "Centre"
        },
        "geo": {
            "latitude": 4.6298411,
            "longitude": 11.7068294,
            "max_latitude": 6.262234,
            "max_longitude": 13.248086,
            "min_latitude": 3.139809,
            "min_longitude": 10.2618951
        },
        "iso_3166_2": "CM-CE",
        "iso_a2": "CM",
        "iso_a3": "CMR",
        "name": "Centre",
        "postal": "CE",
        "type": "Province",
        "type_en": "Province"
    },
    "EN": {
        "alt_names": [
            "Far North"
        ],
        "cca2": "CM",
        "cca3": "CMR",
        "code_hasc": "CM.EN",
        "extra": {
            "abbrev": "",
            "adm0_a3": "CMR",
            "adm0_label": "2",
            "adm0_sr": "1",
            "adm1_code": "CMR-1462",
            "admin": "Cameroon",
            "area_sqkm": "0",
            "check_me": "0",
            "code_local": "",
            "data_sources": [
                "natural"
            ],
            "datarank": "6",
            "diss_me": "1462",
            "featurecla": "Admin-1 scale rank",
            "fips": "CM12",
            "fips_alt": "",
            "gadm_level": "1",
            "geonunit": "Cameroon",
            "gn_a1_code": "CM.12",
            "gn_id": "2231755",
            "gn_level": "1",
            "gn_name": "Far North Region",
            "gn_region": "",
            "gns_adm1": "CM12",
            "gns_id": "-3149188",
            "gns_lang": "fra",
            "gns_level": "1",
            "gns_name": "Extreme-Nord, Region de l'",
            "gns_region": "",
            "gu_a3": "CMR",
            "hasc_maybe": "",
            "labelrank": "5",
            "mapcolor9": "1",
            "mapcolor13": "3",
            "max_label": "11.0",
            "min_label": "6.7",
            "min_zoom": "6.7",
            "name_ar": "\u00d8\u00a7\u00d9\u0084\u00d8\u00b4\u00d9\u0085\u00d8\u00a7\u00d9\u0084 \u00d8\u00a7\u00d9\u0084\u00d8\u00a3\u00d9\u0082\u00d8\u00b5\u00d9\u0089",
            "name_bn": "\u00e0\u00a6\u00ab\u00e0\u00a6\u00be\u00e0\u00a6\u00b0 \u00e0\u00a6\u00a8\u00e0\u00a6\u00b0\u00e0\u00a7\u008d\u00e0\u00a6\u00a5",
            "name_de": "Extr\u00c3\u00aame-Nord",
            "name_el": "\u00ce\u00a0\u00ce\u00b5\u00cf\u0081\u00ce\u00b9\u00cf\u0086\u00ce\u00ad\u00cf\u0081\u00ce\u00b5\u00ce\u00b9\u00ce\u00b1 \u00ce\u0091\u00cf\u0080\u00cf\u008e\u00cf\u0084\u00ce\u00b5\u00cf\u0081\u00ce\u00bf\u00cf\u0085 \u00ce\u0092\u00ce\u00bf\u00cf\u0081\u00cf\u0081\u00ce\u00ac",
            "name_en": "Far North",
            "name_es": "Regi\u00c3\u00b3n del Extremo Norte",
            "name_fr": "R\u00c3\u00a9gion de l'Extr\u00c3\u00aame-Nord",
            "name_hi": "\u00e0\u00a4\u00b8\u00e0\u00a5\u0081\u00e0\u00a4\u00a6\u00e0\u00a5\u0082\u00e0\u00a4\u00b0 \u00e0\u00a4\u0089\u00e0\u00a4\u00a4\u00e0\u00a5\u008d\u00e0\u00a4\u00a4\u00e0\u00a4\u00b0",
            "name_hu": "",
            "name_id": "Region Ujung Utara",
            "name_it": "regione dell'Estremo Nord",
            "name_ja": "\u00e6\u00a5\u00b5\u00e5\u008c\u0097\u00e5\u00b7\u009e",
            "name_ko": "\u00ea\u00b7\u00b9\u00eb\u00b6\u0081\u00eb\u00b6\u0080 \u00ec\u00a3\u00bc",
            "name_len": "12",
            "name_local": "",
            "name_nl": "Extr\u00c3\u00aame-Nord",
            "name_pl": "Region Dalekiej P\u00c3\u00b3\u00c5\u0082nocy",
            "name_pt": "Extremo Norte",
            "name_ru": "\u00d0\u009a\u00d1\u0080\u00d0\u00b0\u00d0\u00b9\u00d0\u00bd\u00d0\u00b5\u00d1\u0081\u00d0\u00b5\u00d0\u00b2\u00d0\u00b5\u00d1\u0080\u00d0\u00bd\u00d1\u008b\u00d0\u00b9 \u00d1\u0080\u00d0\u00b5\u00d0\u00b3\u00d0\u00b8\u00d0\u00be\u00d0\u00bd",
            "name_sv": "Nordligaste regionen",
            "name_tr": "Far North B\u00c3\u00b6lgesi",
            "name_vi": "Far North",
            "name_zh": "\u00e6\u00a5\u00b5\u00e5\u008c\u0097\u00e5\u008d\u0080",
            "ne_id": "1159310209",
            "note": "Formerly Nord",
            "provnum_ne": "6",
            "record_type": "state",
            "region": "",
            "region_cod": "",
            "region_sub": "",
            "sameascity": "-99",
            "scalerank": "5",
            "sov_a3": "CMR",
            "sub_code": "",
            "wikidataid": "Q823976",
            "wikipedia": "",
            "woe_id": "2345040",
            "woe_label": "Extreme-Nord, CM, Cameroon",
            "woe_name": "Extr\u00c3\u00aame-Nord"
        },
        "geo": {
            "latitude": 10.6315589,
            "longitude": 14.6587821,
            "max_latitude": 12.9797045,
            "max_longitude": 15.683687,
            "min_latitude": 9.9244931,
            "min_longitude": 13.363565
        },
        "iso_3166_2": "CM-EN",
        "iso_a2": "CM",
        "iso_a3": "CMR",
        "name": "Far North",
        "postal": "EN",
        "type": "Province",
        "type_en": "Province"
    },
    "ES": {
        "alt_names": [
            "East"
        ],
        "cca2": "CM",
        "cca3": "CMR",
        "code_hasc": "CM.ES",
        "extra": {
            "abbrev": "",
            "adm0_a3": "CMR",
            "adm0_label": "2",
            "adm0_sr": "1",
            "adm1_code": "CMR-1481",
            "admin": "Cameroon",
            "area_sqkm": "0",
            "check_me": "0",
            "code_local": "",
            "data_sources": [
                "natural"
            ],
            "datarank": "6",
            "diss_me": "1481",
            "featurecla": "Admin-1 scale rank",
            "fips": "CM04",
            "fips_alt": "",
            "gadm_level": "1",
            "geonunit": "Cameroon",
            "gn_a1_code": "CM.04",
            "gn_id": "2231835",
            "gn_level": "1",
            "gn_name": "East Region",
            "gn_region": "",
            "gns_adm1": "CM04",
            "gns_id": "-3149108",
            "gns_lang": "fra",
            "gns_level": "1",
            "gns_name": "Est, Region de l'",
            "gns_region": "",
            "gu_a3": "CMR",
            "hasc_maybe": "",
            "labelrank": "5",
            "mapcolor9": "1",
            "mapcolor13": "3",
            "max_label": "11.0",
            "min_label": "6.7",
            "min_zoom": "6.7",
            "name_ar": "\u00d8\u00a7\u00d9\u0084\u00d8\u00b4\u00d8\u00b1\u00d9\u0082",
            "name_bn": "\u00e0\u00a6\u0087\u00e0\u00a6\u00b8\u00e0\u00a7\u008d\u00e0\u00a6\u009f",
            "name_de": "Est",
            "name_el": "\u00ce\u00a0\u00ce\u00b5\u00cf\u0081\u00ce\u00b9\u00cf\u0086\u00ce\u00ad\u00cf\u0081\u00ce\u00b5\u00ce\u00b9\u00ce\u00b1 \u00ce\u0091\u00ce\u00bd\u00ce\u00b1\u00cf\u0084\u00ce\u00bf\u00ce\u00bb\u00ce\u00ae\u00cf\u0082",
            "name_en": "East",
            "name_es": "Regi\u00c3\u00b3n del Este",
            "name_fr": "R\u00c3\u00a9gion de l'Est",
            "name_hi": "\u00e0\u00a4\u00aa\u00e0\u00a5\u0082\u00e0\u00a4\u00b0\u00e0\u00a5\u008d\u00e0\u00a4\u00b5",
            "name_hu": "",
            "name_id": "Region Timur",
            "name_it": "regione dell'Est",
            "name_ja": "\u00e6\u009d\u00b1\u00e9\u0083\u00a8\u00e5\u00b7\u009e",
            "name_ko": "\u00eb\u008f\u0099\u00eb\u00b6\u0080 \u00ec\u00a3\u00bc",
            "name_len": "3",
            "name_local": "",
            "name_nl": "Est",
            "name_pl": "Region Wschodni",
            "name_pt": "Regi\u00c3\u00a3o Leste",
            "name_ru": "\u00d0\u0092\u00d0\u00be\u00d1\u0081\u00d1\u0082\u00d0\u00be\u00d1\u0087\u00d0\u00bd\u00d1\u008b\u00d0\u00b9 \u00d1\u0080\u00d0\u00b5\u00d0\u00b3\u00d0\u00b8\u00d0\u00be\u00d0\u00bd",
            "name_sv": "\u00c3\u0096stra regionen",
            "name_tr": "Do\u00c4\u009fu B\u00c3\u00b6lgesi",
            "name_vi": "East",
            "name_zh": "\u00e4\u00b8\u009c\u00e9\u0083\u00a8\u00e5\u008c\u00ba",
            "ne_id": "1159311505",
            "note": "",
            "provnum_ne": "4",
            "record_type": "state",
            "region": "",
            "region_cod": "",
            "region_sub": "",
            "sameascity": "-99",
            "scalerank": "5",
            "sov_a3": "CMR",
            "sub_code": "",
            "wikidataid": "Q845168",
            "wikipedia": "",
            "woe_id": "2345033",
            "woe_label": "",
            "woe_name": "Est"
        },
        "geo": {
            "latitude": 3.9505128,
            "longitude": 13.914399,
            "max_latitude": 6.0856641,
            "max_longitude": 16.1921161,
            "min_latitude": 1.6525479,
            "min_longitude": 12.5253721
        },
        "iso_3166_2": "CM-ES",
        "iso_a2": "CM",
        "iso_a3": "CMR",
        "name": "East",
        "postal": "ES",
        "type": "Province",
        "type_en": "Province"
    },
    "LT": {
        "alt_names": [
            "Littoral"
        ],
        "cca2": "CM",
        "cca3": "CMR",
        "code_hasc": "CM.LT",
        "extra": {
            "abbrev": "",
            "adm0_a3": "CMR",
            "adm0_label": "2",
            "adm0_sr": "1",
            "adm1_code": "CMR-1476",
            "admin": "Cameroon",
            "area_sqkm": "0",
            "check_me": "0",
            "code_local": "",
            "data_sources": [
                "natural"
            ],
            "datarank": "6",
            "diss_me": "1476",
            "featurecla": "Admin-1 scale rank",
            "fips": "CM05",
            "fips_alt": "",
            "gadm_level": "1",
            "geonunit": "Cameroon",
            "gn_a1_code": "CM.05",
            "gn_id": "2229336",
            "gn_level": "1",
            "gn_name": "Littoral Region",
            "gn_region": "",
            "gns_adm1": "CM05",
            "gns_id": "-3151617",
            "gns_lang": "fra",
            "gns_level": "1",
            "gns_name": "Littoral, Region du",
            "gns_region": "",
            "gu_a3": "CMR",
            "hasc_maybe": "",
            "labelrank": "5",
            "mapcolor9": "1",
            "mapcolor13": "3",
            "max_label": "11.0",
            "min_label": "6.7",
            "min_zoom": "6.7",
            "name_ar": "\u00d9\u0084\u00d9\u008a\u00d8\u00aa\u00d9\u0088\u00d8\u00b1\u00d8\u00a7\u00d9\u0084",
            "name_bn": "\u00e0\u00a6\u00b2\u00e0\u00a6\u00bf\u00e0\u00a6\u009f\u00e0\u00a7\u008d\u00e0\u00a6\u009f\u00e0\u00a7\u008b\u00e0\u00a6\u00b0\u00e0\u00a6\u00be\u00e0\u00a6\u00b2",
            "name_de": "Littoral",
            "name_el": "\u00ce\u009b\u00ce\u00b9\u00cf\u0084\u00cf\u0084\u00ce\u00bf\u00cf\u0081\u00ce\u00ac\u00ce\u00bb",
            "name_en": "Littoral",
            "name_es": "Regi\u00c3\u00b3n del Litoral",
            "name_fr": "R\u00c3\u00a9gion du Littoral",
            "name_hi": "\u00e0\u00a4\u00b2\u00e0\u00a4\u00bf\u00e0\u00a4\u009f\u00e0\u00a5\u008b\u00e0\u00a4\u00b0\u00e0\u00a4\u00b2",
            "name_hu": "",
            "name_id": "Region Littoral",
            "name_it": "regione del Litorale",
            "name_ja": "\u00e3\u0083\u00aa\u00e3\u0083\u0088\u00e3\u0083\u00a9\u00e3\u0083\u00ab\u00e5\u00b7\u009e",
            "name_ko": "\u00eb\u00a6\u00ac\u00ed\u0086\u00a0\u00eb\u009e\u0084 \u00ec\u00a3\u00bc",
            "name_len": "8",
            "name_local": "",
            "name_nl": "Littoral",
            "name_pl": "Region Nadmorski",
            "name_pt": "Litoral",
            "name_ru": "\u00d0\u009f\u00d1\u0080\u00d0\u00b8\u00d0\u00b1\u00d1\u0080\u00d0\u00b5\u00d0\u00b6\u00d0\u00bd\u00d1\u008b\u00d0\u00b9 \u00d1\u0080\u00d0\u00b5\u00d0\u00b3\u00d0\u00b8\u00d0\u00be\u00d0\u00bd",
            "name_sv": "Kustregionen",
            "name_tr": "Littoral B\u00c3\u00b6lgesi",
            "name_vi": "Littoral",
            "name_zh": "\u00e6\u00bf\u00b1\u00e6\u00b5\u00b7\u00e5\u008d\u0080",
            "ne_id": "1159310211",
            "note": "",
            "provnum_ne": "1",
            "record_type": "state",
            "region": "",
            "region_cod": "",
            "region_sub": "",
            "sameascity": "-99",
            "scalerank": "5",
            "sov_a3": "CMR",
            "sub_code": "",
            "wikidataid": "Q845172",
            "wikipedia": "",
            "woe_id": "2345034",
            "woe_label": "Littoral, CM, Cameroon",
            "woe_name": "Littoral"
        },
        "geo": {
            "latitude": 4.1682138,
            "longitude": 10.0807298,
            "max_latitude": 5.3471799,
            "max_longitude": 11.133462,
            "min_latitude": 3.2601088,
            "min_longitude": 9.3282494
        },
        "iso_3166_2": "CM-LT",
        "iso_a2": "CM",
        "iso_a3": "CMR",
        "name": "Littoral",
        "postal": "LT",
        "type": "Province",
        "type_en": "Province"
    },
    "NO": {
        "alt_names": [
            "B\u00e9nou\u00e9"
        ],
        "cca2": "CM",
        "cca3": "CMR",
        "code_hasc": "CM.NO",
        "extra": {
            "abbrev": "",
            "adm0_a3": "CMR",
            "adm0_label": "2",
            "adm0_sr": "1",
            "adm1_code": "CMR-1483",
            "admin": "Cameroon",
            "area_sqkm": "0",
            "check_me": "0",
            "code_local": "",
            "data_sources": [
                "natural"
            ],
            "datarank": "8",
            "diss_me": "1483",
            "featurecla": "Admin-1 scale rank",
            "fips": "CM13",
            "fips_alt": "",
            "gadm_level": "1",
            "geonunit": "Cameroon",
            "gn_a1_code": "CM.13",
            "gn_id": "2223603",
            "gn_level": "1",
            "gn_name": "North Region",
            "gn_region": "",
            "gns_adm1": "CM13",
            "gns_id": "-3157369",
            "gns_lang": "fra",
            "gns_level": "1",
            "gns_name": "Nord, Region du",
            "gns_region": "",
            "gu_a3": "CMR",
            "hasc_maybe": "",
            "labelrank": "5",
            "mapcolor9": "1",
            "mapcolor13": "3",
            "max_label": "11.0",
            "min_label": "6.7",
            "min_zoom": "6.7",
            "name_ar": "\u00d8\u00a7\u00d9\u0084\u00d9\u0085\u00d9\u0086\u00d8\u00b7\u00d9\u0082\u00d8\u00a9 \u00d8\u00a7\u00d9\u0084\u00d8\u00b4\u00d9\u0085\u00d8\u00a7\u00d9\u0084\u00d9\u008a\u00d8\u00a9\u00d8\u008c \u00d8\u00a7\u00d9\u0084\u00d9\u0083\u00d8\u00a7\u00d9\u0085\u00d9\u008a\u00d8\u00b1\u00d9\u0088\u00d9\u0086",
            "name_bn": "\u00e0\u00a6\u00a8\u00e0\u00a6\u00b0\u00e0\u00a7\u008d\u00e0\u00a6\u00a5",
            "name_de": "Nord",
            "name_el": "\u00ce\u00a0\u00ce\u00b5\u00cf\u0081\u00ce\u00b9\u00cf\u0086\u00ce\u00ad\u00cf\u0081\u00ce\u00b5\u00ce\u00b9\u00ce\u00b1 \u00cf\u0084\u00ce\u00bf\u00cf\u0085 \u00ce\u0092\u00ce\u00bf\u00cf\u0081\u00cf\u0081\u00ce\u00ac",
            "name_en": "North",
            "name_es": "Regi\u00c3\u00b3n del Norte",
            "name_fr": "R\u00c3\u00a9gion du Nord",
            "name_hi": "\u00e0\u00a4\u0089\u00e0\u00a4\u00a4\u00e0\u00a5\u008d\u00e0\u00a4\u00a4\u00e0\u00a4\u00b0",
            "name_hu": "",
            "name_id": "Region Utara",
            "name_it": "regione del Nord",
            "name_ja": "\u00e5\u008c\u0097\u00e9\u0083\u00a8\u00e5\u00b7\u009e",
            "name_ko": "\u00eb\u00b6\u0081\u00eb\u00b6\u0080 \u00ec\u00a3\u00bc",
            "name_len": "4",
            "name_local": "",
            "name_nl": "Nord",
            "name_pl": "Region P\u00c3\u00b3\u00c5\u0082nocny",
            "name_pt": "Regi\u00c3\u00a3o Norte",
            "name_ru": "\u00d0\u00a1\u00d0\u00b5\u00d0\u00b2\u00d0\u00b5\u00d1\u0080\u00d0\u00bd\u00d1\u008b\u00d0\u00b9 \u00d1\u0080\u00d0\u00b5\u00d0\u00b3\u00d0\u00b8\u00d0\u00be\u00d0\u00bd",
            "name_sv": "Norra regionen",
            "name_tr": "Kuzey B\u00c3\u00b6lgesi",
            "name_vi": "Ph\u00c3\u00ada B\u00e1\u00ba\u00afc",
            "name_zh": "\u00e5\u008c\u0097\u00e9\u0083\u00a8\u00e5\u008d\u0080",
            "ne_id": "1159311509",
            "note": "",
            "provnum_ne": "7",
            "record_type": "state",
            "region": "",
            "region_cod": "",
            "region_sub": "",
            "sameascity": "-99",
            "scalerank": "5",
            "sov_a3": "CMR",
            "sub_code": "",
            "wikidataid": "Q502341",
            "wikipedia": "",
            "woe_id": "2345041",
            "woe_label": "Nord, CM, Cameroon",
            "woe_name": "Nord"
        },
        "geo": {
            "latitude": 8.5809013,
            "longitude": 13.914399,
            "max_latitude": 10.219281,
            "max_longitude": 15.598204,
            "min_latitude": 7.029079,
            "min_longitude": 12.2255
        },
        "iso_3166_2": "CM-NO",
        "iso_a2": "CM",
        "iso_a3": "CMR",
        "name": "North",
        "postal": "NO",
        "type": "Province",
        "type_en": "Province"
    },
    "NW": {
        "alt_names": [
            "North-West"
        ],
        "cca2": "CM",
        "cca3": "CMR",
        "code_hasc": "CM.NW",
        "extra": {
            "abbrev": "",
            "adm0_a3": "CMR",
            "adm0_label": "2",
            "adm0_sr": "1",
            "adm1_code": "CMR-1477",
            "admin": "Cameroon",
            "area_sqkm": "0",
            "check_me": "0",
            "code_local": "",
            "data_sources": [
                "natural"
            ],
            "datarank": "8",
            "diss_me": "1477",
            "featurecla": "Admin-1 scale rank",
            "fips": "CM07",
            "fips_alt": "",
            "gadm_level": "1",
            "geonunit": "Cameroon",
            "gn_a1_code": "CM.07",
            "gn_id": "2223602",
            "gn_level": "1",
            "gn_name": "North-West Region",
            "gn_region": "",
            "gns_adm1": "CM07",
            "gns_id": "-3157370",
            "gns_lang": "eng",
            "gns_level": "1",
            "gns_name": "North-West Region",
            "gns_region": "",
            "gu_a3": "CMR",
            "hasc_maybe": "",
            "labelrank": "5",
            "mapcolor9": "1",
            "mapcolor13": "3",
            "max_label": "11.0",
            "min_label": "6.7",
            "min_zoom": "6.7",
            "name_ar": "\u00d8\u00a5\u00d9\u0082\u00d9\u0084\u00d9\u008a\u00d9\u0085 \u00d8\u00a7\u00d9\u0084\u00d8\u00b4\u00d9\u0085\u00d8\u00a7\u00d9\u0084 \u00d8\u00a7\u00d9\u0084\u00d8\u00ba\u00d8\u00b1\u00d8\u00a8\u00d9\u008a",
            "name_bn": "\u00e0\u00a6\u00a8\u00e0\u00a6\u00b0\u00e0\u00a7\u008d\u00e0\u00a6\u00a5\u00e0\u00a6\u0093\u00e0\u00a6\u00af\u00e0\u00a6\u00bc\u00e0\u00a7\u0087\u00e0\u00a6\u00b8\u00e0\u00a7\u008d\u00e0\u00a6\u009f",
            "name_de": "Nord-Ouest",
            "name_el": "\u00ce\u0092\u00ce\u00bf\u00cf\u0081\u00ce\u00b5\u00ce\u00b9\u00ce\u00bf\u00ce\u00b4\u00cf\u0085\u00cf\u0084\u00ce\u00b9\u00ce\u00ba\u00ce\u00ae \u00ce\u00a0\u00ce\u00b5\u00cf\u0081\u00ce\u00b9\u00cf\u0086\u00ce\u00ad\u00cf\u0081\u00ce\u00b5\u00ce\u00b9\u00ce\u00b1",
            "name_en": "Northwest",
            "name_es": "Regi\u00c3\u00b3n del Noroeste",
            "name_fr": "R\u00c3\u00a9gion du Nord-Ouest",
            "name_hi": "\u00e0\u00a4\u0089\u00e0\u00a4\u00a4\u00e0\u00a5\u008d\u00e0\u00a4\u00a4\u00e0\u00a4\u00b0\u00e0\u00a4\u00aa\u00e0\u00a5\u0082\u00e0\u00a4\u00b0\u00e0\u00a5\u008d\u00e0\u00a4\u00b5",
            "name_hu": "",
            "name_id": "Region Barat Laut",
            "name_it": "regione del Nordovest",
            "name_ja": "\u00e5\u008c\u0097\u00e8\u00a5\u00bf\u00e5\u00b7\u009e",
            "name_ko": "\u00eb\u00b6\u0081\u00ec\u0084\u009c\u00eb\u00b6\u0080 \u00ec\u00a3\u00bc",
            "name_len": "10",
            "name_local": "",
            "name_nl": "Nord-Ouest",
            "name_pl": "Region P\u00c3\u00b3\u00c5\u0082nocno-Zachodni",
            "name_pt": "Noroeste",
            "name_ru": "\u00d0\u00a1\u00d0\u00b5\u00d0\u00b2\u00d0\u00b5\u00d1\u0080\u00d0\u00be-\u00d0\u0097\u00d0\u00b0\u00d0\u00bf\u00d0\u00b0\u00d0\u00b4\u00d0\u00bd\u00d1\u008b\u00d0\u00b9 \u00d1\u0080\u00d0\u00b5\u00d0\u00b3\u00d0\u00b8\u00d0\u00be\u00d0\u00bd",
            "name_sv": "Nordv\u00c3\u00a4stra regionen",
            "name_tr": "Kuzeybat\u00c4\u00b1 B\u00c3\u00b6lgesi",
            "name_vi": "V\u00c3\u00b9ng T\u00c3\u00a2y B\u00e1\u00ba\u00afc",
            "name_zh": "\u00e8\u00a5\u00bf\u00e5\u008c\u0097\u00e5\u008d\u0080",
            "ne_id": "1159310213",
            "note": "",
            "provnum_ne": "10",
            "record_type": "state",
            "region": "",
            "region_cod": "",
            "region_sub": "",
            "sameascity": "-99",
            "scalerank": "5",
            "sov_a3": "CMR",
            "sub_code": "",
            "wikidataid": "Q823946",
            "wikipedia": "",
            "woe_id": "2345035",
            "woe_label": "Nord-Ouest, CM, Cameroon",
            "woe_name": "Nord-Ouest"
        },
        "geo": {
            "latitude": 6.4703739,
            "longitude": 10.439656,
            "max_latitude": 7.1616911,
            "max_longitude": 11.194967,
            "min_latitude": 5.733761,
            "min_longitude": 9.6307759
        },
        "iso_3166_2": "CM-NW",
        "iso_a2": "CM",
        "iso_a3": "CMR",
        "name": "North-West",
        "postal": "NW",
        "type": "Province",
        "type_en": "Province"
    },
    "OU": {
        "alt_names": [
            "West"
        ],
        "cca2": "CM",
        "cca3": "CMR",
        "code_hasc": "CM.OU",
        "extra": {
            "abbrev": "",
            "adm0_a3": "CMR",
            "adm0_label": "2",
            "adm0_sr": "1",
            "adm1_code": "CMR-798",
            "admin": "Cameroon",
            "area_sqkm": "0",
            "check_me": "0",
            "code_local": "",
            "data_sources": [
                "natural"
            ],
            "datarank": "6",
            "diss_me": "798",
            "featurecla": "Admin-1 scale rank",
            "fips": "CM08",
            "fips_alt": "",
            "gadm_level": "1",
            "geonunit": "Cameroon",
            "gn_a1_code": "CM.08",
            "gn_id": "2222934",
            "gn_level": "1",
            "gn_name": "West Region",
            "gn_region": "",
            "gns_adm1": "CM08",
            "gns_id": "-3158040",
            "gns_lang": "fra",
            "gns_level": "1",
            "gns_name": "Ouest, Region de l'",
            "gns_region": "",
            "gu_a3": "CMR",
            "hasc_maybe": "",
            "labelrank": "5",
            "mapcolor9": "1",
            "mapcolor13": "3",
            "max_label": "11.0",
            "min_label": "6.7",
            "min_zoom": "6.7",
            "name_ar": "\u00d8\u00a7\u00d9\u0084\u00d8\u00ba\u00d8\u00b1\u00d8\u00a8",
            "name_bn": "\u00e0\u00a6\u0093\u00e0\u00a6\u00af\u00e0\u00a6\u00bc\u00e0\u00a7\u0087\u00e0\u00a6\u00b8\u00e0\u00a7\u008d\u00e0\u00a6\u009f",
            "name_de": "Ouest",
            "name_el": "\u00ce\u0094\u00cf\u0085\u00cf\u0084\u00ce\u00b9\u00ce\u00ba\u00ce\u00ae \u00ce\u00a0\u00ce\u00b5\u00cf\u0081\u00ce\u00b9\u00cf\u0086\u00ce\u00ad\u00cf\u0081\u00ce\u00b5\u00ce\u00b9\u00ce\u00b1",
            "name_en": "West",
            "name_es": "Regi\u00c3\u00b3n del Oeste",
            "name_fr": "R\u00c3\u00a9gion de l'Ouest",
            "name_hi": "\u00e0\u00a4\u00aa\u00e0\u00a4\u00b6\u00e0\u00a5\u008d\u00e0\u00a4\u009a\u00e0\u00a4\u00bf\u00e0\u00a4\u00ae",
            "name_hu": "",
            "name_id": "Region Barat",
            "name_it": "regione dell'Ovest",
            "name_ja": "\u00e8\u00a5\u00bf\u00e9\u0083\u00a8\u00e5\u00b7\u009e",
            "name_ko": "\u00ec\u0084\u009c\u00eb\u00b6\u0080 \u00ec\u00a3\u00bc",
            "name_len": "5",
            "name_local": "",
            "name_nl": "Ouest",
            "name_pl": "Region Zachodni",
            "name_pt": "Oeste",
            "name_ru": "\u00d0\u0097\u00d0\u00b0\u00d0\u00bf\u00d0\u00b0\u00d0\u00b4\u00d0\u00bd\u00d1\u008b\u00d0\u00b9 \u00d1\u0080\u00d0\u00b5\u00d0\u00b3\u00d0\u00b8\u00d0\u00be\u00d0\u00bd",
            "name_sv": "V\u00c3\u00a4stra regionen",
            "name_tr": "Bat\u00c4\u00b1 B\u00c3\u00b6lgesi",
            "name_vi": "Khu v\u00e1\u00bb\u00b1c Ph\u00c3\u00ada T\u00c3\u00a2y",
            "name_zh": "\u00e8\u00a5\u00bf\u00e9\u0083\u00a8\u00e5\u008c\u00ba",
            "ne_id": "1159309027",
            "note": "",
            "provnum_ne": "8",
            "record_type": "state",
            "region": "",
            "region_cod": "",
            "region_sub": "",
            "sameascity": "-99",
            "scalerank": "5",
            "sov_a3": "CMR",
            "sub_code": "",
            "wikidataid": "Q165784",
            "wikipedia": "",
            "woe_id": "2345036",
            "woe_label": "Ouest, CM, Cameroon",
            "woe_name": "Ouest"
        },
        "geo": {
            "latitude": 5.4638158,
            "longitude": 10.8000051,
            "max_latitude": 6.2716239,
            "max_longitude": 11.3210561,
            "min_latitude": 4.897808,
            "min_longitude": 9.881679
        },
        "iso_3166_2": "CM-OU",
        "iso_a2": "CM",
        "iso_a3": "CMR",
        "name": "West",
        "postal": "OU",
        "type": "Province",
        "type_en": "Province"
    },
    "SU": {
        "alt_names": [
            "South"
        ],
        "cca2": "CM",
        "cca3": "CMR",
        "code_hasc": "CM.SU",
        "extra": {
            "abbrev": "",
            "adm0_a3": "CMR",
            "adm0_label": "2",
            "adm0_sr": "1",
            "adm1_code": "CMR-803",
            "admin": "Cameroon",
            "area_sqkm": "0",
            "check_me": "0",
            "code_local": "",
            "data_sources": [
                "natural"
            ],
            "datarank": "6",
            "diss_me": "803",
            "featurecla": "Admin-1 scale rank",
            "fips": "CM14",
            "fips_alt": "",
            "gadm_level": "1",
            "geonunit": "Cameroon",
            "gn_a1_code": "CM.14",
            "gn_id": "2221789",
            "gn_level": "1",
            "gn_name": "South Region",
            "gn_region": "",
            "gns_adm1": "CM14",
            "gns_id": "-3159187",
            "gns_lang": "fra",
            "gns_level": "1",
            "gns_name": "Sud, Region du",
            "gns_region": "",
            "gu_a3": "CMR",
            "hasc_maybe": "",
            "labelrank": "5",
            "mapcolor9": "1",
            "mapcolor13": "3",
            "max_label": "11.0",
            "min_label": "6.7",
            "min_zoom": "6.7",
            "name_ar": "\u00d8\u00ac\u00d9\u0086\u00d9\u0088\u00d8\u00a8",
            "name_bn": "\u00e0\u00a6\u00a6\u00e0\u00a6\u0095\u00e0\u00a7\u008d\u00e0\u00a6\u00b7\u00e0\u00a6\u00bf\u00e0\u00a6\u00a8\/\u00e0\u00a6\u00b8\u00e0\u00a6\u00be\u00e0\u00a6\u0089\u00e0\u00a6\u00a5",
            "name_de": "Sud",
            "name_el": "\u00ce\u00a0\u00ce\u00b5\u00cf\u0081\u00ce\u00b9\u00cf\u0086\u00ce\u00ad\u00cf\u0081\u00ce\u00b5\u00ce\u00b9\u00ce\u00b1 \u00cf\u0084\u00ce\u00bf\u00cf\u0085 \u00ce\u009d\u00cf\u008c\u00cf\u0084\u00ce\u00bf\u00cf\u0085",
            "name_en": "South",
            "name_es": "Regi\u00c3\u00b3n del Sur",
            "name_fr": "R\u00c3\u00a9gion du Sud",
            "name_hi": "\u00e0\u00a4\u00a6\u00e0\u00a4\u0095\u00e0\u00a5\u008d\u00e0\u00a4\u00b7\u00e0\u00a4\u00bf\u00e0\u00a4\u00a3",
            "name_hu": "",
            "name_id": "Region Selatan",
            "name_it": "regione del Sud",
            "name_ja": "\u00e5\u008d\u0097\u00e9\u0083\u00a8\u00e5\u00b7\u009e",
            "name_ko": "\u00eb\u0082\u00a8\u00eb\u00b6\u0080 \u00ec\u00a3\u00bc",
            "name_len": "3",
            "name_local": "",
            "name_nl": "Sud",
            "name_pl": "Region Po\u00c5\u0082udniowy",
            "name_pt": "Regi\u00c3\u00a3o Sul",
            "name_ru": "\u00d0\u00ae\u00d0\u00b6\u00d0\u00bd\u00d1\u008b\u00d0\u00b9 \u00d1\u0080\u00d0\u00b5\u00d0\u00b3\u00d0\u00b8\u00d0\u00be\u00d0\u00bd",
            "name_sv": "S\u00c3\u00b6dra regionen",
            "name_tr": "G\u00c3\u00bcney B\u00c3\u00b6lgesi",
            "name_vi": "Khu v\u00e1\u00bb\u00b1c Ph\u00c3\u00ada Nam",
            "name_zh": "\u00e5\u008d\u0097\u00e9\u0083\u00a8\u00e5\u008c\u00ba",
            "ne_id": "1159309031",
            "note": "Formerly Centre-Su",
            "provnum_ne": "3",
            "record_type": "state",
            "region": "",
            "region_cod": "",
            "region_sub": "",
            "sameascity": "-99",
            "scalerank": "5",
            "sov_a3": "CMR",
            "sub_code": "",
            "wikidataid": "Q857122",
            "wikipedia": "",
            "woe_id": "2345042",
            "woe_label": "Sud, CM, Cameroon",
            "woe_name": "Sud"
        },
        "geo": {
            "latitude": 2.7202832,
            "longitude": 11.7068294,
            "max_latitude": 3.6768781,
            "max_longitude": 13.681523,
            "min_latitude": 2.1588319,
            "min_longitude": 9.820998
        },
        "iso_3166_2": "CM-SU",
        "iso_a2": "CM",
        "iso_a3": "CMR",
        "name": "South",
        "postal": "SU",
        "type": "Province",
        "type_en": "Province"
    },
    "SW": {
        "alt_names": [
            "South-West"
        ],
        "cca2": "CM",
        "cca3": "CMR",
        "code_hasc": "CM.SW",
        "extra": {
            "abbrev": "",
            "adm0_a3": "CMR",
            "adm0_label": "2",
            "adm0_sr": "1",
            "adm1_code": "CMR-799",
            "admin": "Cameroon",
            "area_sqkm": "0",
            "check_me": "0",
            "code_local": "",
            "data_sources": [
                "natural"
            ],
            "datarank": "6",
            "diss_me": "799",
            "featurecla": "Admin-1 scale rank",
            "fips": "CM09",
            "fips_alt": "",
            "gadm_level": "1",
            "geonunit": "Cameroon",
            "gn_a1_code": "CM.09",
            "gn_id": "2221788",
            "gn_level": "1",
            "gn_name": "South-West Region",
            "gn_region": "",
            "gns_adm1": "CM09",
            "gns_id": "-3159189",
            "gns_lang": "eng",
            "gns_level": "1",
            "gns_name": "South-West Region",
            "gns_region": "",
            "gu_a3": "CMR",
            "hasc_maybe": "",
            "labelrank": "5",
            "mapcolor9": "1",
            "mapcolor13": "3",
            "max_label": "11.0",
            "min_label": "6.7",
            "min_zoom": "6.7",
            "name_ar": "\u00d8\u00ac\u00d9\u0086\u00d9\u0088\u00d8\u00a8 \u00d8\u00ba\u00d8\u00b1\u00d8\u00a8",
            "name_bn": "\u00e0\u00a6\u00b8\u00e0\u00a6\u00be\u00e0\u00a6\u0089\u00e0\u00a6\u00a5\u00e0\u00a6\u0093\u00e0\u00a6\u00af\u00e0\u00a6\u00bc\u00e0\u00a7\u0087\u00e0\u00a6\u00b8\u00e0\u00a7\u008d\u00e0\u00a6\u009f",
            "name_de": "Sud-Ouest",
            "name_el": "\u00ce\u009d\u00ce\u00bf\u00cf\u0084\u00ce\u00b9\u00ce\u00bf\u00ce\u00b4\u00cf\u0085\u00cf\u0084\u00ce\u00b9\u00ce\u00ba\u00ce\u00ae \u00ce\u00a0\u00ce\u00b5\u00cf\u0081\u00ce\u00b9\u00cf\u0086\u00ce\u00ad\u00cf\u0081\u00ce\u00b5\u00ce\u00b9\u00ce\u00b1",
            "name_en": "Southwest",
            "name_es": "Regi\u00c3\u00b3n del Sudoeste",
            "name_fr": "R\u00c3\u00a9gion du Sud-Ouest",
            "name_hi": "\u00e0\u00a4\u00a6\u00e0\u00a4\u0095\u00e0\u00a5\u008d\u00e0\u00a4\u00b7\u00e0\u00a4\u00bf\u00e0\u00a4\u00a3 \u00e0\u00a4\u00aa\u00e0\u00a4\u00b6\u00e0\u00a5\u008d\u00e0\u00a4\u009a\u00e0\u00a4\u00bf\u00e0\u00a4\u00ae",
            "name_hu": "",
            "name_id": "Region Barat Daya",
            "name_it": "regione del Sudovest",
            "name_ja": "\u00e5\u008d\u0097\u00e8\u00a5\u00bf\u00e5\u00b7\u009e",
            "name_ko": "\u00eb\u0082\u00a8\u00ec\u0084\u009c\u00eb\u00b6\u0080 \u00ec\u00a3\u00bc",
            "name_len": "9",
            "name_local": "",
            "name_nl": "Sud-Ouest",
            "name_pl": "Region Po\u00c5\u0082udniowo-Zachodni",
            "name_pt": "Sudoeste",
            "name_ru": "\u00d0\u00ae\u00d0\u00b3\u00d0\u00be-\u00d0\u0097\u00d0\u00b0\u00d0\u00bf\u00d0\u00b0\u00d0\u00b4\u00d0\u00bd\u00d1\u008b\u00d0\u00b9 \u00d1\u0080\u00d0\u00b5\u00d0\u00b3\u00d0\u00b8\u00d0\u00be\u00d0\u00bd",
            "name_sv": "Sydv\u00c3\u00a4stra regionen",
            "name_tr": "G\u00c3\u00bcneybat\u00c4\u00b1 B\u00c3\u00b6lgesi",
            "name_vi": "V\u00c3\u00b9ng T\u00c3\u00a2y Nam",
            "name_zh": "\u00e8\u00a5\u00bf\u00e5\u008d\u0097\u00e5\u008c\u00ba",
            "ne_id": "1159309029",
            "note": "",
            "provnum_ne": "2",
            "record_type": "state",
            "region": "",
            "region_cod": "",
            "region_sub": "",
            "sameascity": "-99",
            "scalerank": "5",
            "sov_a3": "CMR",
            "sub_code": "",
            "wikidataid": "Q607499",
            "wikipedia": "",
            "woe_id": "2345037",
            "woe_label": "Sud-Ouest, CM, Cameroon",
            "woe_name": "Sud-Ouest"
        },
        "geo": {
            "latitude": 5.1573493,
            "longitude": 9.3673084,
            "max_latitude": 6.5307839,
            "max_longitude": 10.15105,
            "min_latitude": 3.9221987,
            "min_longitude": 8.4947634
        },
        "iso_3166_2": "CM-SW",
        "iso_a2": "CM",
        "iso_a3": "CMR",
        "name": "South-West",
        "postal": "SW",
        "type": "Province",
        "type_en": "Province"
    }
}