{
    "02": {
        "alt_names": [
            "Saint Andrew"
        ],
        "cca2": "DM",
        "cca3": "DMA",
        "code_hasc": "DM.AN",
        "extra": {
            "abbrev": "",
            "adm0_a3": "DMA",
            "adm0_label": "7",
            "adm0_sr": "1",
            "adm1_code": "DMA-1432",
            "admin": "Dominica",
            "area_sqkm": "0",
            "check_me": "0",
            "code_local": "",
            "data_sources": [
                "natural"
            ],
            "datarank": "8",
            "diss_me": "1432",
            "featurecla": "Admin-1 scale rank",
            "fips": "DO02",
            "fips_alt": "",
            "gadm_level": "1",
            "geonunit": "Dominica",
            "gn_a1_code": "DM.02",
            "gn_id": "3575632",
            "gn_level": "1",
            "gn_name": "Saint Andrew",
            "gn_region": "",
            "gns_adm1": "DO02",
            "gns_id": "-1352347",
            "gns_lang": "eng",
            "gns_level": "1",
            "gns_name": "Saint Andrew",
            "gns_region": "",
            "gu_a3": "DMA",
            "hasc_maybe": "",
            "labelrank": "10",
            "mapcolor9": "2",
            "mapcolor13": "12",
            "max_label": "11.0",
            "min_label": "11.0",
            "min_zoom": "11.0",
            "name_ar": "\u00d8\u00a3\u00d8\u00a8\u00d8\u00b1\u00d8\u00b4\u00d9\u008a\u00d8\u00a9 \u00d8\u00b3\u00d8\u00a7\u00d9\u0086\u00d8\u00aa \u00d8\u00a3\u00d9\u0086\u00d8\u00af\u00d8\u00b1\u00d9\u0088",
            "name_bn": "\u00e0\u00a6\u00b8\u00e0\u00a7\u0087\u00e0\u00a6\u00a8\u00e0\u00a7\u008d\u00e0\u00a6\u009f \u00e0\u00a6\u0086\u00e0\u00a6\u00a8\u00e0\u00a7\u008d\u00e0\u00a6\u00a1\u00e0\u00a7\u008d\u00e0\u00a6\u00b0\u00e0\u00a7\u0081 \u00e0\u00a6\u00aa\u00e0\u00a6\u00be\u00e0\u00a6\u00b0\u00e0\u00a6\u00bf\u00e0\u00a6\u00b6",
            "name_de": "Saint Andrew",
            "name_el": "\u00ce\u0086\u00ce\u00b3\u00ce\u00b9\u00ce\u00bf\u00cf\u0082 \u00ce\u0091\u00ce\u00bd\u00ce\u00b4\u00cf\u0081\u00ce\u00ad\u00ce\u00b1\u00cf\u0082",
            "name_en": "Saint Andrew Parish",
            "name_es": "Parroquia de Saint Andrew",
            "name_fr": "Saint-Andrew",
            "name_hi": "\u00e0\u00a4\u00b8\u00e0\u00a5\u0087\u00e0\u00a4\u0082\u00e0\u00a4\u009f \u00e0\u00a4\u008f\u00e0\u00a4\u0082\u00e0\u00a4\u00a1\u00e0\u00a5\u008d\u00e0\u00a4\u00b0\u00e0\u00a5\u0082 \u00e0\u00a4\u00aa\u00e0\u00a5\u0088\u00e0\u00a4\u00b0\u00e0\u00a4\u00bf\u00e0\u00a4\u00b6",
            "name_hu": "",
            "name_id": "Paroki Saint Andrew",
            "name_it": "Parrocchia di Saint Andrew",
            "name_ja": "\u00e3\u0082\u00bb\u00e3\u0083\u00b3\u00e3\u0083\u0088\u00e3\u0083\u00bb\u00e3\u0082\u00a2\u00e3\u0083\u00b3\u00e3\u0083\u0089\u00e3\u0083\u00ab\u00e3\u0083\u00bc",
            "name_ko": "\u00ec\u0084\u00b8\u00ec\u009d\u00b8\u00ed\u008a\u00b8\u00ec\u0095\u00a4\u00eb\u0093\u009c\u00eb\u00a3\u00a8 \u00ea\u00b5\u0090\u00ea\u00b5\u00ac",
            "name_len": "12",
            "name_local": "",
            "name_nl": "Saint Andrew",
            "name_pl": "Parafia \u00c5\u009bw. Andrzeja na Dominice",
            "name_pt": "Saint Andrew",
            "name_ru": "\u00d0\u009f\u00d1\u0080\u00d0\u00b8\u00d1\u0085\u00d0\u00be\u00d0\u00b4\u00d0\u00a1\u00d0\u00b5\u00d0\u00bd\u00d1\u0082-\u00d0\u00ad\u00d0\u00bd\u00d0\u00b4\u00d1\u0080\u00d1\u008e",
            "name_sv": "Saint Andrew",
            "name_tr": "Saint Andrew Parish",
            "name_vi": "Gi\u00c3\u00a1o x\u00e1\u00bb\u00a9 Saint Andrew",
            "name_zh": "\u00e5\u009c\u00a3\u00e5\u00ae\u0089\u00e5\u00be\u00b7\u00e9\u00b2\u0081\u00e5\u008c\u00ba",
            "ne_id": "1159311605",
            "note": "",
            "provnum_ne": "7",
            "record_type": "state",
            "region": "",
            "region_cod": "",
            "region_sub": "",
            "sameascity": "-99",
            "scalerank": "10",
            "sov_a3": "DMA",
            "sub_code": "",
            "wikidataid": "Q732322",
            "wikipedia": "",
            "woe_id": "2345161",
            "woe_label": "Saint Andrew, DM, Dominica",
            "woe_name": "Saint Andrew"
        },
        "geo": {
            "latitude": 15.5542442,
            "longitude": -61.3501856,
            "max_latitude": 15.639894,
            "max_longitude": -61.272358,
            "min_latitude": 15.453767,
            "min_longitude": -61.442724
        },
        "iso_3166_2": "DM-02",
        "iso_a2": "DM",
        "iso_a3": "DMA",
        "name": "Saint Andrew",
        "postal": "02",
        "type": "Parish",
        "type_en": "Parish"
    },
    "03": {
        "alt_names": [
            "Saint David"
        ],
        "cca2": "DM",
        "cca3": "DMA",
        "code_hasc": "DM.DA",
        "extra": {
            "abbrev": "",
            "adm0_a3": "DMA",
            "adm0_label": "7",
            "adm0_sr": "1",
            "adm1_code": "DMA-1433",
            "admin": "Dominica",
            "area_sqkm": "0",
            "check_me": "0",
            "code_local": "",
            "data_sources": [
                "natural"
            ],
            "datarank": "8",
            "diss_me": "1433",
            "featurecla": "Admin-1 scale rank",
            "fips": "DO03",
            "fips_alt": "",
            "gadm_level": "1",
            "geonunit": "Dominica",
            "gn_a1_code": "DM.03",
            "gn_id": "3575630",
            "gn_level": "1",
            "gn_name": "Saint David",
            "gn_region": "",
            "gns_adm1": "DO03",
            "gns_id": "-1352349",
            "gns_lang": "eng",
            "gns_level": "1",
            "gns_name": "Saint David",
            "gns_region": "",
            "gu_a3": "DMA",
            "hasc_maybe": "",
            "labelrank": "10",
            "mapcolor9": "2",
            "mapcolor13": "12",
            "max_label": "11.0",
            "min_label": "11.0",
            "min_zoom": "11.0",
            "name_ar": "\u00d8\u00a3\u00d8\u00a8\u00d8\u00b1\u00d8\u00b4\u00d9\u008a\u00d8\u00a9 \u00d8\u00a7\u00d9\u0084\u00d9\u0082\u00d8\u00af\u00d9\u008a\u00d8\u00b3 \u00d8\u00af\u00d9\u008a\u00d9\u0081\u00d9\u008a\u00d8\u00af",
            "name_bn": "\u00e0\u00a6\u00b8\u00e0\u00a7\u0087\u00e0\u00a6\u00a8\u00e0\u00a7\u008d\u00e0\u00a6\u009f \u00e0\u00a6\u00a1\u00e0\u00a7\u0087\u00e0\u00a6\u00ad\u00e0\u00a6\u00bf\u00e0\u00a6\u00a1 \u00e0\u00a6\u00aa\u00e0\u00a7\u008d\u00e0\u00a6\u00af\u00e0\u00a6\u00be\u00e0\u00a6\u00b0\u00e0\u00a6\u00bf\u00e0\u00a6\u00b6",
            "name_de": "Saint David",
            "name_el": "\u00ce\u0086\u00ce\u00b3\u00ce\u00b9\u00ce\u00bf\u00cf\u0082 \u00ce\u0094\u00ce\u00b1\u00ce\u00b2\u00ce\u00af\u00ce\u00b4",
            "name_en": "Saint David Parish",
            "name_es": "Parroquia de Saint David",
            "name_fr": "Saint-David",
            "name_hi": "\u00e0\u00a4\u00b8\u00e0\u00a5\u0087\u00e0\u00a4\u0082\u00e0\u00a4\u009f \u00e0\u00a4\u00a1\u00e0\u00a5\u0087\u00e0\u00a4\u00b5\u00e0\u00a4\u00bf\u00e0\u00a4\u00a1 \u00e0\u00a4\u00aa\u00e0\u00a5\u0088\u00e0\u00a4\u00b0\u00e0\u00a4\u00bf\u00e0\u00a4\u00b6",
            "name_hu": "",
            "name_id": "Paroki Saint David",
            "name_it": "Parrocchia di Saint David",
            "name_ja": "\u00e3\u0082\u00bb\u00e3\u0083\u00b3\u00e3\u0083\u0088\u00e3\u0083\u00bb\u00e3\u0083\u0087\u00e3\u0082\u00a4\u00e3\u0083\u00b4\u00e3\u0082\u00a3\u00e3\u0083\u0083\u00e3\u0083\u0089\u00e9\u0083\u00a1",
            "name_ko": "\u00ec\u0084\u00b8\u00ec\u009d\u00b8\u00ed\u008a\u00b8\u00eb\u008d\u00b0\u00ec\u009d\u00b4\u00eb\u00b9\u0084\u00eb\u0093\u009c \u00ea\u00b5\u0090\u00ea\u00b5\u00ac",
            "name_len": "11",
            "name_local": "",
            "name_nl": "Saint David",
            "name_pl": "Parafia \u00c5\u009bw. Dawida na Dominice",
            "name_pt": "Saint David",
            "name_ru": "\u00d0\u009f\u00d1\u0080\u00d0\u00b8\u00d1\u0085\u00d0\u00be\u00d0\u00b4 \u00d0\u00a1\u00d0\u00b5\u00d0\u00bd\u00d1\u0082-\u00d0\u0094\u00d1\u008d\u00d0\u00b2\u00d0\u00b8\u00d0\u00b4",
            "name_sv": "Saint David",
            "name_tr": "Saint David Parish",
            "name_vi": "Gi\u00c3\u00a1o x\u00e1\u00bb\u00a9 Saint David",
            "name_zh": "\u00e8\u0081\u0096\u00e6\u0088\u00b4\u00e7\u00b6\u00ad\u00e5\u00a0\u0082\u00e5\u008d\u0080",
            "ne_id": "1159311607",
            "note": "",
            "provnum_ne": "4",
            "record_type": "state",
            "region": "",
            "region_cod": "",
            "region_sub": "",
            "sameascity": "-99",
            "scalerank": "10",
            "sov_a3": "DMA",
            "sub_code": "",
            "wikidataid": "Q1431129",
            "wikipedia": "",
            "woe_id": "2345162",
            "woe_label": "Saint David, DM, Dominica",
            "woe_name": "Saint David"
        },
        "geo": {
            "latitude": 15.4081998,
            "longitude": -61.2918618,
            "max_latitude": 15.5205011,
            "max_longitude": -61.2413121,
            "min_latitude": 15.3278939,
            "min_longitude": -61.3291259
        },
        "iso_3166_2": "DM-03",
        "iso_a2": "DM",
        "iso_a3": "DMA",
        "name": "Saint David",
        "postal": "03",
        "type": "Parish",
        "type_en": "Parish"
    },
    "04": {
        "alt_names": [
            "Saint George"
        ],
        "cca2": "DM",
        "cca3": "DMA",
        "code_hasc": "DM.GO",
        "extra": {
            "abbrev": "",
            "adm0_a3": "DMA",
            "adm0_label": "7",
            "adm0_sr": "1",
            "adm1_code": "DMA-1434",
            "admin": "Dominica",
            "area_sqkm": "0",
            "check_me": "0",
            "code_local": "",
            "data_sources": [
                "natural"
            ],
            "datarank": "8",
            "diss_me": "1434",
            "featurecla": "Admin-1 scale rank",
            "fips": "DO04",
            "fips_alt": "",
            "gadm_level": "1",
            "geonunit": "Dominica",
            "gn_a1_code": "DM.04",
            "gn_id": "3575628",
            "gn_level": "1",
            "gn_name": "Saint George",
            "gn_region": "",
            "gns_adm1": "DO04",
            "gns_id": "-1352351",
            "gns_lang": "eng",
            "gns_level": "1",
            "gns_name": "Saint George",
            "gns_region": "",
            "gu_a3": "DMA",
            "hasc_maybe": "",
            "labelrank": "10",
            "mapcolor9": "2",
            "mapcolor13": "12",
            "max_label": "11.0",
            "min_label": "11.0",
            "min_zoom": "11.0",
            "name_ar": "\u00d8\u00a7\u00d8\u00a8\u00d8\u00b1\u00d8\u00b4\u00d9\u008a\u00d8\u00a9 \u00d8\u00a7\u00d9\u0084\u00d9\u0082\u00d8\u00af\u00d9\u008a\u00d8\u00b3 \u00d8\u00ac\u00d9\u0088\u00d8\u00b1\u00d8\u00ac",
            "name_bn": "\u00e0\u00a6\u00b8\u00e0\u00a7\u0087\u00e0\u00a6\u00a8\u00e0\u00a7\u008d\u00e0\u00a6\u009f \u00e0\u00a6\u009c\u00e0\u00a6\u00b0\u00e0\u00a7\u008d\u00e0\u00a6\u009c \u00e0\u00a6\u00aa\u00e0\u00a6\u00be\u00e0\u00a6\u00b0\u00e0\u00a6\u00bf\u00e0\u00a6\u00b6",
            "name_de": "Saint George",
            "name_el": "\u00ce\u0086\u00ce\u00b3\u00ce\u00b9\u00ce\u00bf\u00cf\u0082 \u00ce\u0093\u00ce\u00b5\u00cf\u008e\u00cf\u0081\u00ce\u00b3\u00ce\u00b9\u00ce\u00bf\u00cf\u0082",
            "name_en": "Saint George Parish",
            "name_es": "Parroquia de Saint George",
            "name_fr": "Saint-George",
            "name_hi": "\u00e0\u00a4\u00b8\u00e0\u00a5\u0087\u00e0\u00a4\u0082\u00e0\u00a4\u009f \u00e0\u00a4\u009c\u00e0\u00a5\u0089\u00e0\u00a4\u00b0\u00e0\u00a5\u008d\u00e0\u00a4\u009c \u00e0\u00a4\u00aa\u00e0\u00a5\u0088\u00e0\u00a4\u00b0\u00e0\u00a4\u00bf\u00e0\u00a4\u00b6",
            "name_hu": "",
            "name_id": "Paroki Saint George",
            "name_it": "Parrocchia di Saint George",
            "name_ja": "\u00e3\u0082\u00bb\u00e3\u0083\u00b3\u00e3\u0083\u0088\u00e3\u0083\u00bb\u00e3\u0082\u00b8\u00e3\u0083\u00a7\u00e3\u0083\u00bc\u00e3\u0082\u00b8",
            "name_ko": "\u00ec\u0084\u00b8\u00ec\u009d\u00b8\u00ed\u008a\u00b8\u00ec\u00a1\u00b0\u00ec\u00a7\u0080 \u00ea\u00b5\u0090\u00ea\u00b5\u00ac",
            "name_len": "12",
            "name_local": "",
            "name_nl": "Saint George",
            "name_pl": "Parafia \u00c5\u009bw. Jerzego na Dominice",
            "name_pt": "Saint George",
            "name_ru": "\u00d0\u00a1\u00d0\u00b5\u00d0\u00bd\u00d1\u0082-\u00d0\u0094\u00d0\u00b6\u00d0\u00be\u00d1\u0080\u00d0\u00b4\u00d0\u00b6",
            "name_sv": "Saint George",
            "name_tr": "Saint George Parish",
            "name_vi": "Gi\u00c3\u00a1o x\u00e1\u00bb\u00a9 Saint George",
            "name_zh": "\u00e8\u0081\u0096\u00e5\u0096\u00ac\u00e6\u00b2\u00bb\u00e5\u00a0\u0082\u00e5\u008d\u0080",
            "ne_id": "1159311611",
            "note": "",
            "provnum_ne": "1",
            "record_type": "state",
            "region": "",
            "region_cod": "",
            "region_sub": "",
            "sameascity": "-99",
            "scalerank": "10",
            "sov_a3": "DMA",
            "sub_code": "",
            "wikidataid": "Q617801",
            "wikipedia": "",
            "woe_id": "2345163",
            "woe_label": "Saint George, DM, Dominica",
            "woe_name": "Saint George"
        },
        "geo": {
            "latitude": 15.3087847,
            "longitude": -61.3385191,
            "max_latitude": 15.3546189,
            "max_longitude": -61.2987611,
            "min_latitude": 15.263895,
            "min_longitude": -61.3926681
        },
        "iso_3166_2": "DM-04",
        "iso_a2": "DM",
        "iso_a3": "DMA",
        "name": "Saint George",
        "postal": "04",
        "type": "Parish",
        "type_en": "Parish"
    },
    "05": {
        "alt_names": [
            "Saint John"
        ],
        "cca2": "DM",
        "cca3": "DMA",
        "code_hasc": "DM.JN",
        "extra": {
            "abbrev": "",
            "adm0_a3": "DMA",
            "adm0_label": "7",
            "adm0_sr": "1",
            "adm1_code": "DMA-1435",
            "admin": "Dominica",
            "area_sqkm": "0",
            "check_me": "0",
            "code_local": "",
            "data_sources": [
                "natural"
            ],
            "datarank": "8",
            "diss_me": "1435",
            "featurecla": "Admin-1 scale rank",
            "fips": "DO05",
            "fips_alt": "",
            "gadm_level": "1",
            "geonunit": "Dominica",
            "gn_a1_code": "DM.05",
            "gn_id": "3575626",
            "gn_level": "1",
            "gn_name": "Saint John",
            "gn_region": "",
            "gns_adm1": "DO05",
            "gns_id": "-1352353",
            "gns_lang": "eng",
            "gns_level": "1",
            "gns_name": "Saint John",
            "gns_region": "",
            "gu_a3": "DMA",
            "hasc_maybe": "",
            "labelrank": "10",
            "mapcolor9": "2",
            "mapcolor13": "12",
            "max_label": "11.0",
            "min_label": "11.0",
            "min_zoom": "11.0",
            "name_ar": "\u00d8\u00a3\u00d8\u00a8\u00d8\u00b1\u00d8\u00b4\u00d9\u008a\u00d8\u00a9 \u00d8\u00a7\u00d9\u0084\u00d9\u0082\u00d8\u00af\u00d9\u008a\u00d8\u00b3 \u00d8\u00ac\u00d9\u0088\u00d9\u0086",
            "name_bn": "\u00e0\u00a6\u00b8\u00e0\u00a7\u0087\u00e0\u00a6\u00a8\u00e0\u00a7\u008d\u00e0\u00a6\u009f \u00e0\u00a6\u009c\u00e0\u00a6\u00a8 \u00e0\u00a6\u00aa\u00e0\u00a7\u008d\u00e0\u00a6\u00af\u00e0\u00a6\u00be\u00e0\u00a6\u00b0\u00e0\u00a6\u00bf\u00e0\u00a6\u00b6",
            "name_de": "Saint John",
            "name_el": "\u00ce\u0086\u00ce\u00b3\u00ce\u00b9\u00ce\u00bf\u00cf\u0082 \u00ce\u0099\u00cf\u0089\u00ce\u00ac\u00ce\u00bd\u00ce\u00bd\u00ce\u00b7\u00cf\u0082",
            "name_en": "Saint John Parish",
            "name_es": "Parroquia de Saint John",
            "name_fr": "Saint-John",
            "name_hi": "\u00e0\u00a4\u00b8\u00e0\u00a5\u0087\u00e0\u00a4\u0082\u00e0\u00a4\u009f \u00e0\u00a4\u009c\u00e0\u00a5\u0089\u00e0\u00a4\u00a8 \u00e0\u00a4\u00aa\u00e0\u00a5\u0088\u00e0\u00a4\u00b0\u00e0\u00a4\u00bf\u00e0\u00a4\u00b6",
            "name_hu": "",
            "name_id": "Paroki Saint John",
            "name_it": "Parrocchia di Saint John",
            "name_ja": "\u00e3\u0082\u00bb\u00e3\u0083\u00b3\u00e3\u0083\u0088\u00e3\u0083\u00bb\u00e3\u0082\u00b8\u00e3\u0083\u00a7\u00e3\u0083\u00b3\u00e9\u0083\u00a1",
            "name_ko": "\u00ec\u0084\u00b8\u00ec\u009d\u00b8\u00ed\u008a\u00b8\u00ec\u00a1\u00b4 \u00ea\u00b5\u0090\u00ea\u00b5\u00ac",
            "name_len": "10",
            "name_local": "",
            "name_nl": "Saint John",
            "name_pl": "Parafia \u00c5\u009bw. Jana na Dominice",
            "name_pt": "Saint John",
            "name_ru": "\u00d0\u00a1\u00d0\u00b5\u00d0\u00bd\u00d1\u0082-\u00d0\u0094\u00d0\u00b6\u00d0\u00be\u00d0\u00bd",
            "name_sv": "Saint John",
            "name_tr": "Saint John Parish",
            "name_vi": "Gi\u00c3\u00a1o x\u00e1\u00bb\u00a9 Saint John",
            "name_zh": "\u00e8\u0081\u0096\u00e7\u00b4\u0084\u00e7\u00bf\u00b0\u00e5\u00a0\u0082\u00e5\u008d\u0080",
            "ne_id": "1159311613",
            "note": "",
            "provnum_ne": "8",
            "record_type": "state",
            "region": "",
            "region_cod": "",
            "region_sub": "",
            "sameascity": "-99",
            "scalerank": "10",
            "sov_a3": "DMA",
            "sub_code": "",
            "wikidataid": "Q1476285",
            "wikipedia": "",
            "woe_id": "2345164",
            "woe_label": "",
            "woe_name": "Saint John"
        },
        "geo": {
            "latitude": 15.5763757,
            "longitude": -61.4318742,
            "max_latitude": 15.6391931,
            "max_longitude": -61.4015121,
            "min_latitude": 15.5123079,
            "min_longitude": -61.479659
        },
        "iso_3166_2": "DM-05",
        "iso_a2": "DM",
        "iso_a3": "DMA",
        "name": "Saint John",
        "postal": "05",
        "type": "Parish",
        "type_en": "Parish"
    },
    "06": {
        "alt_names": [
            "Saint Joseph"
        ],
        "cca2": "DM",
        "cca3": "DMA",
        "code_hasc": "DM.JH",
        "extra": {
            "abbrev": "",
            "adm0_a3": "DMA",
            "adm0_label": "7",
            "adm0_sr": "1",
            "adm1_code": "DMA-1436",
            "admin": "Dominica",
            "area_sqkm": "0",
            "check_me": "0",
            "code_local": "",
            "data_sources": [
                "natural"
            ],
            "datarank": "8",
            "diss_me": "1436",
            "featurecla": "Admin-1 scale rank",
            "fips": "DO06",
            "fips_alt": "",
            "gadm_level": "1",
            "geonunit": "Dominica",
            "gn_a1_code": "DM.06",
            "gn_id": "3575625",
            "gn_level": "1",
            "gn_name": "Saint Joseph",
            "gn_region": "",
            "gns_adm1": "DO06",
            "gns_id": "-1352354",
            "gns_lang": "eng",
            "gns_level": "1",
            "gns_name": "Saint Joseph",
            "gns_region": "",
            "gu_a3": "DMA",
            "hasc_maybe": "",
            "labelrank": "10",
            "mapcolor9": "2",
            "mapcolor13": "12",
            "max_label": "11.0",
            "min_label": "11.0",
            "min_zoom": "11.0",
            "name_ar": "\u00d8\u00a3\u00d8\u00a8\u00d8\u00b1\u00d8\u00b4\u00d9\u008a\u00d8\u00a9 \u00d8\u00a7\u00d9\u0084\u00d9\u0082\u00d8\u00af\u00d9\u008a\u00d8\u00b3 \u00d8\u00ac\u00d9\u0088\u00d8\u00b2\u00d9\u008a\u00d9\u0081",
            "name_bn": "\u00e0\u00a6\u00b8\u00e0\u00a7\u0087\u00e0\u00a6\u00a8\u00e0\u00a7\u008d\u00e0\u00a6\u009f \u00e0\u00a6\u009c\u00e0\u00a7\u008b\u00e0\u00a6\u00b8\u00e0\u00a7\u0087\u00e0\u00a6\u00ab \u00e0\u00a6\u00aa\u00e0\u00a7\u008d\u00e0\u00a6\u00af\u00e0\u00a6\u00be\u00e0\u00a6\u00b0\u00e0\u00a6\u00bf\u00e0\u00a6\u00b6",
            "name_de": "Saint Joseph",
            "name_el": "\u00ce\u0086\u00ce\u00b3\u00ce\u00b9\u00ce\u00bf\u00cf\u0082 \u00ce\u0099\u00cf\u0089\u00cf\u0083\u00ce\u00ae\u00cf\u0086",
            "name_en": "Saint Joseph Parish",
            "name_es": "Parroquia de Saint Joseph",
            "name_fr": "Saint-Joseph",
            "name_hi": "\u00e0\u00a4\u00b8\u00e0\u00a5\u0087\u00e0\u00a4\u0082\u00e0\u00a4\u009f \u00e0\u00a4\u009c\u00e0\u00a5\u008b\u00e0\u00a4\u00b8\u00e0\u00a5\u0087\u00e0\u00a4\u00ab \u00e0\u00a4\u00aa\u00e0\u00a5\u0088\u00e0\u00a4\u00b0\u00e0\u00a4\u00bf\u00e0\u00a4\u00b6",
            "name_hu": "",
            "name_id": "Paroki Saint Joseph",
            "name_it": "Parrocchia di Saint Joseph",
            "name_ja": "\u00e3\u0082\u00bb\u00e3\u0083\u00b3\u00e3\u0083\u0088\u00e3\u0083\u00bb\u00e3\u0082\u00b8\u00e3\u0083\u00a7\u00e3\u0082\u00bc\u00e3\u0083\u0095\u00e6\u0095\u0099\u00e5\u008c\u00ba",
            "name_ko": "\u00ec\u0084\u00b8\u00ec\u009d\u00b8\u00ed\u008a\u00b8\u00ec\u00a1\u00b0\u00ec\u00a7\u0080\u00ed\u0094\u0084 \u00ea\u00b5\u0090\u00ea\u00b5\u00ac",
            "name_len": "12",
            "name_local": "",
            "name_nl": "Saint Joseph",
            "name_pl": "Parafia \u00c5\u009bw. J\u00c3\u00b3zefa na Dominice",
            "name_pt": "Saint Joseph",
            "name_ru": "\u00d0\u009f\u00d1\u0080\u00d1\u0085\u00d0\u00be\u00d0\u00b4 \u00d0\u00a1\u00d0\u00b5\u00d0\u00bd\u00d1\u0082-\u00d0\u0094\u00d0\u00b6\u00d0\u00be\u00d0\u00b7\u00d0\u00b5\u00d1\u0084",
            "name_sv": "Saint Joseph",
            "name_tr": "Sain Joseph Parish",
            "name_vi": "Gi\u00c3\u00a1o x\u00e1\u00bb\u00a9 Saint Joseph",
            "name_zh": "\u00e8\u0081\u0096\u00e7\u00b4\u0084\u00e7\u0091\u009f\u00e5\u00a4\u00ab\u00e5\u00a0\u0082\u00e5\u008d\u0080",
            "ne_id": "1159311615",
            "note": "",
            "provnum_ne": "10",
            "record_type": "state",
            "region": "",
            "region_cod": "",
            "region_sub": "",
            "sameascity": "-99",
            "scalerank": "10",
            "sov_a3": "DMA",
            "sub_code": "",
            "wikidataid": "Q1476302",
            "wikipedia": "",
            "woe_id": "2345165",
            "woe_label": "Saint Joseph, DM, Dominica",
            "woe_name": "Saint Joseph"
        },
        "geo": {
            "latitude": 15.4335083,
            "longitude": -61.3968598,
            "max_latitude": 15.5042691,
            "max_longitude": -61.315627,
            "min_latitude": 15.3909401,
            "min_longitude": -61.4542429
        },
        "iso_3166_2": "DM-06",
        "iso_a2": "DM",
        "iso_a3": "DMA",
        "name": "Saint Joseph",
        "postal": "06",
        "type": "Parish",
        "type_en": "Parish"
    },
    "07": {
        "alt_names": [
            "Saint Luke"
        ],
        "cca2": "DM",
        "cca3": "DMA",
        "code_hasc": "DM.LU",
        "extra": {
            "abbrev": "",
            "adm0_a3": "DMA",
            "adm0_label": "7",
            "adm0_sr": "1",
            "adm1_code": "DMA-1437",
            "admin": "Dominica",
            "area_sqkm": "0",
            "check_me": "0",
            "code_local": "",
            "data_sources": [
                "natural"
            ],
            "datarank": "8",
            "diss_me": "1437",
            "featurecla": "Admin-1 scale rank",
            "fips": "DO07",
            "fips_alt": "",
            "gadm_level": "1",
            "geonunit": "Dominica",
            "gn_a1_code": "DM.07",
            "gn_id": "3575622",
            "gn_level": "1",
            "gn_name": "Saint Luke",
            "gn_region": "",
            "gns_adm1": "DO07",
            "gns_id": "-1352357",
            "gns_lang": "eng",
            "gns_level": "1",
            "gns_name": "Saint Luke",
            "gns_region": "",
            "gu_a3": "DMA",
            "hasc_maybe": "",
            "labelrank": "10",
            "mapcolor9": "2",
            "mapcolor13": "12",
            "max_label": "11.0",
            "min_label": "11.0",
            "min_zoom": "11.0",
            "name_ar": "\u00d8\u00a3\u00d8\u00a8\u00d8\u00b1\u00d8\u00b4\u00d9\u008a\u00d8\u00a9 \u00d8\u00b3\u00d8\u00a7\u00d9\u0086\u00d8\u00aa \u00d9\u0084\u00d9\u0088\u00d9\u0083\u00d8\u008c \u00d8\u00af\u00d9\u0088\u00d9\u0085\u00d9\u008a\u00d9\u0086\u00d9\u008a\u00d9\u0083\u00d8\u00a7",
            "name_bn": "\u00e0\u00a6\u00b8\u00e0\u00a7\u0087\u00e0\u00a6\u00a8\u00e0\u00a7\u008d\u00e0\u00a6\u009f \u00e0\u00a6\u00b2\u00e0\u00a7\u0081\u00e0\u00a6\u0095 \u00e0\u00a6\u00aa\u00e0\u00a6\u00be\u00e0\u00a6\u00b0\u00e0\u00a6\u00bf\u00e0\u00a6\u00b6",
            "name_de": "Saint Luke",
            "name_el": "\u00ce\u0086\u00ce\u00b3\u00ce\u00b9\u00ce\u00bf\u00cf\u0082 \u00ce\u009b\u00ce\u00bf\u00cf\u0085\u00ce\u00ba\u00ce\u00ac\u00cf\u0082",
            "name_en": "Saint Luke Parish",
            "name_es": "Parroquia de Saint Luke",
            "name_fr": "Saint-Luke",
            "name_hi": "\u00e0\u00a4\u00b8\u00e0\u00a5\u0087\u00e0\u00a4\u0082\u00e0\u00a4\u009f \u00e0\u00a4\u00b2\u00e0\u00a5\u008d\u00e0\u00a4\u00af\u00e0\u00a5\u0082\u00e0\u00a4\u0095 \u00e0\u00a4\u00aa\u00e0\u00a5\u0088\u00e0\u00a4\u00b0\u00e0\u00a4\u00bf\u00e0\u00a4\u00b6",
            "name_hu": "",
            "name_id": "Paroki Saint Luke",
            "name_it": "Parrocchia di Saint Luke",
            "name_ja": "\u00e3\u0082\u00bb\u00e3\u0083\u00b3\u00e3\u0083\u0088\u00e3\u0083\u00bb\u00e3\u0083\u00ab\u00e3\u0083\u00bc\u00e3\u0082\u00af",
            "name_ko": "\u00ec\u0084\u00b8\u00ec\u009d\u00b8\u00ed\u008a\u00b8\u00eb\u00a3\u00a8\u00ed\u0081\u00ac \u00ea\u00b5\u0090\u00ea\u00b5\u00ac",
            "name_len": "10",
            "name_local": "",
            "name_nl": "Saint Luke",
            "name_pl": "Parafia \u00c5\u009bw. \u00c5\u0081ukasza na Dominice",
            "name_pt": "Saint Luke",
            "name_ru": "\u00d0\u009f\u00d1\u0080\u00d0\u00b8\u00d1\u0085\u00d0\u00be\u00d0\u00b4 \u00d0\u00a1\u00d0\u00b5\u00d0\u00bd\u00d1\u0082-\u00d0\u009b\u00d1\u008e\u00d0\u00ba",
            "name_sv": "Saint Luke",
            "name_tr": "Saint Luke Parish",
            "name_vi": "Gi\u00c3\u00a1o x\u00e1\u00bb\u00a9 Saint Luke",
            "name_zh": "\u00e8\u0081\u0096\u00e7\u009b\u00a7\u00e5\u0085\u008b\u00e5\u00a0\u0082\u00e5\u008d\u0080",
            "ne_id": "1159311617",
            "note": "",
            "provnum_ne": "2",
            "record_type": "state",
            "region": "",
            "region_cod": "",
            "region_sub": "",
            "sameascity": "-99",
            "scalerank": "10",
            "sov_a3": "DMA",
            "sub_code": "",
            "wikidataid": "Q1431099",
            "wikipedia": "",
            "woe_id": "2345166",
            "woe_label": "Saint Luke, DM, Dominica",
            "woe_name": "Saint Luke"
        },
        "geo": {
            "latitude": 15.254587,
            "longitude": -61.3676868,
            "max_latitude": 15.2727258,
            "max_longitude": -61.344951,
            "min_latitude": 15.2373251,
            "min_longitude": -61.3773769
        },
        "iso_3166_2": "DM-07",
        "iso_a2": "DM",
        "iso_a3": "DMA",
        "name": "Saint Luke",
        "postal": "07",
        "type": "Parish",
        "type_en": "Parish"
    },
    "08": {
        "alt_names": [
            "Saint Mark"
        ],
        "cca2": "DM",
        "cca3": "DMA",
        "code_hasc": "DM.MA",
        "extra": {
            "abbrev": "",
            "adm0_a3": "DMA",
            "adm0_label": "7",
            "adm0_sr": "1",
            "adm1_code": "DMA-1438",
            "admin": "Dominica",
            "area_sqkm": "0",
            "check_me": "0",
            "code_local": "",
            "data_sources": [
                "natural"
            ],
            "datarank": "8",
            "diss_me": "1438",
            "featurecla": "Admin-1 scale rank",
            "fips": "DO08",
            "fips_alt": "",
            "gadm_level": "1",
            "geonunit": "Dominica",
            "gn_a1_code": "DM.08",
            "gn_id": "3575621",
            "gn_level": "1",
            "gn_name": "Saint Mark",
            "gn_region": "",
            "gns_adm1": "DO08",
            "gns_id": "-1352358",
            "gns_lang": "eng",
            "gns_level": "1",
            "gns_name": "Saint Mark",
            "gns_region": "",
            "gu_a3": "DMA",
            "hasc_maybe": "",
            "labelrank": "10",
            "mapcolor9": "2",
            "mapcolor13": "12",
            "max_label": "11.0",
            "min_label": "11.0",
            "min_zoom": "11.0",
            "name_ar": "\u00d8\u00a3\u00d8\u00a8\u00d8\u00b1\u00d8\u00b4\u00d9\u008a\u00d8\u00a9 \u00d8\u00a7\u00d9\u0084\u00d9\u0082\u00d8\u00af\u00d9\u008a\u00d8\u00b3 \u00d9\u0085\u00d8\u00a7\u00d8\u00b1\u00d9\u0083",
            "name_bn": "\u00e0\u00a6\u00b8\u00e0\u00a7\u0087\u00e0\u00a6\u00a8\u00e0\u00a7\u008d\u00e0\u00a6\u009f \u00e0\u00a6\u00ae\u00e0\u00a6\u00be\u00e0\u00a6\u00b0\u00e0\u00a7\u008d\u00e0\u00a6\u0095 \u00e0\u00a6\u00aa\u00e0\u00a6\u00be\u00e0\u00a6\u00b0\u00e0\u00a6\u00bf\u00e0\u00a6\u00b6",
            "name_de": "Saint Mark",
            "name_el": "\u00ce\u0086\u00ce\u00b3\u00ce\u00b9\u00ce\u00bf\u00cf\u0082 \u00ce\u009c\u00ce\u00ac\u00cf\u0081\u00ce\u00ba\u00ce\u00bf\u00cf\u0082",
            "name_en": "Saint Mark Parish",
            "name_es": "Parroquia de Saint Mark",
            "name_fr": "Saint-Mark",
            "name_hi": "\u00e0\u00a4\u00b8\u00e0\u00a5\u0087\u00e0\u00a4\u0082\u00e0\u00a4\u009f \u00e0\u00a4\u00ae\u00e0\u00a4\u00be\u00e0\u00a4\u00b0\u00e0\u00a5\u008d\u00e0\u00a4\u0095 \u00e0\u00a4\u00aa\u00e0\u00a5\u0088\u00e0\u00a4\u00b0\u00e0\u00a4\u00bf\u00e0\u00a4\u00b6",
            "name_hu": "",
            "name_id": "Paroki Saint Mark",
            "name_it": "Parrocchia di Saint Mark",
            "name_ja": "\u00e3\u0082\u00bb\u00e3\u0083\u00b3\u00e3\u0083\u0088\u00e3\u0083\u00bb\u00e3\u0083\u009e\u00e3\u0083\u00bc\u00e3\u0082\u00af",
            "name_ko": "\u00ec\u0084\u00b8\u00ec\u009d\u00b8\u00ed\u008a\u00b8\u00eb\u00a7\u0088\u00ed\u0081\u00ac \u00ea\u00b5\u0090\u00ea\u00b5\u00ac",
            "name_len": "10",
            "name_local": "",
            "name_nl": "Saint Mark",
            "name_pl": "Parafia \u00c5\u009bw. Marka na Dominice",
            "name_pt": "Saint Mark",
            "name_ru": "\u00d0\u009f\u00d1\u0080\u00d0\u00b8\u00d1\u0085\u00d0\u00be\u00d0\u00b4 \u00d0\u00a1\u00d0\u00b5\u00d0\u00bd\u00d1\u0082-\u00d0\u009c\u00d0\u00b0\u00d1\u0080\u00d0\u00ba",
            "name_sv": "Saint Mark",
            "name_tr": "Saint Mark Parish",
            "name_vi": "Gi\u00c3\u00a1o x\u00e1\u00bb\u00a9 Saint Mark",
            "name_zh": "\u00e8\u0081\u0096\u00e9\u00a6\u00ac\u00e5\u0085\u008b\u00e5\u00a0\u0082\u00e5\u008d\u0080",
            "ne_id": "1159311619",
            "note": "",
            "provnum_ne": "3",
            "record_type": "state",
            "region": "",
            "region_cod": "",
            "region_sub": "",
            "sameascity": "-99",
            "scalerank": "10",
            "sov_a3": "DMA",
            "sub_code": "",
            "wikidataid": "Q1431115",
            "wikipedia": "",
            "woe_id": "2345167",
            "woe_label": "Saint Mark, DM, Dominica",
            "woe_name": "Saint Mark"
        },
        "geo": {
            "latitude": 15.2195922,
            "longitude": -61.3443522,
            "max_latitude": 15.254047,
            "max_longitude": -61.329852,
            "min_latitude": 15.207682,
            "min_longitude": -61.373916
        },
        "iso_3166_2": "DM-08",
        "iso_a2": "DM",
        "iso_a3": "DMA",
        "name": "Saint Mark",
        "postal": "08",
        "type": "Parish",
        "type_en": "Parish"
    },
    "09": {
        "alt_names": [
            "Saint Patrick"
        ],
        "cca2": "DM",
        "cca3": "DMA",
        "code_hasc": "DM.PK",
        "extra": {
            "abbrev": "",
            "adm0_a3": "DMA",
            "adm0_label": "7",
            "adm0_sr": "1",
            "adm1_code": "DMA-1439",
            "admin": "Dominica",
            "area_sqkm": "0",
            "check_me": "0",
            "code_local": "",
            "data_sources": [
                "natural"
            ],
            "datarank": "8",
            "diss_me": "1439",
            "featurecla": "Admin-1 scale rank",
            "fips": "DO09",
            "fips_alt": "",
            "gadm_level": "1",
            "geonunit": "Dominica",
            "gn_a1_code": "DM.09",
            "gn_id": "3575620",
            "gn_level": "1",
            "gn_name": "Saint Patrick",
            "gn_region": "",
            "gns_adm1": "DO09",
            "gns_id": "-1352359",
            "gns_lang": "eng",
            "gns_level": "1",
            "gns_name": "Saint Patrick",
            "gns_region": "",
            "gu_a3": "DMA",
            "hasc_maybe": "",
            "labelrank": "10",
            "mapcolor9": "2",
            "mapcolor13": "12",
            "max_label": "11.0",
            "min_label": "11.0",
            "min_zoom": "11.0",
            "name_ar": "\u00d8\u00a3\u00d8\u00a8\u00d8\u00b1\u00d8\u00b4\u00d9\u008a\u00d8\u00a9 \u00d8\u00a7\u00d9\u0084\u00d9\u0082\u00d8\u00af\u00d9\u008a\u00d8\u00b3 \u00d8\u00a8\u00d8\u00a7\u00d8\u00aa\u00d8\u00b1\u00d9\u008a\u00d9\u0083",
            "name_bn": "\u00e0\u00a6\u00b8\u00e0\u00a7\u0087\u00e0\u00a6\u00a8\u00e0\u00a7\u008d\u00e0\u00a6\u009f \u00e0\u00a6\u00aa\u00e0\u00a7\u008d\u00e0\u00a6\u00af\u00e0\u00a6\u00be\u00e0\u00a6\u009f\u00e0\u00a7\u008d\u00e0\u00a6\u00b0\u00e0\u00a6\u00bf\u00e0\u00a6\u0095 \u00e0\u00a6\u00aa\u00e0\u00a7\u008d\u00e0\u00a6\u00af\u00e0\u00a6\u00be\u00e0\u00a6\u00b0\u00e0\u00a6\u00bf\u00e0\u00a6\u00b6",
            "name_de": "Saint Patrick",
            "name_el": "\u00ce\u0086\u00ce\u00b3\u00ce\u00b9\u00ce\u00bf\u00cf\u0082 \u00ce\u00a0\u00ce\u00b1\u00cf\u0084\u00cf\u0081\u00ce\u00af\u00ce\u00ba\u00ce\u00b9\u00ce\u00bf\u00cf\u0082",
            "name_en": "Saint Patrick Parish",
            "name_es": "Parroquia de Saint Patrick",
            "name_fr": "Saint-Patrick",
            "name_hi": "\u00e0\u00a4\u00b8\u00e0\u00a5\u0087\u00e0\u00a4\u0082\u00e0\u00a4\u009f \u00e0\u00a4\u00aa\u00e0\u00a5\u0088\u00e0\u00a4\u009f\u00e0\u00a5\u008d\u00e0\u00a4\u00b0\u00e0\u00a4\u00bf\u00e0\u00a4\u0095 \u00e0\u00a4\u00aa\u00e0\u00a5\u0088\u00e0\u00a4\u00b0\u00e0\u00a4\u00bf\u00e0\u00a4\u00b6",
            "name_hu": "",
            "name_id": "Paroki Saint Patrick",
            "name_it": "Parrocchia di Saint Patrick",
            "name_ja": "\u00e3\u0082\u00bb\u00e3\u0083\u00b3\u00e3\u0083\u0088\u00e3\u0083\u00bb\u00e3\u0083\u0091\u00e3\u0083\u0088\u00e3\u0083\u00aa\u00e3\u0083\u0083\u00e3\u0082\u00af",
            "name_ko": "\u00ec\u0084\u00b8\u00ec\u009d\u00b8\u00ed\u008a\u00b8\u00ed\u008c\u00a8\u00ed\u008a\u00b8\u00eb\u00a6\u00ad \u00ea\u00b5\u0090\u00ea\u00b5\u00ac",
            "name_len": "13",
            "name_local": "",
            "name_nl": "Saint Patrick",
            "name_pl": "Parafia \u00c5\u009bw. Patryka na Dominice",
            "name_pt": "Saint Patrick",
            "name_ru": "\u00d0\u009f\u00d1\u0080\u00d0\u00b8\u00d1\u0085\u00d0\u00be\u00d0\u00b4 \u00d0\u00a1\u00d0\u00b5\u00d0\u00bd\u00d1\u0082-\u00d0\u009f\u00d0\u00b0\u00d1\u0082\u00d1\u0080\u00d0\u00b8\u00d0\u00ba",
            "name_sv": "Saint Patrick",
            "name_tr": "Saint Patrick Parish",
            "name_vi": "Gi\u00c3\u00a1o x\u00e1\u00bb\u00a9 Saint Patrick",
            "name_zh": "\u00e8\u0081\u0096\u00e5\u00b8\u0095\u00e7\u0089\u00b9\u00e9\u0087\u008c\u00e5\u0085\u008b\u00e5\u00a0\u0082\u00e5\u008d\u0080",
            "ne_id": "1159311621",
            "note": "",
            "provnum_ne": "5",
            "record_type": "state",
            "region": "",
            "region_cod": "",
            "region_sub": "",
            "sameascity": "-99",
            "scalerank": "10",
            "sov_a3": "DMA",
            "sub_code": "",
            "wikidataid": "Q1431108",
            "wikipedia": "",
            "woe_id": "2345168",
            "woe_label": "Saint Patrick, DM, Dominica",
            "woe_name": "Saint Patrick"
        },
        "geo": {
            "latitude": 15.2811117,
            "longitude": -61.2918618,
            "max_latitude": 15.345993,
            "max_longitude": -61.241828,
            "min_latitude": 15.2171499,
            "min_longitude": -61.3454931
        },
        "iso_3166_2": "DM-09",
        "iso_a2": "DM",
        "iso_a3": "DMA",
        "name": "Saint Patrick",
        "postal": "09",
        "type": "Parish",
        "type_en": "Parish"
    },
    "10": {
        "alt_names": [
            "Saint Paul"
        ],
        "cca2": "DM",
        "cca3": "DMA",
        "code_hasc": "DM.PL",
        "extra": {
            "abbrev": "",
            "adm0_a3": "DMA",
            "adm0_label": "7",
            "adm0_sr": "1",
            "adm1_code": "DMA-1440",
            "admin": "Dominica",
            "area_sqkm": "0",
            "check_me": "0",
            "code_local": "",
            "data_sources": [
                "natural"
            ],
            "datarank": "8",
            "diss_me": "1440",
            "featurecla": "Admin-1 scale rank",
            "fips": "DO10",
            "fips_alt": "",
            "gadm_level": "1",
            "geonunit": "Dominica",
            "gn_a1_code": "DM.10",
            "gn_id": "3575619",
            "gn_level": "1",
            "gn_name": "Saint Paul",
            "gn_region": "",
            "gns_adm1": "DO10",
            "gns_id": "-1352360",
            "gns_lang": "eng",
            "gns_level": "1",
            "gns_name": "Saint Paul",
            "gns_region": "",
            "gu_a3": "DMA",
            "hasc_maybe": "",
            "labelrank": "10",
            "mapcolor9": "2",
            "mapcolor13": "12",
            "max_label": "11.0",
            "min_label": "11.0",
            "min_zoom": "11.0",
            "name_ar": "\u00d8\u00b3\u00d8\u00a7\u00d9\u0086\u00d8\u00aa \u00d8\u00a8\u00d8\u00a7\u00d9\u0088\u00d9\u0084 \u00d8\u00a7\u00d9\u0084\u00d8\u00af\u00d9\u0088\u00d9\u0085\u00d9\u008a\u00d9\u0086\u00d9\u008a\u00d9\u0083\u00d8\u00a7\u00d9\u0086",
            "name_bn": "\u00e0\u00a6\u00b8\u00e0\u00a7\u0087\u00e0\u00a6\u00a8\u00e0\u00a7\u008d\u00e0\u00a6\u009f \u00e0\u00a6\u00aa\u00e0\u00a6\u00b2 \u00e0\u00a6\u00aa\u00e0\u00a6\u00be\u00e0\u00a6\u00b0\u00e0\u00a6\u00bf\u00e0\u00a6\u00b6",
            "name_de": "Saint Paul",
            "name_el": "\u00ce\u0086\u00ce\u00b3\u00ce\u00b9\u00ce\u00bf\u00cf\u0082 \u00ce\u00a0\u00ce\u00b1\u00cf\u008d\u00ce\u00bb\u00ce\u00bf\u00cf\u0082",
            "name_en": "Saint Paul Parish",
            "name_es": "Parroquia de Saint Paul",
            "name_fr": "Saint-Paul",
            "name_hi": "\u00e0\u00a4\u00b8\u00e0\u00a5\u0087\u00e0\u00a4\u0082\u00e0\u00a4\u009f \u00e0\u00a4\u00aa\u00e0\u00a5\u0089\u00e0\u00a4\u00b2 \u00e0\u00a4\u00aa\u00e0\u00a5\u0088\u00e0\u00a4\u00b0\u00e0\u00a4\u00bf\u00e0\u00a4\u00b6",
            "name_hu": "",
            "name_id": "Paroki Saint Paul",
            "name_it": "Parrocchia di Saint Paul",
            "name_ja": "\u00e3\u0082\u00bb\u00e3\u0083\u00b3\u00e3\u0083\u0088\u00e3\u0083\u00bb\u00e3\u0083\u009d\u00e3\u0083\u00bc\u00e3\u0083\u00ab",
            "name_ko": "\u00ec\u0084\u00b8\u00ec\u009d\u00b8\u00ed\u008a\u00b8\u00ed\u008f\u00b4 \u00ea\u00b5\u0090\u00ea\u00b5\u00ac",
            "name_len": "10",
            "name_local": "",
            "name_nl": "Saint Paul",
            "name_pl": "Parafia \u00c5\u009bw. Paw\u00c5\u0082a na Dominice",
            "name_pt": "Saint Paul",
            "name_ru": "\u00d0\u009f\u00d1\u0080\u00d0\u00b8\u00d1\u0085\u00d0\u00be\u00d0\u00b4 \u00d0\u00a1\u00d0\u00b5\u00d0\u00bd\u00d1\u0082-\u00d0\u009f\u00d0\u00be\u00d0\u00bb",
            "name_sv": "Saint Paul",
            "name_tr": "Saint Paul Parish",
            "name_vi": "Gi\u00c3\u00a1o x\u00e1\u00bb\u00a9 Saint Paul",
            "name_zh": "\u00e8\u0081\u0096\u00e4\u00bf\u009d\u00e7\u00be\u0085\u00e5\u00a0\u0082\u00e5\u008d\u0080",
            "ne_id": "1159311623",
            "note": "",
            "provnum_ne": "6",
            "record_type": "state",
            "region": "",
            "region_cod": "",
            "region_sub": "",
            "sameascity": "-99",
            "scalerank": "10",
            "sov_a3": "DMA",
            "sub_code": "",
            "wikidataid": "Q339063",
            "wikipedia": "",
            "woe_id": "2345169",
            "woe_label": "Saint Paul, DM, Dominica",
            "woe_name": "Saint Paul"
        },
        "geo": {
            "latitude": 15.3756073,
            "longitude": -61.3618529,
            "max_latitude": 15.415029,
            "max_longitude": -61.3198599,
            "min_latitude": 15.3193611,
            "min_longitude": -61.421957
        },
        "iso_3166_2": "DM-10",
        "iso_a2": "DM",
        "iso_a3": "DMA",
        "name": "Saint Paul",
        "postal": "10",
        "type": "Parish",
        "type_en": "Parish"
    },
    "11": {
        "alt_names": [
            "Saint Peter"
        ],
        "cca2": "DM",
        "cca3": "DMA",
        "code_hasc": "DM.PR",
        "extra": {
            "abbrev": "",
            "adm0_a3": "DMA",
            "adm0_label": "7",
            "adm0_sr": "1",
            "adm1_code": "DMA-1441",
            "admin": "Dominica",
            "area_sqkm": "0",
            "check_me": "0",
            "code_local": "",
            "data_sources": [
                "natural"
            ],
            "datarank": "8",
            "diss_me": "1441",
            "featurecla": "Admin-1 scale rank",
            "fips": "DO11",
            "fips_alt": "",
            "gadm_level": "1",
            "geonunit": "Dominica",
            "gn_a1_code": "DM.11",
            "gn_id": "3575618",
            "gn_level": "1",
            "gn_name": "Saint Peter",
            "gn_region": "",
            "gns_adm1": "DO11",
            "gns_id": "-1352361",
            "gns_lang": "eng",
            "gns_level": "1",
            "gns_name": "Saint Peter",
            "gns_region": "",
            "gu_a3": "DMA",
            "hasc_maybe": "",
            "labelrank": "10",
            "mapcolor9": "2",
            "mapcolor13": "12",
            "max_label": "11.0",
            "min_label": "11.0",
            "min_zoom": "11.0",
            "name_ar": "\u00d8\u00a3\u00d8\u00a8\u00d8\u00b1\u00d8\u00b4\u00d9\u008a\u00d8\u00a9 \u00d8\u00a7\u00d9\u0084\u00d9\u0082\u00d8\u00af\u00d9\u008a\u00d8\u00b3 \u00d8\u00a8\u00d9\u008a\u00d8\u00aa\u00d8\u00b1",
            "name_bn": "\u00e0\u00a6\u00b8\u00e0\u00a7\u0087\u00e0\u00a6\u00a8\u00e0\u00a7\u008d\u00e0\u00a6\u009f \u00e0\u00a6\u00aa\u00e0\u00a6\u00bf\u00e0\u00a6\u009f\u00e0\u00a6\u00be\u00e0\u00a6\u00b0 \u00e0\u00a6\u00aa\u00e0\u00a7\u008d\u00e0\u00a6\u00af\u00e0\u00a6\u00be\u00e0\u00a6\u00b0\u00e0\u00a6\u00bf\u00e0\u00a6\u00b6",
            "name_de": "Saint Peter",
            "name_el": "\u00ce\u0086\u00ce\u00b3\u00ce\u00b9\u00ce\u00bf\u00cf\u0082 \u00ce\u00a0\u00ce\u00ad\u00cf\u0084\u00cf\u0081\u00ce\u00bf\u00cf\u0082",
            "name_en": "Saint Peter Parish",
            "name_es": "Parroquia de Saint Peter",
            "name_fr": "Saint-Peter",
            "name_hi": "\u00e0\u00a4\u00b8\u00e0\u00a5\u0087\u00e0\u00a4\u0082\u00e0\u00a4\u009f \u00e0\u00a4\u00aa\u00e0\u00a5\u0080\u00e0\u00a4\u009f\u00e0\u00a4\u00b0 \u00e0\u00a4\u00aa\u00e0\u00a5\u0088\u00e0\u00a4\u00b0\u00e0\u00a4\u00bf\u00e0\u00a4\u00b6",
            "name_hu": "",
            "name_id": "Paroki Saint Peter",
            "name_it": "Parrocchia di Saint Peter",
            "name_ja": "\u00e3\u0082\u00bb\u00e3\u0083\u00b3\u00e3\u0083\u0088\u00e3\u0083\u00bb\u00e3\u0083\u0094\u00e3\u0083\u00bc\u00e3\u0082\u00bf\u00e3\u0083\u00bc",
            "name_ko": "\u00ec\u0084\u00b8\u00ec\u009d\u00b8\u00ed\u008a\u00b8\u00ed\u0094\u00bc\u00ed\u0084\u00b0 \u00ea\u00b5\u0090\u00ea\u00b5\u00ac",
            "name_len": "11",
            "name_local": "",
            "name_nl": "Saint Peter",
            "name_pl": "Parafia \u00c5\u009bw. Piotra na Dominice",
            "name_pt": "Saint Peter",
            "name_ru": "\u00d0\u009f\u00d1\u0080\u00d0\u00b8\u00d1\u0085\u00d0\u00be\u00d0\u00b4 \u00d0\u00a1\u00d0\u00b5\u00d0\u00bd\u00d1\u0082-\u00d0\u009f\u00d0\u00b8\u00d1\u0082\u00d0\u00b5\u00d1\u0080",
            "name_sv": "Saint Peter",
            "name_tr": "Saint Peter Parish",
            "name_vi": "Gi\u00c3\u00a1o x\u00e1\u00bb\u00a9 Saint Peter",
            "name_zh": "\u00e8\u0081\u0096\u00e5\u00bd\u00bc\u00e5\u00be\u0097\u00e5\u00a0\u0082\u00e5\u008d\u0080",
            "ne_id": "1159311625",
            "note": "",
            "provnum_ne": "9",
            "record_type": "state",
            "region": "",
            "region_cod": "",
            "region_sub": "",
            "sameascity": "-99",
            "scalerank": "10",
            "sov_a3": "DMA",
            "sub_code": "",
            "wikidataid": "Q1476294",
            "wikipedia": "",
            "woe_id": "2345170",
            "woe_label": "Saint Peter, DM, Dominica",
            "woe_name": "Saint Peter"
        },
        "geo": {
            "latitude": 15.5098288,
            "longitude": -61.4493842,
            "max_latitude": 15.541238,
            "max_longitude": -61.399768,
            "min_latitude": 15.46307,
            "min_longitude": -61.478264
        },
        "iso_3166_2": "DM-11",
        "iso_a2": "DM",
        "iso_a3": "DMA",
        "name": "Saint Peter",
        "postal": "11",
        "type": "Parish",
        "type_en": "Parish"
    }
}