{
    "KSA": {
        "alt_names": [
            "Kosrae"
        ],
        "cca2": "FM",
        "cca3": "FSM",
        "code_hasc": "FM.KO",
        "extra": {
            "abbrev": "",
            "adm0_a3": "FSM",
            "adm0_label": "5",
            "adm0_sr": "5",
            "adm1_code": "FSM-4944",
            "admin": "Federated States of Micronesia",
            "area_sqkm": "0",
            "check_me": "0",
            "code_local": "",
            "data_sources": [
                "natural"
            ],
            "datarank": "10",
            "diss_me": "4944",
            "featurecla": "Admin-1 scale rank",
            "fips": "FM01",
            "fips_alt": "",
            "gadm_level": "0",
            "geonunit": "Federated States of Micronesia",
            "gn_a1_code": "FM.01",
            "gn_id": "2082036",
            "gn_level": "1",
            "gn_name": "State of Kosrae",
            "gn_region": "",
            "gns_adm1": "FM01",
            "gns_id": "-3740147",
            "gns_lang": "",
            "gns_level": "1",
            "gns_name": "Kosrae",
            "gns_region": "",
            "gu_a3": "FSM",
            "hasc_maybe": "",
            "labelrank": "20",
            "mapcolor9": "4",
            "mapcolor13": "13",
            "max_label": "11.0",
            "min_label": "11.0",
            "min_zoom": "11.0",
            "name_ar": "\u00d9\u0083\u00d9\u0088\u00d8\u00b3\u00d8\u00b1\u00d8\u00a7\u00d9\u008a",
            "name_bn": "\u00e0\u00a6\u0095\u00e0\u00a6\u00b8\u00e0\u00a6\u00b0\u00e0\u00a7\u0087",
            "name_de": "Kosrae",
            "name_el": "\u00ce\u009a\u00cf\u008c\u00cf\u0083\u00cf\u0081\u00ce\u00b1\u00ce\u00b5",
            "name_en": "Kosrae",
            "name_es": "Kosrae",
            "name_fr": "Kosrae",
            "name_hi": "\u00e0\u00a4\u0095\u00e0\u00a5\u008b\u00e0\u00a4\u00b6\u00e0\u00a4\u00b0\u00e0\u00a4\u00be\u00e0\u00a4\u00af \u00e0\u00a4\u00b0\u00e0\u00a4\u00be\u00e0\u00a4\u009c\u00e0\u00a5\u008d\u00e0\u00a4\u00af",
            "name_hu": "Kosrae-sziget",
            "name_id": "Kosrae",
            "name_it": "Kosrae",
            "name_ja": "\u00e3\u0082\u00b3\u00e3\u0082\u00b9\u00e3\u0083\u00a9\u00e3\u0082\u00a8\u00e5\u00b7\u009e",
            "name_ko": "\u00ec\u00bd\u0094\u00ec\u008a\u00a4\u00eb\u009d\u00bc\u00ec\u0097\u0090 \u00ec\u00a3\u00bc",
            "name_len": "6",
            "name_local": "",
            "name_nl": "Kosrae",
            "name_pl": "Kosrae",
            "name_pt": "Kosrae",
            "name_ru": "\u00d0\u009a\u00d1\u0083\u00d1\u0081\u00d0\u00b0\u00d0\u00b8\u00d0\u00b5",
            "name_sv": "Kosrae",
            "name_tr": "Kosrae",
            "name_vi": "Kosrae",
            "name_zh": "\u00e7\u00a7\u0091\u00e6\u0096\u00af\u00e9\u009b\u00b7",
            "ne_id": "1159316115",
            "note": "",
            "provnum_ne": "0",
            "record_type": "state",
            "region": "",
            "region_cod": "",
            "region_sub": "",
            "sameascity": "-99",
            "scalerank": "10",
            "sov_a3": "FSM",
            "sub_code": "",
            "wikidataid": "Q459848",
            "wikipedia": "http:\/\/en.wikipedia.org\/wiki\/Kosrae",
            "woe_id": "2345340",
            "woe_label": "Kosrae, FM, Federated States of Micronesia",
            "woe_name": "Kosrae"
        },
        "geo": {
            "latitude": 5.3095618,
            "longitude": 162.9814877,
            "max_latitude": 5.369902,
            "max_longitude": 163.0340409,
            "min_latitude": 5.2598661,
            "min_longitude": 162.9055629
        },
        "iso_3166_2": "FM-KSA",
        "iso_a2": "FM",
        "iso_a3": "FSM",
        "name": "Kosrae",
        "postal": "KSA",
        "type": "",
        "type_en": ""
    },
    "PNI": {
        "alt_names": [
            "Ascension",
            "Ponape"
        ],
        "cca2": "FM",
        "cca3": "FSM",
        "code_hasc": "FM.PO",
        "extra": {
            "abbrev": "",
            "adm0_a3": "FSM",
            "adm0_label": "5",
            "adm0_sr": "5",
            "adm1_code": "FSM-4941",
            "admin": "Federated States of Micronesia",
            "area_sqkm": "0",
            "check_me": "0",
            "code_local": "",
            "data_sources": [
                "natural"
            ],
            "datarank": "10",
            "diss_me": "4941",
            "featurecla": "Admin-1 scale rank",
            "fips": "FM02",
            "fips_alt": "",
            "gadm_level": "0",
            "geonunit": "Federated States of Micronesia",
            "gn_a1_code": "FM.02",
            "gn_id": "2081550",
            "gn_level": "1",
            "gn_name": "State of Pohnpei",
            "gn_region": "",
            "gns_adm1": "FM02",
            "gns_id": "-3740856",
            "gns_lang": "",
            "gns_level": "1",
            "gns_name": "Pohnpei, State of",
            "gns_region": "",
            "gu_a3": "FSM",
            "hasc_maybe": "",
            "labelrank": "20",
            "mapcolor9": "4",
            "mapcolor13": "13",
            "max_label": "11.0",
            "min_label": "11.0",
            "min_zoom": "11.0",
            "name_ar": "\u00d9\u0088\u00d9\u0084\u00d8\u00a7\u00d9\u008a\u00d8\u00a9 \u00d8\u00a8\u00d9\u0088\u00d9\u0087\u00d9\u0086\u00d8\u00a8\u00d9\u008a",
            "name_bn": "\u00e0\u00a6\u00aa\u00e0\u00a7\u008b\u00e0\u00a6\u00b9\u00e0\u00a7\u0087\u00e0\u00a6\u00a8\u00e0\u00a7\u008d\u00e0\u00a6\u00aa\u00e0\u00a6\u00bf \u00e0\u00a6\u0085\u00e0\u00a6\u0099\u00e0\u00a7\u008d\u00e0\u00a6\u0097\u00e0\u00a6\u00b0\u00e0\u00a6\u00be\u00e0\u00a6\u009c\u00e0\u00a7\u008d\u00e0\u00a6\u00af",
            "name_de": "Bundesstaat Pohnpei",
            "name_el": "\u00ce\u00a0\u00ce\u00bf\u00cf\u0087\u00ce\u00bd\u00cf\u0080\u00ce\u00ad\u00ce\u00b9",
            "name_en": "Pohnpei State",
            "name_es": "Pohnpei",
            "name_fr": "Pohnpei",
            "name_hi": "\u00e0\u00a4\u00aa\u00e0\u00a5\u008b\u00e0\u00a4\u00b9\u00e0\u00a5\u008d\u00e0\u00a4\u00a8\u00e0\u00a4\u00aa\u00e0\u00a5\u0087\u00e0\u00a4\u0087 \u00e0\u00a4\u00b0\u00e0\u00a4\u00be\u00e0\u00a4\u009c\u00e0\u00a5\u008d\u00e0\u00a4\u00af",
            "name_hu": "",
            "name_id": "Negara bagian Pohnpei",
            "name_it": "Pohnpei",
            "name_ja": "\u00e3\u0083\u009d\u00e3\u0083\u00b3\u00e3\u0083\u009a\u00e3\u0082\u00a4\u00e5\u00b7\u009e",
            "name_ko": "\u00ed\u008f\u00b0\u00ed\u008e\u0098\u00ec\u009d\u00b4 \u00ec\u00a3\u00bc",
            "name_len": "7",
            "name_local": "",
            "name_nl": "Pohnpei",
            "name_pl": "Pohnpei",
            "name_pt": "Pohnpei",
            "name_ru": "\u00d0\u009f\u00d0\u00be\u00d0\u00bd\u00d0\u00bf\u00d0\u00b5\u00d0\u00b8",
            "name_sv": "Pohnpei State",
            "name_tr": "Pohnpei Eyaleti",
            "name_vi": "Bang Pohnpei",
            "name_zh": "\u00e6\u00b3\u00a2\u00e7\u00ba\u00b3\u00e4\u00bd\u00a9\u00e5\u00b7\u009e",
            "ne_id": "1159315521",
            "note": "",
            "provnum_ne": "0",
            "record_type": "state",
            "region": "",
            "region_cod": "",
            "region_sub": "",
            "sameascity": "-99",
            "scalerank": "10",
            "sov_a3": "FSM",
            "sub_code": "",
            "wikidataid": "Q7771127",
            "wikipedia": "http:\/\/en.wikipedia.org\/wiki\/Pohnpei_State",
            "woe_id": "2345341",
            "woe_label": "Pohnpei, FM, Federated States of Micronesia",
            "woe_name": "Pohnpei"
        },
        "geo": {
            "latitude": 6.9257399,
            "longitude": 158.1626343,
            "max_latitude": null,
            "max_longitude": null,
            "min_latitude": null,
            "min_longitude": null
        },
        "iso_3166_2": "FM-PNI",
        "iso_a2": "FM",
        "iso_a3": "FSM",
        "name": "Pohnpei",
        "postal": "PNI",
        "type": "",
        "type_en": ""
    },
    "TRK": {
        "alt_names": [
            "Chuk",
            "Hogoley Islands",
            "Truk"
        ],
        "cca2": "FM",
        "cca3": "FSM",
        "code_hasc": "FM.CH",
        "extra": {
            "abbrev": "",
            "adm0_a3": "FSM",
            "adm0_label": "5",
            "adm0_sr": "5",
            "adm1_code": "FSM-4942",
            "admin": "Federated States of Micronesia",
            "area_sqkm": "0",
            "check_me": "0",
            "code_local": "",
            "data_sources": [
                "natural"
            ],
            "datarank": "10",
            "diss_me": "4942",
            "featurecla": "Admin-1 scale rank",
            "fips": "FM03",
            "fips_alt": "",
            "gadm_level": "0",
            "geonunit": "Federated States of Micronesia",
            "gn_a1_code": "FM.03",
            "gn_id": "2082282",
            "gn_level": "1",
            "gn_name": "State of Chuuk",
            "gn_region": "",
            "gns_adm1": "FM03",
            "gns_id": "-3739665",
            "gns_lang": "",
            "gns_level": "1",
            "gns_name": "Chuuk, State of",
            "gns_region": "",
            "gu_a3": "FSM",
            "hasc_maybe": "",
            "labelrank": "20",
            "mapcolor9": "4",
            "mapcolor13": "13",
            "max_label": "11.0",
            "min_label": "11.0",
            "min_zoom": "11.0",
            "name_ar": "\u00d9\u0088\u00d9\u0084\u00d8\u00a7\u00d9\u008a\u00d8\u00a9 \u00d8\u00aa\u00d8\u00b4\u00d9\u0088\u00d9\u0083",
            "name_bn": "\u00e0\u00a6\u009a\u00e0\u00a7\u0081\u00e0\u00a7\u0081\u00e0\u00a6\u0095 \u00e0\u00a6\u00b0\u00e0\u00a6\u00be\u00e0\u00a6\u009c\u00e0\u00a7\u008d\u00e0\u00a6\u00af",
            "name_de": "Bundesstaat Chuuk",
            "name_el": "\u00ce\u00a4\u00cf\u0083\u00ce\u00bf\u00cf\u0085\u00ce\u00bf\u00cf\u008d\u00ce\u00ba",
            "name_en": "Chuuk State",
            "name_es": "Chuuk",
            "name_fr": "Chuuk",
            "name_hi": "\u00e0\u00a4\u009a\u00e0\u00a5\u0082\u00e0\u00a4\u0095 \u00e0\u00a4\u00b0\u00e0\u00a4\u00be\u00e0\u00a4\u009c\u00e0\u00a5\u008d\u00e0\u00a4\u00af",
            "name_hu": "",
            "name_id": "Chuuk",
            "name_it": "Chuuk",
            "name_ja": "\u00e3\u0083\u0081\u00e3\u0083\u00a5\u00e3\u0083\u00bc\u00e3\u0082\u00af\u00e5\u00b7\u009e",
            "name_ko": "\u00ec\u00b6\u0094\u00ed\u0081\u00ac \u00ec\u00a3\u00bc",
            "name_len": "5",
            "name_local": "",
            "name_nl": "Chuuk",
            "name_pl": "Chuuk",
            "name_pt": "Chuuk",
            "name_ru": "\u00d0\u00a2\u00d1\u0080\u00d1\u0083\u00d0\u00ba",
            "name_sv": "Chuuk",
            "name_tr": "Chuuk",
            "name_vi": "Chuuk",
            "name_zh": "\u00e6\u00a5\u009a\u00e5\u0085\u008b",
            "ne_id": "1159316111",
            "note": "",
            "provnum_ne": "0",
            "record_type": "state",
            "region": "",
            "region_cod": "",
            "region_sub": "",
            "sameascity": "-99",
            "scalerank": "10",
            "sov_a3": "FSM",
            "sub_code": "",
            "wikidataid": "Q221684",
            "wikipedia": "http:\/\/en.wikipedia.org\/wiki\/Chuuk_State",
            "woe_id": "2345342",
            "woe_label": "Chuuk, FM, Federated States of Micronesia",
            "woe_name": "Chuuk"
        },
        "geo": {
            "latitude": 7.355422,
            "longitude": 151.5962883,
            "max_latitude": 8.6906948,
            "max_longitude": 153.82193,
            "min_latitude": 5.2847223,
            "min_longitude": 149.296683
        },
        "iso_3166_2": "FM-TRK",
        "iso_a2": "FM",
        "iso_a3": "FSM",
        "name": "Chuuk",
        "postal": "TRK",
        "type": "",
        "type_en": ""
    },
    "YAP": {
        "alt_names": [
            "Yap"
        ],
        "cca2": "FM",
        "cca3": "FSM",
        "code_hasc": "FM.YA",
        "extra": {
            "abbrev": "",
            "adm0_a3": "FSM",
            "adm0_label": "5",
            "adm0_sr": "5",
            "adm1_code": "FSM-4943",
            "admin": "Federated States of Micronesia",
            "area_sqkm": "0",
            "check_me": "0",
            "code_local": "",
            "data_sources": [
                "natural"
            ],
            "datarank": "10",
            "diss_me": "4943",
            "featurecla": "Admin-1 scale rank",
            "fips": "FM04",
            "fips_alt": "",
            "gadm_level": "0",
            "geonunit": "Federated States of Micronesia",
            "gn_a1_code": "FM.04",
            "gn_id": "2081175",
            "gn_level": "1",
            "gn_name": "State of Yap",
            "gn_region": "",
            "gns_adm1": "FM04",
            "gns_id": "-3741502",
            "gns_lang": "",
            "gns_level": "1",
            "gns_name": "Yap, State of",
            "gns_region": "",
            "gu_a3": "FSM",
            "hasc_maybe": "",
            "labelrank": "20",
            "mapcolor9": "4",
            "mapcolor13": "13",
            "max_label": "11.0",
            "min_label": "11.0",
            "min_zoom": "11.0",
            "name_ar": "",
            "name_bn": "",
            "name_de": "Bundesstaat Yap",
            "name_el": "",
            "name_en": "Yap State",
            "name_es": "",
            "name_fr": "Yap",
            "name_hi": "\u00e0\u00a4\u00af\u00e0\u00a4\u00be\u00e0\u00a4\u00aa \u00e0\u00a4\u00b0\u00e0\u00a4\u00be\u00e0\u00a4\u009c\u00e0\u00a5\u008d\u00e0\u00a4\u00af",
            "name_hu": "",
            "name_id": "",
            "name_it": "",
            "name_ja": "\u00e3\u0083\u00a4\u00e3\u0083\u0083\u00e3\u0083\u0097\u00e5\u00b7\u009e",
            "name_ko": "\u00ec\u0095\u00bc\u00ed\u0094\u0084 \u00ec\u00a3\u00bc",
            "name_len": "3",
            "name_local": "",
            "name_nl": "",
            "name_pl": "Yap",
            "name_pt": "",
            "name_ru": "\u00d0\u00af\u00d0\u00bf",
            "name_sv": "",
            "name_tr": "",
            "name_vi": "",
            "name_zh": "\u00e9\u009b\u0085\u00e6\u00b5\u00a6\u00e5\u00b7\u009e",
            "ne_id": "1159316113",
            "note": "",
            "provnum_ne": "0",
            "record_type": "state",
            "region": "",
            "region_cod": "",
            "region_sub": "",
            "sameascity": "-99",
            "scalerank": "10",
            "sov_a3": "FSM",
            "sub_code": "",
            "wikidataid": "Q11342951",
            "wikipedia": "http:\/\/en.wikipedia.org\/wiki\/Yap_State",
            "woe_id": "2345343",
            "woe_label": "Yap, FM, Federated States of Micronesia",
            "woe_name": "Yap"
        },
        "geo": {
            "latitude": 9.5391372,
            "longitude": 138.1258916,
            "max_latitude": 10.0220783,
            "max_longitude": 143.9119613,
            "min_latitude": 7.3238806,
            "min_longitude": 138.0550362
        },
        "iso_3166_2": "FM-YAP",
        "iso_a2": "FM",
        "iso_a3": "FSM",
        "name": "Yap",
        "postal": "YAP",
        "type": "",
        "type_en": ""
    }
}