{
    "B": {
        "alt_names": [
            "Banjul"
        ],
        "cca2": "GM",
        "cca3": "GMB",
        "code_hasc": "GM.BJ",
        "extra": {
            "abbrev": "",
            "adm0_a3": "GMB",
            "adm0_label": "5",
            "adm0_sr": "1",
            "adm1_code": "GMB-2153",
            "admin": "Gambia",
            "area_sqkm": "0",
            "check_me": "10",
            "code_local": "",
            "data_sources": [
                "natural"
            ],
            "datarank": "8",
            "diss_me": "2153",
            "featurecla": "Admin-1 scale rank",
            "fips": "GA01",
            "fips_alt": "",
            "gadm_level": "1",
            "geonunit": "Gambia",
            "gn_a1_code": "GM.01",
            "gn_id": "2413875",
            "gn_level": "1",
            "gn_name": "City of Banjul",
            "gn_region": "",
            "gns_adm1": "GA01",
            "gns_id": "-1199435",
            "gns_lang": "fra",
            "gns_level": "1",
            "gns_name": "Banjul",
            "gns_region": "",
            "gu_a3": "GMB",
            "hasc_maybe": "",
            "labelrank": "6",
            "mapcolor9": "1",
            "mapcolor13": "8",
            "max_label": "11.0",
            "min_label": "8.0",
            "min_zoom": "8.0",
            "name_ar": "\u00d8\u00a8\u00d8\u00a7\u00d9\u0086\u00d8\u00ac\u00d9\u0088\u00d9\u0084",
            "name_bn": "\u00e0\u00a6\u00ac\u00e0\u00a6\u00be\u00e0\u00a6\u00a8\u00e0\u00a6\u009c\u00e0\u00a7\u0081\u00e0\u00a6\u00b2",
            "name_de": "Banjul",
            "name_el": "\u00ce\u009c\u00cf\u0080\u00ce\u00b1\u00ce\u00bd\u00ce\u00b6\u00ce\u00bf\u00cf\u008d\u00ce\u00bb",
            "name_en": "Banjul",
            "name_es": "Banjul",
            "name_fr": "Banjul",
            "name_hi": "\u00e0\u00a4\u00ac\u00e0\u00a4\u00be\u00e0\u00a4\u009e\u00e0\u00a5\u008d\u00e0\u00a4\u009c\u00e0\u00a5\u0081\u00e0\u00a4\u00b2",
            "name_hu": "Banjul",
            "name_id": "Banjul",
            "name_it": "Banjul",
            "name_ja": "\u00e3\u0083\u0090\u00e3\u0083\u00b3\u00e3\u0082\u00b8\u00e3\u0083\u00a5\u00e3\u0083\u00bc\u00e3\u0083\u00ab",
            "name_ko": "\u00eb\u00b0\u0098\u00ec\u00a4\u0084",
            "name_len": "6",
            "name_local": "",
            "name_nl": "Banjul",
            "name_pl": "Band\u00c5\u00bcul",
            "name_pt": "Banjul",
            "name_ru": "\u00d0\u0091\u00d0\u00b0\u00d0\u00bd\u00d0\u00b6\u00d1\u0083\u00d0\u00bb",
            "name_sv": "Banjul",
            "name_tr": "Banjul",
            "name_vi": "Banjul",
            "name_zh": "\u00e7\u008f\u00ad\u00e7\u00ab\u00b9",
            "ne_id": "1159311545",
            "note": "",
            "provnum_ne": "4",
            "record_type": "state",
            "region": "",
            "region_cod": "",
            "region_sub": "",
            "sameascity": "7",
            "scalerank": "5",
            "sov_a3": "GMB",
            "sub_code": "",
            "wikidataid": "Q3726",
            "wikipedia": "http:\/\/en.wikipedia.org\/wiki\/Banjul",
            "woe_id": "2345443",
            "woe_label": "Banjul, GM, The Gambia",
            "woe_name": "Banjul"
        },
        "geo": {
            "latitude": 13.453056,
            "longitude": -16.5775,
            "max_latitude": 13.4625844,
            "max_longitude": -16.5703587,
            "min_latitude": 13.4424473,
            "min_longitude": -16.5906966
        },
        "iso_3166_2": "GM-B",
        "iso_a2": "GM",
        "iso_a3": "GMB",
        "name": "Banjul",
        "postal": "B",
        "type": "Independent City",
        "type_en": "Independent City"
    },
    "L": {
        "alt_names": [
            "Lower River"
        ],
        "cca2": "GM",
        "cca3": "GMB",
        "code_hasc": "GM.LR",
        "extra": {
            "abbrev": "LRR",
            "adm0_a3": "GMB",
            "adm0_label": "5",
            "adm0_sr": "1",
            "adm1_code": "GMB-2154",
            "admin": "Gambia",
            "area_sqkm": "0",
            "check_me": "0",
            "code_local": "",
            "data_sources": [
                "natural"
            ],
            "datarank": "8",
            "diss_me": "2154",
            "featurecla": "Admin-1 scale rank",
            "fips": "GA02",
            "fips_alt": "",
            "gadm_level": "1",
            "geonunit": "Gambia",
            "gn_a1_code": "GM.02",
            "gn_id": "2412716",
            "gn_level": "1",
            "gn_name": "Lower River Division",
            "gn_region": "",
            "gns_adm1": "GA02",
            "gns_id": "-1200598",
            "gns_lang": "fra",
            "gns_level": "1",
            "gns_name": "Lower River",
            "gns_region": "",
            "gu_a3": "GMB",
            "hasc_maybe": "",
            "labelrank": "6",
            "mapcolor9": "1",
            "mapcolor13": "8",
            "max_label": "11.0",
            "min_label": "8.0",
            "min_zoom": "8.0",
            "name_ar": "\u00d8\u00b4\u00d8\u00b9\u00d8\u00a8\u00d8\u00a9 \u00d8\u00a7\u00d9\u0084\u00d9\u0086\u00d9\u0087\u00d8\u00b1 \u00d8\u00a7\u00d9\u0084\u00d8\u00b3\u00d9\u0081\u00d9\u0084\u00d9\u0089",
            "name_bn": "\u00e0\u00a6\u00b2\u00e0\u00a7\u008b\u00e0\u00a6\u00af\u00e0\u00a6\u00bc\u00e0\u00a6\u00be\u00e0\u00a6\u00b0 \u00e0\u00a6\u00b0\u00e0\u00a6\u00bf\u00e0\u00a6\u00ad\u00e0\u00a6\u00be\u00e0\u00a6\u00b0 \u00e0\u00a6\u00a1\u00e0\u00a6\u00bf\u00e0\u00a6\u00ad\u00e0\u00a6\u00bf\u00e0\u00a6\u00b6\u00e0\u00a6\u00a8",
            "name_de": "Lower River Region",
            "name_el": "\u00ce\u009a\u00ce\u00ac\u00cf\u0084\u00cf\u0089 \u00ce\u00a0\u00ce\u00bf\u00cf\u0084\u00ce\u00b1\u00ce\u00bc\u00cf\u008c\u00cf\u0082",
            "name_en": "Lower River Division",
            "name_es": "Divisi\u00c3\u00b3n Lower River",
            "name_fr": "Division de Lower River",
            "name_hi": "\u00e0\u00a4\u00a8\u00e0\u00a4\u00bf\u00e0\u00a4\u009a\u00e0\u00a4\u00b2\u00e0\u00a4\u00be \u00e0\u00a4\u00a8\u00e0\u00a4\u00a6\u00e0\u00a5\u0080 \u00e0\u00a4\u00b5\u00e0\u00a4\u00bf\u00e0\u00a4\u00ad\u00e0\u00a4\u00be\u00e0\u00a4\u0097",
            "name_hu": "",
            "name_id": "Lower River Division",
            "name_it": "divisione del Lower River",
            "name_ja": "\u00e3\u0082\u00ac\u00e3\u0083\u00b3\u00e3\u0083\u0093\u00e3\u0082\u00a2\u00e5\u00b7\u009d\u00e4\u00b8\u008b\u00e6\u00b5\u0081\u00e5\u009c\u00b0\u00e6\u0096\u00b9",
            "name_ko": "\u00eb\u00a1\u009c\u00ec\u0096\u00b4\u00eb\u00a6\u00ac\u00eb\u00b2\u0084 \u00ea\u00b5\u00ac",
            "name_len": "11",
            "name_local": "",
            "name_nl": "Lower River",
            "name_pl": "Lower River Division",
            "name_pt": "Lower River",
            "name_ru": "\u00d0\u009d\u00d0\u00b8\u00d0\u00b6\u00d0\u00bd\u00d1\u008f\u00d1\u008f \u00d0\u00a0\u00d0\u00b5\u00d0\u00ba\u00d0\u00b0",
            "name_sv": "Lower River Division",
            "name_tr": "Lower River B\u00c3\u00b6lgesi",
            "name_vi": "Ph\u00c3\u00a2n v\u00c3\u00b9ng H\u00e1\u00ba\u00a1 ngu\u00e1\u00bb\u0093n S\u00c3\u00b4ng",
            "name_zh": "\u00e4\u00b8\u008b\u00e6\u00b2\u00b3\u00e5\u008d\u0080",
            "ne_id": "1159311547",
            "note": "",
            "provnum_ne": "1",
            "record_type": "state",
            "region": "",
            "region_cod": "",
            "region_sub": "",
            "sameascity": "-99",
            "scalerank": "5",
            "sov_a3": "GMB",
            "sub_code": "",
            "wikidataid": "Q824421",
            "wikipedia": "http:\/\/en.wikipedia.org\/wiki\/Lower_River_Division",
            "woe_id": "2345444",
            "woe_label": "Lower River, GM, The Gambia",
            "woe_name": "Lower River"
        },
        "geo": {
            "latitude": 13.3553306,
            "longitude": -15.92299,
            "max_latitude": 13.554205,
            "max_longitude": -15.1831621,
            "min_latitude": 13.237656,
            "min_longitude": -16.2310245
        },
        "iso_3166_2": "GM-L",
        "iso_a2": "GM",
        "iso_a3": "GMB",
        "name": "Lower River",
        "postal": "L",
        "type": "Division",
        "type_en": "Division"
    },
    "M": {
        "alt_names": [
            "MacCarthy Island"
        ],
        "cca2": "GM",
        "cca3": "GMB",
        "code_hasc": "GM.MC",
        "extra": {
            "abbrev": "CRR",
            "adm0_a3": "GMB",
            "adm0_label": "5",
            "adm0_sr": "1",
            "adm1_code": "GMB-2151",
            "admin": "Gambia",
            "area_sqkm": "0",
            "check_me": "0",
            "code_local": "",
            "data_sources": [
                "natural"
            ],
            "datarank": "8",
            "diss_me": "2151",
            "featurecla": "Admin-1 scale rank",
            "fips": "GA03",
            "fips_alt": "",
            "gadm_level": "1",
            "geonunit": "Gambia",
            "gn_a1_code": "GM.03",
            "gn_id": "2412707",
            "gn_level": "1",
            "gn_name": "Central River Division",
            "gn_region": "",
            "gns_adm1": "GA03",
            "gns_id": "-1200607",
            "gns_lang": "fra",
            "gns_level": "1",
            "gns_name": "Central River",
            "gns_region": "",
            "gu_a3": "GMB",
            "hasc_maybe": "",
            "labelrank": "6",
            "mapcolor9": "1",
            "mapcolor13": "8",
            "max_label": "11.0",
            "min_label": "8.0",
            "min_zoom": "8.0",
            "name_ar": "\u00d8\u00b4\u00d8\u00b9\u00d8\u00a8\u00d8\u00a9 \u00d8\u00a7\u00d9\u0084\u00d9\u0086\u00d9\u0087\u00d8\u00b1 \u00d8\u00a7\u00d9\u0084\u00d9\u0085\u00d8\u00b1\u00d9\u0083\u00d8\u00b2\u00d9\u008a",
            "name_bn": "\u00e0\u00a6\u00b8\u00e0\u00a7\u0087\u00e0\u00a6\u00a8\u00e0\u00a7\u008d\u00e0\u00a6\u009f\u00e0\u00a7\u008d\u00e0\u00a6\u00b0\u00e0\u00a6\u00be\u00e0\u00a6\u00b2 \u00e0\u00a6\u00b0\u00e0\u00a6\u00bf\u00e0\u00a6\u00ad\u00e0\u00a6\u00be\u00e0\u00a6\u00b0 \u00e0\u00a6\u00a1\u00e0\u00a6\u00bf\u00e0\u00a6\u00ad\u00e0\u00a6\u00bf\u00e0\u00a6\u00b6\u00e0\u00a6\u00a8",
            "name_de": "Central River Region",
            "name_el": "\u00ce\u009a\u00ce\u00b5\u00ce\u00bd\u00cf\u0084\u00cf\u0081\u00ce\u00b9\u00ce\u00ba\u00cf\u008c\u00cf\u0082 \u00ce\u00a0\u00ce\u00bf\u00cf\u0084\u00ce\u00b1\u00ce\u00bc\u00cf\u008c\u00cf\u0082",
            "name_en": "Central River Division",
            "name_es": "Divisi\u00c3\u00b3n Central River",
            "name_fr": "division de Central River",
            "name_hi": "\u00e0\u00a4\u0095\u00e0\u00a5\u0087\u00e0\u00a4\u0082\u00e0\u00a4\u00a6\u00e0\u00a5\u008d\u00e0\u00a4\u00b0\u00e0\u00a5\u0080\u00e0\u00a4\u00af \u00e0\u00a4\u00a8\u00e0\u00a4\u00a6\u00e0\u00a5\u0080 \u00e0\u00a4\u00ae\u00e0\u00a4\u0082\u00e0\u00a4\u00a1\u00e0\u00a4\u00b2",
            "name_hu": "",
            "name_id": "Central River Division",
            "name_it": "divisione del Central River",
            "name_ja": "\u00e3\u0082\u00ac\u00e3\u0083\u00b3\u00e3\u0083\u0093\u00e3\u0082\u00a2\u00e5\u00b7\u009d\u00e4\u00b8\u00ad\u00e6\u00b5\u0081\u00e5\u009c\u00b0\u00e6\u0096\u00b9",
            "name_ko": "\u00ec\u0084\u00bc\u00ed\u008a\u00b8\u00eb\u009f\u00b4\u00eb\u00a6\u00ac\u00eb\u00b2\u0084 \u00ea\u00b5\u00ac",
            "name_len": "13",
            "name_local": "",
            "name_nl": "Central River",
            "name_pl": "Central River Division",
            "name_pt": "Central River",
            "name_ru": "\u00d0\u00a6\u00d0\u00b5\u00d0\u00bd\u00d1\u0082\u00d1\u0080\u00d0\u00b0\u00d0\u00bb\u00d1\u008c\u00d0\u00bd\u00d0\u00b0\u00d1\u008f \u00d0\u00a0\u00d0\u00b5\u00d0\u00ba\u00d0\u00b0",
            "name_sv": "Central River Division",
            "name_tr": "Central River B\u00c3\u00b6lgesi",
            "name_vi": "Khu v\u00e1\u00bb\u00b1c Trung l\u00c6\u00b0u S\u00c3\u00b4ng",
            "name_zh": "\u00e4\u00b8\u00ad\u00e6\u00b2\u00b3\u00e5\u008d\u0080",
            "ne_id": "1159311541",
            "note": "",
            "provnum_ne": "2",
            "record_type": "state",
            "region": "",
            "region_cod": "",
            "region_sub": "",
            "sameascity": "-99",
            "scalerank": "5",
            "sov_a3": "GMB",
            "sub_code": "",
            "wikidataid": "Q824431",
            "wikipedia": "http:\/\/en.wikipedia.org\/wiki\/Central_River_Division",
            "woe_id": "2345445",
            "woe_label": "MacCarthy Island, GM, The Gambia",
            "woe_name": "Maccarthy Island"
        },
        "geo": {
            "latitude": 13.5336211,
            "longitude": -14.7695962,
            "max_latitude": 13.5551381,
            "max_longitude": -14.7130108,
            "min_latitude": 13.5242635,
            "min_longitude": -14.8049354
        },
        "iso_3166_2": "GM-M",
        "iso_a2": "GM",
        "iso_a3": "GMB",
        "name": "MacCarthy Island",
        "postal": "M",
        "type": "Division",
        "type_en": "Division"
    },
    "N": {
        "alt_names": [
            "North Bank"
        ],
        "cca2": "GM",
        "cca3": "GMB",
        "code_hasc": "GM.NB",
        "extra": {
            "abbrev": "NBR",
            "adm0_a3": "GMB",
            "adm0_label": "5",
            "adm0_sr": "1",
            "adm1_code": "GMB-5513",
            "admin": "Gambia",
            "area_sqkm": "0",
            "check_me": "0",
            "code_local": "",
            "data_sources": [
                "natural"
            ],
            "datarank": "8",
            "diss_me": "5513",
            "featurecla": "Admin-1 scale rank",
            "fips": "GA07",
            "fips_alt": "",
            "gadm_level": "1",
            "geonunit": "Gambia",
            "gn_a1_code": "GM.07",
            "gn_id": "2412353",
            "gn_level": "1",
            "gn_name": "North Bank Division",
            "gn_region": "",
            "gns_adm1": "GA07",
            "gns_id": "-1200963",
            "gns_lang": "fra",
            "gns_level": "1",
            "gns_name": "North Bank",
            "gns_region": "",
            "gu_a3": "GMB",
            "hasc_maybe": "",
            "labelrank": "6",
            "mapcolor9": "1",
            "mapcolor13": "8",
            "max_label": "11.0",
            "min_label": "8.0",
            "min_zoom": "8.0",
            "name_ar": "\u00d8\u00b4\u00d8\u00b9\u00d8\u00a8\u00d8\u00a9 \u00d8\u00a7\u00d9\u0084\u00d8\u00b6\u00d9\u0081\u00d8\u00a9 \u00d8\u00a7\u00d9\u0084\u00d8\u00b4\u00d9\u0085\u00d8\u00a7\u00d9\u0084\u00d9\u008a\u00d8\u00a9",
            "name_bn": "\u00e0\u00a6\u00a8\u00e0\u00a6\u00b0\u00e0\u00a7\u008d\u00e0\u00a6\u00a5 \u00e0\u00a6\u00ac\u00e0\u00a7\u008d\u00e0\u00a6\u00af\u00e0\u00a6\u00be\u00e0\u00a6\u0099\u00e0\u00a7\u008d\u00e0\u00a6\u0095 \u00e0\u00a6\u00a1\u00e0\u00a6\u00bf\u00e0\u00a6\u00ad\u00e0\u00a6\u00bf\u00e0\u00a6\u00b6\u00e0\u00a6\u00a8",
            "name_de": "North Bank Region",
            "name_el": "\u00ce\u0092\u00cf\u008c\u00cf\u0081\u00ce\u00b5\u00ce\u00b9\u00ce\u00b1 \u00ce\u008c\u00cf\u0087\u00ce\u00b8\u00ce\u00b7",
            "name_en": "North Bank Division",
            "name_es": "Divisi\u00c3\u00b3n North Bank",
            "name_fr": "Division de North Bank",
            "name_hi": "\u00e0\u00a4\u0089\u00e0\u00a4\u00a4\u00e0\u00a5\u008d\u00e0\u00a4\u00a4\u00e0\u00a4\u00b0 \u00e0\u00a4\u00ac\u00e0\u00a5\u0088\u00e0\u00a4\u0082\u00e0\u00a4\u0095 \u00e0\u00a4\u00a1\u00e0\u00a4\u00bf\u00e0\u00a4\u00b5\u00e0\u00a5\u0080\u00e0\u00a4\u009c\u00e0\u00a4\u00a8",
            "name_hu": "",
            "name_id": "Divisi North Bank",
            "name_it": "divisione del North Bank",
            "name_ja": "\u00e3\u0083\u008e\u00e3\u0083\u00bc\u00e3\u0082\u00b9\u00e3\u0083\u0090\u00e3\u0083\u00b3\u00e3\u0082\u00af\u00e5\u009c\u00b0\u00e6\u0096\u00b9",
            "name_ko": "\u00eb\u0085\u00b8\u00ec\u008a\u00a4\u00eb\u00b1\u0085\u00ed\u0081\u00ac \u00ea\u00b5\u00ac",
            "name_len": "10",
            "name_local": "",
            "name_nl": "North Bank",
            "name_pl": "North Bank Division",
            "name_pt": "North Bank",
            "name_ru": "\u00d0\u00a1\u00d0\u00b5\u00d0\u00b2\u00d0\u00b5\u00d1\u0080\u00d0\u00bd\u00d1\u008b\u00d0\u00b9 \u00d0\u0091\u00d0\u00b5\u00d1\u0080\u00d0\u00b5\u00d0\u00b3",
            "name_sv": "North Bank Division",
            "name_tr": "North Bank B\u00c3\u00b6lgesi",
            "name_vi": "Ph\u00c3\u00a2n v\u00c3\u00b9ng North Bank",
            "name_zh": "\u00e5\u008c\u0097\u00e5\u00b2\u00b8\u00e5\u008d\u0080",
            "ne_id": "1159317177",
            "note": "",
            "provnum_ne": "1",
            "record_type": "state",
            "region": "",
            "region_cod": "",
            "region_sub": "",
            "sameascity": "-99",
            "scalerank": "5",
            "sov_a3": "GMB",
            "sub_code": "",
            "wikidataid": "Q846161",
            "wikipedia": "http:\/\/en.wikipedia.org\/wiki\/North_Bank_Division",
            "woe_id": "2345448",
            "woe_label": "",
            "woe_name": ""
        },
        "geo": {
            "latitude": 13.5285436,
            "longitude": -16.0169971,
            "max_latitude": 13.644219,
            "max_longitude": -15.309071,
            "min_latitude": 13.3289472,
            "min_longitude": -16.5492739
        },
        "iso_3166_2": "GM-N",
        "iso_a2": "GM",
        "iso_a3": "GMB",
        "name": "North Bank",
        "postal": "N",
        "type": "Division",
        "type_en": "Division"
    },
    "U": {
        "alt_names": [
            "Upper River"
        ],
        "cca2": "GM",
        "cca3": "GMB",
        "code_hasc": "GM.UR",
        "extra": {
            "abbrev": "URR",
            "adm0_a3": "GMB",
            "adm0_label": "5",
            "adm0_sr": "1",
            "adm1_code": "GMB-2152",
            "admin": "Gambia",
            "area_sqkm": "0",
            "check_me": "0",
            "code_local": "",
            "data_sources": [
                "natural"
            ],
            "datarank": "8",
            "diss_me": "2152",
            "featurecla": "Admin-1 scale rank",
            "fips": "GA04",
            "fips_alt": "",
            "gadm_level": "1",
            "geonunit": "Gambia",
            "gn_a1_code": "GM.04",
            "gn_id": "2411711",
            "gn_level": "1",
            "gn_name": "Upper River Division",
            "gn_region": "",
            "gns_adm1": "GA04",
            "gns_id": "-1201608",
            "gns_lang": "fra",
            "gns_level": "1",
            "gns_name": "Upper River",
            "gns_region": "",
            "gu_a3": "GMB",
            "hasc_maybe": "",
            "labelrank": "6",
            "mapcolor9": "1",
            "mapcolor13": "8",
            "max_label": "11.0",
            "min_label": "8.0",
            "min_zoom": "8.0",
            "name_ar": "\u00d8\u00b4\u00d8\u00b9\u00d8\u00a8\u00d8\u00a9 \u00d8\u00a7\u00d9\u0084\u00d9\u0086\u00d9\u0087\u00d8\u00b1 \u00d8\u00a7\u00d9\u0084\u00d8\u00b9\u00d9\u0084\u00d9\u008a\u00d8\u00a7",
            "name_bn": "\u00e0\u00a6\u0086\u00e0\u00a6\u00aa\u00e0\u00a6\u00be\u00e0\u00a6\u00b0 \u00e0\u00a6\u00b0\u00e0\u00a6\u00bf\u00e0\u00a6\u00ad\u00e0\u00a6\u00be\u00e0\u00a6\u00b0 \u00e0\u00a6\u00a1\u00e0\u00a6\u00bf\u00e0\u00a6\u00ad\u00e0\u00a6\u00bf\u00e0\u00a6\u00b6\u00e0\u00a6\u00a8",
            "name_de": "Upper River Region",
            "name_el": "\u00ce\u0086\u00ce\u00bd\u00cf\u0089 \u00ce\u00a0\u00ce\u00bf\u00cf\u0084\u00ce\u00b1\u00ce\u00bc\u00cf\u008c\u00cf\u0082",
            "name_en": "Upper River Division",
            "name_es": "Divisi\u00c3\u00b3n Upper River",
            "name_fr": "Division de Upper River",
            "name_hi": "\u00e0\u00a4\u008a\u00e0\u00a4\u00aa\u00e0\u00a4\u00b0\u00e0\u00a5\u0080 \u00e0\u00a4\u00a8\u00e0\u00a4\u00a6\u00e0\u00a5\u0080 \u00e0\u00a4\u00ae\u00e0\u00a4\u0082\u00e0\u00a4\u00a1\u00e0\u00a4\u00b2",
            "name_hu": "",
            "name_id": "Upper River Division",
            "name_it": "divisione dell'Upper River",
            "name_ja": "\u00e3\u0082\u00ac\u00e3\u0083\u00b3\u00e3\u0083\u0093\u00e3\u0082\u00a2\u00e5\u00b7\u009d\u00e4\u00b8\u008a\u00e6\u00b5\u0081\u00e5\u009c\u00b0\u00e6\u0096\u00b9",
            "name_ko": "\u00ec\u0096\u00b4\u00ed\u008d\u00bc\u00eb\u00a6\u00ac\u00eb\u00b2\u0084 \u00ea\u00b5\u00ac",
            "name_len": "11",
            "name_local": "",
            "name_nl": "Upper River",
            "name_pl": "Upper River Division",
            "name_pt": "Upper River",
            "name_ru": "\u00d0\u0092\u00d0\u00b5\u00d1\u0080\u00d1\u0085\u00d0\u00bd\u00d1\u008f\u00d1\u008f \u00d0\u00a0\u00d0\u00b5\u00d0\u00ba\u00d0\u00b0",
            "name_sv": "Upper River Division",
            "name_tr": "Upper River B\u00c3\u00b6lgesi",
            "name_vi": "Ph\u00c3\u00a2n v\u00c3\u00b9ng Th\u00c6\u00b0\u00e1\u00bb\u00a3ng ngu\u00e1\u00bb\u0093n S\u00c3\u00b4ng",
            "name_zh": "\u00e4\u00b8\u008a\u00e6\u00b2\u00b3\u00e5\u008d\u0080",
            "ne_id": "1159311543",
            "note": "",
            "provnum_ne": "3",
            "record_type": "state",
            "region": "",
            "region_cod": "",
            "region_sub": "",
            "sameascity": "-99",
            "scalerank": "5",
            "sov_a3": "GMB",
            "sub_code": "",
            "wikidataid": "Q824373",
            "wikipedia": "http:\/\/en.wikipedia.org\/wiki\/Upper_River_Division",
            "woe_id": "2345446",
            "woe_label": "Upper River, GM, The Gambia",
            "woe_name": "Upper River"
        },
        "geo": {
            "latitude": 13.4257366,
            "longitude": -14.0072348,
            "max_latitude": 13.5734001,
            "max_longitude": -13.7977931,
            "min_latitude": 13.2156891,
            "min_longitude": -14.5469159
        },
        "iso_3166_2": "GM-U",
        "iso_a2": "GM",
        "iso_a3": "GMB",
        "name": "Upper River",
        "postal": "U",
        "type": "Division",
        "type_en": "Division"
    },
    "W": {
        "alt_names": [
            "Western"
        ],
        "cca2": "GM",
        "cca3": "GMB",
        "code_hasc": "GM.WE",
        "extra": {
            "abbrev": "WCR",
            "adm0_a3": "GMB",
            "adm0_label": "5",
            "adm0_sr": "1",
            "adm1_code": "GMB-5512",
            "admin": "Gambia",
            "area_sqkm": "0",
            "check_me": "10",
            "code_local": "",
            "data_sources": [
                "natural"
            ],
            "datarank": "8",
            "diss_me": "5512",
            "featurecla": "Admin-1 scale rank",
            "fips": "GA05",
            "fips_alt": "",
            "gadm_level": "1",
            "geonunit": "",
            "gn_a1_code": "GM.05",
            "gn_id": "2411683",
            "gn_level": "1",
            "gn_name": "Western Division",
            "gn_region": "",
            "gns_adm1": "GA05",
            "gns_id": "-1201636",
            "gns_lang": "fra",
            "gns_level": "1",
            "gns_name": "Western",
            "gns_region": "",
            "gu_a3": "",
            "hasc_maybe": "",
            "labelrank": "6",
            "mapcolor9": "1",
            "mapcolor13": "8",
            "max_label": "11.0",
            "min_label": "8.0",
            "min_zoom": "8.0",
            "name_ar": "\u00d9\u0082\u00d8\u00b3\u00d9\u0085 \u00d8\u00a7\u00d9\u0084\u00d8\u00b3\u00d8\u00a7\u00d8\u00ad\u00d9\u0084 \u00d8\u00a7\u00d9\u0084\u00d8\u00ba\u00d8\u00b1\u00d8\u00a8\u00d9\u008a",
            "name_bn": "\u00e0\u00a6\u0093\u00e0\u00a6\u00af\u00e0\u00a6\u00bc\u00e0\u00a7\u0087\u00e0\u00a6\u00b8\u00e0\u00a7\u008d\u00e0\u00a6\u009f \u00e0\u00a6\u0095\u00e0\u00a7\u008b\u00e0\u00a6\u00b8\u00e0\u00a7\u008d\u00e0\u00a6\u009f \u00e0\u00a6\u009c\u00e0\u00a7\u0087\u00e0\u00a6\u00b2\u00e0\u00a6\u00be",
            "name_de": "West Coast Region",
            "name_el": "\u00ce\u0094\u00cf\u0085\u00cf\u0084\u00ce\u00b9\u00ce\u00ba\u00ce\u00ae \u00ce\u0093\u00ce\u00ba\u00ce\u00ac\u00ce\u00bc\u00cf\u0080\u00ce\u00b9\u00ce\u00b1",
            "name_en": "West Coast Division",
            "name_es": "Divisi\u00c3\u00b3n Western",
            "name_fr": "Division de West Coast",
            "name_hi": "\u00e0\u00a4\u00b5\u00e0\u00a5\u0087\u00e0\u00a4\u00b8\u00e0\u00a5\u008d\u00e0\u00a4\u009f \u00e0\u00a4\u0095\u00e0\u00a5\u008b\u00e0\u00a4\u00b8\u00e0\u00a5\u008d\u00e0\u00a4\u009f \u00e0\u00a4\u00a1\u00e0\u00a4\u00bf\u00e0\u00a4\u00b5\u00e0\u00a5\u0080\u00e0\u00a4\u009c\u00e0\u00a4\u00bc\u00e0\u00a4\u00a8",
            "name_hu": "",
            "name_id": "Divisi Pantai Barat",
            "name_it": "divisione della West Coast",
            "name_ja": "\u00e8\u00a5\u00bf\u00e9\u0083\u00a8\u00e5\u009c\u00b0\u00e6\u0096\u00b9",
            "name_ko": "\u00ec\u009b\u00a8\u00ec\u008a\u00a4\u00ed\u008a\u00b8\u00ec\u00bd\u0094\u00ec\u008a\u00a4\u00ed\u008a\u00b8 \u00ea\u00b5\u00ac",
            "name_len": "10",
            "name_local": "",
            "name_nl": "Western",
            "name_pl": "Western Division",
            "name_pt": "Western",
            "name_ru": "\u00d0\u0097\u00d0\u00b0\u00d0\u00bf\u00d0\u00b0\u00d0\u00b4\u00d0\u00bd\u00d1\u008b\u00d0\u00b9 \u00d1\u0080\u00d0\u00b0\u00d0\u00b9\u00d0\u00be\u00d0\u00bd",
            "name_sv": "Western Division",
            "name_tr": "West Coast",
            "name_vi": "Ph\u00c3\u00a2n V\u00c3\u00b9ng West Coast",
            "name_zh": "\u00e8\u00a5\u00bf\u00e9\u0083\u00a8\u00e5\u008d\u0080",
            "ne_id": "1159317175",
            "note": "",
            "provnum_ne": "4",
            "record_type": "state",
            "region": "",
            "region_cod": "",
            "region_sub": "",
            "sameascity": "7",
            "scalerank": "5",
            "sov_a3": "GMB",
            "sub_code": "",
            "wikidataid": "Q846158",
            "wikipedia": "http:\/\/en.wikipedia.org\/wiki\/Western_Division_(Gambia)",
            "woe_id": "2345447",
            "woe_label": "",
            "woe_name": ""
        },
        "geo": {
            "latitude": 13.2229202,
            "longitude": -16.5819789,
            "max_latitude": 13.4525822,
            "max_longitude": -15.8103241,
            "min_latitude": 13.0668175,
            "min_longitude": -16.8136312
        },
        "iso_3166_2": "GM-W",
        "iso_a2": "GM",
        "iso_a3": "GMB",
        "name": "Western",
        "postal": "W",
        "type": "Division",
        "type_en": "Division"
    }
}