{
    "X01~": {
        "alt_names": [
            ""
        ],
        "cca2": "HK",
        "cca3": "HKG",
        "code_hasc": "HK.CW",
        "extra": {
            "abbrev": "",
            "adm0_a3": "HKG",
            "adm0_label": "5",
            "adm0_sr": "6",
            "adm1_code": "HKG-5153",
            "admin": "Hong Kong S.A.R.",
            "area_sqkm": "0",
            "check_me": "0",
            "code_local": "",
            "data_sources": [
                "natural"
            ],
            "datarank": "10",
            "diss_me": "5153",
            "featurecla": "Admin-1 scale rank",
            "fips": "",
            "fips_alt": "",
            "gadm_level": "0",
            "geonunit": "Hong Kong S.A.R.",
            "gn_a1_code": "HK.HCW",
            "gn_id": "7533598",
            "gn_level": "1",
            "gn_name": "Central and Western District",
            "gn_region": "",
            "gns_adm1": "",
            "gns_id": "0",
            "gns_lang": "",
            "gns_level": "0",
            "gns_name": "",
            "gns_region": "",
            "gu_a3": "HKG",
            "hasc_maybe": "",
            "labelrank": "20",
            "mapcolor9": "4",
            "mapcolor13": "3",
            "max_label": "11.0",
            "min_label": "11.0",
            "min_zoom": "11.0",
            "name_ar": "",
            "name_bn": "",
            "name_de": "",
            "name_el": "",
            "name_en": "",
            "name_es": "",
            "name_fr": "",
            "name_hi": "",
            "name_hu": "",
            "name_id": "",
            "name_it": "",
            "name_ja": "",
            "name_ko": "",
            "name_len": "19",
            "name_local": "",
            "name_nl": "",
            "name_pl": "",
            "name_pt": "",
            "name_ru": "",
            "name_sv": "",
            "name_tr": "",
            "name_vi": "",
            "name_zh": "",
            "ne_id": "1159315655",
            "note": "",
            "provnum_ne": "0",
            "record_type": "state",
            "region": "Hong Kong Island",
            "region_cod": "",
            "region_sub": "",
            "sameascity": "-99",
            "scalerank": "10",
            "sov_a3": "CH1",
            "sub_code": "",
            "wikidataid": "",
            "wikipedia": "",
            "woe_id": "24703128",
            "woe_label": "",
            "woe_name": "Central and Western"
        },
        "geo": {
            "latitude": "22.27410000",
            "longitude": "114.1440000"
        },
        "iso_3166_2": "HK-X01~",
        "iso_a2": "HK",
        "iso_a3": "HKG",
        "name": "Central and Western",
        "postal": "X01~",
        "type": "",
        "type_en": ""
    },
    "X02~": {
        "alt_names": [
            ""
        ],
        "cca2": "HK",
        "cca3": "HKG",
        "code_hasc": "HK.WC",
        "extra": {
            "abbrev": "",
            "adm0_a3": "HKG",
            "adm0_label": "5",
            "adm0_sr": "6",
            "adm1_code": "HKG-5154",
            "admin": "Hong Kong S.A.R.",
            "area_sqkm": "0",
            "check_me": "0",
            "code_local": "",
            "data_sources": [
                "natural"
            ],
            "datarank": "10",
            "diss_me": "5154",
            "featurecla": "Admin-1 scale rank",
            "fips": "",
            "fips_alt": "",
            "gadm_level": "0",
            "geonunit": "Hong Kong S.A.R.",
            "gn_a1_code": "HK.HWC",
            "gn_id": "7533607",
            "gn_level": "1",
            "gn_name": "Wan Chai",
            "gn_region": "",
            "gns_adm1": "",
            "gns_id": "0",
            "gns_lang": "",
            "gns_level": "0",
            "gns_name": "",
            "gns_region": "",
            "gu_a3": "HKG",
            "hasc_maybe": "",
            "labelrank": "20",
            "mapcolor9": "4",
            "mapcolor13": "3",
            "max_label": "11.0",
            "min_label": "11.0",
            "min_zoom": "11.0",
            "name_ar": "",
            "name_bn": "",
            "name_de": "",
            "name_el": "",
            "name_en": "",
            "name_es": "",
            "name_fr": "",
            "name_hi": "",
            "name_hu": "",
            "name_id": "",
            "name_it": "",
            "name_ja": "",
            "name_ko": "",
            "name_len": "8",
            "name_local": "",
            "name_nl": "",
            "name_pl": "",
            "name_pt": "",
            "name_ru": "",
            "name_sv": "",
            "name_tr": "",
            "name_vi": "",
            "name_zh": "",
            "ne_id": "1159316515",
            "note": "",
            "provnum_ne": "0",
            "record_type": "state",
            "region": "Hong Kong Island",
            "region_cod": "",
            "region_sub": "",
            "sameascity": "-99",
            "scalerank": "10",
            "sov_a3": "CH1",
            "sub_code": "",
            "wikidataid": "",
            "wikipedia": "",
            "woe_id": "24703129",
            "woe_label": "",
            "woe_name": "Wan Chai"
        },
        "geo": {
            "latitude": "22.26990000",
            "longitude": "114.1780000"
        },
        "iso_3166_2": "HK-X02~",
        "iso_a2": "HK",
        "iso_a3": "HKG",
        "name": "Wan Chai",
        "postal": "X02~",
        "type": "",
        "type_en": ""
    },
    "X03~": {
        "alt_names": [
            ""
        ],
        "cca2": "HK",
        "cca3": "HKG",
        "code_hasc": "HK.EA",
        "extra": {
            "abbrev": "",
            "adm0_a3": "HKG",
            "adm0_label": "5",
            "adm0_sr": "6",
            "adm1_code": "HKG-5155",
            "admin": "Hong Kong S.A.R.",
            "area_sqkm": "0",
            "check_me": "0",
            "code_local": "",
            "data_sources": [
                "natural"
            ],
            "datarank": "10",
            "diss_me": "5155",
            "featurecla": "Admin-1 scale rank",
            "fips": "",
            "fips_alt": "",
            "gadm_level": "0",
            "geonunit": "Hong Kong S.A.R.",
            "gn_a1_code": "HK.HEA",
            "gn_id": "7533608",
            "gn_level": "1",
            "gn_name": "Eastern",
            "gn_region": "",
            "gns_adm1": "",
            "gns_id": "0",
            "gns_lang": "",
            "gns_level": "0",
            "gns_name": "",
            "gns_region": "",
            "gu_a3": "HKG",
            "hasc_maybe": "",
            "labelrank": "20",
            "mapcolor9": "4",
            "mapcolor13": "3",
            "max_label": "11.0",
            "min_label": "11.0",
            "min_zoom": "11.0",
            "name_ar": "",
            "name_bn": "",
            "name_de": "",
            "name_el": "",
            "name_en": "",
            "name_es": "",
            "name_fr": "",
            "name_hi": "",
            "name_hu": "",
            "name_id": "",
            "name_it": "",
            "name_ja": "",
            "name_ko": "",
            "name_len": "7",
            "name_local": "",
            "name_nl": "",
            "name_pl": "",
            "name_pt": "",
            "name_ru": "",
            "name_sv": "",
            "name_tr": "",
            "name_vi": "",
            "name_zh": "",
            "ne_id": "1159316517",
            "note": "",
            "provnum_ne": "0",
            "record_type": "state",
            "region": "Hong Kong Island",
            "region_cod": "",
            "region_sub": "",
            "sameascity": "-99",
            "scalerank": "10",
            "sov_a3": "CH1",
            "sub_code": "",
            "wikidataid": "",
            "wikipedia": "",
            "woe_id": "24703131",
            "woe_label": "",
            "woe_name": "Eastern"
        },
        "geo": {
            "latitude": "22.27060000",
            "longitude": "114.2130000"
        },
        "iso_3166_2": "HK-X03~",
        "iso_a2": "HK",
        "iso_a3": "HKG",
        "name": "Eastern",
        "postal": "X03~",
        "type": "",
        "type_en": ""
    },
    "X04~": {
        "alt_names": [
            ""
        ],
        "cca2": "HK",
        "cca3": "HKG",
        "code_hasc": "HK.SO",
        "extra": {
            "abbrev": "",
            "adm0_a3": "HKG",
            "adm0_label": "5",
            "adm0_sr": "6",
            "adm1_code": "HKG-5156",
            "admin": "Hong Kong S.A.R.",
            "area_sqkm": "0",
            "check_me": "0",
            "code_local": "",
            "data_sources": [
                "natural"
            ],
            "datarank": "10",
            "diss_me": "5156",
            "featurecla": "Admin-1 scale rank",
            "fips": "",
            "fips_alt": "",
            "gadm_level": "0",
            "geonunit": "Hong Kong S.A.R.",
            "gn_a1_code": "HK.HSO",
            "gn_id": "7533609",
            "gn_level": "1",
            "gn_name": "Southern",
            "gn_region": "",
            "gns_adm1": "",
            "gns_id": "0",
            "gns_lang": "",
            "gns_level": "0",
            "gns_name": "",
            "gns_region": "",
            "gu_a3": "HKG",
            "hasc_maybe": "",
            "labelrank": "20",
            "mapcolor9": "4",
            "mapcolor13": "3",
            "max_label": "11.0",
            "min_label": "11.0",
            "min_zoom": "11.0",
            "name_ar": "",
            "name_bn": "",
            "name_de": "",
            "name_el": "",
            "name_en": "",
            "name_es": "",
            "name_fr": "",
            "name_hi": "",
            "name_hu": "",
            "name_id": "",
            "name_it": "",
            "name_ja": "",
            "name_ko": "",
            "name_len": "8",
            "name_local": "",
            "name_nl": "",
            "name_pl": "",
            "name_pt": "",
            "name_ru": "",
            "name_sv": "",
            "name_tr": "",
            "name_vi": "",
            "name_zh": "",
            "ne_id": "1159316519",
            "note": "",
            "provnum_ne": "0",
            "record_type": "state",
            "region": "Hong Kong Island",
            "region_cod": "",
            "region_sub": "",
            "sameascity": "-99",
            "scalerank": "10",
            "sov_a3": "CH1",
            "sub_code": "",
            "wikidataid": "",
            "wikipedia": "",
            "woe_id": "24703130",
            "woe_label": "",
            "woe_name": "Southern"
        },
        "geo": {
            "latitude": "22.24020000",
            "longitude": "114.2040000"
        },
        "iso_3166_2": "HK-X04~",
        "iso_a2": "HK",
        "iso_a3": "HKG",
        "name": "Southern",
        "postal": "X04~",
        "type": "",
        "type_en": ""
    },
    "X05~": {
        "alt_names": [
            ""
        ],
        "cca2": "HK",
        "cca3": "HKG",
        "code_hasc": "HK.YT",
        "extra": {
            "abbrev": "",
            "adm0_a3": "HKG",
            "adm0_label": "5",
            "adm0_sr": "6",
            "adm1_code": "HKG-5157",
            "admin": "Hong Kong S.A.R.",
            "area_sqkm": "0",
            "check_me": "0",
            "code_local": "",
            "data_sources": [
                "natural"
            ],
            "datarank": "10",
            "diss_me": "5157",
            "featurecla": "Admin-1 scale rank",
            "fips": "",
            "fips_alt": "",
            "gadm_level": "0",
            "geonunit": "Hong Kong S.A.R.",
            "gn_a1_code": "HK.KYT",
            "gn_id": "7533610",
            "gn_level": "1",
            "gn_name": "Yau Tsim Mong",
            "gn_region": "",
            "gns_adm1": "",
            "gns_id": "0",
            "gns_lang": "",
            "gns_level": "0",
            "gns_name": "",
            "gns_region": "",
            "gu_a3": "HKG",
            "hasc_maybe": "",
            "labelrank": "20",
            "mapcolor9": "4",
            "mapcolor13": "3",
            "max_label": "11.0",
            "min_label": "11.0",
            "min_zoom": "11.0",
            "name_ar": "",
            "name_bn": "",
            "name_de": "",
            "name_el": "",
            "name_en": "",
            "name_es": "",
            "name_fr": "",
            "name_hi": "",
            "name_hu": "",
            "name_id": "",
            "name_it": "",
            "name_ja": "",
            "name_ko": "",
            "name_len": "13",
            "name_local": "",
            "name_nl": "",
            "name_pl": "",
            "name_pt": "",
            "name_ru": "",
            "name_sv": "",
            "name_tr": "",
            "name_vi": "",
            "name_zh": "",
            "ne_id": "1159316521",
            "note": "",
            "provnum_ne": "0",
            "record_type": "state",
            "region": "Kowloon",
            "region_cod": "",
            "region_sub": "",
            "sameascity": "-99",
            "scalerank": "10",
            "sov_a3": "CH1",
            "sub_code": "",
            "wikidataid": "",
            "wikipedia": "",
            "woe_id": "24703134",
            "woe_label": "",
            "woe_name": "Yau Tsim Mong"
        },
        "geo": {
            "latitude": "22.31280000",
            "longitude": "114.1690000"
        },
        "iso_3166_2": "HK-X05~",
        "iso_a2": "HK",
        "iso_a3": "HKG",
        "name": "Yau Tsim Mong",
        "postal": "X05~",
        "type": "",
        "type_en": ""
    },
    "X06~": {
        "alt_names": [
            ""
        ],
        "cca2": "HK",
        "cca3": "HKG",
        "code_hasc": "HK.KC",
        "extra": {
            "abbrev": "",
            "adm0_a3": "HKG",
            "adm0_label": "5",
            "adm0_sr": "6",
            "adm1_code": "HKG-5158",
            "admin": "Hong Kong S.A.R.",
            "area_sqkm": "0",
            "check_me": "0",
            "code_local": "",
            "data_sources": [
                "natural"
            ],
            "datarank": "10",
            "diss_me": "5158",
            "featurecla": "Admin-1 scale rank",
            "fips": "",
            "fips_alt": "",
            "gadm_level": "0",
            "geonunit": "Hong Kong S.A.R.",
            "gn_a1_code": "HK.KKC",
            "gn_id": "7533612",
            "gn_level": "1",
            "gn_name": "Kowloon City",
            "gn_region": "",
            "gns_adm1": "",
            "gns_id": "0",
            "gns_lang": "",
            "gns_level": "0",
            "gns_name": "",
            "gns_region": "",
            "gu_a3": "HKG",
            "hasc_maybe": "",
            "labelrank": "20",
            "mapcolor9": "4",
            "mapcolor13": "3",
            "max_label": "11.0",
            "min_label": "11.0",
            "min_zoom": "11.0",
            "name_ar": "",
            "name_bn": "",
            "name_de": "",
            "name_el": "",
            "name_en": "",
            "name_es": "",
            "name_fr": "",
            "name_hi": "",
            "name_hu": "",
            "name_id": "",
            "name_it": "",
            "name_ja": "",
            "name_ko": "",
            "name_len": "12",
            "name_local": "",
            "name_nl": "",
            "name_pl": "",
            "name_pt": "",
            "name_ru": "",
            "name_sv": "",
            "name_tr": "",
            "name_vi": "",
            "name_zh": "",
            "ne_id": "1159316525",
            "note": "",
            "provnum_ne": "0",
            "record_type": "state",
            "region": "Kowloon",
            "region_cod": "",
            "region_sub": "",
            "sameascity": "-99",
            "scalerank": "10",
            "sov_a3": "CH1",
            "sub_code": "",
            "wikidataid": "",
            "wikipedia": "",
            "woe_id": "24703135",
            "woe_label": "",
            "woe_name": "Kowloon City"
        },
        "geo": {
            "latitude": "22.32680000",
            "longitude": "114.1900000"
        },
        "iso_3166_2": "HK-X06~",
        "iso_a2": "HK",
        "iso_a3": "HKG",
        "name": "Kowloon City",
        "postal": "X06~",
        "type": "",
        "type_en": ""
    },
    "X07~": {
        "alt_names": [
            ""
        ],
        "cca2": "HK",
        "cca3": "HKG",
        "code_hasc": "HK.SS",
        "extra": {
            "abbrev": "",
            "adm0_a3": "HKG",
            "adm0_label": "5",
            "adm0_sr": "6",
            "adm1_code": "HKG-5159",
            "admin": "Hong Kong S.A.R.",
            "area_sqkm": "0",
            "check_me": "0",
            "code_local": "",
            "data_sources": [
                "natural"
            ],
            "datarank": "10",
            "diss_me": "5159",
            "featurecla": "Admin-1 scale rank",
            "fips": "",
            "fips_alt": "",
            "gadm_level": "0",
            "geonunit": "Hong Kong S.A.R.",
            "gn_a1_code": "HK.KSS",
            "gn_id": "7533611",
            "gn_level": "1",
            "gn_name": "Sham Shui Po",
            "gn_region": "",
            "gns_adm1": "",
            "gns_id": "0",
            "gns_lang": "",
            "gns_level": "0",
            "gns_name": "",
            "gns_region": "",
            "gu_a3": "HKG",
            "hasc_maybe": "",
            "labelrank": "20",
            "mapcolor9": "4",
            "mapcolor13": "3",
            "max_label": "11.0",
            "min_label": "11.0",
            "min_zoom": "11.0",
            "name_ar": "",
            "name_bn": "",
            "name_de": "",
            "name_el": "",
            "name_en": "",
            "name_es": "",
            "name_fr": "",
            "name_hi": "",
            "name_hu": "",
            "name_id": "",
            "name_it": "",
            "name_ja": "",
            "name_ko": "",
            "name_len": "12",
            "name_local": "",
            "name_nl": "",
            "name_pl": "",
            "name_pt": "",
            "name_ru": "",
            "name_sv": "",
            "name_tr": "",
            "name_vi": "",
            "name_zh": "",
            "ne_id": "1159316527",
            "note": "",
            "provnum_ne": "0",
            "record_type": "state",
            "region": "Kowloon",
            "region_cod": "",
            "region_sub": "",
            "sameascity": "-99",
            "scalerank": "10",
            "sov_a3": "CH1",
            "sub_code": "",
            "wikidataid": "",
            "wikipedia": "",
            "woe_id": "24703133",
            "woe_label": "",
            "woe_name": "Sham Shui Po"
        },
        "geo": {
            "latitude": "22.33310000",
            "longitude": "114.1640000"
        },
        "iso_3166_2": "HK-X07~",
        "iso_a2": "HK",
        "iso_a3": "HKG",
        "name": "Sham Shui Po",
        "postal": "X07~",
        "type": "",
        "type_en": ""
    },
    "X08~": {
        "alt_names": [
            ""
        ],
        "cca2": "HK",
        "cca3": "HKG",
        "code_hasc": "HK.WT",
        "extra": {
            "abbrev": "",
            "adm0_a3": "HKG",
            "adm0_label": "5",
            "adm0_sr": "6",
            "adm1_code": "HKG-5160",
            "admin": "Hong Kong S.A.R.",
            "area_sqkm": "0",
            "check_me": "0",
            "code_local": "",
            "data_sources": [
                "natural"
            ],
            "datarank": "10",
            "diss_me": "5160",
            "featurecla": "Admin-1 scale rank",
            "fips": "",
            "fips_alt": "",
            "gadm_level": "0",
            "geonunit": "Hong Kong S.A.R.",
            "gn_a1_code": "HK.KWT",
            "gn_id": "7533613",
            "gn_level": "1",
            "gn_name": "Wong Tai Sin",
            "gn_region": "",
            "gns_adm1": "",
            "gns_id": "0",
            "gns_lang": "",
            "gns_level": "0",
            "gns_name": "",
            "gns_region": "",
            "gu_a3": "HKG",
            "hasc_maybe": "",
            "labelrank": "20",
            "mapcolor9": "4",
            "mapcolor13": "3",
            "max_label": "11.0",
            "min_label": "11.0",
            "min_zoom": "11.0",
            "name_ar": "",
            "name_bn": "",
            "name_de": "",
            "name_el": "",
            "name_en": "",
            "name_es": "",
            "name_fr": "",
            "name_hi": "",
            "name_hu": "",
            "name_id": "",
            "name_it": "",
            "name_ja": "",
            "name_ko": "",
            "name_len": "12",
            "name_local": "",
            "name_nl": "",
            "name_pl": "",
            "name_pt": "",
            "name_ru": "",
            "name_sv": "",
            "name_tr": "",
            "name_vi": "",
            "name_zh": "",
            "ne_id": "1159316529",
            "note": "",
            "provnum_ne": "0",
            "record_type": "state",
            "region": "Kowloon",
            "region_cod": "",
            "region_sub": "",
            "sameascity": "-99",
            "scalerank": "10",
            "sov_a3": "CH1",
            "sub_code": "",
            "wikidataid": "",
            "wikipedia": "",
            "woe_id": "24703137",
            "woe_label": "",
            "woe_name": "Wong Tai Sin"
        },
        "geo": {
            "latitude": "22.34320000",
            "longitude": "114.2150000"
        },
        "iso_3166_2": "HK-X08~",
        "iso_a2": "HK",
        "iso_a3": "HKG",
        "name": "Wong Tai Sin",
        "postal": "X08~",
        "type": "",
        "type_en": ""
    },
    "X09~": {
        "alt_names": [
            ""
        ],
        "cca2": "HK",
        "cca3": "HKG",
        "code_hasc": "HK.KU",
        "extra": {
            "abbrev": "",
            "adm0_a3": "HKG",
            "adm0_label": "5",
            "adm0_sr": "6",
            "adm1_code": "HKG-5161",
            "admin": "Hong Kong S.A.R.",
            "area_sqkm": "0",
            "check_me": "0",
            "code_local": "",
            "data_sources": [
                "natural"
            ],
            "datarank": "10",
            "diss_me": "5161",
            "featurecla": "Admin-1 scale rank",
            "fips": "",
            "fips_alt": "",
            "gadm_level": "0",
            "geonunit": "Hong Kong S.A.R.",
            "gn_a1_code": "HK.KKT",
            "gn_id": "7533614",
            "gn_level": "1",
            "gn_name": "Kwon Tong",
            "gn_region": "",
            "gns_adm1": "",
            "gns_id": "0",
            "gns_lang": "",
            "gns_level": "0",
            "gns_name": "",
            "gns_region": "",
            "gu_a3": "HKG",
            "hasc_maybe": "",
            "labelrank": "20",
            "mapcolor9": "4",
            "mapcolor13": "3",
            "max_label": "11.0",
            "min_label": "11.0",
            "min_zoom": "11.0",
            "name_ar": "",
            "name_bn": "",
            "name_de": "",
            "name_el": "",
            "name_en": "",
            "name_es": "",
            "name_fr": "",
            "name_hi": "",
            "name_hu": "",
            "name_id": "",
            "name_it": "",
            "name_ja": "",
            "name_ko": "",
            "name_len": "9",
            "name_local": "",
            "name_nl": "",
            "name_pl": "",
            "name_pt": "",
            "name_ru": "",
            "name_sv": "",
            "name_tr": "",
            "name_vi": "",
            "name_zh": "",
            "ne_id": "1159316531",
            "note": "",
            "provnum_ne": "0",
            "record_type": "state",
            "region": "Kowloon",
            "region_cod": "",
            "region_sub": "",
            "sameascity": "-99",
            "scalerank": "10",
            "sov_a3": "CH1",
            "sub_code": "",
            "wikidataid": "",
            "wikipedia": "",
            "woe_id": "24703136",
            "woe_label": "",
            "woe_name": "Kwun Tong"
        },
        "geo": {
            "latitude": "22.31590000",
            "longitude": "114.2250000"
        },
        "iso_3166_2": "HK-X09~",
        "iso_a2": "HK",
        "iso_a3": "HKG",
        "name": "Kwun Tong",
        "postal": "X09~",
        "type": "",
        "type_en": ""
    },
    "X10~": {
        "alt_names": [
            ""
        ],
        "cca2": "HK",
        "cca3": "HKG",
        "code_hasc": "HK.SK",
        "extra": {
            "abbrev": "",
            "adm0_a3": "HKG",
            "adm0_label": "5",
            "adm0_sr": "6",
            "adm1_code": "HKG-5162",
            "admin": "Hong Kong S.A.R.",
            "area_sqkm": "0",
            "check_me": "0",
            "code_local": "",
            "data_sources": [
                "natural"
            ],
            "datarank": "10",
            "diss_me": "5162",
            "featurecla": "Admin-1 scale rank",
            "fips": "",
            "fips_alt": "",
            "gadm_level": "0",
            "geonunit": "Hong Kong S.A.R.",
            "gn_a1_code": "HK.NSK",
            "gn_id": "1819049",
            "gn_level": "1",
            "gn_name": "Sai Kung District",
            "gn_region": "",
            "gns_adm1": "",
            "gns_id": "0",
            "gns_lang": "",
            "gns_level": "0",
            "gns_name": "",
            "gns_region": "",
            "gu_a3": "HKG",
            "hasc_maybe": "",
            "labelrank": "20",
            "mapcolor9": "4",
            "mapcolor13": "3",
            "max_label": "11.0",
            "min_label": "11.0",
            "min_zoom": "11.0",
            "name_ar": "",
            "name_bn": "",
            "name_de": "",
            "name_el": "",
            "name_en": "",
            "name_es": "",
            "name_fr": "",
            "name_hi": "",
            "name_hu": "",
            "name_id": "",
            "name_it": "",
            "name_ja": "",
            "name_ko": "",
            "name_len": "8",
            "name_local": "",
            "name_nl": "",
            "name_pl": "",
            "name_pt": "",
            "name_ru": "",
            "name_sv": "",
            "name_tr": "",
            "name_vi": "",
            "name_zh": "",
            "ne_id": "1159316533",
            "note": "",
            "provnum_ne": "0",
            "record_type": "state",
            "region": "The New Territories",
            "region_cod": "",
            "region_sub": "",
            "sameascity": "-99",
            "scalerank": "10",
            "sov_a3": "CH1",
            "sub_code": "",
            "wikidataid": "",
            "wikipedia": "",
            "woe_id": "24703139",
            "woe_label": "",
            "woe_name": "Sai Kung"
        },
        "geo": {
            "latitude": "22.34630000",
            "longitude": "114.2490000"
        },
        "iso_3166_2": "HK-X10~",
        "iso_a2": "HK",
        "iso_a3": "HKG",
        "name": "Sai Kung",
        "postal": "X10~",
        "type": "",
        "type_en": ""
    },
    "X11~": {
        "alt_names": [
            ""
        ],
        "cca2": "HK",
        "cca3": "HKG",
        "code_hasc": "HK.ST",
        "extra": {
            "abbrev": "",
            "adm0_a3": "HKG",
            "adm0_label": "5",
            "adm0_sr": "6",
            "adm1_code": "HKG-5163",
            "admin": "Hong Kong S.A.R.",
            "area_sqkm": "0",
            "check_me": "0",
            "code_local": "",
            "data_sources": [
                "natural"
            ],
            "datarank": "10",
            "diss_me": "5163",
            "featurecla": "Admin-1 scale rank",
            "fips": "",
            "fips_alt": "",
            "gadm_level": "0",
            "geonunit": "Hong Kong S.A.R.",
            "gn_a1_code": "HK.NST",
            "gn_id": "7533618",
            "gn_level": "1",
            "gn_name": "Sha Tin",
            "gn_region": "",
            "gns_adm1": "",
            "gns_id": "0",
            "gns_lang": "",
            "gns_level": "0",
            "gns_name": "",
            "gns_region": "",
            "gu_a3": "HKG",
            "hasc_maybe": "",
            "labelrank": "20",
            "mapcolor9": "4",
            "mapcolor13": "3",
            "max_label": "11.0",
            "min_label": "11.0",
            "min_zoom": "11.0",
            "name_ar": "",
            "name_bn": "",
            "name_de": "",
            "name_el": "",
            "name_en": "",
            "name_es": "",
            "name_fr": "",
            "name_hi": "",
            "name_hu": "",
            "name_id": "",
            "name_it": "",
            "name_ja": "",
            "name_ko": "",
            "name_len": "7",
            "name_local": "",
            "name_nl": "",
            "name_pl": "",
            "name_pt": "",
            "name_ru": "",
            "name_sv": "",
            "name_tr": "",
            "name_vi": "",
            "name_zh": "",
            "ne_id": "1159316535",
            "note": "",
            "provnum_ne": "0",
            "record_type": "state",
            "region": "The New Territories",
            "region_cod": "",
            "region_sub": "",
            "sameascity": "-99",
            "scalerank": "10",
            "sov_a3": "CH1",
            "sub_code": "",
            "wikidataid": "",
            "wikipedia": "",
            "woe_id": "24703138",
            "woe_label": "",
            "woe_name": "Sha Tin"
        },
        "geo": {
            "latitude": "22.38070000",
            "longitude": "114.2000000"
        },
        "iso_3166_2": "HK-X11~",
        "iso_a2": "HK",
        "iso_a3": "HKG",
        "name": "Sha Tin",
        "postal": "X11~",
        "type": "",
        "type_en": ""
    },
    "X12~": {
        "alt_names": [
            ""
        ],
        "cca2": "HK",
        "cca3": "HKG",
        "code_hasc": "HK.KI",
        "extra": {
            "abbrev": "",
            "adm0_a3": "HKG",
            "adm0_label": "5",
            "adm0_sr": "6",
            "adm1_code": "HKG-5164",
            "admin": "Hong Kong S.A.R.",
            "area_sqkm": "0",
            "check_me": "0",
            "code_local": "",
            "data_sources": [
                "natural"
            ],
            "datarank": "10",
            "diss_me": "5164",
            "featurecla": "Admin-1 scale rank",
            "fips": "",
            "fips_alt": "",
            "gadm_level": "0",
            "geonunit": "Hong Kong S.A.R.",
            "gn_a1_code": "HK.NKT",
            "gn_id": "7533615",
            "gn_level": "1",
            "gn_name": "Kwai Tsing",
            "gn_region": "",
            "gns_adm1": "",
            "gns_id": "0",
            "gns_lang": "",
            "gns_level": "0",
            "gns_name": "",
            "gns_region": "",
            "gu_a3": "HKG",
            "hasc_maybe": "",
            "labelrank": "20",
            "mapcolor9": "4",
            "mapcolor13": "3",
            "max_label": "11.0",
            "min_label": "11.0",
            "min_zoom": "11.0",
            "name_ar": "",
            "name_bn": "",
            "name_de": "",
            "name_el": "",
            "name_en": "",
            "name_es": "",
            "name_fr": "",
            "name_hi": "",
            "name_hu": "",
            "name_id": "",
            "name_it": "",
            "name_ja": "",
            "name_ko": "",
            "name_len": "10",
            "name_local": "",
            "name_nl": "",
            "name_pl": "",
            "name_pt": "",
            "name_ru": "",
            "name_sv": "",
            "name_tr": "",
            "name_vi": "",
            "name_zh": "",
            "ne_id": "1159316537",
            "note": "",
            "provnum_ne": "0",
            "record_type": "state",
            "region": "The New Territories",
            "region_cod": "",
            "region_sub": "",
            "sameascity": "-99",
            "scalerank": "10",
            "sov_a3": "CH1",
            "sub_code": "",
            "wikidataid": "",
            "wikipedia": "",
            "woe_id": "24703132",
            "woe_label": "",
            "woe_name": "Kwai Tsing"
        },
        "geo": {
            "latitude": "22.35100000",
            "longitude": "114.1400000"
        },
        "iso_3166_2": "HK-X12~",
        "iso_a2": "HK",
        "iso_a3": "HKG",
        "name": "Kwai Tsing",
        "postal": "X12~",
        "type": "",
        "type_en": ""
    },
    "X13~": {
        "alt_names": [
            ""
        ],
        "cca2": "HK",
        "cca3": "HKG",
        "code_hasc": "HK.TW",
        "extra": {
            "abbrev": "",
            "adm0_a3": "HKG",
            "adm0_label": "5",
            "adm0_sr": "6",
            "adm1_code": "HKG-5165",
            "admin": "Hong Kong S.A.R.",
            "area_sqkm": "0",
            "check_me": "0",
            "code_local": "",
            "data_sources": [
                "natural"
            ],
            "datarank": "10",
            "diss_me": "5165",
            "featurecla": "Admin-1 scale rank",
            "fips": "",
            "fips_alt": "",
            "gadm_level": "0",
            "geonunit": "Hong Kong S.A.R.",
            "gn_a1_code": "HK.NTW",
            "gn_id": "1818458",
            "gn_level": "1",
            "gn_name": "Tsuen Wan District",
            "gn_region": "",
            "gns_adm1": "",
            "gns_id": "0",
            "gns_lang": "",
            "gns_level": "0",
            "gns_name": "",
            "gns_region": "",
            "gu_a3": "HKG",
            "hasc_maybe": "",
            "labelrank": "20",
            "mapcolor9": "4",
            "mapcolor13": "3",
            "max_label": "11.0",
            "min_label": "11.0",
            "min_zoom": "11.0",
            "name_ar": "",
            "name_bn": "",
            "name_de": "",
            "name_el": "",
            "name_en": "",
            "name_es": "",
            "name_fr": "",
            "name_hi": "",
            "name_hu": "",
            "name_id": "",
            "name_it": "",
            "name_ja": "",
            "name_ko": "",
            "name_len": "9",
            "name_local": "",
            "name_nl": "",
            "name_pl": "",
            "name_pt": "",
            "name_ru": "",
            "name_sv": "",
            "name_tr": "",
            "name_vi": "",
            "name_zh": "",
            "ne_id": "1159316539",
            "note": "",
            "provnum_ne": "0",
            "record_type": "state",
            "region": "The New Territories",
            "region_cod": "",
            "region_sub": "",
            "sameascity": "-99",
            "scalerank": "10",
            "sov_a3": "CH1",
            "sub_code": "",
            "wikidataid": "",
            "wikipedia": "",
            "woe_id": "24703140",
            "woe_label": "",
            "woe_name": "Tsuen Wan"
        },
        "geo": {
            "latitude": "22.38690000",
            "longitude": "114.1200000"
        },
        "iso_3166_2": "HK-X13~",
        "iso_a2": "HK",
        "iso_a3": "HKG",
        "name": "Tsuen Wan",
        "postal": "X13~",
        "type": "",
        "type_en": ""
    },
    "X14~": {
        "alt_names": [
            ""
        ],
        "cca2": "HK",
        "cca3": "HKG",
        "code_hasc": "HK.TM",
        "extra": {
            "abbrev": "",
            "adm0_a3": "HKG",
            "adm0_label": "5",
            "adm0_sr": "6",
            "adm1_code": "HKG-5166",
            "admin": "Hong Kong S.A.R.",
            "area_sqkm": "0",
            "check_me": "0",
            "code_local": "",
            "data_sources": [
                "natural"
            ],
            "datarank": "10",
            "diss_me": "5166",
            "featurecla": "Admin-1 scale rank",
            "fips": "",
            "fips_alt": "",
            "gadm_level": "0",
            "geonunit": "Hong Kong S.A.R.",
            "gn_a1_code": "HK.NTM",
            "gn_id": "7533616",
            "gn_level": "1",
            "gn_name": "Tuen Mun",
            "gn_region": "",
            "gns_adm1": "",
            "gns_id": "0",
            "gns_lang": "",
            "gns_level": "0",
            "gns_name": "",
            "gns_region": "",
            "gu_a3": "HKG",
            "hasc_maybe": "",
            "labelrank": "20",
            "mapcolor9": "4",
            "mapcolor13": "3",
            "max_label": "11.0",
            "min_label": "11.0",
            "min_zoom": "11.0",
            "name_ar": "",
            "name_bn": "",
            "name_de": "",
            "name_el": "",
            "name_en": "",
            "name_es": "",
            "name_fr": "",
            "name_hi": "",
            "name_hu": "",
            "name_id": "",
            "name_it": "",
            "name_ja": "",
            "name_ko": "",
            "name_len": "8",
            "name_local": "",
            "name_nl": "",
            "name_pl": "",
            "name_pt": "",
            "name_ru": "",
            "name_sv": "",
            "name_tr": "",
            "name_vi": "",
            "name_zh": "",
            "ne_id": "1159316543",
            "note": "",
            "provnum_ne": "0",
            "record_type": "state",
            "region": "The New Territories",
            "region_cod": "",
            "region_sub": "",
            "sameascity": "-99",
            "scalerank": "10",
            "sov_a3": "CH1",
            "sub_code": "",
            "wikidataid": "",
            "wikipedia": "",
            "woe_id": "24703141",
            "woe_label": "",
            "woe_name": "Tuen Mun"
        },
        "geo": {
            "latitude": "22.38460000",
            "longitude": "113.9910000"
        },
        "iso_3166_2": "HK-X14~",
        "iso_a2": "HK",
        "iso_a3": "HKG",
        "name": "Tuen Mun",
        "postal": "X14~",
        "type": "",
        "type_en": ""
    },
    "X15~": {
        "alt_names": [
            ""
        ],
        "cca2": "HK",
        "cca3": "HKG",
        "code_hasc": "HK.YL",
        "extra": {
            "abbrev": "",
            "adm0_a3": "HKG",
            "adm0_label": "5",
            "adm0_sr": "6",
            "adm1_code": "HKG-5167",
            "admin": "Hong Kong S.A.R.",
            "area_sqkm": "0",
            "check_me": "0",
            "code_local": "",
            "data_sources": [
                "natural"
            ],
            "datarank": "10",
            "diss_me": "5167",
            "featurecla": "Admin-1 scale rank",
            "fips": "",
            "fips_alt": "",
            "gadm_level": "0",
            "geonunit": "Hong Kong S.A.R.",
            "gn_a1_code": "HK.NYL",
            "gn_id": "1818224",
            "gn_level": "1",
            "gn_name": "Yuen Long District",
            "gn_region": "",
            "gns_adm1": "",
            "gns_id": "0",
            "gns_lang": "",
            "gns_level": "0",
            "gns_name": "",
            "gns_region": "",
            "gu_a3": "HKG",
            "hasc_maybe": "",
            "labelrank": "20",
            "mapcolor9": "4",
            "mapcolor13": "3",
            "max_label": "11.0",
            "min_label": "11.0",
            "min_zoom": "11.0",
            "name_ar": "",
            "name_bn": "",
            "name_de": "",
            "name_el": "",
            "name_en": "",
            "name_es": "",
            "name_fr": "",
            "name_hi": "",
            "name_hu": "",
            "name_id": "",
            "name_it": "",
            "name_ja": "",
            "name_ko": "",
            "name_len": "9",
            "name_local": "",
            "name_nl": "",
            "name_pl": "",
            "name_pt": "",
            "name_ru": "",
            "name_sv": "",
            "name_tr": "",
            "name_vi": "",
            "name_zh": "",
            "ne_id": "1159316545",
            "note": "",
            "provnum_ne": "0",
            "record_type": "state",
            "region": "The New Territories",
            "region_cod": "",
            "region_sub": "",
            "sameascity": "-99",
            "scalerank": "10",
            "sov_a3": "CH1",
            "sub_code": "",
            "wikidataid": "",
            "wikipedia": "",
            "woe_id": "24703143",
            "woe_label": "",
            "woe_name": "Yuen Long"
        },
        "geo": {
            "latitude": "22.44150000",
            "longitude": "114.0580000"
        },
        "iso_3166_2": "HK-X15~",
        "iso_a2": "HK",
        "iso_a3": "HKG",
        "name": "Yuen Long",
        "postal": "X15~",
        "type": "",
        "type_en": ""
    },
    "X16~": {
        "alt_names": [
            ""
        ],
        "cca2": "HK",
        "cca3": "HKG",
        "code_hasc": "HK.NO",
        "extra": {
            "abbrev": "",
            "adm0_a3": "HKG",
            "adm0_label": "5",
            "adm0_sr": "6",
            "adm1_code": "HKG-5168",
            "admin": "Hong Kong S.A.R.",
            "area_sqkm": "0",
            "check_me": "0",
            "code_local": "",
            "data_sources": [
                "natural"
            ],
            "datarank": "10",
            "diss_me": "5168",
            "featurecla": "Admin-1 scale rank",
            "fips": "",
            "fips_alt": "",
            "gadm_level": "0",
            "geonunit": "Hong Kong S.A.R.",
            "gn_a1_code": "HK.NNO",
            "gn_id": "7533617",
            "gn_level": "1",
            "gn_name": "North",
            "gn_region": "",
            "gns_adm1": "",
            "gns_id": "0",
            "gns_lang": "",
            "gns_level": "0",
            "gns_name": "",
            "gns_region": "",
            "gu_a3": "HKG",
            "hasc_maybe": "",
            "labelrank": "20",
            "mapcolor9": "4",
            "mapcolor13": "3",
            "max_label": "11.0",
            "min_label": "11.0",
            "min_zoom": "11.0",
            "name_ar": "",
            "name_bn": "",
            "name_de": "",
            "name_el": "",
            "name_en": "",
            "name_es": "",
            "name_fr": "",
            "name_hi": "",
            "name_hu": "",
            "name_id": "",
            "name_it": "",
            "name_ja": "",
            "name_ko": "",
            "name_len": "5",
            "name_local": "",
            "name_nl": "",
            "name_pl": "",
            "name_pt": "",
            "name_ru": "",
            "name_sv": "",
            "name_tr": "",
            "name_vi": "",
            "name_zh": "",
            "ne_id": "1159316547",
            "note": "",
            "provnum_ne": "0",
            "record_type": "state",
            "region": "The New Territories",
            "region_cod": "",
            "region_sub": "",
            "sameascity": "-99",
            "scalerank": "10",
            "sov_a3": "CH1",
            "sub_code": "",
            "wikidataid": "",
            "wikipedia": "",
            "woe_id": "24703142",
            "woe_label": "",
            "woe_name": "North"
        },
        "geo": {
            "latitude": "22.50630000",
            "longitude": "114.1480000"
        },
        "iso_3166_2": "HK-X16~",
        "iso_a2": "HK",
        "iso_a3": "HKG",
        "name": "North",
        "postal": "X16~",
        "type": "",
        "type_en": ""
    },
    "X17~": {
        "alt_names": [
            ""
        ],
        "cca2": "HK",
        "cca3": "HKG",
        "code_hasc": "HK.TP",
        "extra": {
            "abbrev": "",
            "adm0_a3": "HKG",
            "adm0_label": "5",
            "adm0_sr": "6",
            "adm1_code": "HKG-5169",
            "admin": "Hong Kong S.A.R.",
            "area_sqkm": "0",
            "check_me": "0",
            "code_local": "",
            "data_sources": [
                "natural"
            ],
            "datarank": "10",
            "diss_me": "5169",
            "featurecla": "Admin-1 scale rank",
            "fips": "",
            "fips_alt": "",
            "gadm_level": "0",
            "geonunit": "Hong Kong S.A.R.",
            "gn_a1_code": "HK.NTP",
            "gn_id": "1818672",
            "gn_level": "1",
            "gn_name": "Tai Po District",
            "gn_region": "",
            "gns_adm1": "",
            "gns_id": "0",
            "gns_lang": "",
            "gns_level": "0",
            "gns_name": "",
            "gns_region": "",
            "gu_a3": "HKG",
            "hasc_maybe": "",
            "labelrank": "20",
            "mapcolor9": "4",
            "mapcolor13": "3",
            "max_label": "11.0",
            "min_label": "11.0",
            "min_zoom": "11.0",
            "name_ar": "",
            "name_bn": "",
            "name_de": "",
            "name_el": "",
            "name_en": "",
            "name_es": "",
            "name_fr": "",
            "name_hi": "",
            "name_hu": "",
            "name_id": "",
            "name_it": "",
            "name_ja": "",
            "name_ko": "",
            "name_len": "6",
            "name_local": "",
            "name_nl": "",
            "name_pl": "",
            "name_pt": "",
            "name_ru": "",
            "name_sv": "",
            "name_tr": "",
            "name_vi": "",
            "name_zh": "",
            "ne_id": "1159316549",
            "note": "",
            "provnum_ne": "0",
            "record_type": "state",
            "region": "The New Territories",
            "region_cod": "",
            "region_sub": "",
            "sameascity": "-99",
            "scalerank": "10",
            "sov_a3": "CH1",
            "sub_code": "",
            "wikidataid": "",
            "wikipedia": "",
            "woe_id": "24703144",
            "woe_label": "",
            "woe_name": "Tai Po"
        },
        "geo": {
            "latitude": "22.44470000",
            "longitude": "114.1540000"
        },
        "iso_3166_2": "HK-X17~",
        "iso_a2": "HK",
        "iso_a3": "HKG",
        "name": "Tai Po",
        "postal": "X17~",
        "type": "",
        "type_en": ""
    },
    "X18~": {
        "alt_names": [
            ""
        ],
        "cca2": "HK",
        "cca3": "HKG",
        "code_hasc": "HK.IS",
        "extra": {
            "abbrev": "",
            "adm0_a3": "HKG",
            "adm0_label": "5",
            "adm0_sr": "6",
            "adm1_code": "HKG-5170",
            "admin": "Hong Kong S.A.R.",
            "area_sqkm": "0",
            "check_me": "0",
            "code_local": "",
            "data_sources": [
                "natural"
            ],
            "datarank": "10",
            "diss_me": "5170",
            "featurecla": "Admin-1 scale rank",
            "fips": "",
            "fips_alt": "",
            "gadm_level": "0",
            "geonunit": "Hong Kong S.A.R.",
            "gn_a1_code": "HK.NIS",
            "gn_id": "1819708",
            "gn_level": "1",
            "gn_name": "Islands District",
            "gn_region": "",
            "gns_adm1": "",
            "gns_id": "0",
            "gns_lang": "",
            "gns_level": "0",
            "gns_name": "",
            "gns_region": "",
            "gu_a3": "HKG",
            "hasc_maybe": "",
            "labelrank": "20",
            "mapcolor9": "4",
            "mapcolor13": "3",
            "max_label": "11.0",
            "min_label": "11.0",
            "min_zoom": "11.0",
            "name_ar": "",
            "name_bn": "",
            "name_de": "",
            "name_el": "",
            "name_en": "",
            "name_es": "",
            "name_fr": "",
            "name_hi": "",
            "name_hu": "",
            "name_id": "",
            "name_it": "",
            "name_ja": "",
            "name_ko": "",
            "name_len": "7",
            "name_local": "",
            "name_nl": "",
            "name_pl": "",
            "name_pt": "",
            "name_ru": "",
            "name_sv": "",
            "name_tr": "",
            "name_vi": "",
            "name_zh": "",
            "ne_id": "1159316551",
            "note": "",
            "provnum_ne": "0",
            "record_type": "state",
            "region": "The New Territories",
            "region_cod": "",
            "region_sub": "",
            "sameascity": "-99",
            "scalerank": "10",
            "sov_a3": "CH1",
            "sub_code": "",
            "wikidataid": "",
            "wikipedia": "",
            "woe_id": "24703127",
            "woe_label": "",
            "woe_name": "Islands"
        },
        "geo": {
            "latitude": "22.25970000",
            "longitude": "113.9540000"
        },
        "iso_3166_2": "HK-X18~",
        "iso_a2": "HK",
        "iso_a3": "HKG",
        "name": "Islands",
        "postal": "X18~",
        "type": "",
        "type_en": ""
    }
}