{
    "AR": {
        "alt_names": [
            "L\u02bfArtibonite"
        ],
        "cca2": "HT",
        "cca3": "HTI",
        "code_hasc": "HT.AR",
        "extra": {
            "abbrev": "",
            "adm0_a3": "HTI",
            "adm0_label": "5",
            "adm0_sr": "1",
            "adm1_code": "HTI-1384",
            "admin": "Haiti",
            "area_sqkm": "0",
            "check_me": "0",
            "code_local": "",
            "data_sources": [
                "natural"
            ],
            "datarank": "8",
            "diss_me": "1384",
            "featurecla": "Admin-1 scale rank",
            "fips": "HA06",
            "fips_alt": "",
            "gadm_level": "1",
            "geonunit": "Haiti",
            "gn_a1_code": "HT.06",
            "gn_id": "3731053",
            "gn_level": "1",
            "gn_name": "Departement de l'Artibonite",
            "gn_region": "",
            "gns_adm1": "HA06",
            "gns_id": "-57621",
            "gns_lang": "srp",
            "gns_level": "1",
            "gns_name": "Artibonite, Departement de l'",
            "gns_region": "",
            "gu_a3": "HTI",
            "hasc_maybe": "",
            "labelrank": "7",
            "mapcolor9": "7",
            "mapcolor13": "2",
            "max_label": "11.0",
            "min_label": "7.7",
            "min_zoom": "7.7",
            "name_ar": "\u00d8\u00a5\u00d8\u00af\u00d8\u00a7\u00d8\u00b1\u00d8\u00a9 \u00d8\u00a3\u00d8\u00b1\u00d8\u00aa\u00d9\u008a\u00d8\u00a8\u00d9\u0088\u00d9\u0086\u00d9\u008a\u00d8\u00aa",
            "name_bn": "\u00e0\u00a6\u0086\u00e0\u00a6\u00b0\u00e0\u00a7\u008d\u00e0\u00a6\u009f\u00e0\u00a6\u00bf\u00e0\u00a6\u00ac\u00e0\u00a7\u008b\u00e0\u00a6\u00a8\u00e0\u00a6\u00be\u00e0\u00a6\u0087\u00e0\u00a6\u009f",
            "name_de": "D\u00c3\u00a9partement Artibonite",
            "name_el": "\u00ce\u0091\u00cf\u0081\u00cf\u0084\u00ce\u00b9\u00ce\u00bc\u00cf\u0080\u00ce\u00bf\u00ce\u00bd\u00ce\u00af\u00cf\u0084",
            "name_en": "Artibonite",
            "name_es": "Artibonito",
            "name_fr": "Artibonite",
            "name_hi": "\u00e0\u00a4\u0086\u00e0\u00a4\u00b0\u00e0\u00a5\u008d\u00e0\u00a4\u009f\u00e0\u00a4\u00bf\u00e0\u00a4\u00ac\u00e0\u00a5\u008b\u00e0\u00a4\u00a8\u00e0\u00a4\u00bf\u00e0\u00a4\u009f",
            "name_hu": "",
            "name_id": "Departemen Artibonite",
            "name_it": "dipartimento dell'Artibonite",
            "name_ja": "\u00e3\u0082\u00a2\u00e3\u0083\u00ab\u00e3\u0083\u0086\u00e3\u0082\u00a3\u00e3\u0083\u009c\u00e3\u0083\u008b\u00e3\u0083\u0083\u00e3\u0083\u0088\u00e7\u009c\u008c",
            "name_ko": "\u00ec\u0095\u0084\u00eb\u00a5\u00b4\u00ed\u008b\u00b0\u00eb\u00b3\u00b4\u00eb\u008b\u0088\u00ed\u008a\u00b8 \u00ec\u00a3\u00bc",
            "name_len": "12",
            "name_local": "",
            "name_nl": "Artibonite",
            "name_pl": "Artibonite",
            "name_pt": "Artibonite",
            "name_ru": "\u00d0\u0090\u00d1\u0080\u00d1\u0082\u00d0\u00b8\u00d0\u00b1\u00d0\u00be\u00d0\u00bd\u00d0\u00b8\u00d1\u0082",
            "name_sv": "Artibonite",
            "name_tr": "Artibonite",
            "name_vi": "Artibonite",
            "name_zh": "\u00e9\u0098\u00bf\u00e8\u0092\u0082\u00e5\u008d\u009a\u00e5\u00b0\u00bc\u00e7\u0089\u00b9\u00e7\u009c\u0081",
            "ne_id": "1159310317",
            "note": "",
            "provnum_ne": "8",
            "record_type": "state",
            "region": "",
            "region_cod": "",
            "region_sub": "",
            "sameascity": "-99",
            "scalerank": "7",
            "sov_a3": "HTI",
            "sub_code": "",
            "wikidataid": "Q844024",
            "wikipedia": "",
            "woe_id": "2345615",
            "woe_label": "Artibonite, HT, Haiti",
            "woe_name": "L'Artibonite"
        },
        "geo": {
            "latitude": 19.362902,
            "longitude": -72.4258145,
            "max_latitude": 19.81222,
            "max_longitude": -72.1843108,
            "min_latitude": 18.8393919,
            "min_longitude": -73.1348189
        },
        "iso_3166_2": "HT-AR",
        "iso_a2": "HT",
        "iso_a3": "HTI",
        "name": "Artibonite",
        "postal": "AR",
        "type": "D\u00c3\u00a9partement",
        "type_en": "Department"
    },
    "CE": {
        "alt_names": [
            "Centre"
        ],
        "cca2": "HT",
        "cca3": "HTI",
        "code_hasc": "HT.CE",
        "extra": {
            "abbrev": "",
            "adm0_a3": "HTI",
            "adm0_label": "5",
            "adm0_sr": "1",
            "adm1_code": "HTI-1385",
            "admin": "Haiti",
            "area_sqkm": "0",
            "check_me": "0",
            "code_local": "",
            "data_sources": [
                "natural"
            ],
            "datarank": "8",
            "diss_me": "1385",
            "featurecla": "Admin-1 scale rank",
            "fips": "HA07",
            "fips_alt": "",
            "gadm_level": "1",
            "geonunit": "Haiti",
            "gn_a1_code": "HT.07",
            "gn_id": "3728069",
            "gn_level": "1",
            "gn_name": "Centre",
            "gn_region": "",
            "gns_adm1": "HA07",
            "gns_id": "-60628",
            "gns_lang": "srp",
            "gns_level": "1",
            "gns_name": "Centre, Departement du",
            "gns_region": "",
            "gu_a3": "HTI",
            "hasc_maybe": "",
            "labelrank": "7",
            "mapcolor9": "7",
            "mapcolor13": "2",
            "max_label": "11.0",
            "min_label": "7.7",
            "min_zoom": "7.7",
            "name_ar": "\u00d8\u00a7\u00d9\u0084\u00d8\u00a5\u00d8\u00af\u00d8\u00a7\u00d8\u00b1\u00d8\u00a9 \u00d8\u00a7\u00d9\u0084\u00d9\u0088\u00d8\u00b3\u00d8\u00b7\u00d9\u0089",
            "name_bn": "\u00e0\u00a6\u00b8\u00e0\u00a7\u0087\u00e0\u00a6\u00a8\u00e0\u00a7\u008d\u00e0\u00a6\u009f\u00e0\u00a6\u00be\u00e0\u00a6\u00b0",
            "name_de": "D\u00c3\u00a9partement Centre",
            "name_el": "\u00ce\u009a\u00ce\u00b5\u00ce\u00bd\u00cf\u0084\u00cf\u0081\u00ce\u00b9\u00ce\u00ba\u00cf\u008c \u00ce\u0094\u00ce\u00b9\u00ce\u00b1\u00ce\u00bc\u00ce\u00ad\u00cf\u0081\u00ce\u00b9\u00cf\u0083\u00ce\u00bc\u00ce\u00b1",
            "name_en": "Centre",
            "name_es": "Centro",
            "name_fr": "centre",
            "name_hi": "\u00e0\u00a4\u00b8\u00e0\u00a5\u0087\u00e0\u00a4\u0082\u00e0\u00a4\u009f\u00e0\u00a4\u00b0",
            "name_hu": "",
            "name_id": "Departemen Centre",
            "name_it": "dipartimento del Centro",
            "name_ja": "\u00e4\u00b8\u00ad\u00e5\u00a4\u00ae\u00e7\u009c\u008c",
            "name_ko": "\u00ec\u00a4\u0091\u00ec\u0095\u0099 \u00ec\u00a3\u00bc",
            "name_len": "6",
            "name_local": "",
            "name_nl": "Centre",
            "name_pl": "Departament Centralny",
            "name_pt": "Centro",
            "name_ru": "\u00d0\u00a6\u00d0\u00b5\u00d0\u00bd\u00d1\u0082\u00d1\u0080\u00d0\u00b0\u00d0\u00bb\u00d1\u008c\u00d0\u00bd\u00d1\u008b\u00d0\u00b9 \u00d0\u00b4\u00d0\u00b5\u00d0\u00bf\u00d0\u00b0\u00d1\u0080\u00d1\u0082\u00d0\u00b0\u00d0\u00bc\u00d0\u00b5\u00d0\u00bd\u00d1\u0082",
            "name_sv": "Centre",
            "name_tr": "Centre",
            "name_vi": "Centre",
            "name_zh": "\u00e4\u00b8\u00ad\u00e5\u00a4\u00ae\u00e7\u009c\u0081",
            "ne_id": "1159310319",
            "note": "",
            "provnum_ne": "7",
            "record_type": "state",
            "region": "",
            "region_cod": "",
            "region_sub": "",
            "sameascity": "-99",
            "scalerank": "7",
            "sov_a3": "HTI",
            "sub_code": "",
            "wikidataid": "Q844528",
            "wikipedia": "",
            "woe_id": "2345616",
            "woe_label": "Centre, HT, Haiti",
            "woe_name": "Centre"
        },
        "geo": {
            "latitude": 18.9582742,
            "longitude": -72.0468164,
            "max_latitude": 19.327567,
            "max_longitude": -71.613358,
            "min_latitude": 18.6777091,
            "min_longitude": -72.349538
        },
        "iso_3166_2": "HT-CE",
        "iso_a2": "HT",
        "iso_a3": "HTI",
        "name": "Centre",
        "postal": "CE",
        "type": "D\u00c3\u00a9partement",
        "type_en": "Department"
    },
    "GA": {
        "alt_names": [
            "Grande Anse"
        ],
        "cca2": "HT",
        "cca3": "HTI",
        "code_hasc": "HT.GR",
        "extra": {
            "abbrev": "",
            "adm0_a3": "HTI",
            "adm0_label": "5",
            "adm0_sr": "5",
            "adm1_code": "HTI-1359",
            "admin": "Haiti",
            "area_sqkm": "0",
            "check_me": "10",
            "code_local": "",
            "data_sources": [
                "natural"
            ],
            "datarank": "8",
            "diss_me": "1359",
            "featurecla": "Admin-1 scale rank",
            "fips": "HA14",
            "fips_alt": "HA08",
            "gadm_level": "1",
            "geonunit": "Haiti",
            "gn_a1_code": "HT.14",
            "gn_id": "3724613",
            "gn_level": "1",
            "gn_name": "Departement de la Grand'Anse",
            "gn_region": "",
            "gns_adm1": "HA14",
            "gns_id": "-64103",
            "gns_lang": "srp",
            "gns_level": "1",
            "gns_name": "Grand'Anse, Departement de la",
            "gns_region": "",
            "gu_a3": "HTI",
            "hasc_maybe": "",
            "labelrank": "7",
            "mapcolor9": "7",
            "mapcolor13": "2",
            "max_label": "11.0",
            "min_label": "7.7",
            "min_zoom": "7.7",
            "name_ar": "\u00d8\u00a5\u00d8\u00af\u00d8\u00a7\u00d8\u00b1\u00d8\u00a9 \u00d8\u00a2\u00d9\u0086\u00d8\u00b3 \u00d8\u00a7\u00d9\u0084\u00d9\u0083\u00d8\u00a8\u00d8\u00b1\u00d9\u0089",
            "name_bn": "\u00e0\u00a6\u0097\u00e0\u00a7\u008d\u00e0\u00a6\u00b0\u00e0\u00a6\u00be\u00e0\u00a6\u00a8\u00e0\u00a7\u008d\u00e0\u00a6\u00a1'\u00e0\u00a6\u0086\u00e0\u00a6\u00a8\u00e0\u00a7\u008d\u00e0\u00a6\u00b8\u00e0\u00a7\u0087",
            "name_de": "D\u00c3\u00a9partement Grand\u00e2\u0080\u0099Anse",
            "name_el": "\u00ce\u0093\u00ce\u00ba\u00cf\u0081\u00ce\u00b1\u00ce\u00bd\u00cf\u0084 \u00ce\u0091\u00ce\u00bd\u00cf\u0082",
            "name_en": "Grand'Anse",
            "name_es": "Grand\u00e2\u0080\u0099Anse",
            "name_fr": "Grand'Anse",
            "name_hi": "\u00e0\u00a4\u0097\u00e0\u00a5\u008d\u00e0\u00a4\u00b0\u00e0\u00a5\u0088\u00e0\u00a4\u0082\u00e0\u00a4\u00a1'\u00e0\u00a4\u008f\u00e0\u00a4\u00a8\u00e0\u00a5\u008d\u00e0\u00a4\u00b8\u00e0\u00a5\u0087",
            "name_hu": "",
            "name_id": "Departemen Grand'Anse",
            "name_it": "dipartimento di Grand'Anse",
            "name_ja": "\u00e3\u0082\u00b0\u00e3\u0083\u00a9\u00e3\u0083\u00b3\u00e3\u0083\u0080\u00e3\u0083\u00b3\u00e3\u0082\u00b9\u00e7\u009c\u008c",
            "name_ko": "\u00ea\u00b7\u00b8\u00eb\u009e\u0091\u00eb\u008b\u00b9\u00ec\u008a\u00a4 \u00ec\u00a3\u00bc",
            "name_len": "10",
            "name_local": "",
            "name_nl": "Grand'Anse",
            "name_pl": "Departament Grand'Anse",
            "name_pt": "Grande Enseada",
            "name_ru": "\u00d0\u0093\u00d1\u0080\u00d0\u00b0\u00d0\u00bd\u00d0\u00b4-\u00d0\u0090\u00d0\u00bd\u00d1\u0081",
            "name_sv": "Grand'Anse",
            "name_tr": "Grand'Anse",
            "name_vi": "Grand'Anse",
            "name_zh": "\u00e5\u00a4\u00a7\u00e7\u0081\u00a3\u00e7\u009c\u0081",
            "ne_id": "1159310297",
            "note": "",
            "provnum_ne": "3",
            "record_type": "state",
            "region": "",
            "region_cod": "",
            "region_sub": "",
            "sameascity": "-99",
            "scalerank": "7",
            "sov_a3": "HTI",
            "sub_code": "",
            "wikidataid": "Q913231",
            "wikipedia": "",
            "woe_id": "2345617",
            "woe_label": "Grand 'Anse, HT, Haiti",
            "woe_name": "Grand'Anse"
        },
        "geo": {
            "latitude": 18.5489259,
            "longitude": -74.07701,
            "max_latitude": 18.6759873,
            "max_longitude": -73.698699,
            "min_latitude": 18.357681,
            "min_longitude": -74.4768955
        },
        "iso_3166_2": "HT-GA",
        "iso_a2": "HT",
        "iso_a3": "HTI",
        "name": "Grande-Anse",
        "postal": "GA",
        "type": "D\u00c3\u00a9partement",
        "type_en": "Department"
    },
    "ND": {
        "alt_names": [
            "Nord"
        ],
        "cca2": "HT",
        "cca3": "HTI",
        "code_hasc": "HT.ND",
        "extra": {
            "abbrev": "",
            "adm0_a3": "HTI",
            "adm0_label": "5",
            "adm0_sr": "1",
            "adm1_code": "HTI-1387",
            "admin": "Haiti",
            "area_sqkm": "0",
            "check_me": "0",
            "code_local": "",
            "data_sources": [
                "natural"
            ],
            "datarank": "8",
            "diss_me": "1387",
            "featurecla": "Admin-1 scale rank",
            "fips": "HA09",
            "fips_alt": "",
            "gadm_level": "1",
            "geonunit": "Haiti",
            "gn_a1_code": "HT.09",
            "gn_id": "3719543",
            "gn_level": "1",
            "gn_name": "Nord",
            "gn_region": "",
            "gns_adm1": "HA09",
            "gns_id": "-69190",
            "gns_lang": "srp",
            "gns_level": "1",
            "gns_name": "Nord, Departement du",
            "gns_region": "",
            "gu_a3": "HTI",
            "hasc_maybe": "",
            "labelrank": "7",
            "mapcolor9": "7",
            "mapcolor13": "2",
            "max_label": "11.0",
            "min_label": "7.7",
            "min_zoom": "7.7",
            "name_ar": "\u00d8\u00a7\u00d9\u0084\u00d8\u00a5\u00d8\u00af\u00d8\u00a7\u00d8\u00b1\u00d8\u00a9 \u00d8\u00a7\u00d9\u0084\u00d8\u00b4\u00d9\u0085\u00d8\u00a7\u00d9\u0084\u00d9\u008a\u00d8\u00a9",
            "name_bn": "\u00e0\u00a6\u00a8\u00e0\u00a6\u00b0\u00e0\u00a7\u008d\u00e0\u00a6\u00a1",
            "name_de": "D\u00c3\u00a9partement Nord",
            "name_el": "\u00ce\u0092\u00cf\u008c\u00cf\u0081\u00ce\u00b5\u00ce\u00b9\u00ce\u00bf \u00ce\u0094\u00ce\u00b9\u00ce\u00b1\u00ce\u00bc\u00ce\u00ad\u00cf\u0081\u00ce\u00b9\u00cf\u0083\u00ce\u00bc\u00ce\u00b1",
            "name_en": "Nord",
            "name_es": "Departamento Norte",
            "name_fr": "Nord",
            "name_hi": "\u00e0\u00a4\u00a8\u00e0\u00a5\u008b\u00e0\u00a4\u00b0\u00e0\u00a5\u008d\u00e0\u00a4\u00a1",
            "name_hu": "",
            "name_id": "Nord",
            "name_it": "dipartimento del Nord",
            "name_ja": "\u00e5\u008c\u0097\u00e7\u009c\u008c",
            "name_ko": "\u00eb\u00b6\u0081\u00eb\u00b6\u0080 \u00ec\u00a3\u00bc",
            "name_len": "4",
            "name_local": "",
            "name_nl": "Nord",
            "name_pl": "Departament P\u00c3\u00b3\u00c5\u0082nocny",
            "name_pt": "Departamento do Norte",
            "name_ru": "\u00d0\u00a1\u00d0\u00b5\u00d0\u00b2\u00d0\u00b5\u00d1\u0080\u00d0\u00bd\u00d1\u008b\u00d0\u00b9 \u00d0\u00b4\u00d0\u00b5\u00d0\u00bf\u00d0\u00b0\u00d1\u0080\u00d1\u0082\u00d0\u00b0\u00d0\u00bc\u00d0\u00b5\u00d0\u00bd\u00d1\u0082 \u00d0\u0093\u00d0\u00b0\u00d0\u00b8\u00d1\u0082\u00d0\u00b8",
            "name_sv": "Nord",
            "name_tr": "Nord",
            "name_vi": "Nord",
            "name_zh": "\u00e5\u008c\u0097\u00e9\u0083\u00a8\u00e7\u009c\u0081",
            "ne_id": "1159310323",
            "note": "",
            "provnum_ne": "5",
            "record_type": "state",
            "region": "",
            "region_cod": "",
            "region_sub": "",
            "sameascity": "-99",
            "scalerank": "7",
            "sov_a3": "HTI",
            "sub_code": "",
            "wikidataid": "Q943932",
            "wikipedia": "",
            "woe_id": "2345618",
            "woe_label": "Nord, HT, Haiti",
            "woe_name": "Nord"
        },
        "geo": {
            "latitude": 19.5687715,
            "longitude": -72.189,
            "max_latitude": 19.8828792,
            "max_longitude": -71.961071,
            "min_latitude": 19.2473899,
            "min_longitude": -72.6788249
        },
        "iso_3166_2": "HT-ND",
        "iso_a2": "HT",
        "iso_a3": "HTI",
        "name": "Nord",
        "postal": "ND",
        "type": "D\u00c3\u00a9partement",
        "type_en": "Department"
    },
    "NE": {
        "alt_names": [
            "Nord-Est"
        ],
        "cca2": "HT",
        "cca3": "HTI",
        "code_hasc": "HT.NE",
        "extra": {
            "abbrev": "",
            "adm0_a3": "HTI",
            "adm0_label": "5",
            "adm0_sr": "1",
            "adm1_code": "HTI-1386",
            "admin": "Haiti",
            "area_sqkm": "0",
            "check_me": "0",
            "code_local": "",
            "data_sources": [
                "natural"
            ],
            "datarank": "8",
            "diss_me": "1386",
            "featurecla": "Admin-1 scale rank",
            "fips": "HA10",
            "fips_alt": "",
            "gadm_level": "1",
            "geonunit": "Haiti",
            "gn_a1_code": "HT.10",
            "gn_id": "3719540",
            "gn_level": "1",
            "gn_name": "Departement du Nord-Est",
            "gn_region": "",
            "gns_adm1": "HA10",
            "gns_id": "-69193",
            "gns_lang": "srp",
            "gns_level": "1",
            "gns_name": "Nord-Est, Departement du",
            "gns_region": "",
            "gu_a3": "HTI",
            "hasc_maybe": "",
            "labelrank": "7",
            "mapcolor9": "7",
            "mapcolor13": "2",
            "max_label": "11.0",
            "min_label": "7.7",
            "min_zoom": "7.7",
            "name_ar": "\u00d8\u00a7\u00d9\u0084\u00d8\u00a5\u00d8\u00af\u00d8\u00a7\u00d8\u00b1\u00d8\u00a9 \u00d8\u00a7\u00d9\u0084\u00d8\u00b4\u00d9\u0085\u00d8\u00a7\u00d9\u0084 \u00d8\u00b4\u00d8\u00b1\u00d9\u0082\u00d9\u008a\u00d8\u00a9",
            "name_bn": "\u00e0\u00a6\u00a8\u00e0\u00a6\u00b0\u00e0\u00a7\u008d\u00e0\u00a6\u00a1-\u00e0\u00a6\u008f\u00e0\u00a6\u00b8\u00e0\u00a7\u008d\u00e0\u00a6\u009f",
            "name_de": "D\u00c3\u00a9partement Nord-Est",
            "name_el": "\u00ce\u0092\u00ce\u00bf\u00cf\u0081\u00ce\u00b5\u00ce\u00b9\u00ce\u00bf\u00ce\u00b1\u00ce\u00bd\u00ce\u00b1\u00cf\u0084\u00ce\u00bf\u00ce\u00bb\u00ce\u00b9\u00ce\u00ba\u00cf\u008c \u00ce\u0094\u00ce\u00b9\u00ce\u00b1\u00ce\u00bc\u00ce\u00ad\u00cf\u0081\u00ce\u00b9\u00cf\u0083\u00ce\u00bc\u00ce\u00b1",
            "name_en": "Nord-Est",
            "name_es": "Departamento Nordeste",
            "name_fr": "Nord-Est",
            "name_hi": "\u00e0\u00a4\u00a8\u00e0\u00a5\u008b\u00e0\u00a4\u00b0\u00e0\u00a5\u008d\u00e0\u00a4\u00a1-\u00e0\u00a4\u008f\u00e0\u00a4\u00b8\u00e0\u00a5\u008d\u00e0\u00a4\u009f",
            "name_hu": "",
            "name_id": "Nord-Est",
            "name_it": "dipartimento del Nordest",
            "name_ja": "\u00e5\u008c\u0097\u00e6\u009d\u00b1\u00e7\u009c\u008c",
            "name_ko": "\u00eb\u00b6\u0081\u00eb\u008f\u0099\u00eb\u00b6\u0080 \u00ec\u00a3\u00bc",
            "name_len": "8",
            "name_local": "",
            "name_nl": "Nord-Est",
            "name_pl": "Departament P\u00c3\u00b3\u00c5\u0082nocno-Wschodni",
            "name_pt": "Nordeste",
            "name_ru": "\u00d0\u00a1\u00d0\u00b5\u00d0\u00b2\u00d0\u00b5\u00d1\u0080\u00d0\u00be-\u00d0\u0092\u00d0\u00be\u00d1\u0081\u00d1\u0082\u00d0\u00be\u00d1\u0087\u00d0\u00bd\u00d1\u008b\u00d0\u00b9 \u00d0\u00b4\u00d0\u00b5\u00d0\u00bf\u00d0\u00b0\u00d1\u0080\u00d1\u0082\u00d0\u00b0\u00d0\u00bc\u00d0\u00b5\u00d0\u00bd\u00d1\u0082",
            "name_sv": "Nord-Est",
            "name_tr": "Nord-Est",
            "name_vi": "Nord-Est",
            "name_zh": "\u00e4\u00b8\u009c\u00e5\u008c\u0097\u00e7\u009c\u0081",
            "ne_id": "1159310321",
            "note": "",
            "provnum_ne": "11",
            "record_type": "state",
            "region": "",
            "region_cod": "",
            "region_sub": "",
            "sameascity": "-99",
            "scalerank": "7",
            "sov_a3": "HTI",
            "sub_code": "",
            "wikidataid": "Q928694",
            "wikipedia": "",
            "woe_id": "2345619",
            "woe_label": "Nord-Est, HT, Haiti",
            "woe_name": "Nord-Est"
        },
        "geo": {
            "latitude": 19.4889723,
            "longitude": -71.8571331,
            "max_latitude": 19.7289295,
            "max_longitude": -71.675034,
            "min_latitude": 19.2588809,
            "min_longitude": -72.11789
        },
        "iso_3166_2": "HT-NE",
        "iso_a2": "HT",
        "iso_a3": "HTI",
        "name": "Nord-Est",
        "postal": "NE",
        "type": "D\u00c3\u00a9partement",
        "type_en": "Department"
    },
    "NI": {
        "alt_names": [
            ""
        ],
        "cca2": "HT",
        "cca3": "HTI",
        "code_hasc": "HT.NI",
        "extra": {
            "abbrev": "",
            "adm0_a3": "HTI",
            "adm0_label": "5",
            "adm0_sr": "1",
            "adm1_code": "HTI-1360",
            "admin": "Haiti",
            "area_sqkm": "0",
            "check_me": "10",
            "code_local": "",
            "data_sources": [
                "natural"
            ],
            "datarank": "8",
            "diss_me": "1360",
            "featurecla": "Admin-1 scale rank",
            "fips": "HA15",
            "fips_alt": "HA08",
            "gadm_level": "1",
            "geonunit": "Haiti",
            "gn_a1_code": "HT.15",
            "gn_id": "7115999",
            "gn_level": "1",
            "gn_name": "Departement de Nippes",
            "gn_region": "",
            "gns_adm1": "HA15",
            "gns_id": "11473450",
            "gns_lang": "vie",
            "gns_level": "1",
            "gns_name": "Nippes, Departement des",
            "gns_region": "",
            "gu_a3": "HTI",
            "hasc_maybe": "",
            "labelrank": "7",
            "mapcolor9": "7",
            "mapcolor13": "2",
            "max_label": "11.0",
            "min_label": "7.7",
            "min_zoom": "7.7",
            "name_ar": "\u00d8\u00a5\u00d8\u00af\u00d8\u00a7\u00d8\u00b1\u00d8\u00a9 \u00d9\u0086\u00d9\u008a\u00d8\u00a8\u00d9\u008a\u00d8\u00b3",
            "name_bn": "\u00e0\u00a6\u00a8\u00e0\u00a6\u00bf\u00e0\u00a6\u00aa\u00e0\u00a7\u0087\u00e0\u00a6\u00b8",
            "name_de": "D\u00c3\u00a9partement Nippes",
            "name_el": "\u00ce\u009d\u00ce\u00b9\u00cf\u0080\u00cf\u0082",
            "name_en": "Nippes",
            "name_es": "Nippes",
            "name_fr": "Nippes",
            "name_hi": "\u00e0\u00a4\u00a8\u00e0\u00a4\u00bf\u00e0\u00a4\u00aa\u00e0\u00a5\u0087\u00e0\u00a4\u00b8",
            "name_hu": "",
            "name_id": "Nippes",
            "name_it": "dipartimento di Nippes",
            "name_ja": "\u00e3\u0083\u008b\u00e3\u0083\u0083\u00e3\u0083\u0097\u00e7\u009c\u008c",
            "name_ko": "\u00eb\u008b\u0088\u00ed\u0094\u0084 \u00ec\u00a3\u00bc",
            "name_len": "6",
            "name_local": "",
            "name_nl": "Nippes",
            "name_pl": "Departament Nippes",
            "name_pt": "Nippes",
            "name_ru": "\u00d0\u009d\u00d0\u00b8\u00d0\u00bf",
            "name_sv": "Nippes",
            "name_tr": "Nippes",
            "name_vi": "Nippes",
            "name_zh": "\u00e5\u00b0\u00bc\u00e6\u0099\u00ae\u00e6\u0096\u00af\u00e7\u009c\u0081",
            "ne_id": "1159310327",
            "note": "",
            "provnum_ne": "9",
            "record_type": "state",
            "region": "",
            "region_cod": "",
            "region_sub": "",
            "sameascity": "-99",
            "scalerank": "7",
            "sov_a3": "HTI",
            "sub_code": "",
            "wikidataid": "Q125232",
            "wikipedia": "http:\/\/en.wikipedia.org\/wiki\/Nippes_Department",
            "woe_id": "-2345617",
            "woe_label": "",
            "woe_name": ""
        },
        "geo": {
            "latitude": "18.42970000",
            "longitude": "-73.3909000"
        },
        "iso_3166_2": "HT-NI",
        "iso_a2": "HT",
        "iso_a3": "HTI",
        "name": "Nippes",
        "postal": "NI",
        "type": "D\u00c3\u00a9partement",
        "type_en": "Department"
    },
    "NO": {
        "alt_names": [
            "Nord-Ouest"
        ],
        "cca2": "HT",
        "cca3": "HTI",
        "code_hasc": "HT.NO",
        "extra": {
            "abbrev": "",
            "adm0_a3": "HTI",
            "adm0_label": "5",
            "adm0_sr": "1",
            "adm1_code": "HTI-1361",
            "admin": "Haiti",
            "area_sqkm": "0",
            "check_me": "0",
            "code_local": "",
            "data_sources": [
                "natural"
            ],
            "datarank": "8",
            "diss_me": "1361",
            "featurecla": "Admin-1 scale rank",
            "fips": "HA03",
            "fips_alt": "",
            "gadm_level": "1",
            "geonunit": "Haiti",
            "gn_a1_code": "HT.03",
            "gn_id": "3719536",
            "gn_level": "1",
            "gn_name": "Nord-Ouest",
            "gn_region": "",
            "gns_adm1": "HA03",
            "gns_id": "-69197",
            "gns_lang": "srp",
            "gns_level": "1",
            "gns_name": "Nord-Ouest, Departement du",
            "gns_region": "",
            "gu_a3": "HTI",
            "hasc_maybe": "",
            "labelrank": "7",
            "mapcolor9": "7",
            "mapcolor13": "2",
            "max_label": "11.0",
            "min_label": "7.7",
            "min_zoom": "7.7",
            "name_ar": "\u00d8\u00a7\u00d9\u0084\u00d8\u00a5\u00d8\u00af\u00d8\u00a7\u00d8\u00b1\u00d8\u00a9 \u00d8\u00a7\u00d9\u0084\u00d8\u00b4\u00d9\u0085\u00d8\u00a7\u00d9\u0084 \u00d8\u00ba\u00d8\u00b1\u00d8\u00a8\u00d9\u008a\u00d8\u00a9",
            "name_bn": "\u00e0\u00a6\u00a8\u00e0\u00a6\u00b0\u00e0\u00a7\u008d\u00e0\u00a6\u00a1-\u00e0\u00a6\u0095\u00e0\u00a7\u0081\u00e0\u00a6\u00af\u00e0\u00a6\u00bc\u00e0\u00a7\u0087\u00e0\u00a6\u00b8\u00e0\u00a7\u008d\u00e0\u00a6\u009f",
            "name_de": "D\u00c3\u00a9partement Nord-Ouest",
            "name_el": "\u00ce\u0092\u00ce\u00bf\u00cf\u0081\u00ce\u00b5\u00ce\u00b9\u00ce\u00bf\u00ce\u00b4\u00cf\u0085\u00cf\u0084\u00ce\u00b9\u00ce\u00ba\u00cf\u008c \u00ce\u0094\u00ce\u00b9\u00ce\u00b1\u00ce\u00bc\u00ce\u00ad\u00cf\u0081\u00ce\u00b9\u00cf\u0083\u00ce\u00bc\u00ce\u00b1",
            "name_en": "Nord-Ouest",
            "name_es": "Departamento Noroeste",
            "name_fr": "Nord-Ouest",
            "name_hi": "\u00e0\u00a4\u00a8\u00e0\u00a5\u008b\u00e0\u00a4\u00b0\u00e0\u00a5\u008d\u00e0\u00a4\u00a1-\u00e0\u00a4\u0091\u00e0\u00a4\u00b8\u00e0\u00a5\u008d\u00e0\u00a4\u009f",
            "name_hu": "",
            "name_id": "Nord-Ouest",
            "name_it": "dipartimento del Nordovest",
            "name_ja": "\u00e5\u008c\u0097\u00e8\u00a5\u00bf\u00e7\u009c\u008c",
            "name_ko": "\u00eb\u00b6\u0081\u00ec\u0084\u009c\u00eb\u00b6\u0080 \u00ec\u00a3\u00bc",
            "name_len": "10",
            "name_local": "",
            "name_nl": "Nord-Ouest",
            "name_pl": "Departament P\u00c3\u00b3\u00c5\u0082nocno-Zachodni",
            "name_pt": "Noroeste",
            "name_ru": "\u00d0\u00a1\u00d0\u00b5\u00d0\u00b2\u00d0\u00b5\u00d1\u0080\u00d0\u00be-\u00d0\u0097\u00d0\u00b0\u00d0\u00bf\u00d0\u00b0\u00d0\u00b4\u00d0\u00bd\u00d1\u008b\u00d0\u00b9 \u00d0\u00b4\u00d0\u00b5\u00d0\u00bf\u00d0\u00b0\u00d1\u0080\u00d1\u0082\u00d0\u00b0\u00d0\u00bc\u00d0\u00b5\u00d0\u00bd\u00d1\u0082",
            "name_sv": "Nord-Ouest",
            "name_tr": "Nord-Ouest",
            "name_vi": "Nord-Ouest",
            "name_zh": "\u00e8\u00a5\u00bf\u00e5\u008c\u0097\u00e7\u009c\u0081",
            "ne_id": "1159310329",
            "note": "",
            "provnum_ne": "1",
            "record_type": "state",
            "region": "",
            "region_cod": "",
            "region_sub": "",
            "sameascity": "-99",
            "scalerank": "7",
            "sov_a3": "HTI",
            "sub_code": "",
            "wikidataid": "Q608361",
            "wikipedia": "",
            "woe_id": "2345614",
            "woe_label": "Nord-Ouest, HT, Haiti",
            "woe_name": "Nord-Ouest"
        },
        "geo": {
            "latitude": 19.8374009,
            "longitude": -73.0405277,
            "max_latitude": 20.0877688,
            "max_longitude": -72.565755,
            "min_latitude": 19.625431,
            "min_longitude": -73.451469
        },
        "iso_3166_2": "HT-NO",
        "iso_a2": "HT",
        "iso_a3": "HTI",
        "name": "Nord-Ouest",
        "postal": "NO",
        "type": "D\u00c3\u00a9partement",
        "type_en": "Department"
    },
    "OU": {
        "alt_names": [
            "Ouest"
        ],
        "cca2": "HT",
        "cca3": "HTI",
        "code_hasc": "HT.OU",
        "extra": {
            "abbrev": "",
            "adm0_a3": "HTI",
            "adm0_label": "5",
            "adm0_sr": "3",
            "adm1_code": "HTI-1388",
            "admin": "Haiti",
            "area_sqkm": "0",
            "check_me": "0",
            "code_local": "",
            "data_sources": [
                "natural"
            ],
            "datarank": "6",
            "diss_me": "1388",
            "featurecla": "Admin-1 scale rank",
            "fips": "HA11",
            "fips_alt": "",
            "gadm_level": "1",
            "geonunit": "Haiti",
            "gn_a1_code": "HT.11",
            "gn_id": "3719432",
            "gn_level": "1",
            "gn_name": "Departement de l'Ouest",
            "gn_region": "",
            "gns_adm1": "HA11",
            "gns_id": "-69301",
            "gns_lang": "srp",
            "gns_level": "1",
            "gns_name": "Ouest, Departement de l'",
            "gns_region": "",
            "gu_a3": "HTI",
            "hasc_maybe": "",
            "labelrank": "7",
            "mapcolor9": "7",
            "mapcolor13": "2",
            "max_label": "11.0",
            "min_label": "7.7",
            "min_zoom": "7.7",
            "name_ar": "\u00d8\u00a7\u00d9\u0084\u00d8\u00a5\u00d8\u00af\u00d8\u00a7\u00d8\u00b1\u00d8\u00a9 \u00d8\u00a7\u00d9\u0084\u00d8\u00ba\u00d8\u00b1\u00d8\u00a8\u00d9\u008a\u00d8\u00a9",
            "name_bn": "\u00e0\u00a6\u0086\u00e0\u00a6\u0089\u00e0\u00a6\u00af\u00e0\u00a6\u00bc\u00e0\u00a7\u0087\u00e0\u00a6\u00b8\u00e0\u00a7\u008d\u00e0\u00a6\u009f",
            "name_de": "D\u00c3\u00a9partement Ouest",
            "name_el": "\u00ce\u0094\u00cf\u0085\u00cf\u0084\u00ce\u00b9\u00ce\u00ba\u00cf\u008c \u00ce\u0094\u00ce\u00b9\u00ce\u00b1\u00ce\u00bc\u00ce\u00ad\u00cf\u0081\u00ce\u00b9\u00cf\u0083\u00ce\u00bc\u00ce\u00b1",
            "name_en": "Ouest",
            "name_es": "Oeste",
            "name_fr": "Ouest",
            "name_hi": "\u00e0\u00a4\u008a\u00e0\u00a4\u008f\u00e0\u00a4\u00b8\u00e0\u00a5\u008d\u00e0\u00a4\u009f",
            "name_hu": "",
            "name_id": "Ouest",
            "name_it": "dipartimento dell'Ovest",
            "name_ja": "\u00e8\u00a5\u00bf\u00e7\u009c\u008c",
            "name_ko": "\u00ec\u0084\u009c\u00eb\u00b6\u0080 \u00ec\u00a3\u00bc",
            "name_len": "5",
            "name_local": "",
            "name_nl": "Ouest",
            "name_pl": "Departament Zachodni",
            "name_pt": "Departamento do Oeste",
            "name_ru": "\u00d0\u0097\u00d0\u00b0\u00d0\u00bf\u00d0\u00b0\u00d0\u00b4\u00d0\u00bd\u00d1\u008b\u00d0\u00b9 \u00d0\u00b4\u00d0\u00b5\u00d0\u00bf\u00d0\u00b0\u00d1\u0080\u00d1\u0082\u00d0\u00b0\u00d0\u00bc\u00d0\u00b5\u00d0\u00bd\u00d1\u0082 \u00d0\u0093\u00d0\u00b0\u00d0\u00b8\u00d1\u0082\u00d0\u00b8",
            "name_sv": "Ouest",
            "name_tr": "Ouest",
            "name_vi": "Ouest",
            "name_zh": "\u00e8\u00a5\u00bf\u00e9\u0083\u00a8\u00e7\u009c\u0081",
            "ne_id": "1159310299",
            "note": "",
            "provnum_ne": "4",
            "record_type": "state",
            "region": "",
            "region_cod": "",
            "region_sub": "",
            "sameascity": "-99",
            "scalerank": "7",
            "sov_a3": "HTI",
            "sub_code": "",
            "wikidataid": "Q1434621",
            "wikipedia": "",
            "woe_id": "2345620",
            "woe_label": "Ouest, HT, Haiti",
            "woe_name": "Ouest"
        },
        "geo": {
            "latitude": 18.4957015,
            "longitude": -72.4731529,
            "max_latitude": 18.9696918,
            "max_longitude": -71.6928559,
            "min_latitude": 18.2460119,
            "min_longitude": -73.299515
        },
        "iso_3166_2": "HT-OU",
        "iso_a2": "HT",
        "iso_a3": "HTI",
        "name": "Ouest",
        "postal": "OU",
        "type": "D\u00c3\u00a9partement",
        "type_en": "Department"
    },
    "SD": {
        "alt_names": [
            "Sud"
        ],
        "cca2": "HT",
        "cca3": "HTI",
        "code_hasc": "HT.SD",
        "extra": {
            "abbrev": "",
            "adm0_a3": "HTI",
            "adm0_label": "5",
            "adm0_sr": "5",
            "adm1_code": "HTI-1362",
            "admin": "Haiti",
            "area_sqkm": "0",
            "check_me": "0",
            "code_local": "",
            "data_sources": [
                "natural"
            ],
            "datarank": "6",
            "diss_me": "1362",
            "featurecla": "Admin-1 scale rank",
            "fips": "HA12",
            "fips_alt": "",
            "gadm_level": "1",
            "geonunit": "Haiti",
            "gn_a1_code": "HT.12",
            "gn_id": "3716952",
            "gn_level": "1",
            "gn_name": "Sud",
            "gn_region": "",
            "gns_adm1": "HA12",
            "gns_id": "-71787",
            "gns_lang": "srp",
            "gns_level": "1",
            "gns_name": "Sud, Departement du",
            "gns_region": "",
            "gu_a3": "HTI",
            "hasc_maybe": "",
            "labelrank": "7",
            "mapcolor9": "7",
            "mapcolor13": "2",
            "max_label": "11.0",
            "min_label": "7.7",
            "min_zoom": "7.7",
            "name_ar": "\u00d8\u00a7\u00d9\u0084\u00d8\u00a5\u00d8\u00af\u00d8\u00a7\u00d8\u00b1\u00d8\u00a9 \u00d8\u00a7\u00d9\u0084\u00d8\u00ac\u00d9\u0086\u00d9\u0088\u00d8\u00a8\u00d9\u008a\u00d8\u00a9",
            "name_bn": "\u00e0\u00a6\u00b8\u00e0\u00a7\u0081\u00e0\u00a6\u00a6",
            "name_de": "D\u00c3\u00a9partement Sud",
            "name_el": "\u00ce\u00a3\u00ce\u00bf\u00cf\u0085\u00ce\u00bd\u00cf\u0084",
            "name_en": "Sud",
            "name_es": "Departamento Sur",
            "name_fr": "Sud",
            "name_hi": "\u00e0\u00a4\u00b8\u00e0\u00a5\u0081\u00e0\u00a4\u00a1",
            "name_hu": "",
            "name_id": "Sud",
            "name_it": "dipartimento del Sud",
            "name_ja": "\u00e5\u008d\u0097\u00e7\u009c\u008c",
            "name_ko": "\u00eb\u0082\u00a8\u00eb\u00b6\u0080 \u00ec\u00a3\u00bc",
            "name_len": "3",
            "name_local": "",
            "name_nl": "Sud",
            "name_pl": "Departament Po\u00c5\u0082udniowy",
            "name_pt": "Departamento do Sul",
            "name_ru": "\u00d0\u00ae\u00d0\u00b6\u00d0\u00bd\u00d1\u008b\u00d0\u00b9 \u00d0\u00b4\u00d0\u00b5\u00d0\u00bf\u00d0\u00b0\u00d1\u0080\u00d1\u0082\u00d0\u00b0\u00d0\u00bc\u00d0\u00b5\u00d0\u00bd\u00d1\u0082",
            "name_sv": "Sud",
            "name_tr": "Sud",
            "name_vi": "Sud",
            "name_zh": "\u00e5\u008d\u0097\u00e9\u0083\u00a8\u00e7\u009c\u0081",
            "ne_id": "1159310255",
            "note": "",
            "provnum_ne": "2",
            "record_type": "state",
            "region": "",
            "region_cod": "",
            "region_sub": "",
            "sameascity": "-99",
            "scalerank": "7",
            "sov_a3": "HTI",
            "sub_code": "",
            "wikidataid": "Q936704",
            "wikipedia": "",
            "woe_id": "2345621",
            "woe_label": "Sud, HT, Haiti",
            "woe_name": "Sud"
        },
        "geo": {
            "latitude": 18.3320005,
            "longitude": -73.7007088,
            "max_latitude": 18.423093,
            "max_longitude": -72.9886701,
            "min_latitude": 18.0220783,
            "min_longitude": -74.446304
        },
        "iso_3166_2": "HT-SD",
        "iso_a2": "HT",
        "iso_a3": "HTI",
        "name": "Sud",
        "postal": "SD",
        "type": "D\u00c3\u00a9partement",
        "type_en": "Department"
    },
    "SE": {
        "alt_names": [
            "Sud-Est"
        ],
        "cca2": "HT",
        "cca3": "HTI",
        "code_hasc": "HT.SE",
        "extra": {
            "abbrev": "",
            "adm0_a3": "HTI",
            "adm0_label": "5",
            "adm0_sr": "1",
            "adm1_code": "HTI-1389",
            "admin": "Haiti",
            "area_sqkm": "0",
            "check_me": "0",
            "code_local": "",
            "data_sources": [
                "natural"
            ],
            "datarank": "8",
            "diss_me": "1389",
            "featurecla": "Admin-1 scale rank",
            "fips": "HA13",
            "fips_alt": "",
            "gadm_level": "1",
            "geonunit": "Haiti",
            "gn_a1_code": "HT.13",
            "gn_id": "3716950",
            "gn_level": "1",
            "gn_name": "Sud-Est",
            "gn_region": "",
            "gns_adm1": "HA13",
            "gns_id": "-71789",
            "gns_lang": "srp",
            "gns_level": "1",
            "gns_name": "Sud-Est, Departement du",
            "gns_region": "",
            "gu_a3": "HTI",
            "hasc_maybe": "",
            "labelrank": "7",
            "mapcolor9": "7",
            "mapcolor13": "2",
            "max_label": "11.0",
            "min_label": "7.7",
            "min_zoom": "7.7",
            "name_ar": "\u00d8\u00a7\u00d9\u0084\u00d8\u00a5\u00d8\u00af\u00d8\u00a7\u00d8\u00b1\u00d8\u00a9 \u00d8\u00a7\u00d9\u0084\u00d8\u00ac\u00d9\u0086\u00d9\u0088\u00d8\u00a8 \u00d8\u00b4\u00d8\u00b1\u00d9\u0082\u00d9\u008a\u00d8\u00a9",
            "name_bn": "\u00e0\u00a6\u00b8\u00e0\u00a6\u00be\u00e0\u00a6\u00a6- \u00e0\u00a6\u0087\u00e0\u00a6\u00b8\u00e0\u00a7\u008d\u00e0\u00a6\u009f",
            "name_de": "D\u00c3\u00a9partement Sud-Est",
            "name_el": "\u00ce\u009d\u00ce\u00bf\u00cf\u0084\u00ce\u00b9\u00ce\u00bf\u00ce\u00b1\u00ce\u00bd\u00ce\u00b1\u00cf\u0084\u00ce\u00bf\u00ce\u00bb\u00ce\u00b9\u00ce\u00ba\u00cf\u008c \u00ce\u0094\u00ce\u00b9\u00ce\u00b1\u00ce\u00bc\u00ce\u00ad\u00cf\u0081\u00ce\u00b9\u00cf\u0083\u00ce\u00bc\u00ce\u00b1",
            "name_en": "Sud-Est",
            "name_es": "Departamento Sudeste",
            "name_fr": "Sud-Est",
            "name_hi": "\u00e0\u00a4\u00b8\u00e0\u00a4\u00a1-\u00e0\u00a4\u008f\u00e0\u00a4\u00b8\u00e0\u00a5\u008d\u00e0\u00a4\u009f",
            "name_hu": "",
            "name_id": "Sud-Est",
            "name_it": "dipartimento del Sudest",
            "name_ja": "\u00e5\u008d\u0097\u00e6\u009d\u00b1\u00e7\u009c\u008c",
            "name_ko": "\u00eb\u0082\u00a8\u00eb\u008f\u0099\u00eb\u00b6\u0080 \u00ec\u00a3\u00bc",
            "name_len": "7",
            "name_local": "",
            "name_nl": "Sud-Est",
            "name_pl": "Departament Po\u00c5\u0082udniowo-Wschodni",
            "name_pt": "Sudeste",
            "name_ru": "\u00d0\u00ae\u00d0\u00b3\u00d0\u00be-\u00d0\u0092\u00d0\u00be\u00d1\u0081\u00d1\u0082\u00d0\u00be\u00d1\u0087\u00d0\u00bd\u00d1\u008b\u00d0\u00b9 \u00d0\u00b4\u00d0\u00b5\u00d0\u00bf\u00d0\u00b0\u00d1\u0080\u00d1\u0082\u00d0\u00b0\u00d0\u00bc\u00d0\u00b5\u00d0\u00bd\u00d1\u0082 \u00d0\u0093\u00d0\u00b0\u00d0\u00b8\u00d1\u0082\u00d0\u00b8",
            "name_sv": "Sud-Est",
            "name_tr": "Sud-Est",
            "name_vi": "Sud-Est",
            "name_zh": "\u00e6\u009d\u00b1\u00e5\u008d\u0097\u00e7\u009c\u0081",
            "ne_id": "1159310325",
            "note": "",
            "provnum_ne": "6",
            "record_type": "state",
            "region": "",
            "region_cod": "",
            "region_sub": "",
            "sameascity": "-99",
            "scalerank": "7",
            "sov_a3": "HTI",
            "sub_code": "",
            "wikidataid": "Q936717",
            "wikipedia": "",
            "woe_id": "2345622",
            "woe_label": "Sud-Est, HT, Haiti",
            "woe_name": "Sud-Est"
        },
        "geo": {
            "latitude": 18.2783598,
            "longitude": -72.3547915,
            "max_latitude": 18.384912,
            "max_longitude": -71.7241439,
            "min_latitude": 18.0301479,
            "min_longitude": -73.0131649
        },
        "iso_3166_2": "HT-SE",
        "iso_a2": "HT",
        "iso_a3": "HTI",
        "name": "Sud-Est",
        "postal": "SE",
        "type": "D\u00c3\u00a9partement",
        "type_en": "Department"
    }
}