{
    "AJ": {
        "alt_names": [
            "Ajloan",
            "Ajlun"
        ],
        "cca2": "JO",
        "cca3": "JOR",
        "code_hasc": "JO.AJ",
        "extra": {
            "abbrev": "",
            "adm0_a3": "JOR",
            "adm0_label": "2",
            "adm0_sr": "1",
            "adm1_code": "JOR-855",
            "admin": "Jordan",
            "area_sqkm": "0",
            "check_me": "10",
            "code_local": "",
            "data_sources": [
                "natural"
            ],
            "datarank": "8",
            "diss_me": "855",
            "featurecla": "Admin-1 scale rank",
            "fips": "JO20",
            "fips_alt": "JO14",
            "gadm_level": "1",
            "geonunit": "Jordan",
            "gn_a1_code": "JO.20",
            "gn_id": "443120",
            "gn_level": "1",
            "gn_name": "Muhafazat `Ajlun",
            "gn_region": "",
            "gns_adm1": "JO20",
            "gns_id": "9022579",
            "gns_lang": "ara",
            "gns_level": "1",
            "gns_name": "`Ajlun",
            "gns_region": "",
            "gu_a3": "JOR",
            "hasc_maybe": "",
            "labelrank": "7",
            "mapcolor9": "4",
            "mapcolor13": "4",
            "max_label": "11.0",
            "min_label": "8.7",
            "min_zoom": "8.7",
            "name_ar": "\u00d9\u0085\u00d8\u00ad\u00d8\u00a7\u00d9\u0081\u00d8\u00b8\u00d8\u00a9 \u00d8\u00b9\u00d8\u00ac\u00d9\u0084\u00d9\u0088\u00d9\u0086",
            "name_bn": "\u00e0\u00a6\u0086\u00e0\u00a6\u009c\u00e0\u00a6\u00b2\u00e0\u00a7\u0081\u00e0\u00a6\u00a8 \u00e0\u00a6\u0097\u00e0\u00a6\u00ad\u00e0\u00a6\u00b0\u00e0\u00a7\u008d\u00e0\u00a6\u00a8\u00e0\u00a7\u008b\u00e0\u00a6\u00b0\u00e0\u00a7\u0087\u00e0\u00a6\u009f",
            "name_de": "Gouvernement Adschlun",
            "name_el": "\u00ce\u0091\u00cf\u0084\u00ce\u00b6\u00ce\u00bb\u00ce\u00bf\u00cf\u008d\u00ce\u00bd \u00ce\u0093\u00ce\u00ba\u00ce\u00bf\u00ce\u00b2\u00ce\u00b5\u00cf\u0081\u00ce\u00bd\u00ce\u00bf\u00cf\u0081\u00ce\u00ac\u00cf\u0084\u00ce\u00b5",
            "name_en": "Ajloun Governorate",
            "name_es": "Gobernaci\u00c3\u00b3n de Ajlun",
            "name_fr": "subdivision d'Ajlun",
            "name_hi": "\u00e0\u00a4\u0085\u00e0\u00a4\u009c\u00e0\u00a4\u00b2\u00e0\u00a5\u0081\u00e0\u00a4\u00a8",
            "name_hu": "Adzsl\u00c3\u00ban korm\u00c3\u00a1nyz\u00c3\u00b3s\u00c3\u00a1g",
            "name_id": "Kegubernuran Ajloun",
            "name_it": "governatorato di Ajlun",
            "name_ja": "\u00e3\u0082\u00a2\u00e3\u0082\u00b8\u00e3\u0083\u00a5\u00e3\u0083\u00ab\u00e3\u0083\u00b3\u00e7\u009c\u008c",
            "name_ko": "\u00ec\u0095\u0084\u00ec\u00a7\u0088\u00eb\u00a3\u00ac \u00ec\u00a3\u00bc",
            "name_len": "5",
            "name_local": "",
            "name_nl": "Ajlun",
            "name_pl": "Ad\u00c5\u00bclun",
            "name_pt": "Governorato de Ajloun",
            "name_ru": "\u00d0\u0090\u00d0\u00b4\u00d0\u00b6\u00d0\u00bb\u00d1\u0083\u00d0\u00bd",
            "name_sv": "Ajlun",
            "name_tr": "Ajloun Y\u00c3\u00b6netimi",
            "name_vi": "T\u00e1\u00bb\u0089nh Ajloun",
            "name_zh": "\u00e9\u0098\u00bf\u00e5\u0082\u0091\u00e9\u009a\u0086\u00e7\u009c\u0081",
            "ne_id": "1159309327",
            "note": "",
            "provnum_ne": "8",
            "record_type": "state",
            "region": "",
            "region_cod": "",
            "region_sub": "",
            "sameascity": "-99",
            "scalerank": "7",
            "sov_a3": "JOR",
            "sub_code": "",
            "wikidataid": "Q506658",
            "wikipedia": "",
            "woe_id": "20070293",
            "woe_label": "`Ajlun, JO, Jordan",
            "woe_name": "Ajlun"
        },
        "geo": {
            "latitude": 32.2561926,
            "longitude": 35.6969984,
            "max_latitude": 32.40349,
            "max_longitude": 35.904965,
            "min_latitude": 32.158034,
            "min_longitude": 35.606699
        },
        "iso_3166_2": "JO-AJ",
        "iso_a2": "JO",
        "iso_a3": "JOR",
        "name": "Ajlun",
        "postal": "AJ",
        "type": "Muhafazah",
        "type_en": "Province"
    },
    "AM": {
        "alt_names": [
            "Amman"
        ],
        "cca2": "JO",
        "cca3": "JOR",
        "code_hasc": "JO.AM",
        "extra": {
            "abbrev": "",
            "adm0_a3": "JOR",
            "adm0_label": "2",
            "adm0_sr": "1",
            "adm1_code": "JOR-851",
            "admin": "Jordan",
            "area_sqkm": "0",
            "check_me": "10",
            "code_local": "",
            "data_sources": [
                "natural"
            ],
            "datarank": "8",
            "diss_me": "851",
            "featurecla": "Admin-1 scale rank",
            "fips": "JO16",
            "fips_alt": "JO11",
            "gadm_level": "1",
            "geonunit": "Jordan",
            "gn_a1_code": "JO.16",
            "gn_id": "250439",
            "gn_level": "1",
            "gn_name": "Muhafazat `Amman",
            "gn_region": "",
            "gns_adm1": "JO16",
            "gns_id": "-970364",
            "gns_lang": "ara",
            "gns_level": "1",
            "gns_name": "`Amman",
            "gns_region": "",
            "gu_a3": "JOR",
            "hasc_maybe": "",
            "labelrank": "7",
            "mapcolor9": "4",
            "mapcolor13": "4",
            "max_label": "11.0",
            "min_label": "8.7",
            "min_zoom": "8.7",
            "name_ar": "\u00d9\u0085\u00d8\u00ad\u00d8\u00a7\u00d9\u0081\u00d8\u00b8\u00d8\u00a9 \u00d8\u00a7\u00d9\u0084\u00d8\u00b9\u00d8\u00a7\u00d8\u00b5\u00d9\u0085\u00d8\u00a9",
            "name_bn": "\u00e0\u00a6\u0086\u00e0\u00a6\u00ae\u00e0\u00a7\u008d\u00e0\u00a6\u00ae\u00e0\u00a6\u00be\u00e0\u00a6\u00a8 \u00e0\u00a6\u0097\u00e0\u00a6\u00ad\u00e0\u00a6\u00b0\u00e0\u00a7\u008d\u00e0\u00a6\u00a8\u00e0\u00a7\u008b\u00e0\u00a6\u00b0\u00e0\u00a7\u0087\u00e0\u00a6\u009f",
            "name_de": "Gouvernement Amman",
            "name_el": "\u00ce\u0091\u00ce\u00bc\u00ce\u00ac\u00ce\u00bd",
            "name_en": "Amman Governorate",
            "name_es": "Gobernaci\u00c3\u00b3n de Amm\u00c3\u00a1n",
            "name_fr": "subdivision d'Amman",
            "name_hi": "\u00e0\u00a4\u0085\u00e0\u00a4\u00ae\u00e0\u00a5\u008d\u00e0\u00a4\u00ae\u00e0\u00a4\u00be\u00e0\u00a4\u00a8 \u00e0\u00a4\u0097\u00e0\u00a4\u00b5\u00e0\u00a4\u00b0\u00e0\u00a5\u008d\u00e0\u00a4\u00a8\u00e0\u00a4\u00b0\u00e0\u00a5\u0087\u00e0\u00a4\u009f",
            "name_hu": "F\u00c5\u0091v\u00c3\u00a1ros korm\u00c3\u00a1nyz\u00c3\u00b3s\u00c3\u00a1g",
            "name_id": "Amman Governorate",
            "name_it": "governatorato di Amman",
            "name_ja": "\u00e3\u0082\u00a2\u00e3\u0083\u00b3\u00e3\u0083\u009e\u00e3\u0083\u00b3\u00e7\u009c\u008c",
            "name_ko": "\u00ec\u0095\u0094\u00eb\u00a7\u008c \u00ec\u00a3\u00bc",
            "name_len": "5",
            "name_local": "",
            "name_nl": "Amman",
            "name_pl": "Amman",
            "name_pt": "Am\u00c3\u00a3",
            "name_ru": "\u00d0\u0090\u00d0\u00bc\u00d0\u00bc\u00d0\u00b0\u00d0\u00bd",
            "name_sv": "Amman",
            "name_tr": "Ba\u00c5\u009fkent ili",
            "name_vi": "T\u00e1\u00bb\u0089nh Amman",
            "name_zh": "\u00e5\u00ae\u0089\u00e6\u009b\u00bc\u00e7\u009c\u0081",
            "ne_id": "1159309317",
            "note": "",
            "provnum_ne": "6",
            "record_type": "state",
            "region": "",
            "region_cod": "",
            "region_sub": "",
            "sameascity": "7",
            "scalerank": "7",
            "sov_a3": "JOR",
            "sub_code": "",
            "wikidataid": "Q472788",
            "wikipedia": "",
            "woe_id": "20070289",
            "woe_label": "'Amman, JO, Jordan",
            "woe_name": "Amman"
        },
        "geo": {
            "latitude": 31.9565783,
            "longitude": 35.9456951,
            "max_latitude": null,
            "max_longitude": null,
            "min_latitude": null,
            "min_longitude": null
        },
        "iso_3166_2": "JO-AM",
        "iso_a2": "JO",
        "iso_a3": "JOR",
        "name": "Amman",
        "postal": "AM",
        "type": "Muhafazah",
        "type_en": "Province"
    },
    "AQ": {
        "alt_names": [
            "Akaba",
            "Aqaba",
            "Aqqaba",
            "al-Aqaba"
        ],
        "cca2": "JO",
        "cca3": "JOR",
        "code_hasc": "JO.AQ",
        "extra": {
            "abbrev": "",
            "adm0_a3": "JOR",
            "adm0_label": "2",
            "adm0_sr": "1",
            "adm1_code": "JOR-849",
            "admin": "Jordan",
            "area_sqkm": "0",
            "check_me": "0",
            "code_local": "",
            "data_sources": [
                "natural"
            ],
            "datarank": "8",
            "diss_me": "849",
            "featurecla": "Admin-1 scale rank",
            "fips": "JO21",
            "fips_alt": "",
            "gadm_level": "1",
            "geonunit": "Jordan",
            "gn_a1_code": "JO.21",
            "gn_id": "443122",
            "gn_level": "1",
            "gn_name": "Muhafazat al `Aqabah",
            "gn_region": "",
            "gns_adm1": "JO21",
            "gns_id": "9022596",
            "gns_lang": "ara",
            "gns_level": "1",
            "gns_name": "Al `Aqabah",
            "gns_region": "",
            "gu_a3": "JOR",
            "hasc_maybe": "",
            "labelrank": "7",
            "mapcolor9": "4",
            "mapcolor13": "4",
            "max_label": "11.0",
            "min_label": "8.7",
            "min_zoom": "8.7",
            "name_ar": "\u00d8\u00a7\u00d9\u0084\u00d8\u00b9\u00d9\u0082\u00d8\u00a8\u00d8\u00a9",
            "name_bn": "\u00e0\u00a6\u0086\u00e0\u00a6\u0095\u00e0\u00a6\u00be\u00e0\u00a6\u00ac\u00e0\u00a6\u00be \u00e0\u00a6\u0097\u00e0\u00a6\u00ad\u00e0\u00a6\u00b0\u00e0\u00a7\u008d\u00e0\u00a6\u00a8\u00e0\u00a7\u008b\u00e0\u00a6\u00b0\u00e0\u00a7\u0087\u00e0\u00a6\u009f",
            "name_de": "Aqaba",
            "name_el": "\u00ce\u0091\u00ce\u00ba\u00ce\u00ac\u00ce\u00bc\u00cf\u0080\u00ce\u00b1 \u00ce\u0093\u00ce\u00ba\u00ce\u00bf\u00ce\u00b2\u00ce\u00b5\u00cf\u0081\u00ce\u00bd\u00ce\u00bf\u00cf\u0081\u00ce\u00ac\u00cf\u0084\u00ce\u00b5",
            "name_en": "Aqaba Governorate",
            "name_es": "Gobernaci\u00c3\u00b3n de Aqaba",
            "name_fr": "subdivision d'Aqaba",
            "name_hi": "\u00e0\u00a4\u0085\u00e0\u00a4\u0095\u00e0\u00a4\u00be\u00e0\u00a4\u00ac\u00e0\u00a4\u00be \u00e0\u00a4\u0097\u00e0\u00a4\u00b5\u00e0\u00a4\u00b0\u00e0\u00a5\u008d\u00e0\u00a4\u00a8\u00e0\u00a4\u00b0\u00e0\u00a5\u0087\u00e0\u00a4\u009f",
            "name_hu": "Akaba korm\u00c3\u00a1nyz\u00c3\u00b3s\u00c3\u00a1g",
            "name_id": "Aqaba Governorate",
            "name_it": "governatorato di Aqaba",
            "name_ja": "\u00e3\u0082\u00a2\u00e3\u0082\u00ab\u00e3\u0083\u0090\u00e7\u009c\u008c",
            "name_ko": "\u00ec\u0095\u0084\u00ec\u00b9\u00b4\u00eb\u00b0\u0094 \u00ec\u00a3\u00bc",
            "name_len": "5",
            "name_local": "",
            "name_nl": "Akaba",
            "name_pl": "Akaba",
            "name_pt": "Governorado de Aqaba",
            "name_ru": "\u00d0\u0090\u00d0\u00ba\u00d0\u00b0\u00d0\u00b1\u00d0\u00b0",
            "name_sv": "Akaba",
            "name_tr": "Aqaba Y\u00c3\u00b6netimi",
            "name_vi": "T\u00e1\u00bb\u0089nh Aqaba",
            "name_zh": "\u00e4\u00ba\u009e\u00e5\u0096\u0080\u00e5\u00b7\u00b4\u00e7\u009c\u0081",
            "ne_id": "1159309313",
            "note": "",
            "provnum_ne": "2",
            "record_type": "state",
            "region": "",
            "region_cod": "",
            "region_sub": "",
            "sameascity": "7",
            "scalerank": "7",
            "sov_a3": "JOR",
            "sub_code": "",
            "wikidataid": "Q260796",
            "wikipedia": "",
            "woe_id": "20070290",
            "woe_label": "Al `Aqabah, JO, Jordan",
            "woe_name": "Aqaba"
        },
        "geo": {
            "latitude": 29.5319199,
            "longitude": 35.0060842,
            "max_latitude": null,
            "max_longitude": null,
            "min_latitude": null,
            "min_longitude": null
        },
        "iso_3166_2": "JO-AQ",
        "iso_a2": "JO",
        "iso_a3": "JOR",
        "name": "Aqaba",
        "postal": "AQ",
        "type": "Muhafazah",
        "type_en": "Province"
    },
    "AT": {
        "alt_names": [
            "Tafiela",
            "Tafileh",
            "at-Tafilah"
        ],
        "cca2": "JO",
        "cca3": "JOR",
        "code_hasc": "JO.AT",
        "extra": {
            "abbrev": "",
            "adm0_a3": "JOR",
            "adm0_label": "2",
            "adm0_sr": "1",
            "adm1_code": "JOR-852",
            "admin": "Jordan",
            "area_sqkm": "0",
            "check_me": "0",
            "code_local": "",
            "data_sources": [
                "natural"
            ],
            "datarank": "8",
            "diss_me": "852",
            "featurecla": "Admin-1 scale rank",
            "fips": "JO12",
            "fips_alt": "",
            "gadm_level": "1",
            "geonunit": "Jordan",
            "gn_a1_code": "JO.12",
            "gn_id": "250199",
            "gn_level": "1",
            "gn_name": "Muhafazat at Tafilah",
            "gn_region": "",
            "gns_adm1": "JO12",
            "gns_id": "-970605",
            "gns_lang": "ara",
            "gns_level": "1",
            "gns_name": "At Tafilah",
            "gns_region": "",
            "gu_a3": "JOR",
            "hasc_maybe": "",
            "labelrank": "7",
            "mapcolor9": "4",
            "mapcolor13": "4",
            "max_label": "11.0",
            "min_label": "8.7",
            "min_zoom": "8.7",
            "name_ar": "\u00d8\u00a7\u00d9\u0084\u00d8\u00b7\u00d9\u0081\u00d9\u008a\u00d9\u0084\u00d8\u00a9",
            "name_bn": "\u00e0\u00a6\u00a4\u00e0\u00a6\u00be\u00e0\u00a6\u00ab\u00e0\u00a6\u00bf\u00e0\u00a6\u00b2\u00e0\u00a6\u00be\u00e0\u00a6\u00b9 \u00e0\u00a6\u0097\u00e0\u00a6\u00ad\u00e0\u00a6\u00b0\u00e0\u00a7\u008d\u00e0\u00a6\u00a8\u00e0\u00a7\u008b\u00e0\u00a6\u00b0\u00e0\u00a7\u0087\u00e0\u00a6\u009f",
            "name_de": "Gouvernement at-Tafila",
            "name_el": "\u00ce\u00a4\u00ce\u00b1\u00cf\u0086\u00ce\u00b9\u00ce\u00bb\u00ce\u00ac\u00cf\u0087 \u00ce\u0093\u00ce\u00ba\u00ce\u00bf\u00ce\u00b2\u00ce\u00b5\u00cf\u0081\u00ce\u00bd\u00ce\u00bf\u00cf\u0081\u00ce\u00ac\u00cf\u0084\u00ce\u00b5",
            "name_en": "Tafilah Governorate",
            "name_es": "Gobernaci\u00c3\u00b3n de Tafila",
            "name_fr": "Gouvernorat de Tafilah",
            "name_hi": "\u00e0\u00a4\u00a4\u00e0\u00a4\u00ab\u00e0\u00a4\u00bf\u00e0\u00a4\u00b2\u00e0\u00a4\u00be \u00e0\u00a4\u0097\u00e0\u00a4\u00b5\u00e0\u00a4\u00b0\u00e0\u00a5\u008d\u00e0\u00a4\u00a8\u00e0\u00a4\u00b0\u00e0\u00a5\u0087\u00e0\u00a4\u009f",
            "name_hu": "Taf\u00c3\u00adla korm\u00c3\u00a1nyz\u00c3\u00b3s\u00c3\u00a1g",
            "name_id": "Kegubernuran Tafilah",
            "name_it": "governatorato di al-Tafila",
            "name_ja": "\u00e3\u0082\u00bf\u00e3\u0083\u0095\u00e3\u0082\u00a3\u00e3\u0083\u00a9\u00e7\u009c\u008c",
            "name_ko": "\u00ed\u0083\u0080\u00ed\u0095\u0084\u00eb\u009d\u00bc \u00ec\u00a3\u00bc",
            "name_len": "7",
            "name_local": "",
            "name_nl": "Tafilah",
            "name_pl": "At-Tafila",
            "name_pt": "Governamento de Tafilah",
            "name_ru": "\u00d0\u00ad\u00d1\u0082-\u00d0\u00a2\u00d0\u00b0\u00d1\u0084\u00d0\u00b8\u00d0\u00bb\u00d0\u00b0",
            "name_sv": "Tafilah",
            "name_tr": "Tafilah Y\u00c3\u00b6netimi",
            "name_vi": "T\u00e1\u00bb\u0089nh Tafilah",
            "name_zh": "\u00e5\u00a1\u0094\u00e8\u008f\u00b2\u00e6\u008b\u0089\u00e7\u009c\u0081",
            "ne_id": "1159309319",
            "note": "",
            "provnum_ne": "4",
            "record_type": "state",
            "region": "",
            "region_cod": "",
            "region_sub": "",
            "sameascity": "7",
            "scalerank": "7",
            "sov_a3": "JOR",
            "sub_code": "",
            "wikidataid": "Q750259",
            "wikipedia": "",
            "woe_id": "2345932",
            "woe_label": "At Tafilah, JO, Jordan",
            "woe_name": "Tafilah"
        },
        "geo": {
            "latitude": 30.835833,
            "longitude": 35.612222,
            "max_latitude": null,
            "max_longitude": null,
            "min_latitude": null,
            "min_longitude": null
        },
        "iso_3166_2": "JO-AT",
        "iso_a2": "JO",
        "iso_a3": "JOR",
        "name": "At Tafilah",
        "postal": "AT",
        "type": "Muhafazah",
        "type_en": "Province"
    },
    "AZ": {
        "alt_names": [
            "Zarka",
            "Zarqa",
            "Zerka"
        ],
        "cca2": "JO",
        "cca3": "JOR",
        "code_hasc": "JO.AZ",
        "extra": {
            "abbrev": "",
            "adm0_a3": "JOR",
            "adm0_label": "2",
            "adm0_sr": "1",
            "adm1_code": "JOR-860",
            "admin": "Jordan",
            "area_sqkm": "0",
            "check_me": "10",
            "code_local": "",
            "data_sources": [
                "natural"
            ],
            "datarank": "8",
            "diss_me": "860",
            "featurecla": "Admin-1 scale rank",
            "fips": "JO17",
            "fips_alt": "JO17",
            "gadm_level": "1",
            "geonunit": "Jordan",
            "gn_a1_code": "JO.17",
            "gn_id": "250092",
            "gn_level": "1",
            "gn_name": "Muhafazat az Zarqa'",
            "gn_region": "",
            "gns_adm1": "JO17",
            "gns_id": "-970713",
            "gns_lang": "ara",
            "gns_level": "1",
            "gns_name": "Az Zarqa'",
            "gns_region": "",
            "gu_a3": "JOR",
            "hasc_maybe": "",
            "labelrank": "7",
            "mapcolor9": "4",
            "mapcolor13": "4",
            "max_label": "11.0",
            "min_label": "8.7",
            "min_zoom": "8.7",
            "name_ar": "\u00d8\u00a7\u00d9\u0084\u00d8\u00b2\u00d8\u00b1\u00d9\u0082\u00d8\u00a7\u00d8\u00a1",
            "name_bn": "\u00e0\u00a6\u009c\u00e0\u00a6\u00be\u00e0\u00a6\u00b0\u00e0\u00a6\u0095\u00e0\u00a6\u00be \u00e0\u00a6\u0097\u00e0\u00a6\u00ad\u00e0\u00a6\u00b0\u00e0\u00a7\u008d\u00e0\u00a6\u00a8\u00e0\u00a7\u008b\u00e0\u00a6\u00b0\u00e0\u00a7\u0087\u00e0\u00a6\u009f",
            "name_de": "Gouvernement Zarqa",
            "name_el": "\u00ce\u0096\u00ce\u00ac\u00cf\u0081\u00ce\u00ba\u00ce\u00b1",
            "name_en": "Zarqa Governorate",
            "name_es": "Gobernaci\u00c3\u00b3n de Zark\u00c3\u00a1",
            "name_fr": "subdivision de Zarqa",
            "name_hi": "\u00e0\u00a4\u009c\u00e0\u00a4\u00bc\u00e0\u00a4\u00be\u00e0\u00a4\u00b0\u00e0\u00a4\u0095\u00e0\u00a4\u00be \u00e0\u00a4\u0097\u00e0\u00a4\u00b5\u00e0\u00a4\u00b0\u00e0\u00a5\u008d\u00e0\u00a4\u00a8\u00e0\u00a4\u00b0\u00e0\u00a5\u0087\u00e0\u00a4\u009f",
            "name_hu": "Zark\u00c3\u00a1 korm\u00c3\u00a1nyz\u00c3\u00b3s\u00c3\u00a1g",
            "name_id": "Kegubernuran Zarqa",
            "name_it": "governatorato di al-Zarqa",
            "name_ja": "\u00e3\u0082\u00b6\u00e3\u0083\u00ab\u00e3\u0082\u00ab\u00e7\u009c\u008c",
            "name_ko": "\u00ec\u009e\u0090\u00eb\u00a5\u00b4\u00ec\u00b9\u00b4 \u00ec\u00a3\u00bc",
            "name_len": "5",
            "name_local": "",
            "name_nl": "Zarka",
            "name_pl": "Az-Zarka",
            "name_pt": "Governorado de Zarqa",
            "name_ru": "\u00d0\u00ad\u00d0\u00b7-\u00d0\u0097\u00d0\u00b0\u00d1\u0080\u00d0\u00ba\u00d0\u00b0",
            "name_sv": "Zarqa",
            "name_tr": "Zarqa Y\u00c3\u00b6netimi",
            "name_vi": "T\u00e1\u00bb\u0089nh Zarqa",
            "name_zh": "\u00e6\u0089\u008e\u00e7\u0088\u00be\u00e5\u008d\u00a1\u00e7\u009c\u0081",
            "ne_id": "1159309337",
            "note": "",
            "provnum_ne": "3",
            "record_type": "state",
            "region": "",
            "region_cod": "",
            "region_sub": "",
            "sameascity": "-99",
            "scalerank": "7",
            "sov_a3": "JOR",
            "sub_code": "",
            "wikidataid": "Q721445",
            "wikipedia": "",
            "woe_id": "2345933",
            "woe_label": "Az Zarqa, JO, Jordan",
            "woe_name": "Zarqa"
        },
        "geo": {
            "latitude": 31.7515118,
            "longitude": 36.8680791,
            "max_latitude": 32.196324,
            "max_longitude": 37.780864,
            "min_latitude": 31.493649,
            "min_longitude": 35.8889939
        },
        "iso_3166_2": "JO-AZ",
        "iso_a2": "JO",
        "iso_a3": "JOR",
        "name": "Az Zarqa'",
        "postal": "AZ",
        "type": "Muhafazah",
        "type_en": "Province"
    },
    "BA": {
        "alt_names": [
            "Al Balqa'"
        ],
        "cca2": "JO",
        "cca3": "JOR",
        "code_hasc": "JO.BA",
        "extra": {
            "abbrev": "",
            "adm0_a3": "JOR",
            "adm0_label": "2",
            "adm0_sr": "1",
            "adm1_code": "JOR-857",
            "admin": "Jordan",
            "area_sqkm": "0",
            "check_me": "0",
            "code_local": "",
            "data_sources": [
                "natural"
            ],
            "datarank": "8",
            "diss_me": "857",
            "featurecla": "Admin-1 scale rank",
            "fips": "JO02",
            "fips_alt": "",
            "gadm_level": "1",
            "geonunit": "Jordan",
            "gn_a1_code": "JO.02",
            "gn_id": "250751",
            "gn_level": "1",
            "gn_name": "Muhafazat al Balqa'",
            "gn_region": "",
            "gns_adm1": "JO02",
            "gns_id": "-970049",
            "gns_lang": "ara",
            "gns_level": "1",
            "gns_name": "Al Balqa'",
            "gns_region": "",
            "gu_a3": "JOR",
            "hasc_maybe": "",
            "labelrank": "7",
            "mapcolor9": "4",
            "mapcolor13": "4",
            "max_label": "11.0",
            "min_label": "8.7",
            "min_zoom": "8.7",
            "name_ar": "\u00d8\u00a7\u00d9\u0084\u00d8\u00a8\u00d9\u0084\u00d9\u0082\u00d8\u00a7\u00d8\u00a1",
            "name_bn": "\u00e0\u00a6\u00ac\u00e0\u00a6\u00be\u00e0\u00a6\u00b2\u00e0\u00a7\u008d\u00e0\u00a6\u0095\u00e0\u00a6\u00be \u00e0\u00a6\u0097\u00e0\u00a6\u00ad\u00e0\u00a6\u00b0\u00e0\u00a7\u008d\u00e0\u00a6\u00a8\u00e0\u00a7\u008b\u00e0\u00a6\u00b0\u00e0\u00a7\u0087\u00e0\u00a6\u009f",
            "name_de": "Gouvernement al-Balqa",
            "name_el": "\u00ce\u009c\u00cf\u0080\u00ce\u00ac\u00ce\u00bb\u00ce\u00b3\u00ce\u00ba\u00ce\u00b1",
            "name_en": "Balqa Governorate",
            "name_es": "Gobernaci\u00c3\u00b3n de Balqa'",
            "name_fr": "subdivision de Balqa",
            "name_hi": "\u00e0\u00a4\u00ac\u00e0\u00a4\u00be\u00e0\u00a4\u00b2\u00e0\u00a4\u0095\u00e0\u00a4\u00be \u00e0\u00a4\u0097\u00e0\u00a4\u00b5\u00e0\u00a4\u00b0\u00e0\u00a5\u008d\u00e0\u00a4\u00a8\u00e0\u00a4\u00b0\u00e0\u00a5\u0087\u00e0\u00a4\u009f",
            "name_hu": "Balk\u00c3\u00a1 korm\u00c3\u00a1nyz\u00c3\u00b3s\u00c3\u00a1g",
            "name_id": "Balqa Governorate",
            "name_it": "governatorato di Balqa",
            "name_ja": "\u00e3\u0083\u0090\u00e3\u0083\u00ab\u00e3\u0082\u00ab\u00e7\u009c\u008c",
            "name_ko": "\u00eb\u00b0\u009c\u00ec\u00b9\u00b4 \u00ec\u00a3\u00bc",
            "name_len": "5",
            "name_local": "",
            "name_nl": "Balka",
            "name_pl": "Al-Balka",
            "name_pt": "Balqa",
            "name_ru": "\u00d0\u00ad\u00d0\u00bb\u00d1\u008c-\u00d0\u0091\u00d0\u00b0\u00d0\u00bb\u00d0\u00ba\u00d0\u00b0",
            "name_sv": "Balqa",
            "name_tr": "Balqa Y\u00c3\u00b6netimi",
            "name_vi": "T\u00e1\u00bb\u0089nh Balqa",
            "name_zh": "\u00e6\u008b\u009c\u00e5\u008b\u0092\u00e5\u008a\u00a0\u00e7\u009c\u0081",
            "ne_id": "1159309331",
            "note": "",
            "provnum_ne": "11",
            "record_type": "state",
            "region": "",
            "region_cod": "",
            "region_sub": "",
            "sameascity": "-99",
            "scalerank": "7",
            "sov_a3": "JOR",
            "sub_code": "",
            "wikidataid": "Q721431",
            "wikipedia": "",
            "woe_id": "2345927",
            "woe_label": "Al Balqa', JO, Jordan",
            "woe_name": "Balqa"
        },
        "geo": {
            "latitude": 31.9676039,
            "longitude": 35.6095474,
            "max_latitude": 32.183978,
            "max_longitude": 35.934166,
            "min_latitude": 31.6735621,
            "min_longitude": 35.519307
        },
        "iso_3166_2": "JO-BA",
        "iso_a2": "JO",
        "iso_a3": "JOR",
        "name": "Al Balqa'",
        "postal": "BA",
        "type": "Muhafazah",
        "type_en": "Province"
    },
    "IR": {
        "alt_names": [
            "Irbit"
        ],
        "cca2": "JO",
        "cca3": "JOR",
        "code_hasc": "JO.IR",
        "extra": {
            "abbrev": "",
            "adm0_a3": "JOR",
            "adm0_label": "2",
            "adm0_sr": "1",
            "adm1_code": "JOR-854",
            "admin": "Jordan",
            "area_sqkm": "0",
            "check_me": "10",
            "code_local": "",
            "data_sources": [
                "natural"
            ],
            "datarank": "8",
            "diss_me": "854",
            "featurecla": "Admin-1 scale rank",
            "fips": "JO18",
            "fips_alt": "JO14",
            "gadm_level": "1",
            "geonunit": "Jordan",
            "gn_a1_code": "JO.18",
            "gn_id": "248944",
            "gn_level": "1",
            "gn_name": "Irbid",
            "gn_region": "",
            "gns_adm1": "JO18",
            "gns_id": "-971887",
            "gns_lang": "ara",
            "gns_level": "1",
            "gns_name": "Irbid",
            "gns_region": "",
            "gu_a3": "JOR",
            "hasc_maybe": "",
            "labelrank": "7",
            "mapcolor9": "4",
            "mapcolor13": "4",
            "max_label": "11.0",
            "min_label": "8.7",
            "min_zoom": "8.7",
            "name_ar": "\u00d8\u00a5\u00d8\u00b1\u00d8\u00a8\u00d8\u00af",
            "name_bn": "\u00e0\u00a6\u0087\u00e0\u00a6\u00b0\u00e0\u00a6\u00ac\u00e0\u00a6\u00bf\u00e0\u00a6\u00a6 \u00e0\u00a6\u0097\u00e0\u00a6\u00ad\u00e0\u00a6\u00b0\u00e0\u00a7\u008d\u00e0\u00a6\u00a8\u00e0\u00a7\u008b\u00e0\u00a6\u00b0\u00e0\u00a7\u0087\u00e0\u00a6\u009f",
            "name_de": "Gouvernement Irbid",
            "name_el": "\u00ce\u0099\u00cf\u0081\u00ce\u00bc\u00cf\u0080\u00ce\u00af\u00ce\u00bd\u00cf\u0084 \u00ce\u0093\u00ce\u00ba\u00ce\u00bf\u00ce\u00b2\u00ce\u00b5\u00cf\u0081\u00ce\u00bd\u00ce\u00bf\u00cf\u0081\u00ce\u00ac\u00cf\u0084\u00ce\u00b5",
            "name_en": "Irbid Governorate",
            "name_es": "Gobernaci\u00c3\u00b3n de Irbid",
            "name_fr": "subdivision d'Irbid",
            "name_hi": "\u00e0\u00a4\u0086\u00e0\u00a4\u0087\u00e0\u00a4\u00b0\u00e0\u00a4\u00ac\u00e0\u00a4\u00bf\u00e0\u00a4\u00a1 \u00e0\u00a4\u0097\u00e0\u00a4\u00b5\u00e0\u00a4\u00b0\u00e0\u00a5\u008d\u00e0\u00a4\u00a8\u00e0\u00a4\u00b0\u00e0\u00a5\u0087\u00e0\u00a4\u009f",
            "name_hu": "Irbid korm\u00c3\u00a1nyz\u00c3\u00b3s\u00c3\u00a1g",
            "name_id": "Irbid Governorate",
            "name_it": "governatorato di Irbid",
            "name_ja": "\u00e3\u0082\u00a4\u00e3\u0083\u00ab\u00e3\u0083\u0093\u00e3\u0083\u0089\u00e7\u009c\u008c",
            "name_ko": "\u00ec\u009d\u00b4\u00eb\u00a5\u00b4\u00eb\u00b9\u0084\u00eb\u0093\u009c \u00ec\u00a3\u00bc",
            "name_len": "5",
            "name_local": "",
            "name_nl": "Irbid",
            "name_pl": "Irbid",
            "name_pt": "Governorado de Irbid",
            "name_ru": "\u00d0\u0098\u00d1\u0080\u00d0\u00b1\u00d0\u00b8\u00d0\u00b4",
            "name_sv": "Irbid",
            "name_tr": "Irbid Y\u00c3\u00b6netimi",
            "name_vi": "T\u00e1\u00bb\u0089nh Irbid",
            "name_zh": "\u00e4\u00bc\u008a\u00e7\u0088\u00be\u00e6\u00af\u0094\u00e5\u00be\u00b7\u00e7\u009c\u0081",
            "ne_id": "1159309325",
            "note": "",
            "provnum_ne": "9",
            "record_type": "state",
            "region": "",
            "region_cod": "",
            "region_sub": "",
            "sameascity": "7",
            "scalerank": "7",
            "sov_a3": "JOR",
            "sub_code": "",
            "wikidataid": "Q721441",
            "wikipedia": "",
            "woe_id": "20070291",
            "woe_label": "Irbid, JO, Jordan",
            "woe_name": "Irbid"
        },
        "geo": {
            "latitude": 32.5454418,
            "longitude": 35.8571532,
            "max_latitude": null,
            "max_longitude": null,
            "min_latitude": null,
            "min_longitude": null
        },
        "iso_3166_2": "JO-IR",
        "iso_a2": "JO",
        "iso_a3": "JOR",
        "name": "Irbid",
        "postal": "IR",
        "type": "Muhafazah",
        "type_en": "Province"
    },
    "JA": {
        "alt_names": [
            "Jarash",
            "Jerash"
        ],
        "cca2": "JO",
        "cca3": "JOR",
        "code_hasc": "JO.JA",
        "extra": {
            "abbrev": "",
            "adm0_a3": "JOR",
            "adm0_label": "2",
            "adm0_sr": "1",
            "adm1_code": "JOR-856",
            "admin": "Jordan",
            "area_sqkm": "0",
            "check_me": "10",
            "code_local": "",
            "data_sources": [
                "natural"
            ],
            "datarank": "8",
            "diss_me": "856",
            "featurecla": "Admin-1 scale rank",
            "fips": "JO22",
            "fips_alt": "JO14",
            "gadm_level": "1",
            "geonunit": "Jordan",
            "gn_a1_code": "JO.22",
            "gn_id": "443121",
            "gn_level": "1",
            "gn_name": "Jerash",
            "gn_region": "",
            "gns_adm1": "JO22",
            "gns_id": "9022590",
            "gns_lang": "ara",
            "gns_level": "1",
            "gns_name": "Jarash",
            "gns_region": "",
            "gu_a3": "JOR",
            "hasc_maybe": "",
            "labelrank": "7",
            "mapcolor9": "4",
            "mapcolor13": "4",
            "max_label": "11.0",
            "min_label": "8.7",
            "min_zoom": "8.7",
            "name_ar": "\u00d8\u00ac\u00d8\u00b1\u00d8\u00b4",
            "name_bn": "\u00e0\u00a6\u009c\u00e0\u00a6\u00be\u00e0\u00a6\u00b0\u00e0\u00a6\u00be\u00e0\u00a6\u00b6 \u00e0\u00a6\u0097\u00e0\u00a6\u00ad\u00e0\u00a6\u00b0\u00e0\u00a7\u008d\u00e0\u00a6\u00a8\u00e0\u00a7\u008b\u00e0\u00a6\u00b0\u00e0\u00a7\u0087\u00e0\u00a6\u009f",
            "name_de": "Gouvernement Dscharasch",
            "name_el": "\u00ce\u00a4\u00ce\u00b6\u00ce\u00ad\u00cf\u0081\u00ce\u00b1\u00cf\u0082",
            "name_en": "Jerash Governorate",
            "name_es": "Gobernaci\u00c3\u00b3n de Gerasa",
            "name_fr": "subdivision de Jerash",
            "name_hi": "\u00e0\u00a4\u009c\u00e0\u00a5\u0087\u00e0\u00a4\u00b0\u00e0\u00a4\u00be\u00e0\u00a4\u00b6",
            "name_hu": "Dzseras korm\u00c3\u00a1nyz\u00c3\u00b3s\u00c3\u00a1g",
            "name_id": "Kegubernuran Jerash",
            "name_it": "governatorato di Jerash",
            "name_ja": "\u00e3\u0082\u00b8\u00e3\u0082\u00a7\u00e3\u0083\u00a9\u00e3\u0082\u00b7\u00e3\u0083\u00a5\u00e7\u009c\u008c",
            "name_ko": "\u00ec\u00a0\u009c\u00eb\u009d\u00bc\u00ec\u008b\u009c \u00ec\u00a3\u00bc",
            "name_len": "6",
            "name_local": "",
            "name_nl": "Jerash",
            "name_pl": "D\u00c5\u00bcarasz",
            "name_pt": "Governorado de G\u00c3\u00a9rasa",
            "name_ru": "\u00d0\u0094\u00d0\u00b6\u00d0\u00b0\u00d1\u0080\u00d0\u00b0\u00d1\u0088",
            "name_sv": "Jerash",
            "name_tr": "Jerash Y\u00c3\u00b6netimi",
            "name_vi": "T\u00e1\u00bb\u0089nh Jerash",
            "name_zh": "\u00e5\u0082\u0091\u00e6\u008b\u0089\u00e4\u00bb\u0080\u00e7\u009c\u0081",
            "ne_id": "1159309329",
            "note": "",
            "provnum_ne": "7",
            "record_type": "state",
            "region": "",
            "region_cod": "",
            "region_sub": "",
            "sameascity": "-99",
            "scalerank": "7",
            "sov_a3": "JOR",
            "sub_code": "",
            "wikidataid": "Q750270",
            "wikipedia": "",
            "woe_id": "20070292",
            "woe_label": "Jarash, JO, Jordan",
            "woe_name": "Jarash"
        },
        "geo": {
            "latitude": 32.2769016,
            "longitude": 35.9055502,
            "max_latitude": null,
            "max_longitude": null,
            "min_latitude": null,
            "min_longitude": null
        },
        "iso_3166_2": "JO-JA",
        "iso_a2": "JO",
        "iso_a3": "JOR",
        "name": "Jarash",
        "postal": "JA",
        "type": "Muhafazah",
        "type_en": "Province"
    },
    "KA": {
        "alt_names": [
            "Karak",
            "Kerak"
        ],
        "cca2": "JO",
        "cca3": "JOR",
        "code_hasc": "JO.KA",
        "extra": {
            "abbrev": "",
            "adm0_a3": "JOR",
            "adm0_label": "2",
            "adm0_sr": "1",
            "adm1_code": "JOR-859",
            "admin": "Jordan",
            "area_sqkm": "0",
            "check_me": "0",
            "code_local": "",
            "data_sources": [
                "natural"
            ],
            "datarank": "8",
            "diss_me": "859",
            "featurecla": "Admin-1 scale rank",
            "fips": "JO09",
            "fips_alt": "",
            "gadm_level": "1",
            "geonunit": "Jordan",
            "gn_a1_code": "JO.09",
            "gn_id": "250625",
            "gn_level": "1",
            "gn_name": "Al Karak",
            "gn_region": "",
            "gns_adm1": "JO09",
            "gns_id": "-970177",
            "gns_lang": "ara",
            "gns_level": "1",
            "gns_name": "Al Karak",
            "gns_region": "",
            "gu_a3": "JOR",
            "hasc_maybe": "",
            "labelrank": "7",
            "mapcolor9": "4",
            "mapcolor13": "4",
            "max_label": "11.0",
            "min_label": "8.7",
            "min_zoom": "8.7",
            "name_ar": "\u00d8\u00a7\u00d9\u0084\u00d9\u0083\u00d8\u00b1\u00d9\u0083",
            "name_bn": "\u00e0\u00a6\u0095\u00e0\u00a6\u00be\u00e0\u00a6\u00b0\u00e0\u00a6\u00be\u00e0\u00a6\u0095 \u00e0\u00a6\u0097\u00e0\u00a6\u00ad\u00e0\u00a6\u00b0\u00e0\u00a7\u008d\u00e0\u00a6\u00a8\u00e0\u00a7\u008b\u00e0\u00a6\u00b0\u00e0\u00a7\u0087\u00e0\u00a6\u009f",
            "name_de": "Gouvernement Karak",
            "name_el": "\u00ce\u009a\u00ce\u00b1\u00cf\u0081\u00ce\u00ac\u00ce\u00ba \u00ce\u0093\u00ce\u00ba\u00ce\u00bf\u00ce\u00b2\u00ce\u00b5\u00cf\u0081\u00ce\u00bd\u00ce\u00bf\u00cf\u0081\u00ce\u00ac\u00cf\u0084\u00ce\u00b5",
            "name_en": "Karak Governorate",
            "name_es": "Gobernaci\u00c3\u00b3n de Karak",
            "name_fr": "subdivision de Karak",
            "name_hi": "\u00e0\u00a4\u0095\u00e0\u00a4\u00b0\u00e0\u00a4\u0095 \u00e0\u00a4\u0097\u00e0\u00a4\u00b5\u00e0\u00a4\u00b0\u00e0\u00a5\u008d\u00e0\u00a4\u00a8\u00e0\u00a4\u00b0\u00e0\u00a5\u0087\u00e0\u00a4\u009f",
            "name_hu": "Karak korm\u00c3\u00a1nyz\u00c3\u00b3s\u00c3\u00a1g",
            "name_id": "Karak Governorate",
            "name_it": "governatorato di al-Karak",
            "name_ja": "\u00e3\u0082\u00ab\u00e3\u0083\u00a9\u00e3\u0082\u00af\u00e7\u009c\u008c",
            "name_ko": "\u00ec\u00b9\u00b4\u00eb\u009d\u00bc\u00ed\u0081\u00ac \u00ec\u00a3\u00bc",
            "name_len": "5",
            "name_local": "",
            "name_nl": "Kerak",
            "name_pl": "Al-Karak",
            "name_pt": "Karak",
            "name_ru": "\u00d0\u00ad\u00d0\u00bb\u00d1\u008c-\u00d0\u009a\u00d0\u00b0\u00d1\u0080\u00d0\u00b0\u00d0\u00ba",
            "name_sv": "Karak",
            "name_tr": "Karak Y\u00c3\u00b6netimi",
            "name_vi": "Khu v\u00e1\u00bb\u00b1c h\u00c3\u00a0nh ch\u00c3\u00adnh Karak",
            "name_zh": "\u00e5\u008d\u00a1\u00e6\u008b\u0089\u00e5\u0085\u008b\u00e7\u009c\u0081",
            "ne_id": "1159309335",
            "note": "",
            "provnum_ne": "12",
            "record_type": "state",
            "region": "",
            "region_cod": "",
            "region_sub": "",
            "sameascity": "7",
            "scalerank": "7",
            "sov_a3": "JOR",
            "sub_code": "",
            "wikidataid": "Q735245",
            "wikipedia": "",
            "woe_id": "2345929",
            "woe_label": "Al Karak, JO, Jordan",
            "woe_name": "Karak"
        },
        "geo": {
            "latitude": 31.1648059,
            "longitude": 35.7618824,
            "max_latitude": null,
            "max_longitude": null,
            "min_latitude": null,
            "min_longitude": null
        },
        "iso_3166_2": "JO-KA",
        "iso_a2": "JO",
        "iso_a3": "JOR",
        "name": "Al Karak",
        "postal": "KA",
        "type": "Muhafazah",
        "type_en": "Province"
    },
    "MA": {
        "alt_names": [
            "Mafraq"
        ],
        "cca2": "JO",
        "cca3": "JOR",
        "code_hasc": "JO.MA",
        "extra": {
            "abbrev": "",
            "adm0_a3": "JOR",
            "adm0_label": "2",
            "adm0_sr": "1",
            "adm1_code": "JOR-850",
            "admin": "Jordan",
            "area_sqkm": "0",
            "check_me": "10",
            "code_local": "",
            "data_sources": [
                "natural"
            ],
            "datarank": "8",
            "diss_me": "850",
            "featurecla": "Admin-1 scale rank",
            "fips": "JO15",
            "fips_alt": "JO10",
            "gadm_level": "1",
            "geonunit": "Jordan",
            "gn_a1_code": "JO.15",
            "gn_id": "250583",
            "gn_level": "1",
            "gn_name": "Al Mafraq",
            "gn_region": "",
            "gns_adm1": "JO15",
            "gns_id": "-970219",
            "gns_lang": "ara",
            "gns_level": "1",
            "gns_name": "Al Mafraq",
            "gns_region": "",
            "gu_a3": "JOR",
            "hasc_maybe": "",
            "labelrank": "7",
            "mapcolor9": "4",
            "mapcolor13": "4",
            "max_label": "11.0",
            "min_label": "8.7",
            "min_zoom": "8.7",
            "name_ar": "\u00d8\u00a7\u00d9\u0084\u00d9\u0085\u00d9\u0081\u00d8\u00b1\u00d9\u0082",
            "name_bn": "\u00e0\u00a6\u00ae\u00e0\u00a6\u00be\u00e0\u00a6\u00ab\u00e0\u00a7\u008d\u00e0\u00a6\u00b0\u00e0\u00a6\u00be\u00e0\u00a6\u0095 \u00e0\u00a6\u0097\u00e0\u00a6\u00ad\u00e0\u00a6\u00b0\u00e0\u00a7\u008d\u00e0\u00a6\u00a8\u00e0\u00a7\u008b\u00e0\u00a6\u00b0\u00e0\u00a7\u0087\u00e0\u00a6\u009f",
            "name_de": "Gouvernement Mafraq",
            "name_el": "\u00ce\u009c\u00ce\u00ac\u00cf\u0086\u00cf\u0081\u00ce\u00b1\u00ce\u00ba",
            "name_en": "Mafraq Governorate",
            "name_es": "Gobernaci\u00c3\u00b3n de Mafraq",
            "name_fr": "subdivision de Mafraq",
            "name_hi": "\u00e0\u00a4\u00ae\u00e0\u00a4\u00be\u00e0\u00a4\u00ab\u00e0\u00a4\u00b0\u00e0\u00a4\u00be\u00e0\u00a4\u0095 \u00e0\u00a4\u0097\u00e0\u00a4\u00b5\u00e0\u00a4\u00b0\u00e0\u00a5\u008d\u00e0\u00a4\u00a8\u00e0\u00a4\u00b0\u00e0\u00a5\u0087\u00e0\u00a4\u009f",
            "name_hu": "Mafrak korm\u00c3\u00a1nyz\u00c3\u00b3s\u00c3\u00a1g",
            "name_id": "Mafraq Governorate",
            "name_it": "governatorato di Mafraq",
            "name_ja": "\u00e3\u0083\u009e\u00e3\u0083\u0095\u00e3\u0083\u00a9\u00e3\u0082\u00af\u00e7\u009c\u008c",
            "name_ko": "\u00eb\u00a7\u0088\u00ed\u0094\u0084\u00eb\u009d\u00bc\u00ed\u0081\u00ac \u00ec\u00a3\u00bc",
            "name_len": "6",
            "name_local": "",
            "name_nl": "Mafrak",
            "name_pl": "Al-Mafrak",
            "name_pt": "Mafraq",
            "name_ru": "\u00d0\u00ad\u00d0\u00bb\u00d1\u008c-\u00d0\u009c\u00d0\u00b0\u00d1\u0084\u00d1\u0080\u00d0\u00b0\u00d0\u00ba",
            "name_sv": "Mafraq",
            "name_tr": "Mafraq Y\u00c3\u00b6netimi",
            "name_vi": "T\u00e1\u00bb\u0089nh Mafraq",
            "name_zh": "\u00e9\u00a6\u00ac\u00e5\u00bc\u0097\u00e6\u008b\u0089\u00e5\u0085\u008b\u00e7\u009c\u0081",
            "ne_id": "1159309315",
            "note": "",
            "provnum_ne": "5",
            "record_type": "state",
            "region": "",
            "region_cod": "",
            "region_sub": "",
            "sameascity": "-99",
            "scalerank": "7",
            "sov_a3": "JOR",
            "sub_code": "",
            "wikidataid": "Q854871",
            "wikipedia": "",
            "woe_id": "2345930",
            "woe_label": "Al Mafraq, JO, Jordan",
            "woe_name": "Mafraq"
        },
        "geo": {
            "latitude": 32.3616821,
            "longitude": 36.2193362,
            "max_latitude": null,
            "max_longitude": null,
            "min_latitude": null,
            "min_longitude": null
        },
        "iso_3166_2": "JO-MA",
        "iso_a2": "JO",
        "iso_a3": "JOR",
        "name": "Al Mafraq",
        "postal": "MA",
        "type": "Muhafazah",
        "type_en": "Province"
    },
    "MD": {
        "alt_names": [
            "Madaba",
            "Ma\u02bfdaba",
            "Ma\u02bfdab\u00e2"
        ],
        "cca2": "JO",
        "cca3": "JOR",
        "code_hasc": "JO.MD",
        "extra": {
            "abbrev": "",
            "adm0_a3": "JOR",
            "adm0_label": "2",
            "adm0_sr": "1",
            "adm1_code": "JOR-858",
            "admin": "Jordan",
            "area_sqkm": "0",
            "check_me": "10",
            "code_local": "",
            "data_sources": [
                "natural"
            ],
            "datarank": "8",
            "diss_me": "858",
            "featurecla": "Admin-1 scale rank",
            "fips": "JO23",
            "fips_alt": "JO02",
            "gadm_level": "1",
            "geonunit": "Jordan",
            "gn_a1_code": "JO.23",
            "gn_id": "443123",
            "gn_level": "1",
            "gn_name": "Muhafazat Madaba",
            "gn_region": "",
            "gns_adm1": "JO23",
            "gns_id": "9022614",
            "gns_lang": "ara",
            "gns_level": "1",
            "gns_name": "Madaba",
            "gns_region": "",
            "gu_a3": "JOR",
            "hasc_maybe": "",
            "labelrank": "7",
            "mapcolor9": "4",
            "mapcolor13": "4",
            "max_label": "11.0",
            "min_label": "8.7",
            "min_zoom": "8.7",
            "name_ar": "\u00d9\u0085\u00d8\u00a7\u00d8\u00af\u00d8\u00a8\u00d8\u00a7",
            "name_bn": "\u00e0\u00a6\u00ae\u00e0\u00a6\u00be\u00e0\u00a6\u00a6\u00e0\u00a6\u00be\u00e0\u00a6\u00ac\u00e0\u00a6\u00be \u00e0\u00a6\u0097\u00e0\u00a6\u00ad\u00e0\u00a6\u00b0\u00e0\u00a7\u008d\u00e0\u00a6\u00a8\u00e0\u00a7\u008b\u00e0\u00a6\u00b0\u00e0\u00a7\u0087\u00e0\u00a6\u009f",
            "name_de": "Gouvernement Madaba",
            "name_el": "\u00ce\u009c\u00ce\u00b1\u00ce\u00bd\u00cf\u0084\u00ce\u00ac\u00ce\u00bc\u00cf\u0080\u00ce\u00b1 \u00ce\u0093\u00ce\u00ba\u00ce\u00bf\u00ce\u00b2\u00ce\u00b5\u00cf\u0081\u00ce\u00bd\u00ce\u00bf\u00cf\u0081\u00ce\u00ac\u00cf\u0084\u00ce\u00b5",
            "name_en": "Madaba Governorate",
            "name_es": "Gobernaci\u00c3\u00b3n de Madaba",
            "name_fr": "subdivision de Madaba",
            "name_hi": "\u00e0\u00a4\u00ae\u00e0\u00a4\u00a6\u00e0\u00a4\u00be\u00e0\u00a4\u00ac\u00e0\u00a4\u00be \u00e0\u00a4\u0097\u00e0\u00a4\u00b5\u00e0\u00a4\u00b0\u00e0\u00a5\u008d\u00e0\u00a4\u00a8\u00e0\u00a4\u00b0\u00e0\u00a5\u0087\u00e0\u00a4\u009f",
            "name_hu": "M\u00c3\u00a1daba korm\u00c3\u00a1nyz\u00c3\u00b3s\u00c3\u00a1g",
            "name_id": "Madaba Governorate",
            "name_it": "governatorato di Madaba",
            "name_ja": "\u00e3\u0083\u009e\u00e3\u0083\u0080\u00e3\u0083\u0090\u00e7\u009c\u008c",
            "name_ko": "\u00eb\u00a7\u0088\u00eb\u008b\u00a4\u00eb\u00b0\u0094 \u00ec\u00a3\u00bc",
            "name_len": "6",
            "name_local": "",
            "name_nl": "Madaba",
            "name_pl": "Madaba",
            "name_pt": "Madaba",
            "name_ru": "\u00d0\u009c\u00d0\u00b0\u00d0\u00b4\u00d0\u00b0\u00d0\u00b1\u00d0\u00b0",
            "name_sv": "Madaba",
            "name_tr": "Madaba Y\u00c3\u00b6netimi",
            "name_vi": "T\u00e1\u00bb\u0089nh Madaba",
            "name_zh": "\u00e9\u00a6\u00ac\u00e4\u00bb\u00a3\u00e5\u00b7\u00b4\u00e7\u009c\u0081",
            "ne_id": "1159309333",
            "note": "",
            "provnum_ne": "10",
            "record_type": "state",
            "region": "",
            "region_cod": "",
            "region_sub": "",
            "sameascity": "-99",
            "scalerank": "7",
            "sov_a3": "JOR",
            "sub_code": "",
            "wikidataid": "Q750447",
            "wikipedia": "",
            "woe_id": "20070288",
            "woe_label": "Madaba, JO, Jordan",
            "woe_name": "Madaba"
        },
        "geo": {
            "latitude": 31.71954,
            "longitude": 35.794109,
            "max_latitude": null,
            "max_longitude": null,
            "min_latitude": null,
            "min_longitude": null
        },
        "iso_3166_2": "JO-MD",
        "iso_a2": "JO",
        "iso_a3": "JOR",
        "name": "Madaba",
        "postal": "MD",
        "type": "Muhafazah",
        "type_en": "Province"
    },
    "MN": {
        "alt_names": [
            "Maan",
            "Ma\u02bfan"
        ],
        "cca2": "JO",
        "cca3": "JOR",
        "code_hasc": "JO.MN",
        "extra": {
            "abbrev": "",
            "adm0_a3": "JOR",
            "adm0_label": "2",
            "adm0_sr": "1",
            "adm1_code": "JOR-853",
            "admin": "Jordan",
            "area_sqkm": "0",
            "check_me": "10",
            "code_local": "",
            "data_sources": [
                "natural"
            ],
            "datarank": "8",
            "diss_me": "853",
            "featurecla": "Admin-1 scale rank",
            "fips": "JO19",
            "fips_alt": "JO07",
            "gadm_level": "1",
            "geonunit": "Jordan",
            "gn_a1_code": "JO.19",
            "gn_id": "248380",
            "gn_level": "1",
            "gn_name": "Muhafazat Ma`an",
            "gn_region": "",
            "gns_adm1": "JO19",
            "gns_id": "-972459",
            "gns_lang": "ara",
            "gns_level": "1",
            "gns_name": "Ma`an",
            "gns_region": "",
            "gu_a3": "JOR",
            "hasc_maybe": "",
            "labelrank": "7",
            "mapcolor9": "4",
            "mapcolor13": "4",
            "max_label": "11.0",
            "min_label": "8.7",
            "min_zoom": "8.7",
            "name_ar": "\u00d9\u0085\u00d8\u00b9\u00d8\u00a7\u00d9\u0086",
            "name_bn": "\u00e0\u00a6\u00ae\u00e0\u00a6\u00be'\u00e0\u00a6\u0086\u00e0\u00a6\u00a8 \u00e0\u00a6\u0097\u00e0\u00a6\u00ad\u00e0\u00a6\u00be\u00e0\u00a6\u00b0\u00e0\u00a7\u008d\u00e0\u00a6\u00a8\u00e0\u00a7\u008b\u00e0\u00a6\u00b0\u00e0\u00a7\u0087\u00e0\u00a6\u009f",
            "name_de": "Ma'an Governorate",
            "name_el": "\u00ce\u009c\u00ce\u00b1\u00ce\u00ac\u00ce\u00bd \u00ce\u0093\u00ce\u00ba\u00ce\u00bf\u00ce\u00b2\u00ce\u00b5\u00cf\u0081\u00ce\u00bd\u00ce\u00bf\u00cf\u0081\u00ce\u00ac\u00cf\u0084\u00ce\u00b5",
            "name_en": "Ma'an Governorate",
            "name_es": "Gobernaci\u00c3\u00b3n de Ma'an",
            "name_fr": "subdivision de Ma'an",
            "name_hi": "\u00e0\u00a4\u00ae\u00e0\u00a4\u00be\u00e0\u00a4\u00a8 \u00e0\u00a4\u0097\u00e0\u00a4\u00b5\u00e0\u00a4\u00b0\u00e0\u00a5\u008d\u00e0\u00a4\u00a8\u00e0\u00a4\u00b0\u00e0\u00a5\u0087\u00e0\u00a4\u009f",
            "name_hu": "Ma\u00c3\u00a1n korm\u00c3\u00a1nyz\u00c3\u00b3s\u00c3\u00a1g",
            "name_id": "Ma'an",
            "name_it": "governatorato di Ma'an",
            "name_ja": "\u00e3\u0083\u009e\u00e3\u0082\u00a2\u00e3\u0083\u00bc\u00e3\u0083\u00b3\u00e7\u009c\u008c",
            "name_ko": "\u00eb\u00a7\u0088\u00ec\u0095\u0088 \u00ec\u00a3\u00bc",
            "name_len": "5",
            "name_local": "",
            "name_nl": "Ma'an",
            "name_pl": "Ma'an",
            "name_pt": "Governadoria Maan",
            "name_ru": "\u00d0\u009c\u00d0\u00b0\u00d0\u00b0\u00d0\u00bd",
            "name_sv": "Ma'an",
            "name_tr": "Ma'an Valili\u00c4\u009fi",
            "name_vi": "T\u00e1\u00bb\u0089nh Ma'an",
            "name_zh": "\u00e9\u00a6\u00ac\u00e5\u00ae\u0089\u00e7\u009c\u0081",
            "ne_id": "1159309321",
            "note": "",
            "provnum_ne": "1",
            "record_type": "state",
            "region": "",
            "region_cod": "",
            "region_sub": "",
            "sameascity": "7",
            "scalerank": "7",
            "sov_a3": "JOR",
            "sub_code": "",
            "wikidataid": "Q606340",
            "wikipedia": "",
            "woe_id": "2345928",
            "woe_label": "Ma'an, JO, Jordan",
            "woe_name": "Ma`an"
        },
        "geo": {
            "latitude": 30.1949577,
            "longitude": 35.7342418,
            "max_latitude": null,
            "max_longitude": null,
            "min_latitude": null,
            "min_longitude": null
        },
        "iso_3166_2": "JO-MN",
        "iso_a2": "JO",
        "iso_a3": "JOR",
        "name": "Ma`an",
        "postal": "MN",
        "type": "Muhafazah",
        "type_en": "Province"
    }
}