{
    "01": {
        "alt_names": [
            ""
        ],
        "cca2": "LC",
        "cca3": "LCA",
        "code_hasc": "LC.AR",
        "extra": {
            "abbrev": "",
            "adm0_a3": "LCA",
            "adm0_label": "7",
            "adm0_sr": "1",
            "adm1_code": "LCA-5076",
            "admin": "Saint Lucia",
            "area_sqkm": "0",
            "check_me": "0",
            "code_local": "",
            "data_sources": [
                "natural"
            ],
            "datarank": "10",
            "diss_me": "5076",
            "featurecla": "Admin-1 scale rank",
            "fips": "SF01",
            "fips_alt": "",
            "gadm_level": "0",
            "geonunit": "Saint Lucia",
            "gn_a1_code": "LC.01",
            "gn_id": "3576891",
            "gn_level": "1",
            "gn_name": "Quarter of Anse-la-Raye",
            "gn_region": "",
            "gns_adm1": "ST01",
            "gns_id": "-1313701",
            "gns_lang": "fra",
            "gns_level": "1",
            "gns_name": "Anse-la-Raye, Quarter of",
            "gns_region": "",
            "gu_a3": "LCA",
            "hasc_maybe": "",
            "labelrank": "20",
            "mapcolor9": "3",
            "mapcolor13": "4",
            "max_label": "11.0",
            "min_label": "11.0",
            "min_zoom": "11.0",
            "name_ar": "\u00d8\u00ad\u00d9\u008a \u00d8\u00a3\u00d9\u0086\u00d8\u00b3 \u00d9\u0084\u00d8\u00a7 \u00d8\u00b1\u00d8\u00a7\u00d9\u008a",
            "name_bn": "\u00e0\u00a6\u0086\u00e0\u00a6\u00a8\u00e0\u00a7\u008d\u00e0\u00a6\u00b8 \u00e0\u00a6\u00b2\u00e0\u00a6\u00be \u00e0\u00a6\u00b0\u00e0\u00a6\u00be\u00e0\u00a6\u00af\u00e0\u00a6\u00bc\u00e0\u00a7\u0087 \u00e0\u00a6\u0095\u00e0\u00a7\u008b\u00e0\u00a6\u00af\u00e0\u00a6\u00bc\u00e0\u00a6\u00be\u00e0\u00a6\u00b0\u00e0\u00a7\u008d\u00e0\u00a6\u009f\u00e0\u00a6\u00be\u00e0\u00a6\u00b0",
            "name_de": "Anse-la-Raye",
            "name_el": "\u00ce\u0086\u00ce\u00bd\u00cf\u0082 \u00ce\u00bb\u00ce\u00b1 \u00ce\u00a1\u00ce\u00ac\u00ce\u00b9\u00ce\u00b3",
            "name_en": "Anse la Raye Quarter",
            "name_es": "Anse La Raye",
            "name_fr": "District d'Anse-la-Raye",
            "name_hi": "\u00e0\u00a4\u008f\u00e0\u00a4\u0082\u00e0\u00a4\u00b8 \u00e0\u00a4\u00b2\u00e0\u00a4\u00be \u00e0\u00a4\u00b0\u00e0\u00a4\u00be\u00e0\u00a4\u008f \u00e0\u00a4\u0095\u00e0\u00a5\u008d\u00e0\u00a4\u00b5\u00e0\u00a4\u00be\u00e0\u00a4\u00b0\u00e0\u00a5\u008d\u00e0\u00a4\u009f\u00e0\u00a4\u00b0",
            "name_hu": "",
            "name_id": "Anse la Raye Quarter",
            "name_it": "quartiere di Anse-la-Raye",
            "name_ja": "\u00e3\u0082\u00a2\u00e3\u0083\u00b3\u00e3\u0082\u00b9\u00e3\u0083\u00bb\u00e3\u0083\u00a9\u00e3\u0083\u00bb\u00e3\u0083\u00ac\u00e3\u0082\u00a4\u00e5\u009c\u00b0\u00e5\u008c\u00ba",
            "name_ko": "\u00ec\u0095\u0099\u00ec\u008a\u00a4\u00eb\u009d\u00bc\u00eb\u00a0\u0088 \u00ea\u00b5\u00ac",
            "name_len": "12",
            "name_local": "",
            "name_nl": "Anse-la-Raye",
            "name_pl": "Anse la Raye",
            "name_pt": "Anse-La-Raye",
            "name_ru": "\u00d0\u0090\u00d0\u00bd\u00d1\u0081-\u00d0\u009b\u00d0\u00b0\u00d0\u00b2\u00d1\u0083\u00d0\u00b0",
            "name_sv": "Anse la Raye Quarter",
            "name_tr": "Anse la Raye",
            "name_vi": "Anse la Raye",
            "name_zh": "\u00e6\u0098\u0082\u00e6\u0096\u00af\u00e6\u008b\u0089\u00e9\u009b\u00b7\u00e5\u008d\u0080",
            "ne_id": "1159316393",
            "note": "",
            "provnum_ne": "0",
            "record_type": "state",
            "region": "",
            "region_cod": "",
            "region_sub": "",
            "sameascity": "-99",
            "scalerank": "10",
            "sov_a3": "LCA",
            "sub_code": "",
            "wikidataid": "Q1676934",
            "wikipedia": "http:\/\/en.wikipedia.org\/wiki\/Anse_la_Raye_Quarter",
            "woe_id": "2347023",
            "woe_label": "Ansela-Raye, LC, St. Lucia",
            "woe_name": "Ansela-Raye"
        },
        "geo": {
            "latitude": "13.93500000",
            "longitude": "-61.0189000"
        },
        "iso_3166_2": "LC-01",
        "iso_a2": "LC",
        "iso_a3": "LCA",
        "name": "Anse-la-Raye",
        "postal": "01",
        "type": "Quarter",
        "type_en": "Quarter"
    },
    "02": {
        "alt_names": [
            ""
        ],
        "cca2": "LC",
        "cca3": "LCA",
        "code_hasc": "LC.CS",
        "extra": {
            "abbrev": "",
            "adm0_a3": "LCA",
            "adm0_label": "7",
            "adm0_sr": "1",
            "adm1_code": "LCA-5077",
            "admin": "Saint Lucia",
            "area_sqkm": "0",
            "check_me": "0",
            "code_local": "",
            "data_sources": [
                "natural"
            ],
            "datarank": "10",
            "diss_me": "5077",
            "featurecla": "Admin-1 scale rank",
            "fips": "ST03",
            "fips_alt": "",
            "gadm_level": "0",
            "geonunit": "Saint Lucia",
            "gn_a1_code": "LC.03",
            "gn_id": "3576810",
            "gn_level": "1",
            "gn_name": "Quarter of Castries",
            "gn_region": "",
            "gns_adm1": "ST03",
            "gns_id": "-1313783",
            "gns_lang": "fra",
            "gns_level": "1",
            "gns_name": "Castries, Quarter of",
            "gns_region": "",
            "gu_a3": "LCA",
            "hasc_maybe": "",
            "labelrank": "20",
            "mapcolor9": "3",
            "mapcolor13": "4",
            "max_label": "11.0",
            "min_label": "11.0",
            "min_zoom": "11.0",
            "name_ar": "",
            "name_bn": "",
            "name_de": "Castries",
            "name_el": "",
            "name_en": "Castries Quarter",
            "name_es": "Castries",
            "name_fr": "District de Castries",
            "name_hi": "",
            "name_hu": "",
            "name_id": "",
            "name_it": "quartiere di Castries",
            "name_ja": "\u00e3\u0082\u00ab\u00e3\u0082\u00b9\u00e3\u0083\u0088\u00e3\u0083\u00aa\u00e3\u0083\u00bc\u00e3\u0082\u00ba\u00e5\u009c\u00b0\u00e5\u008c\u00ba",
            "name_ko": "\u00ec\u00ba\u0090\u00ec\u008a\u00a4\u00ed\u008a\u00b8\u00eb\u00a6\u00ac\u00ec\u008a\u00a4 \u00ea\u00b5\u00ac",
            "name_len": "8",
            "name_local": "",
            "name_nl": "Castries",
            "name_pl": "Castries",
            "name_pt": "",
            "name_ru": "\u00d0\u009a\u00d0\u00b0\u00d1\u0081\u00d1\u0082\u00d1\u0080\u00d0\u00b8",
            "name_sv": "Castries",
            "name_tr": "Castries",
            "name_vi": "Castries",
            "name_zh": "\u00e5\u008d\u00a1\u00e6\u0096\u00af\u00e7\u0089\u00b9\u00e9\u0087\u008c\u00e5\u008d\u0080",
            "ne_id": "1159316395",
            "note": "",
            "provnum_ne": "0",
            "record_type": "state",
            "region": "",
            "region_cod": "",
            "region_sub": "",
            "sameascity": "-99",
            "scalerank": "10",
            "sov_a3": "LCA",
            "sub_code": "",
            "wikidataid": "Q1049867",
            "wikipedia": "http:\/\/en.wikipedia.org\/wiki\/Castries_Quarter",
            "woe_id": "2347025",
            "woe_label": "Castries, LC, St. Lucia",
            "woe_name": "Castries"
        },
        "geo": {
            "latitude": "14.00040000",
            "longitude": "-60.9749000"
        },
        "iso_3166_2": "LC-02",
        "iso_a2": "LC",
        "iso_a3": "LCA",
        "name": "Castries",
        "postal": "02",
        "type": "Quarter",
        "type_en": "Quarter"
    },
    "03": {
        "alt_names": [
            ""
        ],
        "cca2": "LC",
        "cca3": "LCA",
        "code_hasc": "LC.CH",
        "extra": {
            "abbrev": "",
            "adm0_a3": "LCA",
            "adm0_label": "7",
            "adm0_sr": "1",
            "adm1_code": "LCA-5078",
            "admin": "Saint Lucia",
            "area_sqkm": "0",
            "check_me": "0",
            "code_local": "",
            "data_sources": [
                "natural"
            ],
            "datarank": "10",
            "diss_me": "5078",
            "featurecla": "Admin-1 scale rank",
            "fips": "ST04",
            "fips_alt": "",
            "gadm_level": "0",
            "geonunit": "Saint Lucia",
            "gn_a1_code": "LC.04",
            "gn_id": "3576794",
            "gn_level": "1",
            "gn_name": "Quarter of Choiseul",
            "gn_region": "",
            "gns_adm1": "ST04",
            "gns_id": "-1313799",
            "gns_lang": "fra",
            "gns_level": "1",
            "gns_name": "Choiseul, Quarter of",
            "gns_region": "",
            "gu_a3": "LCA",
            "hasc_maybe": "",
            "labelrank": "20",
            "mapcolor9": "3",
            "mapcolor13": "4",
            "max_label": "11.0",
            "min_label": "11.0",
            "min_zoom": "11.0",
            "name_ar": "",
            "name_bn": "",
            "name_de": "Choiseul",
            "name_el": "",
            "name_en": "Choiseul Quarter",
            "name_es": "Choiseul",
            "name_fr": "District de Choiseul",
            "name_hi": "",
            "name_hu": "",
            "name_id": "",
            "name_it": "quartiere di Choiseul",
            "name_ja": "\u00e3\u0082\u00b7\u00e3\u0083\u00a7\u00e3\u0082\u00bc\u00e3\u0083\u00bc\u00e3\u0083\u00ab\u00e5\u009c\u00b0\u00e5\u008c\u00ba",
            "name_ko": "\u00ec\u008a\u0088\u00ec\u0095\u0084\u00ec\u00a3\u008c \u00ea\u00b5\u00ac",
            "name_len": "8",
            "name_local": "",
            "name_nl": "Choiseul",
            "name_pl": "Choiseul",
            "name_pt": "",
            "name_ru": "\u00d0\u00a8\u00d1\u0083\u00d0\u00b0\u00d0\u00b7\u00d1\u0091\u00d0\u00bb\u00d1\u008c",
            "name_sv": "Choiseul",
            "name_tr": "Choiseul",
            "name_vi": "Choiseul",
            "name_zh": "\u00e8\u0088\u0092\u00e7\u0093\u00a6\u00e7\u0091\u009f\u00e7\u0088\u00be\u00e5\u008d\u0080",
            "ne_id": "1159316389",
            "note": "",
            "provnum_ne": "0",
            "record_type": "state",
            "region": "",
            "region_cod": "",
            "region_sub": "",
            "sameascity": "-99",
            "scalerank": "10",
            "sov_a3": "LCA",
            "sub_code": "",
            "wikidataid": "Q1075816",
            "wikipedia": "http:\/\/en.wikipedia.org\/wiki\/Choiseul_Quarter",
            "woe_id": "2347026",
            "woe_label": "Choiseul, LC, St. Lucia",
            "woe_name": "Choiseul"
        },
        "geo": {
            "latitude": "13.79120000",
            "longitude": "-61.0296000"
        },
        "iso_3166_2": "LC-03",
        "iso_a2": "LC",
        "iso_a3": "LCA",
        "name": "Choiseul",
        "postal": "03",
        "type": "Quarter",
        "type_en": "Quarter"
    },
    "04": {
        "alt_names": [
            ""
        ],
        "cca2": "LC",
        "cca3": "LCA",
        "code_hasc": "LC..X02~",
        "extra": {
            "abbrev": "",
            "adm0_a3": "LCA",
            "adm0_label": "7",
            "adm0_sr": "1",
            "adm1_code": "LCA-5079",
            "admin": "Saint Lucia",
            "area_sqkm": "0",
            "check_me": "0",
            "code_local": "",
            "data_sources": [
                "natural"
            ],
            "datarank": "10",
            "diss_me": "5079",
            "featurecla": "Admin-1 scale rank",
            "fips": "",
            "fips_alt": "",
            "gadm_level": "0",
            "geonunit": "Saint Lucia",
            "gn_a1_code": "LC.02",
            "gn_id": "3576771",
            "gn_level": "1",
            "gn_name": "Quarter of Dauphin",
            "gn_region": "",
            "gns_adm1": "ST02",
            "gns_id": "-1313822",
            "gns_lang": "fra",
            "gns_level": "1",
            "gns_name": "Dauphin, Quarter of",
            "gns_region": "",
            "gu_a3": "LCA",
            "hasc_maybe": "",
            "labelrank": "20",
            "mapcolor9": "3",
            "mapcolor13": "4",
            "max_label": "11.0",
            "min_label": "11.0",
            "min_zoom": "11.0",
            "name_ar": "",
            "name_bn": "",
            "name_de": "Dauphin",
            "name_el": "\u00ce\u009d\u00cf\u0084\u00ce\u00bf\u00cf\u0086\u00ce\u00ad\u00ce\u00bd",
            "name_en": "Dauphin Quarter",
            "name_es": "Dauphin",
            "name_fr": "",
            "name_hi": "",
            "name_hu": "",
            "name_id": "",
            "name_it": "quartiere di Dauphin",
            "name_ja": "\u00e3\u0083\u0089\u00e3\u0083\u00bc\u00e3\u0083\u0095\u00e3\u0082\u00a1\u00e3\u0083\u00b3",
            "name_ko": "\u00eb\u008f\u0084\u00ed\u008c\u00bd \u00ea\u00b5\u00ac",
            "name_len": "7",
            "name_local": "",
            "name_nl": "Dauphin Quarter",
            "name_pl": "",
            "name_pt": "",
            "name_ru": "",
            "name_sv": "Dauphin",
            "name_tr": "Dauphin",
            "name_vi": "Dauphin",
            "name_zh": "\u00e5\u00a4\u009a\u00e8\u008a\u00ac\u00e5\u008d\u0080",
            "ne_id": "1159316375",
            "note": "",
            "provnum_ne": "0",
            "record_type": "state",
            "region": "",
            "region_cod": "",
            "region_sub": "",
            "sameascity": "-99",
            "scalerank": "10",
            "sov_a3": "LCA",
            "sub_code": "",
            "wikidataid": "Q182988",
            "wikipedia": "http:\/\/en.wikipedia.org\/wiki\/Dauphin_Quarter",
            "woe_id": "2347024",
            "woe_label": "Dauphin, LC, St. Lucia",
            "woe_name": "Dauphin"
        },
        "geo": {
            "latitude": "14.01760000",
            "longitude": "-60.9062000"
        },
        "iso_3166_2": "LC-04",
        "iso_a2": "LC",
        "iso_a3": "LCA",
        "name": "Dauphin",
        "postal": "04",
        "type": "Quarter",
        "type_en": "Quarter"
    },
    "05": {
        "alt_names": [
            ""
        ],
        "cca2": "LC",
        "cca3": "LCA",
        "code_hasc": "LC.DE",
        "extra": {
            "abbrev": "",
            "adm0_a3": "LCA",
            "adm0_label": "7",
            "adm0_sr": "1",
            "adm1_code": "LCA-5080",
            "admin": "Saint Lucia",
            "area_sqkm": "0",
            "check_me": "0",
            "code_local": "",
            "data_sources": [
                "natural"
            ],
            "datarank": "10",
            "diss_me": "5080",
            "featurecla": "Admin-1 scale rank",
            "fips": "ST05",
            "fips_alt": "",
            "gadm_level": "0",
            "geonunit": "Saint Lucia",
            "gn_a1_code": "LC.05",
            "gn_id": "3576764",
            "gn_level": "1",
            "gn_name": "Quarter of Dennery",
            "gn_region": "",
            "gns_adm1": "ST05",
            "gns_id": "-1313829",
            "gns_lang": "fra",
            "gns_level": "1",
            "gns_name": "Dennery, Quarter of",
            "gns_region": "",
            "gu_a3": "LCA",
            "hasc_maybe": "",
            "labelrank": "20",
            "mapcolor9": "3",
            "mapcolor13": "4",
            "max_label": "11.0",
            "min_label": "11.0",
            "min_zoom": "11.0",
            "name_ar": "\u00d8\u00ad\u00d9\u008a \u00d8\u00af\u00d9\u008a\u00d9\u0086\u00d9\u008a\u00d8\u00b1\u00d9\u008a",
            "name_bn": "\u00e0\u00a6\u00a1\u00e0\u00a7\u0087\u00e0\u00a6\u00a8\u00e0\u00a6\u00bf\u00e0\u00a6\u00b0\u00e0\u00a6\u00bf \u00e0\u00a6\u0095\u00e0\u00a7\u008b\u00e0\u00a6\u00af\u00e0\u00a6\u00bc\u00e0\u00a6\u00be\u00e0\u00a6\u00b0\u00e0\u00a7\u008d\u00e0\u00a6\u009f\u00e0\u00a6\u00be\u00e0\u00a6\u00b0",
            "name_de": "Dennery",
            "name_el": "\u00ce\u009d\u00cf\u0084\u00ce\u00b5\u00ce\u00bd\u00ce\u00b5\u00cf\u0081\u00ce\u00af",
            "name_en": "Dennery Quarter",
            "name_es": "Dennery",
            "name_fr": "District de Dennery",
            "name_hi": "\u00e0\u00a4\u00a1\u00e0\u00a5\u0087\u00e0\u00a4\u00a8\u00e0\u00a5\u0087\u00e0\u00a4\u00b0\u00e0\u00a5\u0080 \u00e0\u00a4\u0095\u00e0\u00a5\u008d\u00e0\u00a4\u00b5\u00e0\u00a4\u00be\u00e0\u00a4\u00b0\u00e0\u00a5\u008d\u00e0\u00a4\u009f\u00e0\u00a4\u00b0",
            "name_hu": "",
            "name_id": "Dennery Quarter",
            "name_it": "quartiere di Dennery",
            "name_ja": "\u00e3\u0083\u0087\u00e3\u0083\u008a\u00e3\u0083\u00aa\u00e3\u0083\u00bc\u00e5\u009c\u00b0\u00e5\u008c\u00ba",
            "name_ko": "\u00eb\u008d\u00b0\u00eb\u0084\u00a4\u00eb\u00a6\u00ac \u00ea\u00b5\u00ac",
            "name_len": "7",
            "name_local": "",
            "name_nl": "Dennery",
            "name_pl": "Dennery",
            "name_pt": "Dennery",
            "name_ru": "\u00d0\u0094\u00d0\u00b5\u00d0\u00bd\u00d0\u00bd\u00d0\u00b5\u00d1\u0080\u00d0\u00b8",
            "name_sv": "Dennery",
            "name_tr": "Dennery",
            "name_vi": "Dennery",
            "name_zh": "\u00e7\u0099\u00bb\u00e5\u0085\u00a7\u00e9\u0087\u008c\u00e5\u008d\u0080",
            "ne_id": "1159316377",
            "note": "",
            "provnum_ne": "0",
            "record_type": "state",
            "region": "",
            "region_cod": "",
            "region_sub": "",
            "sameascity": "-99",
            "scalerank": "10",
            "sov_a3": "LCA",
            "sub_code": "",
            "wikidataid": "Q1188890",
            "wikipedia": "http:\/\/en.wikipedia.org\/wiki\/Dennery_Quarter",
            "woe_id": "2347027",
            "woe_label": "Dennery, LC, St. Lucia",
            "woe_name": "Dennery"
        },
        "geo": {
            "latitude": "13.94250000",
            "longitude": "-60.9052000"
        },
        "iso_3166_2": "LC-05",
        "iso_a2": "LC",
        "iso_a3": "LCA",
        "name": "Dennery",
        "postal": "05",
        "type": "Quarter",
        "type_en": "Quarter"
    },
    "06": {
        "alt_names": [
            ""
        ],
        "cca2": "LC",
        "cca3": "LCA",
        "code_hasc": "LC.GI",
        "extra": {
            "abbrev": "",
            "adm0_a3": "LCA",
            "adm0_label": "7",
            "adm0_sr": "1",
            "adm1_code": "LCA-5081",
            "admin": "Saint Lucia",
            "area_sqkm": "0",
            "check_me": "0",
            "code_local": "",
            "data_sources": [
                "natural"
            ],
            "datarank": "10",
            "diss_me": "5081",
            "featurecla": "Admin-1 scale rank",
            "fips": "ST06",
            "fips_alt": "",
            "gadm_level": "0",
            "geonunit": "Saint Lucia",
            "gn_a1_code": "LC.06",
            "gn_id": "3576685",
            "gn_level": "1",
            "gn_name": "Quarter of Gros-Islet",
            "gn_region": "",
            "gns_adm1": "ST06",
            "gns_id": "-1313908",
            "gns_lang": "fra",
            "gns_level": "1",
            "gns_name": "Gros-Islet, Quarter of",
            "gns_region": "",
            "gu_a3": "LCA",
            "hasc_maybe": "",
            "labelrank": "20",
            "mapcolor9": "3",
            "mapcolor13": "4",
            "max_label": "11.0",
            "min_label": "11.0",
            "min_zoom": "11.0",
            "name_ar": "\u00d8\u00ad\u00d9\u008a \u00d8\u00ba\u00d8\u00b1\u00d9\u0088\u00d8\u00b3 \u00d8\u00a5\u00d8\u00b3\u00d9\u0084\u00d9\u008a\u00d8\u00aa",
            "name_bn": "\u00e0\u00a6\u0097\u00e0\u00a7\u008d\u00e0\u00a6\u00b0\u00e0\u00a7\u008b\u00e0\u00a6\u00b8  \u00e0\u00a6\u0087\u00e0\u00a6\u009c\u00e0\u00a6\u00b2\u00e0\u00a7\u0087\u00e0\u00a6\u009f \u00e0\u00a6\u0095\u00e0\u00a7\u008b\u00e0\u00a6\u00af\u00e0\u00a6\u00bc\u00e0\u00a6\u00be\u00e0\u00a6\u00b0\u00e0\u00a7\u008d\u00e0\u00a6\u009f\u00e0\u00a6\u00be\u00e0\u00a6\u00b0",
            "name_de": "Gros Islet",
            "name_el": "\u00ce\u009d\u00ce\u00b7\u00cf\u0083\u00ce\u00af\u00ce\u00b4\u00ce\u00b1 \u00ce\u0093\u00ce\u00ba\u00cf\u0081\u00ce\u00bf\u00cf\u0082",
            "name_en": "Gros Islet Quarter",
            "name_es": "Gros Islet",
            "name_fr": "District de Gros-Islet",
            "name_hi": "\u00e0\u00a4\u0097\u00e0\u00a5\u008d\u00e0\u00a4\u00b0\u00e0\u00a5\u008b\u00e0\u00a4\u00b8 \u00e0\u00a4\u0086\u00e0\u00a4\u0087\u00e0\u00a4\u00b2\u00e0\u00a5\u0087\u00e0\u00a4\u009f \u00e0\u00a4\u0095\u00e0\u00a5\u008d\u00e0\u00a4\u00b5\u00e0\u00a4\u00be\u00e0\u00a4\u00b0\u00e0\u00a5\u008d\u00e0\u00a4\u009f\u00e0\u00a4\u00b0",
            "name_hu": "",
            "name_id": "Gros Islet Quarter",
            "name_it": "quartiere di Gros Islet",
            "name_ja": "\u00e3\u0082\u00b0\u00e3\u0083\u00ad\u00e3\u0082\u00b9\u00e3\u0083\u00bb\u00e3\u0082\u00a4\u00e3\u0082\u00b9\u00e3\u0083\u00ac\u00e3\u0083\u0083\u00e3\u0083\u0088\u00e5\u009c\u00b0\u00e5\u008c\u00ba",
            "name_ko": "\u00ea\u00b7\u00b8\u00eb\u00a1\u009c\u00ec\u008a\u00a4\u00ec\u0095\u0084\u00ec\u009d\u00bc\u00eb\u00a0\u009b \u00ea\u00b5\u00ac",
            "name_len": "10",
            "name_local": "",
            "name_nl": "Gros Islet",
            "name_pl": "Gros Islet",
            "name_pt": "Gros Islet Quarter",
            "name_ru": "\u00d0\u0093\u00d1\u0080\u00d0\u00be\u00d1\u0081-\u00d0\u0090\u00d0\u00b9\u00d0\u00bb\u00d0\u00b5\u00d1\u0082",
            "name_sv": "Gros-Islet",
            "name_tr": "Gros Islet",
            "name_vi": "Gros Islet",
            "name_zh": "\u00e6\u00a0\u00bc\u00e7\u00be\u0085\u00e6\u0096\u00af\u00e4\u00bc\u008a\u00e6\u0096\u00af\u00e5\u008b\u0092\u00e5\u008d\u0080",
            "ne_id": "1159315539",
            "note": "",
            "provnum_ne": "0",
            "record_type": "state",
            "region": "",
            "region_cod": "",
            "region_sub": "",
            "sameascity": "-99",
            "scalerank": "10",
            "sov_a3": "LCA",
            "sub_code": "",
            "wikidataid": "Q953557",
            "wikipedia": "http:\/\/en.wikipedia.org\/wiki\/Gros_Islet_Quarter",
            "woe_id": "2347028",
            "woe_label": "Gros Islet, LC, St. Lucia",
            "woe_name": "Gros Islet"
        },
        "geo": {
            "latitude": "14.06640000",
            "longitude": "-60.9446000"
        },
        "iso_3166_2": "LC-06",
        "iso_a2": "LC",
        "iso_a3": "LCA",
        "name": "Gros Islet",
        "postal": "06",
        "type": "Quarter",
        "type_en": "Quarter"
    },
    "07": {
        "alt_names": [
            ""
        ],
        "cca2": "LC",
        "cca3": "LCA",
        "code_hasc": "LC.LB",
        "extra": {
            "abbrev": "",
            "adm0_a3": "LCA",
            "adm0_label": "7",
            "adm0_sr": "1",
            "adm1_code": "LCA-5082",
            "admin": "Saint Lucia",
            "area_sqkm": "0",
            "check_me": "0",
            "code_local": "",
            "data_sources": [
                "natural"
            ],
            "datarank": "10",
            "diss_me": "5082",
            "featurecla": "Admin-1 scale rank",
            "fips": "ST07",
            "fips_alt": "",
            "gadm_level": "0",
            "geonunit": "Saint Lucia",
            "gn_a1_code": "LC.07",
            "gn_id": "3576662",
            "gn_level": "1",
            "gn_name": "Quarter of Laborie",
            "gn_region": "",
            "gns_adm1": "ST07",
            "gns_id": "-1313931",
            "gns_lang": "fra",
            "gns_level": "1",
            "gns_name": "Laborie, Quarter of",
            "gns_region": "",
            "gu_a3": "LCA",
            "hasc_maybe": "",
            "labelrank": "20",
            "mapcolor9": "3",
            "mapcolor13": "4",
            "max_label": "11.0",
            "min_label": "11.0",
            "min_zoom": "11.0",
            "name_ar": "\u00d8\u00ad\u00d9\u008a \u00d9\u0084\u00d8\u00a7\u00d8\u00a8\u00d9\u0088\u00d8\u00b1\u00d9\u008a",
            "name_bn": "\u00e0\u00a6\u00b2\u00e0\u00a7\u0087\u00e0\u00a6\u00ac\u00e0\u00a7\u0081\u00e0\u00a6\u00b0\u00e0\u00a6\u00bf \u00e0\u00a6\u0095\u00e0\u00a7\u008b\u00e0\u00a6\u00af\u00e0\u00a6\u00bc\u00e0\u00a6\u00be\u00e0\u00a6\u00b0\u00e0\u00a7\u008d\u00e0\u00a6\u009f\u00e0\u00a6\u00be\u00e0\u00a6\u00b0",
            "name_de": "Laborie",
            "name_el": "\u00ce\u009b\u00ce\u00b1\u00ce\u00bc\u00cf\u0080\u00cf\u008c\u00cf\u0081\u00ce\u00b9",
            "name_en": "Laborie Quarter",
            "name_es": "Laborie",
            "name_fr": "District de Laborie",
            "name_hi": "\u00e0\u00a4\u00b2\u00e0\u00a5\u0087\u00e0\u00a4\u00ac\u00e0\u00a5\u008b\u00e0\u00a4\u00b0\u00e0\u00a5\u0080 \u00e0\u00a4\u0095\u00e0\u00a5\u008d\u00e0\u00a4\u00b5\u00e0\u00a4\u00be\u00e0\u00a4\u00b0\u00e0\u00a5\u008d\u00e0\u00a4\u009f\u00e0\u00a4\u00b0",
            "name_hu": "",
            "name_id": "Laborie Quarter",
            "name_it": "quartiere di Laborie",
            "name_ja": "\u00e3\u0083\u00a9\u00e3\u0083\u009c\u00e3\u0083\u00aa\u00e3\u0083\u00bc\u00e5\u009c\u00b0\u00e5\u008c\u00ba",
            "name_ko": "\u00eb\u009d\u00bc\u00eb\u00b3\u00b4\u00eb\u00a6\u00ac \u00ea\u00b5\u00ac",
            "name_len": "7",
            "name_local": "",
            "name_nl": "Laborie",
            "name_pl": "Laborie",
            "name_pt": "Laborie",
            "name_ru": "\u00d0\u009b\u00d0\u00b0\u00d0\u00b1\u00d0\u00be\u00d1\u0080\u00d1\u008c\u00d0\u00b5",
            "name_sv": "Laborie Quarter",
            "name_tr": "Laborie",
            "name_vi": "Laborie",
            "name_zh": "\u00e6\u008b\u0089\u00e5\u008d\u009a\u00e5\u0088\u0097\u00e5\u008d\u0080",
            "ne_id": "1159316387",
            "note": "",
            "provnum_ne": "0",
            "record_type": "state",
            "region": "",
            "region_cod": "",
            "region_sub": "",
            "sameascity": "-99",
            "scalerank": "10",
            "sov_a3": "LCA",
            "sub_code": "",
            "wikidataid": "Q599347",
            "wikipedia": "http:\/\/en.wikipedia.org\/wiki\/Laborie_Quarter",
            "woe_id": "2347029",
            "woe_label": "Laborie, LC, St. Lucia",
            "woe_name": "Laborie"
        },
        "geo": {
            "latitude": "13.76760000",
            "longitude": "-60.9867000"
        },
        "iso_3166_2": "LC-07",
        "iso_a2": "LC",
        "iso_a3": "LCA",
        "name": "Laborie",
        "postal": "07",
        "type": "Quarter",
        "type_en": "Quarter"
    },
    "08": {
        "alt_names": [
            ""
        ],
        "cca2": "LC",
        "cca3": "LCA",
        "code_hasc": "LC.MI",
        "extra": {
            "abbrev": "",
            "adm0_a3": "LCA",
            "adm0_label": "7",
            "adm0_sr": "1",
            "adm1_code": "LCA-5083",
            "admin": "Saint Lucia",
            "area_sqkm": "0",
            "check_me": "0",
            "code_local": "",
            "data_sources": [
                "natural"
            ],
            "datarank": "10",
            "diss_me": "5083",
            "featurecla": "Admin-1 scale rank",
            "fips": "ST08",
            "fips_alt": "",
            "gadm_level": "0",
            "geonunit": "Saint Lucia",
            "gn_a1_code": "LC.08",
            "gn_id": "3576567",
            "gn_level": "1",
            "gn_name": "Quarter of Micoud",
            "gn_region": "",
            "gns_adm1": "ST08",
            "gns_id": "-1314026",
            "gns_lang": "fra",
            "gns_level": "1",
            "gns_name": "Micoud, Quarter of",
            "gns_region": "",
            "gu_a3": "LCA",
            "hasc_maybe": "",
            "labelrank": "20",
            "mapcolor9": "3",
            "mapcolor13": "4",
            "max_label": "11.0",
            "min_label": "11.0",
            "min_zoom": "11.0",
            "name_ar": "\u00d8\u00ad\u00d9\u008a \u00d9\u0085\u00d9\u008a\u00d9\u0083\u00d9\u0088\u00d8\u00af",
            "name_bn": "\u00e0\u00a6\u00ae\u00e0\u00a6\u00be\u00e0\u00a6\u0087\u00e0\u00a6\u0095\u00e0\u00a6\u00a1 \u00e0\u00a6\u0095\u00e0\u00a7\u008b\u00e0\u00a6\u00af\u00e0\u00a6\u00bc\u00e0\u00a6\u00be\u00e0\u00a6\u00b0\u00e0\u00a7\u008d\u00e0\u00a6\u009f\u00e0\u00a6\u00be\u00e0\u00a6\u00b0",
            "name_de": "Micoud",
            "name_el": "\u00ce\u009c\u00ce\u00b9\u00ce\u00ba\u00ce\u00bf\u00cf\u008d\u00ce\u00bd\u00cf\u0084",
            "name_en": "Micoud Quarter",
            "name_es": "Micoud",
            "name_fr": "district de Micoud",
            "name_hi": "\u00e0\u00a4\u00ae\u00e0\u00a4\u00bf\u00e0\u00a4\u00b8\u00e0\u00a5\u0082\u00e0\u00a4\u00a6 \u00e0\u00a4\u0095\u00e0\u00a5\u008d\u00e0\u00a4\u00b5\u00e0\u00a4\u00be\u00e0\u00a4\u00b0\u00e0\u00a5\u008d\u00e0\u00a4\u009f\u00e0\u00a4\u00b0",
            "name_hu": "",
            "name_id": "Micoud Quarter",
            "name_it": "quartiere di Micoud",
            "name_ja": "\u00e3\u0083\u009f\u00e3\u0082\u00af\u00e3\u0083\u0083\u00e3\u0083\u0089\u00e5\u009c\u00b0\u00e5\u008c\u00ba",
            "name_ko": "\u00eb\u00af\u00b8\u00ec\u00bf\u00a0 \u00ea\u00b5\u00ac",
            "name_len": "6",
            "name_local": "",
            "name_nl": "Micoud",
            "name_pl": "Micoud",
            "name_pt": "Micoud",
            "name_ru": "\u00d0\u009c\u00d0\u00b8\u00d0\u00ba\u00d1\u0083",
            "name_sv": "Micoud Quarter",
            "name_tr": "Micoud",
            "name_vi": "Micoud",
            "name_zh": "\u00e7\u00b1\u00b3\u00e5\u00ba\u00ab\u00e5\u008d\u0080",
            "ne_id": "1159316383",
            "note": "",
            "provnum_ne": "0",
            "record_type": "state",
            "region": "",
            "region_cod": "",
            "region_sub": "",
            "sameascity": "-99",
            "scalerank": "10",
            "sov_a3": "LCA",
            "sub_code": "",
            "wikidataid": "Q1240193",
            "wikipedia": "http:\/\/en.wikipedia.org\/wiki\/Micoud_Quarter",
            "woe_id": "2347030",
            "woe_label": "Micoud, LC, St. Lucia",
            "woe_name": "Micoud"
        },
        "geo": {
            "latitude": "13.81590000",
            "longitude": "-60.9180000"
        },
        "iso_3166_2": "LC-08",
        "iso_a2": "LC",
        "iso_a3": "LCA",
        "name": "Micoud",
        "postal": "08",
        "type": "Quarter",
        "type_en": "Quarter"
    },
    "09": {
        "alt_names": [
            ""
        ],
        "cca2": "LC",
        "cca3": "LCA",
        "code_hasc": "LC.X01~",
        "extra": {
            "abbrev": "",
            "adm0_a3": "LCA",
            "adm0_label": "7",
            "adm0_sr": "1",
            "adm1_code": "LCA-5084",
            "admin": "Saint Lucia",
            "area_sqkm": "0",
            "check_me": "0",
            "code_local": "",
            "data_sources": [
                "natural"
            ],
            "datarank": "10",
            "diss_me": "5084",
            "featurecla": "Admin-1 scale rank",
            "fips": "",
            "fips_alt": "",
            "gadm_level": "0",
            "geonunit": "Saint Lucia",
            "gn_a1_code": "LC.11",
            "gn_id": "3576507",
            "gn_level": "1",
            "gn_name": "Quarter of Praslin",
            "gn_region": "",
            "gns_adm1": "ST11",
            "gns_id": "-1314086",
            "gns_lang": "fra",
            "gns_level": "1",
            "gns_name": "Praslin, Quarter of",
            "gns_region": "",
            "gu_a3": "LCA",
            "hasc_maybe": "",
            "labelrank": "20",
            "mapcolor9": "3",
            "mapcolor13": "4",
            "max_label": "11.0",
            "min_label": "11.0",
            "min_zoom": "11.0",
            "name_ar": "\u00d8\u00ad\u00d9\u008a \u00d8\u00a8\u00d8\u00b1\u00d8\u00a7\u00d8\u00b3\u00d9\u0084\u00d9\u008a\u00d9\u0086",
            "name_bn": "\u00e0\u00a6\u00aa\u00e0\u00a7\u008d\u00e0\u00a6\u00b0\u00e0\u00a6\u009c\u00e0\u00a6\u00b2\u00e0\u00a6\u00bf\u00e0\u00a6\u00a8 \u00e0\u00a6\u0095\u00e0\u00a7\u008b\u00e0\u00a6\u00af\u00e0\u00a6\u00bc\u00e0\u00a6\u00be\u00e0\u00a6\u00b0\u00e0\u00a7\u008d\u00e0\u00a6\u009f\u00e0\u00a6\u00be\u00e0\u00a6\u00b0",
            "name_de": "Praslin",
            "name_el": "\u00ce\u00a0\u00cf\u0081\u00ce\u00b1\u00ce\u00bb\u00ce\u00ad\u00ce\u00bd",
            "name_en": "Praslin Quarter",
            "name_es": "Praslin",
            "name_fr": "Praslin",
            "name_hi": "\u00e0\u00a4\u00aa\u00e0\u00a5\u008d\u00e0\u00a4\u00b0\u00e0\u00a4\u00b2\u00e0\u00a5\u0080\u00e0\u00a4\u00a8 \u00e0\u00a4\u0095\u00e0\u00a5\u008d\u00e0\u00a4\u00b5\u00e0\u00a4\u00be\u00e0\u00a4\u00b0\u00e0\u00a5\u008d\u00e0\u00a4\u009f\u00e0\u00a4\u00b0",
            "name_hu": "",
            "name_id": "Praslin Quarter",
            "name_it": "quartiere di Praslin",
            "name_ja": "\u00e3\u0083\u0097\u00e3\u0083\u00a9\u00e3\u0082\u00b9\u00e3\u0083\u00ac\u00e3\u0083\u00b3\u00e5\u009c\u00b0\u00e5\u008c\u00ba",
            "name_ko": "\u00ed\u0094\u0084\u00eb\u009d\u00bc\u00ec\u008a\u00ac\u00eb\u009e\u00ad \u00ea\u00b5\u00ac",
            "name_len": "7",
            "name_local": "",
            "name_nl": "Praslin Quarter",
            "name_pl": "Dystrykt Praslin",
            "name_pt": "Praslin",
            "name_ru": "\u00d0\u009f\u00d1\u0080\u00d0\u00b5\u00d1\u0081\u00d0\u00bb\u00d0\u00b8\u00d0\u00bd",
            "name_sv": "Praslin",
            "name_tr": "Praslin",
            "name_vi": "Praslin",
            "name_zh": "\u00e6\u0099\u00ae\u00e6\u008b\u0089\u00e8\u0098\u00ad\u00e5\u008d\u0080",
            "ne_id": "1159316381",
            "note": "",
            "provnum_ne": "0",
            "record_type": "state",
            "region": "",
            "region_cod": "",
            "region_sub": "",
            "sameascity": "-99",
            "scalerank": "10",
            "sov_a3": "LCA",
            "sub_code": "",
            "wikidataid": "Q1567791",
            "wikipedia": "http:\/\/en.wikipedia.org\/wiki\/Praslin_Quarter",
            "woe_id": "2347033",
            "woe_label": "Praslin, LC, St. Lucia",
            "woe_name": "Praslin"
        },
        "geo": {
            "latitude": "13.86740000",
            "longitude": "-60.9180000"
        },
        "iso_3166_2": "LC-09",
        "iso_a2": "LC",
        "iso_a3": "LCA",
        "name": "Praslin",
        "postal": "09",
        "type": "Quarter",
        "type_en": "Quarter"
    },
    "10": {
        "alt_names": [
            ""
        ],
        "cca2": "LC",
        "cca3": "LCA",
        "code_hasc": "LC.CO",
        "extra": {
            "abbrev": "",
            "adm0_a3": "LCA",
            "adm0_label": "7",
            "adm0_sr": "1",
            "adm1_code": "LCA-5085",
            "admin": "Saint Lucia",
            "area_sqkm": "0",
            "check_me": "0",
            "code_local": "",
            "data_sources": [
                "natural"
            ],
            "datarank": "10",
            "diss_me": "5085",
            "featurecla": "Admin-1 scale rank",
            "fips": "ST09",
            "fips_alt": "",
            "gadm_level": "0",
            "geonunit": "Saint Lucia",
            "gn_a1_code": "LC.09",
            "gn_id": "3576441",
            "gn_level": "1",
            "gn_name": "Quarter of Soufriere",
            "gn_region": "",
            "gns_adm1": "ST09",
            "gns_id": "-1314153",
            "gns_lang": "fra",
            "gns_level": "1",
            "gns_name": "Soufriere, Quarter of",
            "gns_region": "",
            "gu_a3": "LCA",
            "hasc_maybe": "",
            "labelrank": "20",
            "mapcolor9": "3",
            "mapcolor13": "4",
            "max_label": "11.0",
            "min_label": "11.0",
            "min_zoom": "11.0",
            "name_ar": "",
            "name_bn": "",
            "name_de": "Soufri\u00c3\u00a8re",
            "name_el": "",
            "name_en": "Soufri\u00c3\u00a8re Quarter",
            "name_es": "Soufri\u00c3\u00a8re",
            "name_fr": "District de Soufri\u00c3\u00a8re",
            "name_hi": "",
            "name_hu": "",
            "name_id": "",
            "name_it": "quartiere di Soufri\u00c3\u00a8re",
            "name_ja": "\u00e3\u0082\u00b9\u00e3\u0083\u0095\u00e3\u0083\u00ac",
            "name_ko": "\u00ec\u0088\u0098\u00ed\u0094\u0084\u00eb\u00a6\u00ac\u00ec\u0097\u0090\u00eb\u00a5\u00b4 \u00ea\u00b5\u00ac",
            "name_len": "9",
            "name_local": "",
            "name_nl": "Soufri\u00c3\u00a8re",
            "name_pl": "Soufri\u00c3\u00a8re",
            "name_pt": "Soufri\u00c3\u00a8re",
            "name_ru": "\u00d0\u00a1\u00d1\u0083\u00d1\u0084\u00d1\u0080\u00d0\u00b8\u00d0\u00b5\u00d1\u0080",
            "name_sv": "Soufri\u00c3\u00a8re",
            "name_tr": "Soufri\u00c3\u00a8re",
            "name_vi": "Soufri\u00c3\u00a8re",
            "name_zh": "\u00e8\u0098\u0087\u00e5\u00bc\u0097\u00e9\u0087\u008c\u00e8\u0080\u00b6\u00e7\u0088\u00be\u00e5\u008d\u0080",
            "ne_id": "1159316391",
            "note": "",
            "provnum_ne": "0",
            "record_type": "state",
            "region": "",
            "region_cod": "",
            "region_sub": "",
            "sameascity": "-99",
            "scalerank": "10",
            "sov_a3": "LCA",
            "sub_code": "",
            "wikidataid": "Q1472841",
            "wikipedia": "http:\/\/en.wikipedia.org\/wiki\/Soufri%C3%A8re_Quarter",
            "woe_id": "2347031",
            "woe_label": "Soufriere, LC, St. Lucia",
            "woe_name": "Soufriere"
        },
        "geo": {
            "latitude": "13.85450000",
            "longitude": "-61.0447000"
        },
        "iso_3166_2": "LC-10",
        "iso_a2": "LC",
        "iso_a3": "LCA",
        "name": "Soufri\u00c3\u00a8re",
        "postal": "10",
        "type": "Quarter",
        "type_en": "Quarter"
    },
    "11": {
        "alt_names": [
            ""
        ],
        "cca2": "LC",
        "cca3": "LCA",
        "code_hasc": "LC.VF",
        "extra": {
            "abbrev": "",
            "adm0_a3": "LCA",
            "adm0_label": "7",
            "adm0_sr": "1",
            "adm1_code": "LCA-5086",
            "admin": "Saint Lucia",
            "area_sqkm": "0",
            "check_me": "0",
            "code_local": "",
            "data_sources": [
                "natural"
            ],
            "datarank": "10",
            "diss_me": "5086",
            "featurecla": "Admin-1 scale rank",
            "fips": "ST10",
            "fips_alt": "",
            "gadm_level": "0",
            "geonunit": "Saint Lucia",
            "gn_a1_code": "LC.10",
            "gn_id": "3576413",
            "gn_level": "1",
            "gn_name": "Quarter of Vieux-Fort",
            "gn_region": "",
            "gns_adm1": "ST10",
            "gns_id": "-1314181",
            "gns_lang": "fra",
            "gns_level": "1",
            "gns_name": "Vieux-Fort, Quarter of",
            "gns_region": "",
            "gu_a3": "LCA",
            "hasc_maybe": "",
            "labelrank": "20",
            "mapcolor9": "3",
            "mapcolor13": "4",
            "max_label": "11.0",
            "min_label": "11.0",
            "min_zoom": "11.0",
            "name_ar": "\u00d9\u0081\u00d9\u008a\u00d9\u0088 \u00d9\u0081\u00d9\u0088\u00d8\u00b1\u00d8\u00aa",
            "name_bn": "\u00e0\u00a6\u00ad\u00e0\u00a6\u00bf\u00e0\u00a6\u00af\u00e0\u00a6\u00bc\u00e0\u00a6\u0095\u00e0\u00a7\u008d\u00e0\u00a6\u00b8 \u00e0\u00a6\u00ab\u00e0\u00a7\u008b\u00e0\u00a6\u00b0\u00e0\u00a7\u008d\u00e0\u00a6\u009f \u00e0\u00a6\u0095\u00e0\u00a7\u008b\u00e0\u00a6\u00af\u00e0\u00a6\u00bc\u00e0\u00a6\u00be\u00e0\u00a6\u00b0\u00e0\u00a7\u008d\u00e0\u00a6\u009f\u00e0\u00a6\u00be\u00e0\u00a6\u00b0",
            "name_de": "Vieux Fort",
            "name_el": "\u00ce\u0092\u00ce\u00af\u00ce\u00b5 \u00ce\u00a6\u00ce\u00bf\u00cf\u0081",
            "name_en": "Vieux Fort Quarter",
            "name_es": "Vieux Fort",
            "name_fr": "Vieux Fort",
            "name_hi": "\u00e0\u00a4\u00b5\u00e0\u00a4\u00bf\u00e0\u00a4\u0089 \u00e0\u00a4\u00ab\u00e0\u00a5\u008b\u00e0\u00a4\u00b0\u00e0\u00a5\u008d\u00e0\u00a4\u009f \u00e0\u00a4\u0095\u00e0\u00a5\u008d\u00e0\u00a4\u00b5\u00e0\u00a4\u00be\u00e0\u00a4\u00b0\u00e0\u00a5\u008d\u00e0\u00a4\u009f\u00e0\u00a4\u00b0",
            "name_hu": "",
            "name_id": "Vieux Fort Quarter",
            "name_it": "quartiere di Vieux Fort",
            "name_ja": "\u00e3\u0083\u0093\u00e3\u0083\u00a5\u00e3\u0083\u00bc\u00e3\u0083\u00bb\u00e3\u0083\u0095\u00e3\u0082\u00a9\u00e3\u0083\u00bc\u00e3\u0083\u0088",
            "name_ko": "\u00eb\u00b9\u0084\u00ec\u0099\u00b8\u00ed\u008f\u00ac\u00eb\u00a5\u00b4 \u00ea\u00b5\u00ac",
            "name_len": "10",
            "name_local": "",
            "name_nl": "Vieux Fort",
            "name_pl": "Vieux Fort",
            "name_pt": "Vieux Fort",
            "name_ru": "\u00d0\u0092\u00d1\u008c\u00d1\u0091-\u00d0\u00a4\u00d0\u00be\u00d1\u0080",
            "name_sv": "Vieux-Fort",
            "name_tr": "Vieux Fort",
            "name_vi": "Vieux Fort",
            "name_zh": "\u00e4\u00bc\u00af\u00e5\u00a0\u00a1\u00e5\u008d\u0080",
            "ne_id": "1159316385",
            "note": "",
            "provnum_ne": "0",
            "record_type": "state",
            "region": "",
            "region_cod": "",
            "region_sub": "",
            "sameascity": "-99",
            "scalerank": "10",
            "sov_a3": "LCA",
            "sub_code": "",
            "wikidataid": "Q1472864",
            "wikipedia": "http:\/\/en.wikipedia.org\/wiki\/Vieux_Fort_Quarter",
            "woe_id": "2347032",
            "woe_label": "Vieux Fort, LC, St. Lucia",
            "woe_name": "Vieux Fort"
        },
        "geo": {
            "latitude": "13.77620000",
            "longitude": "-60.9438000"
        },
        "iso_3166_2": "LC-11",
        "iso_a2": "LC",
        "iso_a3": "LCA",
        "name": "Vieux Fort",
        "postal": "11",
        "type": "Quarter",
        "type_en": "Quarter"
    }
}