{
    "D": {
        "alt_names": [
            "Diekirch"
        ],
        "cca2": "LU",
        "cca3": "LUX",
        "code_hasc": "LU.DI",
        "extra": {
            "abbrev": "",
            "adm0_a3": "LUX",
            "adm0_label": "5",
            "adm0_sr": "1",
            "adm1_code": "LUX-906",
            "admin": "Luxembourg",
            "area_sqkm": "0",
            "check_me": "20",
            "code_local": "",
            "data_sources": [
                "natural"
            ],
            "datarank": "8",
            "diss_me": "906",
            "featurecla": "Admin-1 scale rank",
            "fips": "LU01",
            "fips_alt": "",
            "gadm_level": "1",
            "geonunit": "Luxembourg",
            "gn_a1_code": "LU.01",
            "gn_id": "2960655",
            "gn_level": "1",
            "gn_name": "District de Diekirch",
            "gn_region": "",
            "gns_adm1": "LU01",
            "gns_id": "-1735848",
            "gns_lang": "zho",
            "gns_level": "1",
            "gns_name": "Diekirch, District de",
            "gns_region": "",
            "gu_a3": "LUX",
            "hasc_maybe": "",
            "labelrank": "9",
            "mapcolor9": "3",
            "mapcolor13": "7",
            "max_label": "11.0",
            "min_label": "8.7",
            "min_zoom": "8.7",
            "name_ar": "\u00d9\u0085\u00d9\u0082\u00d8\u00a7\u00d8\u00b7\u00d8\u00b9\u00d8\u00a9 \u00d8\u00af\u00d9\u008a\u00d9\u0083\u00d8\u00b1\u00d8\u00b4",
            "name_bn": "\u00e0\u00a6\u00a1\u00e0\u00a6\u00be\u00e0\u00a6\u0087\u00e0\u00a6\u0095\u00e0\u00a6\u00bf\u00e0\u00a6\u009a \u00e0\u00a6\u009c\u00e0\u00a7\u0087\u00e0\u00a6\u00b2\u00e0\u00a6\u00be",
            "name_de": "Nordluxemburg",
            "name_el": "\u00ce\u009d\u00cf\u0084\u00ce\u00b9\u00ce\u00b5\u00cf\u0081\u00ce\u00ba\u00ce\u00af\u00cf\u0081\u00cf\u0084\u00cf\u0082",
            "name_en": "Diekirch District",
            "name_es": "Distrito de Diekirch",
            "name_fr": "district de Diekirch",
            "name_hi": "\u00e0\u00a4\u00a6\u00e0\u00a4\u00be\u00e0\u00a4\u0087\u00e0\u00a4\u0095\u00e0\u00a4\u00bf\u00e0\u00a4\u00b0\u00e0\u00a5\u008d\u00e0\u00a4\u009a \u00e0\u00a4\u009c\u00e0\u00a4\u00bf\u00e0\u00a4\u00b2\u00e0\u00a4\u00be",
            "name_hu": "",
            "name_id": "Distrik Diekirch",
            "name_it": "distretto di Diekirch",
            "name_ja": "\u00e3\u0083\u0087\u00e3\u0082\u00a3\u00e3\u0083\u00bc\u00e3\u0082\u00ad\u00e3\u0083\u00ab\u00e3\u0083\u0092\u00e5\u00ba\u0083\u00e5\u009f\u009f\u00e8\u00a1\u008c\u00e6\u0094\u00bf\u00e5\u008c\u00ba",
            "name_ko": "\u00eb\u0094\u0094\u00ed\u0082\u00a4\u00eb\u00a5\u00b4\u00ed\u009e\u0088 \u00ea\u00b5\u00ac",
            "name_len": "8",
            "name_local": "",
            "name_nl": "District Diekirch",
            "name_pl": "Dystrykt Diekirch",
            "name_pt": "Diekirch",
            "name_ru": "\u00d0\u0094\u00d0\u00b8\u00d0\u00ba\u00d0\u00b8\u00d1\u0080\u00d1\u0085",
            "name_sv": "Diekirch",
            "name_tr": "Diekirch ili",
            "name_vi": "Qu\u00e1\u00ba\u00adn Diekirch",
            "name_zh": "\u00e8\u00bf\u00aa\u00e5\u009f\u00ba\u00e5\u00b8\u008c\u00e5\u008d\u0080",
            "ne_id": "1159310951",
            "note": "",
            "provnum_ne": "3",
            "record_type": "state",
            "region": "",
            "region_cod": "",
            "region_sub": "",
            "sameascity": "9",
            "scalerank": "9",
            "sov_a3": "LUX",
            "sub_code": "",
            "wikidataid": "Q208747",
            "wikipedia": "",
            "woe_id": "20070542",
            "woe_label": "Diekirch, LU, Luxembourg",
            "woe_name": "Diekirch"
        },
        "geo": {
            "latitude": 49.8671784,
            "longitude": 6.1595633,
            "max_latitude": 49.8987,
            "max_longitude": 6.18069,
            "min_latitude": 49.83493,
            "min_longitude": 6.1175201
        },
        "iso_3166_2": "LU-D",
        "iso_a2": "LU",
        "iso_a3": "LUX",
        "name": "Diekirch",
        "postal": "D",
        "type": "District",
        "type_en": "District"
    },
    "G": {
        "alt_names": [
            "Grevenmacher"
        ],
        "cca2": "LU",
        "cca3": "LUX",
        "code_hasc": "LU.GR",
        "extra": {
            "abbrev": "",
            "adm0_a3": "LUX",
            "adm0_label": "5",
            "adm0_sr": "1",
            "adm1_code": "LUX-907",
            "admin": "Luxembourg",
            "area_sqkm": "0",
            "check_me": "20",
            "code_local": "",
            "data_sources": [
                "natural"
            ],
            "datarank": "8",
            "diss_me": "907",
            "featurecla": "Admin-1 scale rank",
            "fips": "LU02",
            "fips_alt": "",
            "gadm_level": "1",
            "geonunit": "Luxembourg",
            "gn_a1_code": "LU.02",
            "gn_id": "2960513",
            "gn_level": "1",
            "gn_name": "District de Grevenmacher",
            "gn_region": "",
            "gns_adm1": "LU02",
            "gns_id": "-1735992",
            "gns_lang": "zho",
            "gns_level": "1",
            "gns_name": "Grevenmacher, District de",
            "gns_region": "",
            "gu_a3": "LUX",
            "hasc_maybe": "",
            "labelrank": "9",
            "mapcolor9": "3",
            "mapcolor13": "7",
            "max_label": "11.0",
            "min_label": "8.7",
            "min_zoom": "8.7",
            "name_ar": "\u00d9\u0085\u00d9\u0082\u00d8\u00a7\u00d8\u00b7\u00d8\u00b9\u00d8\u00a9 \u00d8\u00ba\u00d8\u00b1\u00d9\u008a\u00d9\u0081\u00d9\u0086\u00d9\u0085\u00d8\u00a7\u00d9\u0083\u00d8\u00b1",
            "name_bn": "\u00e0\u00a6\u0097\u00e0\u00a7\u008d\u00e0\u00a6\u00b0\u00e0\u00a7\u0087\u00e0\u00a6\u00ad\u00e0\u00a7\u0087\u00e0\u00a6\u00a8\u00e0\u00a6\u00ae\u00e0\u00a6\u00be\u00e0\u00a6\u0095\u00e0\u00a7\u0087\u00e0\u00a6\u00b0 \u00e0\u00a6\u009c\u00e0\u00a7\u0087\u00e0\u00a6\u00b2\u00e0\u00a6\u00be",
            "name_de": "Ostluxemburg",
            "name_el": "\u00ce\u0095\u00cf\u0080\u00ce\u00b1\u00cf\u0081\u00cf\u0087\u00ce\u00af\u00ce\u00b1 \u00ce\u0093\u00ce\u00ba\u00cf\u0081\u00ce\u00b5\u00ce\u00b2\u00ce\u00b5\u00ce\u00bd\u00ce\u00bc\u00ce\u00ac\u00cf\u0087\u00ce\u00b5\u00cf\u0081",
            "name_en": "Grevenmacher District",
            "name_es": "Distrito de Grevenmacher",
            "name_fr": "district de Grevenmacher",
            "name_hi": "\u00e0\u00a4\u0097\u00e0\u00a5\u008d\u00e0\u00a4\u00b0\u00e0\u00a5\u0087\u00e0\u00a4\u00b5\u00e0\u00a5\u0087\u00e0\u00a4\u00a8\u00e0\u00a4\u00ae\u00e0\u00a5\u0087\u00e0\u00a4\u009a\u00e0\u00a4\u00b0 \u00e0\u00a4\u009c\u00e0\u00a4\u00bf\u00e0\u00a4\u00b2\u00e0\u00a4\u00be",
            "name_hu": "",
            "name_id": "Distrik Grevenmacher",
            "name_it": "distretto di Grevenmacher",
            "name_ja": "\u00e3\u0082\u00b0\u00e3\u0083\u00ac\u00e3\u0083\u00bc\u00e3\u0083\u00b4\u00e3\u0082\u00a7\u00e3\u0083\u00b3\u00e3\u0083\u009e\u00e3\u0083\u008f\u00e5\u00ba\u0083\u00e5\u009f\u009f\u00e8\u00a1\u008c\u00e6\u0094\u00bf\u00e5\u008c\u00ba",
            "name_ko": "\u00ea\u00b7\u00b8\u00eb\u00a0\u0088\u00eb\u00b2\u00a4\u00eb\u00a7\u0088\u00ed\u0097\u0088 \u00ea\u00b5\u00ac",
            "name_len": "12",
            "name_local": "",
            "name_nl": "District Grevenmacher",
            "name_pl": "Dystrykt Grevenmacher",
            "name_pt": "Grevenmacher",
            "name_ru": "\u00d0\u0093\u00d1\u0080\u00d0\u00b5\u00d0\u00b2\u00d0\u00b5\u00d0\u00bd\u00d0\u00bc\u00d0\u00b0\u00d1\u0085\u00d0\u00b5\u00d1\u0080",
            "name_sv": "Grevenmacher",
            "name_tr": "Grevenmacher ili",
            "name_vi": "Qu\u00e1\u00ba\u00adn Grevenmacher",
            "name_zh": "\u00e6\u00a0\u00bc\u00e9\u009b\u00b7\u00e6\u0096\u0087\u00e9\u00a6\u00ac\u00e8\u00b5\u00ab\u00e5\u008d\u0080",
            "ne_id": "1159310953",
            "note": "",
            "provnum_ne": "1",
            "record_type": "state",
            "region": "",
            "region_cod": "",
            "region_sub": "",
            "sameascity": "9",
            "scalerank": "9",
            "sov_a3": "LUX",
            "sub_code": "",
            "wikidataid": "Q208284",
            "wikipedia": "",
            "woe_id": "20070559",
            "woe_label": "Grevenmacher, LU, Luxembourg",
            "woe_name": "Grevenmacher"
        },
        "geo": {
            "latitude": 49.680841,
            "longitude": 6.4407593,
            "max_latitude": 49.6997,
            "max_longitude": 6.4610601,
            "min_latitude": 49.6540799,
            "min_longitude": 6.3601101
        },
        "iso_3166_2": "LU-G",
        "iso_a2": "LU",
        "iso_a3": "LUX",
        "name": "Grevenmacher",
        "postal": "G",
        "type": "District",
        "type_en": "District"
    },
    "L": {
        "alt_names": [
            "Luxemburg"
        ],
        "cca2": "LU",
        "cca3": "LUX",
        "code_hasc": "LU.LU",
        "extra": {
            "abbrev": "",
            "adm0_a3": "LUX",
            "adm0_label": "5",
            "adm0_sr": "1",
            "adm1_code": "LUX-908",
            "admin": "Luxembourg",
            "area_sqkm": "0",
            "check_me": "20",
            "code_local": "",
            "data_sources": [
                "natural"
            ],
            "datarank": "8",
            "diss_me": "908",
            "featurecla": "Admin-1 scale rank",
            "fips": "LU03",
            "fips_alt": "",
            "gadm_level": "1",
            "geonunit": "Luxembourg",
            "gn_a1_code": "LU.03",
            "gn_id": "2960314",
            "gn_level": "1",
            "gn_name": "District de Luxembourg",
            "gn_region": "",
            "gns_adm1": "LU03",
            "gns_id": "-1736193",
            "gns_lang": "zho",
            "gns_level": "1",
            "gns_name": "Luxembourg, District de",
            "gns_region": "",
            "gu_a3": "LUX",
            "hasc_maybe": "",
            "labelrank": "9",
            "mapcolor9": "3",
            "mapcolor13": "7",
            "max_label": "11.0",
            "min_label": "8.7",
            "min_zoom": "8.7",
            "name_ar": "",
            "name_bn": "",
            "name_de": "",
            "name_el": "",
            "name_en": "",
            "name_es": "",
            "name_fr": "",
            "name_hi": "",
            "name_hu": "",
            "name_id": "",
            "name_it": "",
            "name_ja": "",
            "name_ko": "",
            "name_len": "10",
            "name_local": "",
            "name_nl": "",
            "name_pl": "",
            "name_pt": "",
            "name_ru": "",
            "name_sv": "",
            "name_tr": "",
            "name_vi": "",
            "name_zh": "",
            "ne_id": "1159310955",
            "note": "",
            "provnum_ne": "2",
            "record_type": "state",
            "region": "",
            "region_cod": "",
            "region_sub": "",
            "sameascity": "9",
            "scalerank": "9",
            "sov_a3": "LUX",
            "sub_code": "",
            "wikidataid": "",
            "wikipedia": "",
            "woe_id": "20070560",
            "woe_label": "Luxemburg, LU, Luxembourg",
            "woe_name": "Luxembourg"
        },
        "geo": {
            "latitude": 48.845577,
            "longitude": 2.339852,
            "max_latitude": null,
            "max_longitude": null,
            "min_latitude": null,
            "min_longitude": null
        },
        "iso_3166_2": "LU-L",
        "iso_a2": "LU",
        "iso_a3": "LUX",
        "name": "Luxembourg (fr)",
        "postal": "L",
        "type": "District",
        "type_en": "District"
    }
}