{
    "01": {
        "alt_names": [
            "Sagaing"
        ],
        "cca2": "MM",
        "cca3": "MMR",
        "code_hasc": "MM.SA",
        "extra": {
            "abbrev": "",
            "adm0_a3": "MMR",
            "adm0_label": "2",
            "adm0_sr": "1",
            "adm1_code": "MMR-3302",
            "admin": "Myanmar",
            "area_sqkm": "0",
            "check_me": "0",
            "code_local": "",
            "data_sources": [
                "natural"
            ],
            "datarank": "5",
            "diss_me": "3302",
            "featurecla": "Admin-1 scale rank",
            "fips": "BM10",
            "fips_alt": "",
            "gadm_level": "1",
            "geonunit": "Myanmar",
            "gn_a1_code": "MM.10",
            "gn_id": "1298480",
            "gn_level": "1",
            "gn_name": "Sagaing Division",
            "gn_region": "",
            "gns_adm1": "BM10",
            "gns_id": "-440970",
            "gns_lang": "fra",
            "gns_level": "1",
            "gns_name": "Sagaing Division",
            "gns_region": "",
            "gu_a3": "MMR",
            "hasc_maybe": "",
            "labelrank": "7",
            "mapcolor9": "5",
            "mapcolor13": "13",
            "max_label": "11.0",
            "min_label": "7.0",
            "min_zoom": "7.0",
            "name_ar": "\u00d8\u00a5\u00d9\u0082\u00d9\u0084\u00d9\u008a\u00d9\u0085 \u00d8\u00b3\u00d8\u00a7\u00d8\u00ac\u00d9\u008a\u00d9\u0086\u00d8\u00ba",
            "name_bn": "\u00e0\u00a6\u00b8\u00e0\u00a6\u00be\u00e0\u00a6\u0097\u00e0\u00a6\u00be\u00e0\u00a6\u0087\u00e0\u00a6\u00a8\u00e0\u00a6\u00bf\u00e0\u00a6\u0082 \u00e0\u00a6\u0085\u00e0\u00a6\u009e\u00e0\u00a7\u008d\u00e0\u00a6\u009a\u00e0\u00a6\u00b2",
            "name_de": "Sagaing-Region",
            "name_el": "\u00ce\u00a3\u00ce\u00b1\u00ce\u00b3\u00ce\u00ba\u00ce\u00ac\u00ce\u00b9\u00ce\u00bd\u00ce\u00b3\u00ce\u00ba",
            "name_en": "Sagaing Region",
            "name_es": "Divisi\u00c3\u00b3n de Sagaing",
            "name_fr": "R\u00c3\u00a9gion de Sagaing",
            "name_hi": "\u00e0\u00a4\u00b8\u00e0\u00a4\u0097\u00e0\u00a4\u00be\u00e0\u00a4\u0087\u00e0\u00a4\u0082\u00e0\u00a4\u0097 \u00e0\u00a4\u00ae\u00e0\u00a4\u00a3\u00e0\u00a5\u008d\u00e0\u00a4\u00a1\u00e0\u00a4\u00b2",
            "name_hu": "",
            "name_id": "Region Sagaing",
            "name_it": "regione di Sagaing",
            "name_ja": "\u00e3\u0082\u00b6\u00e3\u0082\u00ac\u00e3\u0082\u00a4\u00e3\u0083\u00b3\u00e7\u00ae\u00a1\u00e5\u008c\u00ba",
            "name_ko": "\u00ec\u0082\u00ac\u00ea\u00b0\u0080\u00ec\u009e\u0089 \u00ea\u00b5\u00ac",
            "name_len": "7",
            "name_local": "",
            "name_nl": "Sagaing",
            "name_pl": "Sikong",
            "name_pt": "Sagaing",
            "name_ru": "\u00d0\u00a1\u00d0\u00b8\u00d0\u00ba\u00d0\u00b0\u00d0\u00b9\u00d0\u00bd",
            "name_sv": "Sagaingregionen",
            "name_tr": "Sagaing B\u00c3\u00b6lgesi",
            "name_vi": "V\u00c3\u00b9ng Sagaing",
            "name_zh": "\u00e5\u00af\u00a6\u00e7\u009a\u0086\u00e7\u009c\u0081",
            "ne_id": "1159315219",
            "note": "",
            "provnum_ne": "20019",
            "record_type": "state",
            "region": "",
            "region_cod": "",
            "region_sub": "",
            "sameascity": "6",
            "scalerank": "6",
            "sov_a3": "MMR",
            "sub_code": "",
            "wikidataid": "Q847289",
            "wikipedia": "",
            "woe_id": "2344819",
            "woe_label": "Sagaing, MM, Myanmar",
            "woe_name": "Sagaing"
        },
        "geo": {
            "latitude": 21.9159702,
            "longitude": 95.9621106,
            "max_latitude": 21.9659415,
            "max_longitude": 96.0088348,
            "min_latitude": 21.8696635,
            "min_longitude": 95.8791447
        },
        "iso_3166_2": "MM-01",
        "iso_a2": "MM",
        "iso_a3": "MMR",
        "name": "Sagaing",
        "postal": "01",
        "type": "Yin",
        "type_en": "Division"
    },
    "02": {
        "alt_names": [
            "Pegu"
        ],
        "cca2": "MM",
        "cca3": "MMR",
        "code_hasc": "MM.BA",
        "extra": {
            "abbrev": "",
            "adm0_a3": "MMR",
            "adm0_label": "2",
            "adm0_sr": "1",
            "adm1_code": "MMR-3268",
            "admin": "Myanmar",
            "area_sqkm": "0",
            "check_me": "10",
            "code_local": "",
            "data_sources": [
                "natural"
            ],
            "datarank": "5",
            "diss_me": "3268",
            "featurecla": "Admin-1 scale rank",
            "fips": "BM16",
            "fips_alt": "BM09",
            "gadm_level": "1",
            "geonunit": "Myanmar",
            "gn_a1_code": "MM.16",
            "gn_id": "1300463",
            "gn_level": "1",
            "gn_name": "Bago Division",
            "gn_region": "",
            "gns_adm1": "BM16",
            "gns_id": "-438970",
            "gns_lang": "fra",
            "gns_level": "1",
            "gns_name": "Bago Division",
            "gns_region": "",
            "gu_a3": "MMR",
            "hasc_maybe": "",
            "labelrank": "7",
            "mapcolor9": "5",
            "mapcolor13": "13",
            "max_label": "11.0",
            "min_label": "7.0",
            "min_zoom": "7.0",
            "name_ar": "\u00d8\u00a8\u00d8\u00a7\u00d8\u00ba\u00d9\u0088",
            "name_bn": "\u00e0\u00a6\u00ac\u00e0\u00a6\u00be\u00e0\u00a6\u0097\u00e0\u00a7\u008b",
            "name_de": "Bago-Region",
            "name_el": "\u00ce\u009c\u00cf\u0080\u00ce\u00ac\u00ce\u00b3\u00ce\u00ba\u00ce\u00bf",
            "name_en": "Bago",
            "name_es": "Bago",
            "name_fr": "R\u00c3\u00a9gion de Bago",
            "name_hi": "\u00e0\u00a4\u00ac\u00e0\u00a4\u0097\u00e0\u00a5\u008b \u00e0\u00a4\u00ae\u00e0\u00a4\u00a3\u00e0\u00a5\u008d\u00e0\u00a4\u00a1\u00e0\u00a4\u00b2",
            "name_hu": "",
            "name_id": "Region Bago",
            "name_it": "regione di Bago",
            "name_ja": "\u00e3\u0083\u0090\u00e3\u0082\u00b4\u00e3\u0083\u00bc\u00e7\u00ae\u00a1\u00e5\u008c\u00ba",
            "name_ko": "\u00eb\u00b0\u0094\u00ea\u00b3\u00a0 \u00ea\u00b5\u00ac",
            "name_len": "4",
            "name_local": "",
            "name_nl": "Bago",
            "name_pl": "Pegu",
            "name_pt": "Bago",
            "name_ru": "\u00d0\u009f\u00d0\u00b5\u00d0\u00b3\u00d1\u0083",
            "name_sv": "Bagoregionen",
            "name_tr": "Bago",
            "name_vi": "V\u00c3\u00b9ng Bago",
            "name_zh": "\u00e5\u008b\u0083\u00e5\u009b\u00ba\u00e7\u009c\u0081",
            "ne_id": "1159314045",
            "note": "",
            "provnum_ne": "20013",
            "record_type": "state",
            "region": "",
            "region_cod": "",
            "region_sub": "",
            "sameascity": "7",
            "scalerank": "6",
            "sov_a3": "MMR",
            "sub_code": "",
            "wikidataid": "Q800124",
            "wikipedia": "",
            "woe_id": "2344818",
            "woe_label": "Bago, MM, Myanmar",
            "woe_name": "Bago"
        },
        "geo": {
            "latitude": 17.333333,
            "longitude": 96.483333,
            "max_latitude": 17.3624761,
            "max_longitude": 96.5161585,
            "min_latitude": 17.2299639,
            "min_longitude": 96.4299202
        },
        "iso_3166_2": "MM-02",
        "iso_a2": "MM",
        "iso_a3": "MMR",
        "name": "Bago",
        "postal": "02",
        "type": "Yin",
        "type_en": "Division"
    },
    "03": {
        "alt_names": [
            "Magwe"
        ],
        "cca2": "MM",
        "cca3": "MMR",
        "code_hasc": "MM.MG",
        "extra": {
            "abbrev": "",
            "adm0_a3": "MMR",
            "adm0_label": "2",
            "adm0_sr": "1",
            "adm1_code": "MMR-3276",
            "admin": "Myanmar",
            "area_sqkm": "0",
            "check_me": "10",
            "code_local": "",
            "data_sources": [
                "natural"
            ],
            "datarank": "5",
            "diss_me": "3276",
            "featurecla": "Admin-1 scale rank",
            "fips": "BM15",
            "fips_alt": "BM07",
            "gadm_level": "1",
            "geonunit": "Myanmar",
            "gn_a1_code": "MM.15",
            "gn_id": "1312604",
            "gn_level": "1",
            "gn_name": "Magway Division",
            "gn_region": "",
            "gns_adm1": "BM15",
            "gns_id": "-426712",
            "gns_lang": "fra",
            "gns_level": "1",
            "gns_name": "Magway Division",
            "gns_region": "",
            "gu_a3": "MMR",
            "hasc_maybe": "",
            "labelrank": "7",
            "mapcolor9": "5",
            "mapcolor13": "13",
            "max_label": "11.0",
            "min_label": "7.0",
            "min_zoom": "7.0",
            "name_ar": "\u00d8\u00a5\u00d9\u0082\u00d9\u0084\u00d9\u008a\u00d9\u0085 \u00d9\u0085\u00d8\u00a7\u00d8\u00ba\u00d9\u0088\u00d8\u00a7\u00d9\u008a",
            "name_bn": "\u00e0\u00a6\u00ae\u00e0\u00a6\u00be\u00e0\u00a6\u0097\u00e0\u00a6\u0093\u00e0\u00a6\u00af\u00e0\u00a6\u00bc\u00e0\u00a7\u0087 \u00e0\u00a6\u0085\u00e0\u00a6\u009e\u00e0\u00a7\u008d\u00e0\u00a6\u009a\u00e0\u00a6\u00b2",
            "name_de": "Magway-Region",
            "name_el": "\u00ce\u009c\u00ce\u00b1\u00ce\u00b3\u00ce\u00ba\u00ce\u00b3\u00ce\u00bf\u00cf\u0085\u00ce\u00ad\u00ce\u00b9",
            "name_en": "Magway Region",
            "name_es": "Magway",
            "name_fr": "R\u00c3\u00a9gion de Magway",
            "name_hi": "\u00e0\u00a4\u00ae\u00e0\u00a4\u0097\u00e0\u00a4\u00b5\u00e0\u00a5\u0087 \u00e0\u00a4\u00ae\u00e0\u00a4\u00a3\u00e0\u00a5\u008d\u00e0\u00a4\u00a1\u00e0\u00a4\u00b2",
            "name_hu": "",
            "name_id": "Region Magway",
            "name_it": "regione di Magway",
            "name_ja": "\u00e3\u0083\u009e\u00e3\u0082\u00b0\u00e3\u0082\u00a6\u00e3\u0082\u00a7\u00e7\u00ae\u00a1\u00e5\u008c\u00ba",
            "name_ko": "\u00eb\u00a7\u0088\u00ea\u00b6\u00a4 \u00ea\u00b5\u00ac",
            "name_len": "6",
            "name_local": "",
            "name_nl": "Magway",
            "name_pl": "Magwe",
            "name_pt": "Magway",
            "name_ru": "\u00d0\u009c\u00d0\u00b0\u00d0\u00b3\u00d1\u0083\u00d1\u008d",
            "name_sv": "Magwayregionen",
            "name_tr": "Magway B\u00c3\u00b6lgesi",
            "name_vi": "V\u00c3\u00b9ng Magway",
            "name_zh": "\u00e9\u00a6\u00ac\u00e5\u009c\u00ad\u00e7\u009c\u0081",
            "ne_id": "1159314051",
            "note": "",
            "provnum_ne": "20003",
            "record_type": "state",
            "region": "",
            "region_cod": "",
            "region_sub": "",
            "sameascity": "7",
            "scalerank": "6",
            "sov_a3": "MMR",
            "sub_code": "",
            "wikidataid": "Q833013",
            "wikipedia": "",
            "woe_id": "2344816",
            "woe_label": "Magway, MM, Myanmar",
            "woe_name": "Magway"
        },
        "geo": {
            "latitude": 20.15,
            "longitude": 94.95,
            "max_latitude": 20.1782538,
            "max_longitude": 94.9918231,
            "min_latitude": 20.1100737,
            "min_longitude": 94.9161388
        },
        "iso_3166_2": "MM-03",
        "iso_a2": "MM",
        "iso_a3": "MMR",
        "name": "Magway",
        "postal": "03",
        "type": "Yin",
        "type_en": "Division"
    },
    "04": {
        "alt_names": [
            "Mandalay"
        ],
        "cca2": "MM",
        "cca3": "MMR",
        "code_hasc": "MM.ML",
        "extra": {
            "abbrev": "",
            "adm0_a3": "MMR",
            "adm0_label": "2",
            "adm0_sr": "1",
            "adm1_code": "MMR-3267",
            "admin": "Myanmar",
            "area_sqkm": "0",
            "check_me": "0",
            "code_local": "",
            "data_sources": [
                "natural"
            ],
            "datarank": "5",
            "diss_me": "3267",
            "featurecla": "Admin-1 scale rank",
            "fips": "BM08",
            "fips_alt": "",
            "gadm_level": "1",
            "geonunit": "Myanmar",
            "gn_a1_code": "MM.08",
            "gn_id": "1311871",
            "gn_level": "1",
            "gn_name": "Mandalay Division",
            "gn_region": "",
            "gns_adm1": "BM08",
            "gns_id": "-427449",
            "gns_lang": "fra",
            "gns_level": "1",
            "gns_name": "Mandalay Division",
            "gns_region": "",
            "gu_a3": "MMR",
            "hasc_maybe": "",
            "labelrank": "7",
            "mapcolor9": "5",
            "mapcolor13": "13",
            "max_label": "11.0",
            "min_label": "7.0",
            "min_zoom": "7.0",
            "name_ar": "\u00d8\u00a5\u00d9\u0082\u00d9\u0084\u00d9\u008a\u00d9\u0085  \u00d9\u0085\u00d8\u00a7\u00d9\u0086\u00d8\u00af\u00d8\u00a7\u00d9\u0084\u00d8\u00a7\u00d9\u008a",
            "name_bn": "\u00e0\u00a6\u00ae\u00e0\u00a6\u00be\u00e0\u00a6\u00a8\u00e0\u00a7\u008d\u00e0\u00a6\u00a1\u00e0\u00a6\u00be\u00e0\u00a6\u00b2\u00e0\u00a6\u00be\u00e0\u00a6\u00af\u00e0\u00a6\u00bc \u00e0\u00a6\u0085\u00e0\u00a6\u009e\u00e0\u00a7\u008d\u00e0\u00a6\u009a\u00e0\u00a6\u00b2",
            "name_de": "Mandalay-Region",
            "name_el": "\u00ce\u009c\u00ce\u00ac\u00ce\u00bd\u00cf\u0084\u00ce\u00b1\u00ce\u00bb\u00ce\u00b5\u00cf\u008a",
            "name_en": "Mandalay Region",
            "name_es": "Regi\u00c3\u00b3n del Mandalay",
            "name_fr": "R\u00c3\u00a9gion de Mandalay",
            "name_hi": "\u00e0\u00a4\u00ae\u00e0\u00a4\u00be\u00e0\u00a4\u00a3\u00e0\u00a5\u008d\u00e0\u00a4\u00a1\u00e0\u00a4\u00b2\u00e0\u00a5\u0087 \u00e0\u00a4\u00ae\u00e0\u00a4\u00a3\u00e0\u00a5\u008d\u00e0\u00a4\u00a1\u00e0\u00a4\u00b2",
            "name_hu": "",
            "name_id": "Region Mandalay",
            "name_it": "regione di Mandalay",
            "name_ja": "\u00e3\u0083\u009e\u00e3\u0083\u00b3\u00e3\u0083\u0080\u00e3\u0083\u00ac\u00e3\u0083\u00bc\u00e7\u00ae\u00a1\u00e5\u008c\u00ba",
            "name_ko": "\u00eb\u00a7\u008c\u00eb\u008b\u00ac\u00eb\u00a0\u0088\u00ec\u009d\u00b4 \u00ea\u00b5\u00ac",
            "name_len": "8",
            "name_local": "",
            "name_nl": "Mandalay",
            "name_pl": "Mandalaj",
            "name_pt": "Mandalay",
            "name_ru": "\u00d0\u009c\u00d0\u00b0\u00d0\u00bd\u00d0\u00b4\u00d0\u00b0\u00d0\u00bb\u00d0\u00b0\u00d0\u00b9",
            "name_sv": "Mandalayregionen",
            "name_tr": "Mandalay B\u00c3\u00b6lgesi",
            "name_vi": "V\u00c3\u00b9ng Mandalay",
            "name_zh": "\u00e6\u009b\u00bc\u00e5\u00be\u00b7\u00e5\u008b\u0092\u00e7\u009c\u0081",
            "ne_id": "1159314043",
            "note": "",
            "provnum_ne": "20017",
            "record_type": "state",
            "region": "",
            "region_cod": "",
            "region_sub": "",
            "sameascity": "7",
            "scalerank": "6",
            "sov_a3": "MMR",
            "sub_code": "",
            "wikidataid": "Q119494",
            "wikipedia": "",
            "woe_id": "2344817",
            "woe_label": "Mandalay, MM, Myanmar",
            "woe_name": "Mandalay"
        },
        "geo": {
            "latitude": 21.975,
            "longitude": 96.083333,
            "max_latitude": 22.0261394,
            "max_longitude": 96.1404102,
            "min_latitude": 21.8545804,
            "min_longitude": 96.0112381
        },
        "iso_3166_2": "MM-04",
        "iso_a2": "MM",
        "iso_a3": "MMR",
        "name": "Mandalay",
        "postal": "04",
        "type": "Yin",
        "type_en": "Division"
    },
    "05": {
        "alt_names": [
            "Tenasserim"
        ],
        "cca2": "MM",
        "cca3": "MMR",
        "code_hasc": "MM.TN",
        "extra": {
            "abbrev": "",
            "adm0_a3": "MMR",
            "adm0_label": "2",
            "adm0_sr": "5",
            "adm1_code": "MMR-3279",
            "admin": "Myanmar",
            "area_sqkm": "0",
            "check_me": "0",
            "code_local": "",
            "data_sources": [
                "natural"
            ],
            "datarank": "5",
            "diss_me": "3279",
            "featurecla": "Admin-1 scale rank",
            "fips": "BM12",
            "fips_alt": "",
            "gadm_level": "1",
            "geonunit": "Myanmar",
            "gn_a1_code": "MM.12",
            "gn_id": "1293118",
            "gn_level": "1",
            "gn_name": "Tanintharyi Division",
            "gn_region": "",
            "gns_adm1": "BM12",
            "gns_id": "-446357",
            "gns_lang": "fra",
            "gns_level": "1",
            "gns_name": "Tanintharyi Division",
            "gns_region": "",
            "gu_a3": "MMR",
            "hasc_maybe": "",
            "labelrank": "7",
            "mapcolor9": "5",
            "mapcolor13": "13",
            "max_label": "11.0",
            "min_label": "7.0",
            "min_zoom": "7.0",
            "name_ar": "\u00d8\u00a7\u00d9\u0082\u00d9\u0084\u00d9\u008a\u00d9\u0085 \u00d8\u00aa\u00d8\u00a7\u00d9\u0086\u00d9\u008a\u00d9\u0086\u00d8\u00ab\u00d8\u00a7\u00d8\u00b1\u00d9\u008a",
            "name_bn": "\u00e0\u00a6\u00a4\u00e0\u00a6\u00be\u00e0\u00a6\u00a8\u00e0\u00a6\u00bf\u00e0\u00a6\u00a8\u00e0\u00a6\u00a4\u00e0\u00a6\u00be\u00e0\u00a6\u00b0\u00e0\u00a6\u00be\u00e0\u00a6\u00b0\u00e0\u00a6\u00bf \u00e0\u00a6\u0085\u00e0\u00a6\u009e\u00e0\u00a7\u008d\u00e0\u00a6\u009a\u00e0\u00a6\u00b2",
            "name_de": "Tanintharyi-Region",
            "name_el": "\u00ce\u00a4\u00ce\u00b1\u00ce\u00bd\u00ce\u00b9\u00ce\u00bd\u00ce\u00b8\u00ce\u00ac\u00cf\u0081\u00ce\u00b3\u00ce\u00b9",
            "name_en": "Tanintharyi Region",
            "name_es": "Tanintharyi",
            "name_fr": "R\u00c3\u00a9gion de Tanintharyi",
            "name_hi": "\u00e0\u00a4\u00a4\u00e0\u00a4\u00a8\u00e0\u00a5\u0080\u00e0\u00a4\u00a8\u00e0\u00a5\u008d\u00e0\u00a4\u00a5\u00e0\u00a4\u00be\u00e0\u00a4\u00b0\u00e0\u00a5\u008d\u00e0\u00a4\u00af\u00e0\u00a5\u0080 \u00e0\u00a4\u00ae\u00e0\u00a4\u00a3\u00e0\u00a5\u008d\u00e0\u00a4\u00a1\u00e0\u00a4\u00b2",
            "name_hu": "",
            "name_id": "Region Tanintharyi",
            "name_it": "regione di Tanintharyi",
            "name_ja": "\u00e3\u0082\u00bf\u00e3\u0083\u008b\u00e3\u0083\u00b3\u00e3\u0083\u0080\u00e3\u0083\u00bc\u00e3\u0083\u00aa\u00e7\u00ae\u00a1\u00e5\u008c\u00ba",
            "name_ko": "\u00ed\u0083\u0080\u00eb\u008b\u008c\u00ed\u0083\u0080\u00eb\u00a6\u00ac \u00ea\u00b5\u00ac",
            "name_len": "11",
            "name_local": "",
            "name_nl": "Tanintharyi",
            "name_pl": "Taninthayi",
            "name_pt": "Tanintharyi",
            "name_ru": "\u00d0\u00a2\u00d0\u00b0\u00d0\u00bd\u00d0\u00b8\u00d0\u00bd\u00d1\u0082\u00d0\u00b0\u00d0\u00b9\u00d0\u00b8",
            "name_sv": "Taninthayiregionen",
            "name_tr": "Tanintharyi Region",
            "name_vi": "V\u00c3\u00b9ng Tanintharyi",
            "name_zh": "\u00e5\u00be\u00b7\u00e6\u009e\u0097\u00e8\u00be\u00be\u00e4\u00be\u009d",
            "ne_id": "1159313765",
            "note": "",
            "provnum_ne": "20010",
            "record_type": "state",
            "region": "",
            "region_cod": "",
            "region_sub": "",
            "sameascity": "-99",
            "scalerank": "6",
            "sov_a3": "MMR",
            "sub_code": "",
            "wikidataid": "Q843954",
            "wikipedia": "",
            "woe_id": "2344821",
            "woe_label": "Tenasserim, MM, Myanmar",
            "woe_name": "Tanintharyi"
        },
        "geo": {
            "latitude": 12.0896327,
            "longitude": 99.0115113,
            "max_latitude": 12.0926189,
            "max_longitude": 99.020505,
            "min_latitude": 12.0778055,
            "min_longitude": 99.0064103
        },
        "iso_3166_2": "MM-05",
        "iso_a2": "MM",
        "iso_a3": "MMR",
        "name": "Tanintharyi",
        "postal": "05",
        "type": "Yin",
        "type_en": "Division"
    },
    "06": {
        "alt_names": [
            "Yangon",
            "Rangun",
            "Rangoun",
            "Rang\u00fan"
        ],
        "cca2": "MM",
        "cca3": "MMR",
        "code_hasc": "MM.YA",
        "extra": {
            "abbrev": "",
            "adm0_a3": "MMR",
            "adm0_label": "2",
            "adm0_sr": "1",
            "adm1_code": "MMR-3269",
            "admin": "Myanmar",
            "area_sqkm": "0",
            "check_me": "10",
            "code_local": "",
            "data_sources": [
                "natural"
            ],
            "datarank": "5",
            "diss_me": "3269",
            "featurecla": "Admin-1 scale rank",
            "fips": "BM17",
            "fips_alt": "BM14",
            "gadm_level": "1",
            "geonunit": "Myanmar",
            "gn_a1_code": "MM.17",
            "gn_id": "1298822",
            "gn_level": "1",
            "gn_name": "Yangon Division",
            "gn_region": "",
            "gns_adm1": "BM17",
            "gns_id": "-440625",
            "gns_lang": "fra",
            "gns_level": "1",
            "gns_name": "Yangon Division",
            "gns_region": "",
            "gu_a3": "MMR",
            "hasc_maybe": "",
            "labelrank": "7",
            "mapcolor9": "5",
            "mapcolor13": "13",
            "max_label": "11.0",
            "min_label": "7.0",
            "min_zoom": "7.0",
            "name_ar": "\u00d8\u00a5\u00d9\u0082\u00d9\u0084\u00d9\u008a\u00d9\u0085 \u00d9\u008a\u00d8\u00a7\u00d9\u0086\u00d8\u00ba\u00d9\u0088\u00d9\u0086",
            "name_bn": "\u00e0\u00a6\u0087\u00e0\u00a6\u00af\u00e0\u00a6\u00bc\u00e0\u00a6\u00be\u00e0\u00a6\u0097\u00e0\u00a6\u00a8 \u00e0\u00a6\u0085\u00e0\u00a6\u009e\u00e0\u00a7\u008d\u00e0\u00a6\u009a\u00e0\u00a6\u00b2",
            "name_de": "Yangon-Region",
            "name_el": "\u00ce\u0093\u00ce\u00b9\u00ce\u00ac\u00ce\u00bd\u00ce\u00b3\u00ce\u00ba\u00ce\u00bf\u00ce\u00bd",
            "name_en": "Yangon Region",
            "name_es": "Regi\u00c3\u00b3n de Yangon",
            "name_fr": "R\u00c3\u00a9gion de Yangon",
            "name_hi": "\u00e0\u00a4\u00af\u00e0\u00a4\u00be\u00e0\u00a4\u0082\u00e0\u00a4\u0097\u00e0\u00a5\u008b\u00e0\u00a4\u00a8 \u00e0\u00a4\u00ae\u00e0\u00a4\u00a3\u00e0\u00a5\u008d\u00e0\u00a4\u00a1\u00e0\u00a4\u00b2",
            "name_hu": "",
            "name_id": "Region Yangon",
            "name_it": "regione di Yangon",
            "name_ja": "\u00e3\u0083\u00a4\u00e3\u0083\u00b3\u00e3\u0082\u00b4\u00e3\u0083\u00b3\u00e7\u00ae\u00a1\u00e5\u008c\u00ba",
            "name_ko": "\u00ec\u0096\u0091\u00ea\u00b3\u00a4 \u00ea\u00b5\u00ac",
            "name_len": "6",
            "name_local": "",
            "name_nl": "Rangoon",
            "name_pl": "Rangun",
            "name_pt": "Yangon",
            "name_ru": "\u00d0\u00af\u00d0\u00bd\u00d0\u00b3\u00d0\u00be\u00d0\u00bd",
            "name_sv": "Yangonregionen",
            "name_tr": "Yangon B\u00c3\u00b6lgesi",
            "name_vi": "V\u00c3\u00b9ng Yangon",
            "name_zh": "\u00e4\u00bb\u00b0\u00e5\u0085\u0089\u00e7\u009c\u0081",
            "ne_id": "1159314047",
            "note": "",
            "provnum_ne": "20009",
            "record_type": "state",
            "region": "",
            "region_cod": "",
            "region_sub": "",
            "sameascity": "-99",
            "scalerank": "6",
            "sov_a3": "MMR",
            "sub_code": "",
            "wikidataid": "Q856781",
            "wikipedia": "",
            "woe_id": "2344823",
            "woe_label": "Yangon, MM, Myanmar",
            "woe_name": "Yangon"
        },
        "geo": {
            "latitude": 16.780833,
            "longitude": 96.149722,
            "max_latitude": 17.0788151,
            "max_longitude": 96.3432311,
            "min_latitude": 16.7288268,
            "min_longitude": 95.9957885
        },
        "iso_3166_2": "MM-06",
        "iso_a2": "MM",
        "iso_a3": "MMR",
        "name": "Yangon",
        "postal": "06",
        "type": "Yin",
        "type_en": "Division"
    },
    "07": {
        "alt_names": [
            "Irrawaddy"
        ],
        "cca2": "MM",
        "cca3": "MMR",
        "code_hasc": "MM.AY",
        "extra": {
            "abbrev": "",
            "adm0_a3": "MMR",
            "adm0_label": "2",
            "adm0_sr": "1",
            "adm1_code": "MMR-3275",
            "admin": "Myanmar",
            "area_sqkm": "0",
            "check_me": "0",
            "code_local": "",
            "data_sources": [
                "natural"
            ],
            "datarank": "5",
            "diss_me": "3275",
            "featurecla": "Admin-1 scale rank",
            "fips": "BM03",
            "fips_alt": "",
            "gadm_level": "1",
            "geonunit": "Myanmar",
            "gn_a1_code": "MM.03",
            "gn_id": "1321850",
            "gn_level": "1",
            "gn_name": "Ayeyarwady Division",
            "gn_region": "",
            "gns_adm1": "BM03",
            "gns_id": "-417417",
            "gns_lang": "fra",
            "gns_level": "1",
            "gns_name": "Ayeyarwady Division",
            "gns_region": "",
            "gu_a3": "MMR",
            "hasc_maybe": "",
            "labelrank": "7",
            "mapcolor9": "5",
            "mapcolor13": "13",
            "max_label": "11.0",
            "min_label": "7.0",
            "min_zoom": "7.0",
            "name_ar": "\u00d9\u0085\u00d9\u0082\u00d8\u00a7\u00d8\u00b7\u00d8\u00b9\u00d8\u00a9 \u00d8\u00a3\u00d9\u008a\u00d9\u008a\u00d8\u00a7\u00d8\u00b1\u00d9\u0088\u00d8\u00a7\u00d8\u00af\u00d9\u008a",
            "name_bn": "\u00e0\u00a6\u0086\u00e0\u00a6\u00af\u00e0\u00a6\u00bc\u00e0\u00a7\u0087\u00e0\u00a6\u00af\u00e0\u00a6\u00bc\u00e0\u00a6\u00be\u00e0\u00a6\u00b0\u00e0\u00a7\u008d\u00e0\u00a6\u00ac\u00e0\u00a7\u008d\u00e0\u00a6\u00af\u00e0\u00a6\u00be\u00e0\u00a6\u00a6\u00e0\u00a6\u00bf \u00e0\u00a6\u0085\u00e0\u00a6\u009e\u00e0\u00a7\u008d\u00e0\u00a6\u009a\u00e0\u00a6\u00b2",
            "name_de": "Irawadi-Region",
            "name_el": "\u00ce\u0095\u00cf\u0080\u00ce\u00b1\u00cf\u0081\u00cf\u0087\u00ce\u00af\u00ce\u00b1 \u00ce\u0091\u00ce\u00b3\u00ce\u00b9\u00ce\u00b5\u00ce\u00b3\u00ce\u00b9\u00ce\u00b1\u00ce\u00b3\u00ce\u00bf\u00cf\u0085\u00ce\u00ac\u00ce\u00bd\u00cf\u0084\u00ce\u00b9",
            "name_en": "Ayeyarwady Region",
            "name_es": "Ayeyarwady",
            "name_fr": "R\u00c3\u00a9gion d'Ayeyarwady",
            "name_hi": "\u00e0\u00a4\u0087\u00e0\u00a4\u00b0\u00e0\u00a4\u00be\u00e0\u00a4\u00b5\u00e0\u00a4\u00a6\u00e0\u00a5\u0080 \u00e0\u00a4\u00ae\u00e0\u00a4\u00a3\u00e0\u00a5\u008d\u00e0\u00a4\u00a1\u00e0\u00a4\u00b2",
            "name_hu": "",
            "name_id": "Region Ayeyarwady",
            "name_it": "regione di Ayeyarwady",
            "name_ja": "\u00e3\u0082\u00a8\u00e3\u0083\u00bc\u00e3\u0083\u00a4\u00e3\u0083\u00af\u00e3\u0083\u0087\u00e3\u0082\u00a3\u00e7\u00ae\u00a1\u00e5\u008c\u00ba",
            "name_ko": "\u00ec\u0097\u0090\u00ec\u0095\u00bc\u00ec\u0099\u0080\u00eb\u0094\u0094 \u00ea\u00b5\u00ac",
            "name_len": "10",
            "name_local": "",
            "name_nl": "Ayeyarwady",
            "name_pl": "Irawadi",
            "name_pt": "Ayeyarwady",
            "name_ru": "\u00d0\u0098\u00d1\u0080\u00d0\u00b0\u00d0\u00b2\u00d0\u00b0\u00d0\u00b4\u00d0\u00b8",
            "name_sv": "Ayeyarwady",
            "name_tr": "Ayeryarwady B\u00c3\u00b6lgesi",
            "name_vi": "V\u00c3\u00b9ng Ayeyarwady",
            "name_zh": "\u00e4\u00bc\u008a\u00e6\u00b4\u009b\u00e7\u0093\u00a6\u00e5\u00ba\u0095\u00e7\u009c\u0081",
            "ne_id": "1159315793",
            "note": "",
            "provnum_ne": "20004",
            "record_type": "state",
            "region": "",
            "region_cod": "",
            "region_sub": "",
            "sameascity": "-99",
            "scalerank": "6",
            "sov_a3": "MMR",
            "sub_code": "",
            "wikidataid": "Q47047",
            "wikipedia": "",
            "woe_id": "2344812",
            "woe_label": "Ayeyarwady, MM, Myanmar",
            "woe_name": "Ayeyarwady"
        },
        "geo": {
            "latitude": 17.0342125,
            "longitude": 95.2266675,
            "max_latitude": 18.4690619,
            "max_longitude": 95.9665632,
            "min_latitude": 13.9746695,
            "min_longitude": 93.2260284
        },
        "iso_3166_2": "MM-07",
        "iso_a2": "MM",
        "iso_a3": "MMR",
        "name": "Ayeyarwady",
        "postal": "07",
        "type": "Yin",
        "type_en": "Division"
    },
    "11": {
        "alt_names": [
            "Kachin"
        ],
        "cca2": "MM",
        "cca3": "MMR",
        "code_hasc": "MM.KC",
        "extra": {
            "abbrev": "",
            "adm0_a3": "MMR",
            "adm0_label": "2",
            "adm0_sr": "1",
            "adm1_code": "MMR-3296",
            "admin": "Myanmar",
            "area_sqkm": "0",
            "check_me": "0",
            "code_local": "",
            "data_sources": [
                "natural"
            ],
            "datarank": "5",
            "diss_me": "3296",
            "featurecla": "Admin-1 scale rank",
            "fips": "BM04",
            "fips_alt": "",
            "gadm_level": "1",
            "geonunit": "Myanmar",
            "gn_a1_code": "MM.04",
            "gn_id": "1321702",
            "gn_level": "1",
            "gn_name": "Kachin State",
            "gn_region": "",
            "gns_adm1": "BM04",
            "gns_id": "-417566",
            "gns_lang": "fra",
            "gns_level": "1",
            "gns_name": "Kachin State",
            "gns_region": "",
            "gu_a3": "MMR",
            "hasc_maybe": "",
            "labelrank": "7",
            "mapcolor9": "5",
            "mapcolor13": "13",
            "max_label": "11.0",
            "min_label": "7.0",
            "min_zoom": "7.0",
            "name_ar": "\u00d9\u0088\u00d9\u0084\u00d8\u00a7\u00d9\u008a\u00d8\u00a9 \u00d9\u0083\u00d8\u00a7\u00d8\u00b4\u00d9\u008a\u00d9\u0086",
            "name_bn": "\u00e0\u00a6\u0095\u00e0\u00a6\u00be\u00e0\u00a6\u009b\u00e0\u00a6\u00bf\u00e0\u00a6\u00a8 \u00e0\u00a6\u00b0\u00e0\u00a6\u00be\u00e0\u00a6\u009c\u00e0\u00a7\u008d\u00e0\u00a6\u00af",
            "name_de": "Kachin-Staat",
            "name_el": "\u00ce\u009a\u00ce\u00b1\u00cf\u0084\u00cf\u0083\u00ce\u00af\u00ce\u00bd",
            "name_en": "Kachin State",
            "name_es": "Estado Kachin",
            "name_fr": "\u00c3\u0089tat de Kachin",
            "name_hi": "\u00e0\u00a4\u0095\u00e0\u00a4\u00be\u00e0\u00a4\u009a\u00e0\u00a5\u0080\u00e0\u00a4\u00a8 \u00e0\u00a4\u00b0\u00e0\u00a4\u00be\u00e0\u00a4\u009c\u00e0\u00a5\u008d\u00e0\u00a4\u00af",
            "name_hu": "",
            "name_id": "Negara Bagian Kachin",
            "name_it": "Stato Kachin",
            "name_ja": "\u00e3\u0082\u00ab\u00e3\u0083\u0081\u00e3\u0083\u00b3\u00e5\u00b7\u009e",
            "name_ko": "\u00ec\u00b9\u00b4\u00ec\u00b9\u009c \u00ec\u00a3\u00bc",
            "name_len": "6",
            "name_local": "",
            "name_nl": "Kachin",
            "name_pl": "Kaczin",
            "name_pt": "Kachin",
            "name_ru": "\u00d0\u009a\u00d0\u00b0\u00d1\u0087\u00d0\u00b8\u00d0\u00bd",
            "name_sv": "Kachin",
            "name_tr": "Kachin Eyaleti",
            "name_vi": "Kachin",
            "name_zh": "\u00e5\u0085\u008b\u00e9\u0092\u00a6\u00e9\u0082\u00a6",
            "ne_id": "1159315217",
            "note": "",
            "provnum_ne": "20018",
            "record_type": "state",
            "region": "",
            "region_cod": "",
            "region_sub": "",
            "sameascity": "-99",
            "scalerank": "6",
            "sov_a3": "MMR",
            "sub_code": "",
            "wikidataid": "Q140646",
            "wikipedia": "",
            "woe_id": "2344813",
            "woe_label": "Kachin State, MM, Myanmar",
            "woe_name": "Kachin"
        },
        "geo": {
            "latitude": 25.850904,
            "longitude": 97.4381355,
            "max_latitude": 28.543259,
            "max_longitude": 98.782791,
            "min_latitude": 23.641569,
            "min_longitude": 95.8360589
        },
        "iso_3166_2": "MM-11",
        "iso_a2": "MM",
        "iso_a3": "MMR",
        "name": "Kachin",
        "postal": "11",
        "type": "Pyine",
        "type_en": "State"
    },
    "12": {
        "alt_names": [
            "Kayah"
        ],
        "cca2": "MM",
        "cca3": "MMR",
        "code_hasc": "MM.KH",
        "extra": {
            "abbrev": "",
            "adm0_a3": "MMR",
            "adm0_label": "2",
            "adm0_sr": "1",
            "adm1_code": "MMR-2473",
            "admin": "Myanmar",
            "area_sqkm": "0",
            "check_me": "0",
            "code_local": "",
            "data_sources": [
                "natural"
            ],
            "datarank": "5",
            "diss_me": "2473",
            "featurecla": "Admin-1 scale rank",
            "fips": "BM06",
            "fips_alt": "",
            "gadm_level": "1",
            "geonunit": "Myanmar",
            "gn_a1_code": "MM.06",
            "gn_id": "1319539",
            "gn_level": "1",
            "gn_name": "Kayah State",
            "gn_region": "",
            "gns_adm1": "BM06",
            "gns_id": "-419740",
            "gns_lang": "fra",
            "gns_level": "1",
            "gns_name": "Kayah State",
            "gns_region": "",
            "gu_a3": "MMR",
            "hasc_maybe": "",
            "labelrank": "7",
            "mapcolor9": "5",
            "mapcolor13": "13",
            "max_label": "11.0",
            "min_label": "7.0",
            "min_zoom": "7.0",
            "name_ar": "\u00d9\u0088\u00d9\u0084\u00d8\u00a7\u00d9\u008a\u00d8\u00a9 \u00d9\u0083\u00d8\u00a7\u00d9\u008a\u00d8\u00a7\u00d9\u0087",
            "name_bn": "\u00e0\u00a6\u0095\u00e0\u00a6\u00be\u00e0\u00a6\u00af\u00e0\u00a6\u00bc\u00e0\u00a6\u00be\u00e0\u00a6\u00b9 \u00e0\u00a6\u0085\u00e0\u00a6\u0099\u00e0\u00a7\u008d\u00e0\u00a6\u0097\u00e0\u00a6\u00b0\u00e0\u00a6\u00be\u00e0\u00a6\u009c\u00e0\u00a7\u008d\u00e0\u00a6\u00af",
            "name_de": "Kayah-Staat",
            "name_el": "\u00ce\u009a\u00ce\u00ac\u00ce\u00b3\u00ce\u00b9\u00ce\u00b1",
            "name_en": "Kayah State",
            "name_es": "Kayah",
            "name_fr": "\u00c3\u0089tat de Kayah",
            "name_hi": "\u00e0\u00a4\u0095\u00e0\u00a4\u00af\u00e0\u00a4\u00be\u00e0\u00a4\u00b9 \u00e0\u00a4\u00b0\u00e0\u00a4\u00be\u00e0\u00a4\u009c\u00e0\u00a5\u008d\u00e0\u00a4\u00af",
            "name_hu": "",
            "name_id": "Negara Bagian Kayah",
            "name_it": "Stato Kayah",
            "name_ja": "\u00e3\u0082\u00ab\u00e3\u0083\u00a4\u00e3\u0083\u00bc\u00e5\u00b7\u009e",
            "name_ko": "\u00ec\u00b9\u00b4\u00ec\u0095\u00bc \u00ec\u00a3\u00bc",
            "name_len": "5",
            "name_local": "",
            "name_nl": "Kayah",
            "name_pl": "Kaja",
            "name_pt": "Kayah",
            "name_ru": "\u00d0\u009a\u00d0\u00b0\u00d1\u008f",
            "name_sv": "Kayahstaten",
            "name_tr": "Kayah Eyaleti",
            "name_vi": "Kayah",
            "name_zh": "\u00e5\u0085\u008b\u00e8\u0080\u00b6\u00e9\u0082\u00a6",
            "ne_id": "1159311841",
            "note": "",
            "provnum_ne": "8",
            "record_type": "state",
            "region": "",
            "region_cod": "",
            "region_sub": "",
            "sameascity": "-99",
            "scalerank": "6",
            "sov_a3": "MMR",
            "sub_code": "",
            "wikidataid": "Q652845",
            "wikipedia": "",
            "woe_id": "2344815",
            "woe_label": "Kayan State, MM, Myanmar",
            "woe_name": "Kayah"
        },
        "geo": {
            "latitude": 19.2342061,
            "longitude": 97.2652858,
            "max_latitude": 19.9939339,
            "max_longitude": 97.887894,
            "min_latitude": 18.4917349,
            "min_longitude": 96.833956
        },
        "iso_3166_2": "MM-12",
        "iso_a2": "MM",
        "iso_a3": "MMR",
        "name": "Kayah",
        "postal": "12",
        "type": "Pyine",
        "type_en": "State"
    },
    "13": {
        "alt_names": [
            "Karen"
        ],
        "cca2": "MM",
        "cca3": "MMR",
        "code_hasc": "MM.KN",
        "extra": {
            "abbrev": "",
            "adm0_a3": "MMR",
            "adm0_label": "2",
            "adm0_sr": "1",
            "adm1_code": "MMR-3266",
            "admin": "Myanmar",
            "area_sqkm": "0",
            "check_me": "10",
            "code_local": "",
            "data_sources": [
                "natural"
            ],
            "datarank": "5",
            "diss_me": "3266",
            "featurecla": "Admin-1 scale rank",
            "fips": "BM05",
            "fips_alt": "BM01",
            "gadm_level": "1",
            "geonunit": "Myanmar",
            "gn_a1_code": "MM.05",
            "gn_id": "1320233",
            "gn_level": "1",
            "gn_name": "Kayin State",
            "gn_region": "",
            "gns_adm1": "BM05",
            "gns_id": "-419040",
            "gns_lang": "fra",
            "gns_level": "1",
            "gns_name": "Kayin State",
            "gns_region": "",
            "gu_a3": "MMR",
            "hasc_maybe": "",
            "labelrank": "7",
            "mapcolor9": "5",
            "mapcolor13": "13",
            "max_label": "11.0",
            "min_label": "7.0",
            "min_zoom": "7.0",
            "name_ar": "\u00d9\u0088\u00d9\u0084\u00d8\u00a7\u00d9\u008a\u00d8\u00a9 \u00d9\u0083\u00d8\u00a7\u00d9\u008a\u00d9\u008a\u00d9\u0086",
            "name_bn": "\u00e0\u00a6\u0095\u00e0\u00a6\u00be\u00e0\u00a6\u00af\u00e0\u00a6\u00bc\u00e0\u00a6\u00bf\u00e0\u00a6\u00a8 \u00e0\u00a6\u0085\u00e0\u00a6\u0099\u00e0\u00a7\u008d\u00e0\u00a6\u0097\u00e0\u00a6\u00b0\u00e0\u00a6\u00be\u00e0\u00a6\u009c\u00e0\u00a7\u008d\u00e0\u00a6\u00af",
            "name_de": "Kayin-Staat",
            "name_el": "\u00ce\u009a\u00ce\u00b1\u00ce\u00b3\u00ce\u00af\u00ce\u00bd",
            "name_en": "Kayin State",
            "name_es": "Kayin",
            "name_fr": "\u00c3\u0089tat Karen",
            "name_hi": "\u00e0\u00a4\u0095\u00e0\u00a4\u00af\u00e0\u00a4\u00bf\u00e0\u00a4\u00a8 \u00e0\u00a4\u00b0\u00e0\u00a4\u00be\u00e0\u00a4\u009c\u00e0\u00a5\u008d\u00e0\u00a4\u00af",
            "name_hu": "",
            "name_id": "Negara Bagian Kayin",
            "name_it": "Stato Karen",
            "name_ja": "\u00e3\u0082\u00ab\u00e3\u0083\u00ac\u00e3\u0083\u00b3\u00e5\u00b7\u009e",
            "name_ko": "\u00ec\u00b9\u00b4\u00ec\u009d\u00b8 \u00ec\u00a3\u00bc",
            "name_len": "5",
            "name_local": "",
            "name_nl": "Kayin",
            "name_pl": "Karen",
            "name_pt": "Kayin",
            "name_ru": "\u00d0\u009a\u00d0\u00b0\u00d1\u0080\u00d0\u00b5\u00d0\u00bd",
            "name_sv": "Karen",
            "name_tr": "Kayin Eyaleti",
            "name_vi": "Kayin",
            "name_zh": "\u00e5\u0085\u008b\u00e5\u0080\u00ab\u00e9\u0082\u00a6",
            "ne_id": "1159314041",
            "note": "",
            "provnum_ne": "20015",
            "record_type": "state",
            "region": "",
            "region_cod": "",
            "region_sub": "",
            "sameascity": "-99",
            "scalerank": "6",
            "sov_a3": "MMR",
            "sub_code": "",
            "wikidataid": "Q495342",
            "wikipedia": "",
            "woe_id": "2344814",
            "woe_label": "Karan State, MM, Myanmar",
            "woe_name": "Kayin"
        },
        "geo": {
            "latitude": 16.9459346,
            "longitude": 97.9592863,
            "max_latitude": 19.4953029,
            "max_longitude": 98.9175031,
            "min_latitude": 15.2195629,
            "min_longitude": 96.3998219
        },
        "iso_3166_2": "MM-13",
        "iso_a2": "MM",
        "iso_a3": "MMR",
        "name": "Kayin",
        "postal": "13",
        "type": "Pyine",
        "type_en": "State"
    },
    "14": {
        "alt_names": [
            "Chin"
        ],
        "cca2": "MM",
        "cca3": "MMR",
        "code_hasc": "MM.CH",
        "extra": {
            "abbrev": "",
            "adm0_a3": "MMR",
            "adm0_label": "2",
            "adm0_sr": "1",
            "adm1_code": "MMR-3274",
            "admin": "Myanmar",
            "area_sqkm": "0",
            "check_me": "0",
            "code_local": "",
            "data_sources": [
                "natural"
            ],
            "datarank": "5",
            "diss_me": "3274",
            "featurecla": "Admin-1 scale rank",
            "fips": "BM02",
            "fips_alt": "",
            "gadm_level": "1",
            "geonunit": "Myanmar",
            "gn_a1_code": "MM.02",
            "gn_id": "1327132",
            "gn_level": "1",
            "gn_name": "Chin State",
            "gn_region": "",
            "gns_adm1": "BM02",
            "gns_id": "-412046",
            "gns_lang": "fra",
            "gns_level": "1",
            "gns_name": "Chin State",
            "gns_region": "",
            "gu_a3": "MMR",
            "hasc_maybe": "",
            "labelrank": "7",
            "mapcolor9": "5",
            "mapcolor13": "13",
            "max_label": "11.0",
            "min_label": "7.0",
            "min_zoom": "7.0",
            "name_ar": "\u00d9\u0088\u00d9\u0084\u00d8\u00a7\u00d9\u008a\u00d8\u00a9 \u00d8\u00aa\u00d8\u00b4\u00d9\u008a\u00d9\u0086",
            "name_bn": "\u00e0\u00a6\u009a\u00e0\u00a6\u00bf\u00e0\u00a6\u00a8 \u00e0\u00a6\u0085\u00e0\u00a6\u0099\u00e0\u00a7\u008d\u00e0\u00a6\u0097\u00e0\u00a6\u00b0\u00e0\u00a6\u00be\u00e0\u00a6\u009c\u00e0\u00a7\u008d\u00e0\u00a6\u00af",
            "name_de": "Chin-Staat",
            "name_el": "\u00ce\u00a4\u00cf\u0083\u00ce\u00b9\u00ce\u00bd",
            "name_en": "Chin State",
            "name_es": "Chin",
            "name_fr": "\u00c3\u0089tat Chin",
            "name_hi": "\u00e0\u00a4\u009a\u00e0\u00a4\u00bf\u00e0\u00a4\u00a8 \u00e0\u00a4\u00b0\u00e0\u00a4\u00be\u00e0\u00a4\u009c\u00e0\u00a5\u008d\u00e0\u00a4\u00af",
            "name_hu": "",
            "name_id": "Negara Bagian Chin",
            "name_it": "Stato Chin",
            "name_ja": "\u00e3\u0083\u0081\u00e3\u0083\u00b3\u00e5\u00b7\u009e",
            "name_ko": "\u00ec\u00b9\u009c \u00ec\u00a3\u00bc",
            "name_len": "4",
            "name_local": "",
            "name_nl": "Chin",
            "name_pl": "Czin",
            "name_pt": "Chin",
            "name_ru": "\u00d0\u00a7\u00d0\u00b8\u00d0\u00bd",
            "name_sv": "Chin",
            "name_tr": "Chin Eyaleti",
            "name_vi": "Chin",
            "name_zh": "\u00e6\u00ac\u00bd\u00e9\u0082\u00a6",
            "ne_id": "1159314049",
            "note": "",
            "provnum_ne": "20020",
            "record_type": "state",
            "region": "",
            "region_cod": "",
            "region_sub": "",
            "sameascity": "-99",
            "scalerank": "6",
            "sov_a3": "MMR",
            "sub_code": "",
            "wikidataid": "Q46910",
            "wikipedia": "",
            "woe_id": "2344811",
            "woe_label": "Chin State, MM, Myanmar",
            "woe_name": "Chin"
        },
        "geo": {
            "latitude": 22.3896751,
            "longitude": 93.5812692,
            "max_latitude": 24.0915281,
            "max_longitude": 94.1857909,
            "min_latitude": 20.6635458,
            "min_longitude": 92.6037597
        },
        "iso_3166_2": "MM-14",
        "iso_a2": "MM",
        "iso_a3": "MMR",
        "name": "Chin",
        "postal": "14",
        "type": "Pyine",
        "type_en": "State"
    },
    "15": {
        "alt_names": [
            "Mon"
        ],
        "cca2": "MM",
        "cca3": "MMR",
        "code_hasc": "MM.MO",
        "extra": {
            "abbrev": "",
            "adm0_a3": "MMR",
            "adm0_label": "2",
            "adm0_sr": "5",
            "adm1_code": "MMR-3270",
            "admin": "Myanmar",
            "area_sqkm": "0",
            "check_me": "0",
            "code_local": "",
            "data_sources": [
                "natural"
            ],
            "datarank": "5",
            "diss_me": "3270",
            "featurecla": "Admin-1 scale rank",
            "fips": "BM13",
            "fips_alt": "",
            "gadm_level": "1",
            "geonunit": "Myanmar",
            "gn_a1_code": "MM.13",
            "gn_id": "1308528",
            "gn_level": "1",
            "gn_name": "Mon State",
            "gn_region": "",
            "gns_adm1": "BM13",
            "gns_id": "-430824",
            "gns_lang": "fra",
            "gns_level": "1",
            "gns_name": "Mon State",
            "gns_region": "",
            "gu_a3": "MMR",
            "hasc_maybe": "",
            "labelrank": "7",
            "mapcolor9": "5",
            "mapcolor13": "13",
            "max_label": "11.0",
            "min_label": "7.0",
            "min_zoom": "7.0",
            "name_ar": "\u00d9\u0088\u00d9\u0084\u00d8\u00a7\u00d9\u008a\u00d8\u00a9 \u00d9\u0085\u00d9\u0088\u00d9\u0086",
            "name_bn": "\u00e0\u00a6\u00ae\u00e0\u00a6\u00a8 \u00e0\u00a6\u00b0\u00e0\u00a6\u00be\u00e0\u00a6\u009c\u00e0\u00a7\u008d\u00e0\u00a6\u00af",
            "name_de": "Mon-Staat",
            "name_el": "\u00ce\u009c\u00ce\u00bf\u00ce\u00bd",
            "name_en": "Mon State",
            "name_es": "Estado Mon",
            "name_fr": "\u00c3\u0089tat M\u00c3\u00b4n",
            "name_hi": "\u00e0\u00a4\u00ae\u00e0\u00a5\u008b\u00e0\u00a4\u00a8 \u00e0\u00a4\u00b0\u00e0\u00a4\u00be\u00e0\u00a4\u009c\u00e0\u00a5\u008d\u00e0\u00a4\u00af",
            "name_hu": "",
            "name_id": "Mon State",
            "name_it": "Stato Mon",
            "name_ja": "\u00e3\u0083\u00a2\u00e3\u0083\u00b3\u00e5\u00b7\u009e",
            "name_ko": "\u00eb\u00aa\u00ac \u00ec\u00a3\u00bc",
            "name_len": "3",
            "name_local": "",
            "name_nl": "Mon",
            "name_pl": "Mon",
            "name_pt": "Mon",
            "name_ru": "\u00d0\u009c\u00d0\u00be\u00d0\u00bd",
            "name_sv": "Mon",
            "name_tr": "Mon Eyaleti",
            "name_vi": "Mon",
            "name_zh": "\u00e5\u00ad\u009f\u00e9\u0082\u00a6",
            "ne_id": "1159313965",
            "note": "",
            "provnum_ne": "20011",
            "record_type": "state",
            "region": "",
            "region_cod": "",
            "region_sub": "",
            "sameascity": "-99",
            "scalerank": "6",
            "sov_a3": "MMR",
            "sub_code": "",
            "wikidataid": "Q818742",
            "wikipedia": "",
            "woe_id": "2344822",
            "woe_label": "Mon State, MM, Myanmar",
            "woe_name": "Mon"
        },
        "geo": {
            "latitude": 17.0626039,
            "longitude": 97.3516558,
            "max_latitude": 17.7052629,
            "max_longitude": 98.2378388,
            "min_latitude": 14.884192,
            "min_longitude": 96.8755518
        },
        "iso_3166_2": "MM-15",
        "iso_a2": "MM",
        "iso_a3": "MMR",
        "name": "Mon",
        "postal": "15",
        "type": "Pyine",
        "type_en": "State"
    },
    "16": {
        "alt_names": [
            "Arakan"
        ],
        "cca2": "MM",
        "cca3": "MMR",
        "code_hasc": "MM.RA",
        "extra": {
            "abbrev": "",
            "adm0_a3": "MMR",
            "adm0_label": "2",
            "adm0_sr": "3",
            "adm1_code": "MMR-3273",
            "admin": "Myanmar",
            "area_sqkm": "0",
            "check_me": "10",
            "code_local": "",
            "data_sources": [
                "natural"
            ],
            "datarank": "5",
            "diss_me": "3273",
            "featurecla": "Admin-1 scale rank",
            "fips": "BM01",
            "fips_alt": "BM05",
            "gadm_level": "1",
            "geonunit": "Myanmar",
            "gn_a1_code": "MM.01",
            "gn_id": "1298852",
            "gn_level": "1",
            "gn_name": "Rakhine State",
            "gn_region": "",
            "gns_adm1": "BM01",
            "gns_id": "-440595",
            "gns_lang": "fra",
            "gns_level": "1",
            "gns_name": "Rakhine State",
            "gns_region": "",
            "gu_a3": "MMR",
            "hasc_maybe": "",
            "labelrank": "7",
            "mapcolor9": "5",
            "mapcolor13": "13",
            "max_label": "11.0",
            "min_label": "7.0",
            "min_zoom": "7.0",
            "name_ar": "\u00d8\u00b1\u00d8\u00a7\u00d8\u00ae\u00d9\u008a\u00d9\u0086",
            "name_bn": "\u00e0\u00a6\u0086\u00e0\u00a6\u00b0\u00e0\u00a6\u00be\u00e0\u00a6\u0095\u00e0\u00a6\u00be\u00e0\u00a6\u00a8 \u00e0\u00a6\u00b0\u00e0\u00a6\u00be\u00e0\u00a6\u009c\u00e0\u00a7\u008d\u00e0\u00a6\u00af",
            "name_de": "Rakhaing-Staat",
            "name_el": "\u00ce\u00a1\u00ce\u00b1\u00ce\u00ba\u00ce\u00af\u00ce\u00bd\u00ce\u00b5",
            "name_en": "Rakhine State",
            "name_es": "Rakhine",
            "name_fr": "\u00c3\u0089tat d'Arakan",
            "name_hi": "\u00e0\u00a4\u0085\u00e0\u00a4\u00b0\u00e0\u00a4\u00be\u00e0\u00a4\u0095\u00e0\u00a4\u00be\u00e0\u00a4\u00a8",
            "name_hu": "",
            "name_id": "Negara Bagian Rakhine",
            "name_it": "Stato Rakhine",
            "name_ja": "\u00e3\u0083\u00a9\u00e3\u0082\u00ab\u00e3\u0082\u00a4\u00e3\u0083\u00b3\u00e5\u00b7\u009e",
            "name_ko": "\u00eb\u009d\u00bc\u00ec\u00b9\u00b4\u00ec\u009d\u00b8 \u00ec\u00a3\u00bc",
            "name_len": "7",
            "name_local": "",
            "name_nl": "Rakhine",
            "name_pl": "Arakan",
            "name_pt": "Arrac\u00c3\u00a3o",
            "name_ru": "\u00d0\u00a0\u00d0\u00b0\u00d0\u00ba\u00d1\u0085\u00d0\u00b0\u00d0\u00b9\u00d0\u00bd",
            "name_sv": "Rakhinestaten",
            "name_tr": "Rakhine Eyaleti",
            "name_vi": "Rakhine",
            "name_zh": "\u00e8\u008b\u00a5\u00e9\u0096\u008b\u00e9\u0082\u00a6",
            "ne_id": "1159313975",
            "note": "",
            "provnum_ne": "20012",
            "record_type": "state",
            "region": "",
            "region_cod": "",
            "region_sub": "",
            "sameascity": "-99",
            "scalerank": "6",
            "sov_a3": "MMR",
            "sub_code": "",
            "wikidataid": "Q233838",
            "wikipedia": "",
            "woe_id": "2344810",
            "woe_label": "Rakhine State, MM, Myanmar",
            "woe_name": "Rakhine"
        },
        "geo": {
            "latitude": 19.810093,
            "longitude": 93.9878427,
            "max_latitude": 21.4735741,
            "max_longitude": 94.909111,
            "min_latitude": 17.363218,
            "min_longitude": 92.189278
        },
        "iso_3166_2": "MM-16",
        "iso_a2": "MM",
        "iso_a3": "MMR",
        "name": "Rakhine",
        "postal": "16",
        "type": "Pyine",
        "type_en": "State"
    },
    "17": {
        "alt_names": [
            "Shan"
        ],
        "cca2": "MM",
        "cca3": "MMR",
        "code_hasc": "MM.SH",
        "extra": {
            "abbrev": "",
            "adm0_a3": "MMR",
            "adm0_label": "2",
            "adm0_sr": "1",
            "adm1_code": "MMR-3277",
            "admin": "Myanmar",
            "area_sqkm": "0",
            "check_me": "0",
            "code_local": "",
            "data_sources": [
                "natural"
            ],
            "datarank": "5",
            "diss_me": "3277",
            "featurecla": "Admin-1 scale rank",
            "fips": "BM11",
            "fips_alt": "",
            "gadm_level": "1",
            "geonunit": "Myanmar",
            "gn_a1_code": "MM.11",
            "gn_id": "1297099",
            "gn_level": "1",
            "gn_name": "Shan State",
            "gn_region": "",
            "gns_adm1": "BM11",
            "gns_id": "-442358",
            "gns_lang": "fra",
            "gns_level": "1",
            "gns_name": "Shan State",
            "gns_region": "",
            "gu_a3": "MMR",
            "hasc_maybe": "",
            "labelrank": "7",
            "mapcolor9": "5",
            "mapcolor13": "13",
            "max_label": "11.0",
            "min_label": "7.0",
            "min_zoom": "7.0",
            "name_ar": "\u00d9\u0088\u00d9\u0084\u00d8\u00a7\u00d9\u008a\u00d8\u00a9 \u00d8\u00b4\u00d8\u00a7\u00d9\u0086",
            "name_bn": "\u00e0\u00a6\u00b6\u00e0\u00a6\u00be\u00e0\u00a6\u00a8 \u00e0\u00a6\u00b0\u00e0\u00a6\u00be\u00e0\u00a6\u009c\u00e0\u00a7\u008d\u00e0\u00a6\u00af",
            "name_de": "Shan-Staat",
            "name_el": "\u00ce\u00a3\u00ce\u00b1\u00ce\u00bd",
            "name_en": "Shan State",
            "name_es": "Shan",
            "name_fr": "\u00c3\u0089tat Shan",
            "name_hi": "\u00e0\u00a4\u00b6\u00e0\u00a4\u00be\u00e0\u00a4\u00a8 \u00e0\u00a4\u00b0\u00e0\u00a4\u00be\u00e0\u00a4\u009c\u00e0\u00a5\u008d\u00e0\u00a4\u00af",
            "name_hu": "",
            "name_id": "Negara Bagian Shan",
            "name_it": "Stato Shan",
            "name_ja": "\u00e3\u0082\u00b7\u00e3\u0083\u00a3\u00e3\u0083\u00b3\u00e5\u00b7\u009e",
            "name_ko": "\u00ec\u0083\u00a8 \u00ec\u00a3\u00bc",
            "name_len": "4",
            "name_local": "",
            "name_nl": "Shan",
            "name_pl": "Szan",
            "name_pt": "Shan",
            "name_ru": "\u00d0\u00a8\u00d0\u00b0\u00d0\u00bd",
            "name_sv": "Shanstaten",
            "name_tr": "Shan State",
            "name_vi": "Shan",
            "name_zh": "\u00e6\u008e\u00b8\u00e9\u0082\u00a6",
            "ne_id": "1159314053",
            "note": "",
            "provnum_ne": "20014",
            "record_type": "state",
            "region": "",
            "region_cod": "",
            "region_sub": "",
            "sameascity": "-99",
            "scalerank": "6",
            "sov_a3": "MMR",
            "sub_code": "",
            "wikidataid": "Q456847",
            "wikipedia": "",
            "woe_id": "2344820",
            "woe_label": "Shan State, MM, Myanmar",
            "woe_name": "Shan"
        },
        "geo": {
            "latitude": 21.156717,
            "longitude": 97.5734783,
            "max_latitude": 21.1839317,
            "max_longitude": 97.5927543,
            "min_latitude": 21.1287002,
            "min_longitude": 97.5539589
        },
        "iso_3166_2": "MM-17",
        "iso_a2": "MM",
        "iso_a3": "MMR",
        "name": "Shan",
        "postal": "17",
        "type": "Pyine",
        "type_en": "State"
    }
}