{
    "01": {
        "alt_names": [
            "Hud-ash-Sharqi",
            "Hu\u0111-a\u0161-\u0160arqi",
            "Hodh ech Chargui"
        ],
        "cca2": "MR",
        "cca3": "MRT",
        "code_hasc": "MR.HC",
        "extra": {
            "abbrev": "",
            "adm0_a3": "MRT",
            "adm0_label": "2",
            "adm0_sr": "1",
            "adm1_code": "MRT-2796",
            "admin": "Mauritania",
            "area_sqkm": "0",
            "check_me": "0",
            "code_local": "",
            "data_sources": [
                "natural"
            ],
            "datarank": "7",
            "diss_me": "2796",
            "featurecla": "Admin-1 scale rank",
            "fips": "MR01",
            "fips_alt": "",
            "gadm_level": "1",
            "geonunit": "Mauritania",
            "gn_a1_code": "MR.01",
            "gn_id": "2379025",
            "gn_level": "1",
            "gn_name": "Hodh ech Chargui",
            "gn_region": "",
            "gns_adm1": "MR01",
            "gns_id": "-1401319",
            "gns_lang": "fra",
            "gns_level": "1",
            "gns_name": "Hodh ech Chargui, Wilaya du",
            "gns_region": "",
            "gu_a3": "MRT",
            "hasc_maybe": "",
            "labelrank": "4",
            "mapcolor9": "2",
            "mapcolor13": "1",
            "max_label": "11.0",
            "min_label": "6.6",
            "min_zoom": "6.6",
            "name_ar": "\u00d9\u0088\u00d9\u0084\u00d8\u00a7\u00d9\u008a\u00d8\u00a9 \u00d8\u00a7\u00d9\u0084\u00d8\u00ad\u00d9\u0088\u00d8\u00b6 \u00d8\u00a7\u00d9\u0084\u00d8\u00b4\u00d8\u00b1\u00d9\u0082\u00d9\u008a",
            "name_bn": "\u00e0\u00a6\u00b9\u00e0\u00a7\u008b\u00e0\u00a6\u00a7 \u00e0\u00a6\u008f\u00e0\u00a6\u0095 \u00e0\u00a6\u009a\u00e0\u00a6\u00be\u00e0\u00a6\u00b0\u00e0\u00a6\u0097\u00e0\u00a7\u0081\u00e0\u00a6\u0087 \u00e0\u00a6\u0085\u00e0\u00a6\u009e\u00e0\u00a7\u008d\u00e0\u00a6\u009a\u00e0\u00a6\u00b2",
            "name_de": "Hodh Ech Chargui",
            "name_el": "\u00ce\u00a7\u00ce\u00bf\u00ce\u00bd\u00cf\u0084\u00cf\u0087 \u00ce\u0095\u00ce\u00ba \u00ce\u00a4\u00cf\u0083\u00ce\u00ac\u00cf\u0081\u00ce\u00b3\u00ce\u00ba\u00ce\u00bf\u00cf\u0085\u00ce\u00b9",
            "name_en": "Hodh Ech Chargui Region",
            "name_es": "Hod Oriental",
            "name_fr": "Hodh Ech Chargui",
            "name_hi": "\u00e0\u00a4\u00b9\u00e0\u00a5\u008b\u00e0\u00a4\u00a1 \u00e0\u00a4\u008f\u00e0\u00a4\u009a \u00e0\u00a4\u009a\u00e0\u00a4\u00be\u00e0\u00a4\u00b0\u00e0\u00a5\u008d\u00e0\u00a4\u0097\u00e0\u00a5\u0081\u00e0\u00a4\u0088 \u00e0\u00a4\u00aa\u00e0\u00a5\u008d\u00e0\u00a4\u00b0\u00e0\u00a4\u00a6\u00e0\u00a5\u0087\u00e0\u00a4\u00b6",
            "name_hu": "",
            "name_id": "Hodh Ech Chargui",
            "name_it": "regione di Hodh-Charghi",
            "name_ja": "\u00e3\u0083\u009b\u00e3\u0082\u00ba\u00e3\u0083\u00bb\u00e3\u0082\u00a8\u00e3\u0083\u0083\u00e3\u0083\u00bb\u00e3\u0082\u00b7\u00e3\u0083\u00a3\u00e3\u0083\u00ab\u00e3\u0082\u00ae\u00e5\u00b7\u009e",
            "name_ko": "\u00ed\u0098\u00b8\u00eb\u0093\u009c\u00ec\u0097\u0090\u00ec\u008a\u0088\u00ec\u0083\u00a4\u00eb\u00a5\u00b4\u00ea\u00b8\u00b0 \u00ec\u00a3\u00bc",
            "name_len": "16",
            "name_local": "",
            "name_nl": "Hodh Ech Chargui",
            "name_pl": "Haud asz-Szarki",
            "name_pt": "Hodh ech Chargui",
            "name_ru": "\u00d0\u00a5\u00d0\u00be\u00d0\u00b4-\u00d1\u008d\u00d1\u0088-\u00d0\u00a8\u00d0\u00b0\u00d1\u0080\u00d0\u00ba\u00d0\u00b8",
            "name_sv": "Hodh Ech Chargui",
            "name_tr": "Hodh Ech Chargui B\u00c3\u00b6lgesi",
            "name_vi": "Khu v\u00e1\u00bb\u00b1c Hodh Ech Chargui",
            "name_zh": "\u00e6\u009d\u00b1\u00e8\u0083\u00a1\u00e5\u00be\u00b7\u00e7\u009c\u0081",
            "ne_id": "1159314033",
            "note": "",
            "provnum_ne": "20005",
            "record_type": "state",
            "region": "",
            "region_cod": "",
            "region_sub": "",
            "sameascity": "-99",
            "scalerank": "4",
            "sov_a3": "MRT",
            "sub_code": "",
            "wikidataid": "Q12621",
            "wikipedia": "",
            "woe_id": "2346241",
            "woe_label": "Hodh Ech Chargui, MR, Mauritania",
            "woe_name": "Hodh ech Chargui"
        },
        "geo": {
            "latitude": 18.6737026,
            "longitude": -7.092877,
            "max_latitude": 23.0624689,
            "max_longitude": -5.3271151,
            "min_latitude": 15.4940749,
            "min_longitude": -9.1601299
        },
        "iso_3166_2": "MR-01",
        "iso_a2": "MR",
        "iso_a3": "MRT",
        "name": "Hodh ech Chargui",
        "postal": "01",
        "type": "Wilayat|R\u00c3\u00a9gion",
        "type_en": "Region"
    },
    "02": {
        "alt_names": [
            "Hud-al-Garbi",
            "Hu\u0111-al-\u0120arbi",
            "Hodh el Gharbi"
        ],
        "cca2": "MR",
        "cca3": "MRT",
        "code_hasc": "MR.HG",
        "extra": {
            "abbrev": "",
            "adm0_a3": "MRT",
            "adm0_label": "2",
            "adm0_sr": "1",
            "adm1_code": "MRT-2797",
            "admin": "Mauritania",
            "area_sqkm": "0",
            "check_me": "0",
            "code_local": "",
            "data_sources": [
                "natural"
            ],
            "datarank": "7",
            "diss_me": "2797",
            "featurecla": "Admin-1 scale rank",
            "fips": "MR02",
            "fips_alt": "",
            "gadm_level": "1",
            "geonunit": "Mauritania",
            "gn_a1_code": "MR.02",
            "gn_id": "2379024",
            "gn_level": "1",
            "gn_name": "Hodh el Gharbi",
            "gn_region": "",
            "gns_adm1": "MR02",
            "gns_id": "-1401320",
            "gns_lang": "fra",
            "gns_level": "1",
            "gns_name": "Hodh el Gharbi, Wilaya du",
            "gns_region": "",
            "gu_a3": "MRT",
            "hasc_maybe": "",
            "labelrank": "4",
            "mapcolor9": "2",
            "mapcolor13": "1",
            "max_label": "11.0",
            "min_label": "6.6",
            "min_zoom": "6.6",
            "name_ar": "\u00d9\u0088\u00d9\u0084\u00d8\u00a7\u00d9\u008a\u00d8\u00a9 \u00d8\u00a7\u00d9\u0084\u00d8\u00ad\u00d9\u0088\u00d8\u00b6 \u00d8\u00a7\u00d9\u0084\u00d8\u00ba\u00d8\u00b1\u00d8\u00a8\u00d9\u008a",
            "name_bn": "\u00e0\u00a6\u00b9\u00e0\u00a7\u008b\u00e0\u00a6\u00a6 \u00e0\u00a6\u008f\u00e0\u00a6\u00b2 \u00e0\u00a6\u0097\u00e0\u00a6\u00be\u00e0\u00a6\u00ac\u00e0\u00a7\u008d\u00e0\u00a6\u00b0\u00e0\u00a6\u00bf \u00e0\u00a6\u0085\u00e0\u00a6\u009e\u00e0\u00a7\u008d\u00e0\u00a6\u009a\u00e0\u00a6\u00b2",
            "name_de": "Hodh El Gharbi",
            "name_el": "\u00ce\u00a7\u00ce\u00bf\u00ce\u00bd\u00cf\u0084 \u00ce\u0095\u00ce\u00bb \u00ce\u0093\u00ce\u00ba\u00ce\u00ac\u00cf\u0081\u00ce\u00bc\u00cf\u0080\u00ce\u00b9",
            "name_en": "Hodh El Gharbi Region",
            "name_es": "Hod Occidental",
            "name_fr": "Hodh El Gharbi",
            "name_hi": "\u00e0\u00a4\u00b9\u00e0\u00a5\u008b\u00e0\u00a4\u00a6 \u00e0\u00a4\u008f\u00e0\u00a4\u00b2 \u00e0\u00a4\u0098\u00e0\u00a4\u00b0\u00e0\u00a5\u008d\u00e0\u00a4\u00ac\u00e0\u00a5\u0080 \u00e0\u00a4\u0095\u00e0\u00a5\u008d\u00e0\u00a4\u00b7\u00e0\u00a5\u0087\u00e0\u00a4\u00a4\u00e0\u00a5\u008d\u00e0\u00a4\u00b0",
            "name_hu": "",
            "name_id": "Hodh El Gharbi",
            "name_it": "regione di Hodh-Gharbi",
            "name_ja": "\u00e3\u0083\u009b\u00e3\u0082\u00ba\u00e3\u0083\u00bb\u00e3\u0082\u00a8\u00e3\u0083\u00ab\u00e3\u0083\u00bb\u00e3\u0082\u00ac\u00e3\u0083\u00ab\u00e3\u0083\u0093\u00e5\u00b7\u009e",
            "name_ko": "\u00ed\u0098\u00b8\u00eb\u0093\u009c\u00ec\u0097\u0098\u00ea\u00b0\u0080\u00eb\u00a5\u00b4\u00eb\u00b9\u0084 \u00ec\u00a3\u00bc",
            "name_len": "14",
            "name_local": "",
            "name_nl": "Hodh El Gharbi",
            "name_pl": "Haud al-Gharbi",
            "name_pt": "Hodh el Gharbi",
            "name_ru": "\u00d0\u00a5\u00d0\u00be\u00d0\u00b4-\u00d1\u008d\u00d0\u00bb\u00d1\u008c-\u00d0\u0093\u00d0\u00b0\u00d1\u0080\u00d0\u00b1\u00d0\u00b8",
            "name_sv": "Hodh El Gharbi",
            "name_tr": "Hodh El Garbi",
            "name_vi": "Khu v\u00e1\u00bb\u00b1c Hodh El Gharbi",
            "name_zh": "\u00e8\u00a5\u00bf\u00e8\u0083\u00a1\u00e5\u00be\u00b7\u00e7\u009c\u0081",
            "ne_id": "1159314035",
            "note": "",
            "provnum_ne": "20007",
            "record_type": "state",
            "region": "",
            "region_cod": "",
            "region_sub": "",
            "sameascity": "-99",
            "scalerank": "4",
            "sov_a3": "MRT",
            "sub_code": "",
            "wikidataid": "Q850435",
            "wikipedia": "",
            "woe_id": "2346242",
            "woe_label": "Hodh El Gharbi, MR, Mauritania",
            "woe_name": "Hodh el Gharbi"
        },
        "geo": {
            "latitude": 16.6912149,
            "longitude": -9.5450974,
            "max_latitude": 17.681594,
            "max_longitude": -8.2803349,
            "min_latitude": 15.3565569,
            "min_longitude": -11.087025
        },
        "iso_3166_2": "MR-02",
        "iso_a2": "MR",
        "iso_a3": "MRT",
        "name": "Hodh el Gharbi",
        "postal": "02",
        "type": "Wilayat|R\u00c3\u00a9gion",
        "type_en": "Region"
    },
    "03": {
        "alt_names": [
            "a\u015f-\u015eabah",
            "A\u00e7aba"
        ],
        "cca2": "MR",
        "cca3": "MRT",
        "code_hasc": "MR.AS",
        "extra": {
            "abbrev": "",
            "adm0_a3": "MRT",
            "adm0_label": "2",
            "adm0_sr": "1",
            "adm1_code": "MRT-2789",
            "admin": "Mauritania",
            "area_sqkm": "0",
            "check_me": "0",
            "code_local": "",
            "data_sources": [
                "natural"
            ],
            "datarank": "7",
            "diss_me": "2789",
            "featurecla": "Admin-1 scale rank",
            "fips": "MR03",
            "fips_alt": "",
            "gadm_level": "1",
            "geonunit": "Mauritania",
            "gn_a1_code": "MR.03",
            "gn_id": "2381344",
            "gn_level": "1",
            "gn_name": "Assaba",
            "gn_region": "",
            "gns_adm1": "MR03",
            "gns_id": "-1398990",
            "gns_lang": "fra",
            "gns_level": "1",
            "gns_name": "Assaba, Wilaya de l'",
            "gns_region": "",
            "gu_a3": "MRT",
            "hasc_maybe": "",
            "labelrank": "4",
            "mapcolor9": "2",
            "mapcolor13": "1",
            "max_label": "11.0",
            "min_label": "6.6",
            "min_zoom": "6.6",
            "name_ar": "\u00d9\u0088\u00d9\u0084\u00d8\u00a7\u00d9\u008a\u00d8\u00a9 \u00d8\u00a7\u00d9\u0084\u00d8\u00b9\u00d8\u00b5\u00d8\u00a7\u00d8\u00a8\u00d8\u00a9",
            "name_bn": "\u00e0\u00a6\u0086\u00e0\u00a6\u00b8\u00e0\u00a6\u00be\u00e0\u00a6\u00ac\u00e0\u00a6\u00be \u00e0\u00a6\u0085\u00e0\u00a6\u009e\u00e0\u00a7\u008d\u00e0\u00a6\u009a\u00e0\u00a6\u00b2",
            "name_de": "Assaba",
            "name_el": "\u00ce\u0091\u00cf\u0083\u00cf\u0083\u00ce\u00ac\u00ce\u00bc\u00cf\u0080\u00ce\u00b1",
            "name_en": "Assaba Region",
            "name_es": "Assaba",
            "name_fr": "Assaba",
            "name_hi": "\u00e0\u00a4\u0086\u00e0\u00a4\u00b8\u00e0\u00a4\u00be\u00e0\u00a4\u00ac\u00e0\u00a4\u00be \u00e0\u00a4\u0095\u00e0\u00a5\u008d\u00e0\u00a4\u00b7\u00e0\u00a5\u0087\u00e0\u00a4\u00a4\u00e0\u00a5\u008d\u00e0\u00a4\u00b0",
            "name_hu": "",
            "name_id": "Assaba",
            "name_it": "regione di Assaba",
            "name_ja": "\u00e3\u0082\u00a2\u00e3\u0082\u00b5\u00e3\u0083\u0090\u00e5\u00b7\u009e",
            "name_ko": "\u00ec\u0095\u0084\u00ec\u0082\u00ac\u00eb\u00b0\u0094 \u00ec\u00a3\u00bc",
            "name_len": "6",
            "name_local": "",
            "name_nl": "Assaba",
            "name_pl": "Al-Asaba",
            "name_pt": "Assaba",
            "name_ru": "\u00d0\u0090\u00d1\u0081\u00d1\u0081\u00d0\u00b0\u00d0\u00b1\u00d0\u00b0",
            "name_sv": "Assaba",
            "name_tr": "Assaba B\u00c3\u00b6lgesi",
            "name_vi": "Khu v\u00e1\u00bb\u00b1c Assaba",
            "name_zh": "\u00e9\u0098\u00bf\u00e8\u0096\u00a9\u00e5\u00b7\u00b4\u00e7\u009c\u0081",
            "ne_id": "1159314025",
            "note": "",
            "provnum_ne": "20006",
            "record_type": "state",
            "region": "",
            "region_cod": "",
            "region_sub": "",
            "sameascity": "-99",
            "scalerank": "4",
            "sov_a3": "MRT",
            "sub_code": "",
            "wikidataid": "Q738546",
            "wikipedia": "",
            "woe_id": "2346243",
            "woe_label": "Assaba, MR, Mauritania",
            "woe_name": "Assaba"
        },
        "geo": {
            "latitude": 16.7759558,
            "longitude": -11.5248055,
            "max_latitude": 18.297223,
            "max_longitude": -10.596743,
            "min_latitude": 15.1036179,
            "min_longitude": -12.878715
        },
        "iso_3166_2": "MR-03",
        "iso_a2": "MR",
        "iso_a3": "MRT",
        "name": "Assaba",
        "postal": "03",
        "type": "Wilayat|R\u00c3\u00a9gion",
        "type_en": "Region"
    },
    "04": {
        "alt_names": [
            "Gorgol"
        ],
        "cca2": "MR",
        "cca3": "MRT",
        "code_hasc": "MR.GO",
        "extra": {
            "abbrev": "",
            "adm0_a3": "MRT",
            "adm0_label": "2",
            "adm0_sr": "1",
            "adm1_code": "MRT-2791",
            "admin": "Mauritania",
            "area_sqkm": "0",
            "check_me": "0",
            "code_local": "",
            "data_sources": [
                "natural"
            ],
            "datarank": "7",
            "diss_me": "2791",
            "featurecla": "Admin-1 scale rank",
            "fips": "MR04",
            "fips_alt": "",
            "gadm_level": "1",
            "geonunit": "Mauritania",
            "gn_a1_code": "MR.04",
            "gn_id": "2379384",
            "gn_level": "1",
            "gn_name": "Gorgol",
            "gn_region": "",
            "gns_adm1": "MR04",
            "gns_id": "-1400959",
            "gns_lang": "fra",
            "gns_level": "1",
            "gns_name": "Gorgol, Wilaya du",
            "gns_region": "",
            "gu_a3": "MRT",
            "hasc_maybe": "",
            "labelrank": "4",
            "mapcolor9": "2",
            "mapcolor13": "1",
            "max_label": "11.0",
            "min_label": "6.6",
            "min_zoom": "6.6",
            "name_ar": "\u00d9\u0088\u00d9\u0084\u00d8\u00a7\u00d9\u008a\u00d8\u00a9 \u00d9\u0083\u00d9\u0088\u00d8\u00b1\u00d9\u0083\u00d9\u0088\u00d9\u0084",
            "name_bn": "\u00e0\u00a6\u0097\u00e0\u00a7\u008b\u00e0\u00a6\u00b0\u00e0\u00a6\u0097\u00e0\u00a6\u00b2 \u00e0\u00a6\u0085\u00e0\u00a6\u009e\u00e0\u00a7\u008d\u00e0\u00a6\u009a\u00e0\u00a6\u00b2",
            "name_de": "Gorgol",
            "name_el": "\u00ce\u0093\u00ce\u00ba\u00ce\u00bf\u00cf\u0081\u00ce\u00b3\u00ce\u00ba\u00cf\u008c\u00ce\u00bb",
            "name_en": "Gorgol Region",
            "name_es": "Gorgol",
            "name_fr": "Gorgol",
            "name_hi": "\u00e0\u00a4\u0097\u00e0\u00a5\u008b\u00e0\u00a4\u00b0\u00e0\u00a5\u008d\u00e0\u00a4\u0097\u00e0\u00a5\u008b\u00e0\u00a4\u00b2 \u00e0\u00a4\u00aa\u00e0\u00a5\u008d\u00e0\u00a4\u00b0\u00e0\u00a4\u00a6\u00e0\u00a5\u0087\u00e0\u00a4\u00b6",
            "name_hu": "",
            "name_id": "Gorgol",
            "name_it": "regione di Gorgol",
            "name_ja": "\u00e3\u0082\u00b4\u00e3\u0083\u00ab\u00e3\u0082\u00b4\u00e3\u0083\u00ab\u00e5\u00b7\u009e",
            "name_ko": "\u00ea\u00b3\u00a0\u00eb\u00a5\u00b4\u00ea\u00b3\u00a8 \u00ec\u00a3\u00bc",
            "name_len": "6",
            "name_local": "",
            "name_nl": "Gorgol",
            "name_pl": "Kurkul",
            "name_pt": "Gorgol",
            "name_ru": "\u00d0\u0093\u00d0\u00be\u00d1\u0080\u00d0\u00b3\u00d0\u00be\u00d0\u00bb\u00d1\u008c",
            "name_sv": "Gorgol",
            "name_tr": "Gorgol Region",
            "name_vi": "Khu v\u00e1\u00bb\u00b1c Gorgol",
            "name_zh": "\u00e6\u0088\u0088\u00e7\u0088\u00be\u00e6\u0088\u0088\u00e5\u008b\u0092\u00e7\u009c\u0081",
            "ne_id": "1159314029",
            "note": "",
            "provnum_ne": "20003",
            "record_type": "state",
            "region": "",
            "region_cod": "",
            "region_sub": "",
            "sameascity": "-99",
            "scalerank": "4",
            "sov_a3": "MRT",
            "sub_code": "",
            "wikidataid": "Q859831",
            "wikipedia": "",
            "woe_id": "2346244",
            "woe_label": "Gorgol, MR, Mauritania",
            "woe_name": "Gorgol"
        },
        "geo": {
            "latitude": 15.9717357,
            "longitude": -12.6216211,
            "max_latitude": 16.666545,
            "max_longitude": -11.962182,
            "min_latitude": 15.129403,
            "min_longitude": -13.7075859
        },
        "iso_3166_2": "MR-04",
        "iso_a2": "MR",
        "iso_a3": "MRT",
        "name": "Gorgol",
        "postal": "04",
        "type": "Wilayat|R\u00c3\u00a9gion",
        "type_en": "Region"
    },
    "05": {
        "alt_names": [
            "Brakna"
        ],
        "cca2": "MR",
        "cca3": "MRT",
        "code_hasc": "MR.BR",
        "extra": {
            "abbrev": "",
            "adm0_a3": "MRT",
            "adm0_label": "2",
            "adm0_sr": "1",
            "adm1_code": "MRT-2784",
            "admin": "Mauritania",
            "area_sqkm": "0",
            "check_me": "0",
            "code_local": "",
            "data_sources": [
                "natural"
            ],
            "datarank": "7",
            "diss_me": "2784",
            "featurecla": "Admin-1 scale rank",
            "fips": "MR05",
            "fips_alt": "",
            "gadm_level": "1",
            "geonunit": "Mauritania",
            "gn_a1_code": "MR.05",
            "gn_id": "2380635",
            "gn_level": "1",
            "gn_name": "Brakna",
            "gn_region": "",
            "gns_adm1": "MR05",
            "gns_id": "-1399701",
            "gns_lang": "fra",
            "gns_level": "1",
            "gns_name": "Brakna, Wilaya du",
            "gns_region": "",
            "gu_a3": "MRT",
            "hasc_maybe": "",
            "labelrank": "4",
            "mapcolor9": "2",
            "mapcolor13": "1",
            "max_label": "11.0",
            "min_label": "6.6",
            "min_zoom": "6.6",
            "name_ar": "\u00d9\u0088\u00d9\u0084\u00d8\u00a7\u00d9\u008a\u00d8\u00a9 \u00d8\u00a7\u00d9\u0084\u00d8\u00a8\u00d8\u00b1\u00d8\u00a7\u00d9\u0083\u00d9\u0086\u00d8\u00a9",
            "name_bn": "\u00e0\u00a6\u00ac\u00e0\u00a7\u008d\u00e0\u00a6\u00b0\u00e0\u00a6\u00be\u00e0\u00a6\u0095\u00e0\u00a6\u00be\u00e0\u00a6\u00a8 \u00e0\u00a6\u0085\u00e0\u00a6\u009e\u00e0\u00a7\u008d\u00e0\u00a6\u009a\u00e0\u00a6\u00b2",
            "name_de": "Brakna",
            "name_el": "\u00ce\u009c\u00cf\u0080\u00cf\u0081\u00ce\u00ac\u00ce\u00ba\u00ce\u00bd\u00ce\u00b1",
            "name_en": "Brakna Region",
            "name_es": "Brakna",
            "name_fr": "Brakna",
            "name_hi": "\u00e0\u00a4\u00ac\u00e0\u00a5\u008d\u00e0\u00a4\u00b0\u00e0\u00a4\u0095\u00e0\u00a4\u00a8\u00e0\u00a4\u00be \u00e0\u00a4\u00aa\u00e0\u00a5\u008d\u00e0\u00a4\u00b0\u00e0\u00a4\u00a6\u00e0\u00a5\u0087\u00e0\u00a4\u00b6",
            "name_hu": "",
            "name_id": "Brakna",
            "name_it": "regione di Brakna",
            "name_ja": "\u00e3\u0083\u0096\u00e3\u0083\u00a9\u00e3\u0082\u00af\u00e3\u0083\u008a\u00e5\u00b7\u009e",
            "name_ko": "\u00eb\u00b8\u008c\u00eb\u009d\u00bc\u00ed\u0081\u00ac\u00eb\u0082\u0098 \u00ec\u00a3\u00bc",
            "name_len": "6",
            "name_local": "",
            "name_nl": "Brakna",
            "name_pl": "Al-Barakina",
            "name_pt": "Brakna",
            "name_ru": "\u00d0\u0091\u00d1\u0080\u00d0\u00b0\u00d0\u00ba\u00d0\u00bd\u00d0\u00b0",
            "name_sv": "Brakna",
            "name_tr": "Brakna B\u00c3\u00b6lgesi",
            "name_vi": "Khu v\u00e1\u00bb\u00b1c Brakna",
            "name_zh": "\u00e5\u008d\u009c\u00e6\u008b\u0089\u00e5\u0085\u008b\u00e7\u00b4\u008d\u00e7\u009c\u0081",
            "ne_id": "1159314015",
            "note": "",
            "provnum_ne": "20004",
            "record_type": "state",
            "region": "",
            "region_cod": "",
            "region_sub": "",
            "sameascity": "-99",
            "scalerank": "4",
            "sov_a3": "MRT",
            "sub_code": "",
            "wikidataid": "Q12632",
            "wikipedia": "",
            "woe_id": "2346245",
            "woe_label": "Brakna, MR, Mauritania",
            "woe_name": "Brakna"
        },
        "geo": {
            "latitude": 17.2317561,
            "longitude": -13.1740348,
            "max_latitude": 18.567634,
            "max_longitude": -12.3068541,
            "min_latitude": 16.1070999,
            "min_longitude": -14.874167
        },
        "iso_3166_2": "MR-05",
        "iso_a2": "MR",
        "iso_a3": "MRT",
        "name": "Brakna",
        "postal": "05",
        "type": "Wilayat|R\u00c3\u00a9gion",
        "type_en": "Region"
    },
    "06": {
        "alt_names": [
            "Trarza"
        ],
        "cca2": "MR",
        "cca3": "MRT",
        "code_hasc": "MR.TR",
        "extra": {
            "abbrev": "",
            "adm0_a3": "MRT",
            "adm0_label": "2",
            "adm0_sr": "1",
            "adm1_code": "MRT-2788",
            "admin": "Mauritania",
            "area_sqkm": "0",
            "check_me": "0",
            "code_local": "",
            "data_sources": [
                "natural"
            ],
            "datarank": "7",
            "diss_me": "2788",
            "featurecla": "Admin-1 scale rank",
            "fips": "MR06",
            "fips_alt": "",
            "gadm_level": "1",
            "geonunit": "Mauritania",
            "gn_a1_code": "MR.06",
            "gn_id": "2375742",
            "gn_level": "1",
            "gn_name": "Wilaya du Trarza",
            "gn_region": "",
            "gns_adm1": "MR06",
            "gns_id": "-1404614",
            "gns_lang": "fra",
            "gns_level": "1",
            "gns_name": "Trarza, Wilaya du",
            "gns_region": "",
            "gu_a3": "MRT",
            "hasc_maybe": "",
            "labelrank": "4",
            "mapcolor9": "2",
            "mapcolor13": "1",
            "max_label": "11.0",
            "min_label": "6.6",
            "min_zoom": "6.6",
            "name_ar": "\u00d9\u0088\u00d9\u0084\u00d8\u00a7\u00d9\u008a\u00d8\u00a9 \u00d8\u00a7\u00d9\u0084\u00d8\u00aa\u00d8\u00b1\u00d8\u00a7\u00d8\u00b1\u00d8\u00b2\u00d8\u00a9",
            "name_bn": "\u00e0\u00a6\u00a4\u00e0\u00a7\u008d\u00e0\u00a6\u00b0\u00e0\u00a6\u00be\u00e0\u00a6\u00b0\u00e0\u00a6\u009c\u00e0\u00a6\u00be \u00e0\u00a6\u0085\u00e0\u00a6\u009e\u00e0\u00a7\u008d\u00e0\u00a6\u009a\u00e0\u00a6\u00b2",
            "name_de": "Trarza",
            "name_el": "\u00ce\u00a4\u00cf\u0081\u00ce\u00ac\u00cf\u0081\u00ce\u00b6\u00ce\u00b1",
            "name_en": "Trarza Region",
            "name_es": "Trarza",
            "name_fr": "Trarza",
            "name_hi": "\u00e0\u00a4\u00a4\u00e0\u00a5\u008d\u00e0\u00a4\u00b0\u00e0\u00a4\u00be\u00e0\u00a4\u00b0\u00e0\u00a5\u008d\u00e0\u00a4\u009c\u00e0\u00a4\u00bc\u00e0\u00a4\u00be \u00e0\u00a4\u00aa\u00e0\u00a5\u008d\u00e0\u00a4\u00b0\u00e0\u00a4\u00a6\u00e0\u00a5\u0087\u00e0\u00a4\u00b6",
            "name_hu": "",
            "name_id": "Trarza",
            "name_it": "regione di Trarza",
            "name_ja": "\u00e3\u0083\u0088\u00e3\u0083\u00a9\u00e3\u0083\u00ab\u00e3\u0082\u00b6\u00e5\u00b7\u009e",
            "name_ko": "\u00ed\u008a\u00b8\u00eb\u009d\u00bc\u00eb\u00a5\u00b4\u00ec\u009e\u0090 \u00ec\u00a3\u00bc",
            "name_len": "6",
            "name_local": "",
            "name_nl": "Trarza",
            "name_pl": "At-Tarariza",
            "name_pt": "Trarza",
            "name_ru": "\u00d0\u00a2\u00d1\u0080\u00d0\u00b0\u00d1\u0080\u00d0\u00b7\u00d0\u00b0",
            "name_sv": "Trarza",
            "name_tr": "Trarza B\u00c3\u00b6lgesi",
            "name_vi": "Khu v\u00e1\u00bb\u00b1c Trarza",
            "name_zh": "\u00e7\u0089\u00b9\u00e6\u008b\u0089\u00e6\u0089\u008e\u00e7\u009c\u0081",
            "ne_id": "1159314023",
            "note": "",
            "provnum_ne": "20010",
            "record_type": "state",
            "region": "",
            "region_cod": "",
            "region_sub": "",
            "sameascity": "-99",
            "scalerank": "4",
            "sov_a3": "MRT",
            "sub_code": "",
            "wikidataid": "Q859581",
            "wikipedia": "",
            "woe_id": "2346246",
            "woe_label": "Trarza, MR, Mauritania",
            "woe_name": "Trarza"
        },
        "geo": {
            "latitude": 17.8664964,
            "longitude": -14.6587821,
            "max_latitude": 18.9968821,
            "max_longitude": -12.711503,
            "min_latitude": 16.062185,
            "min_longitude": -16.5152361
        },
        "iso_3166_2": "MR-06",
        "iso_a2": "MR",
        "iso_a3": "MRT",
        "name": "Trarza",
        "postal": "06",
        "type": "Wilayat|R\u00c3\u00a9gion",
        "type_en": "Region"
    },
    "07": {
        "alt_names": [
            "Adrar"
        ],
        "cca2": "MR",
        "cca3": "MRT",
        "code_hasc": "MR.AD",
        "extra": {
            "abbrev": "",
            "adm0_a3": "MRT",
            "adm0_label": "2",
            "adm0_sr": "1",
            "adm1_code": "MRT-2795",
            "admin": "Mauritania",
            "area_sqkm": "0",
            "check_me": "0",
            "code_local": "",
            "data_sources": [
                "natural"
            ],
            "datarank": "5",
            "diss_me": "2795",
            "featurecla": "Admin-1 scale rank",
            "fips": "MR07",
            "fips_alt": "",
            "gadm_level": "1",
            "geonunit": "Mauritania",
            "gn_a1_code": "MR.07",
            "gn_id": "2381972",
            "gn_level": "1",
            "gn_name": "Adrar",
            "gn_region": "",
            "gns_adm1": "MR07",
            "gns_id": "-1398358",
            "gns_lang": "fra",
            "gns_level": "1",
            "gns_name": "Adrar, Wilaya de l'",
            "gns_region": "",
            "gu_a3": "MRT",
            "hasc_maybe": "",
            "labelrank": "6",
            "mapcolor9": "2",
            "mapcolor13": "1",
            "max_label": "11.0",
            "min_label": "6.6",
            "min_zoom": "6.6",
            "name_ar": "\u00d9\u0088\u00d9\u0084\u00d8\u00a7\u00d9\u008a\u00d8\u00a9 \u00d8\u00a3\u00d8\u00af\u00d8\u00b1\u00d8\u00a7\u00d8\u00b1",
            "name_bn": "\u00e0\u00a6\u0086\u00e0\u00a6\u00a6\u00e0\u00a6\u00b0\u00e0\u00a6\u00be\u00e0\u00a6\u00b0 \u00e0\u00a6\u0085\u00e0\u00a6\u009e\u00e0\u00a7\u008d\u00e0\u00a6\u009a\u00e0\u00a6\u00b2",
            "name_de": "Adrar",
            "name_el": "\u00ce\u0091\u00ce\u00bd\u00cf\u0084\u00cf\u0081\u00ce\u00ac\u00cf\u0081",
            "name_en": "Adrar Region",
            "name_es": "Adrar",
            "name_fr": "Adrar",
            "name_hi": "\u00e0\u00a4\u0085\u00e0\u00a4\u00a6\u00e0\u00a4\u00b0\u00e0\u00a4\u00be\u00e0\u00a4\u00b0 \u00e0\u00a4\u00aa\u00e0\u00a5\u008d\u00e0\u00a4\u00b0\u00e0\u00a4\u00a6\u00e0\u00a5\u0087\u00e0\u00a4\u00b6",
            "name_hu": "",
            "name_id": "Adrar",
            "name_it": "Adrar",
            "name_ja": "\u00e3\u0082\u00a2\u00e3\u0083\u0089\u00e3\u0083\u00a9\u00e3\u0083\u00ab\u00e5\u00b7\u009e",
            "name_ko": "\u00ec\u0095\u0084\u00eb\u0093\u009c\u00eb\u009d\u00bc\u00eb\u00a5\u00b4 \u00ec\u00a3\u00bc",
            "name_len": "5",
            "name_local": "",
            "name_nl": "Adrar",
            "name_pl": "Adrar",
            "name_pt": "Adrar",
            "name_ru": "\u00d0\u0090\u00d0\u00b4\u00d1\u0080\u00d0\u00b0\u00d1\u0080",
            "name_sv": "Adrar",
            "name_tr": "Adrar B\u00c3\u00b6lgesi",
            "name_vi": "Khu v\u00e1\u00bb\u00b1c Adrar",
            "name_zh": "\u00e9\u0098\u00bf\u00e5\u00be\u00b7\u00e6\u008b\u0089\u00e7\u0088\u00be\u00e7\u009c\u0081",
            "ne_id": "1159314031",
            "note": "",
            "provnum_ne": "20011",
            "record_type": "state",
            "region": "",
            "region_cod": "",
            "region_sub": "",
            "sameascity": "6",
            "scalerank": "4",
            "sov_a3": "MRT",
            "sub_code": "",
            "wikidataid": "Q366626",
            "wikipedia": "",
            "woe_id": "2346247",
            "woe_label": "Adrar, MR, Mauritania",
            "woe_name": "Adrar"
        },
        "geo": {
            "latitude": 19.8652176,
            "longitude": -12.8054753,
            "max_latitude": 24.0316981,
            "max_longitude": -6.343229,
            "min_latitude": 18.567634,
            "min_longitude": -14.287234
        },
        "iso_3166_2": "MR-07",
        "iso_a2": "MR",
        "iso_a3": "MRT",
        "name": "Adrar",
        "postal": "07",
        "type": "Wilayat|R\u00c3\u00a9gion",
        "type_en": "Region"
    },
    "08": {
        "alt_names": [
            "Dakhlat Nawadibu",
            "\u0110ah\u0331lat Nawad\u012bbu",
            "Dakhlet Nouadhibou"
        ],
        "cca2": "MR",
        "cca3": "MRT",
        "code_hasc": "MR.DN",
        "extra": {
            "abbrev": "",
            "adm0_a3": "MRT",
            "adm0_label": "2",
            "adm0_sr": "5",
            "adm1_code": "MRT-2785",
            "admin": "Mauritania",
            "area_sqkm": "0",
            "check_me": "0",
            "code_local": "",
            "data_sources": [
                "natural"
            ],
            "datarank": "7",
            "diss_me": "2785",
            "featurecla": "Admin-1 scale rank",
            "fips": "MR08",
            "fips_alt": "",
            "gadm_level": "1",
            "geonunit": "Mauritania",
            "gn_a1_code": "MR.08",
            "gn_id": "2380426",
            "gn_level": "1",
            "gn_name": "Dakhlet Nouadhibou",
            "gn_region": "",
            "gns_adm1": "MR08",
            "gns_id": "-1399912",
            "gns_lang": "fra",
            "gns_level": "1",
            "gns_name": "Dakhlet Nouadhibou, Wilaya de",
            "gns_region": "",
            "gu_a3": "MRT",
            "hasc_maybe": "",
            "labelrank": "6",
            "mapcolor9": "2",
            "mapcolor13": "1",
            "max_label": "11.0",
            "min_label": "6.6",
            "min_zoom": "6.6",
            "name_ar": "\u00d8\u00af\u00d8\u00a7\u00d8\u00ae\u00d9\u0084\u00d8\u00a9 \u00d9\u0086\u00d9\u0088\u00d8\u00a7\u00d8\u00b0\u00d9\u008a\u00d8\u00a8\u00d9\u0088",
            "name_bn": "\u00e0\u00a6\u00a6\u00e0\u00a6\u00be\u00e0\u00a6\u0096\u00e0\u00a6\u00b2\u00e0\u00a7\u0087\u00e0\u00a6\u009f \u00e0\u00a6\u00a8\u00e0\u00a7\u008c\u00e0\u00a6\u00af\u00e0\u00a6\u00bc\u00e0\u00a6\u00be\u00e0\u00a6\u00a6\u00e0\u00a6\u00b9\u00e0\u00a6\u00bf\u00e0\u00a6\u00ac\u00e0\u00a7\u0081",
            "name_de": "Dakhlet Nouadhibou",
            "name_el": "\u00ce\u009d\u00cf\u0084\u00ce\u00b1\u00ce\u00ba\u00cf\u0087\u00ce\u00bb\u00ce\u00ad\u00cf\u0084",
            "name_en": "Dakhlet Nouadhibou",
            "name_es": "Dajlet Nuadib\u00c3\u00ba",
            "name_fr": "Dakhlet Nouadhibou",
            "name_hi": "\u00e0\u00a4\u00a6\u00e0\u00a4\u0096\u00e0\u00a5\u008d\u00e0\u00a4\u00b2\u00e0\u00a5\u0087\u00e0\u00a4\u009f \u00e0\u00a4\u00a8\u00e0\u00a5\u0081\u00e0\u00a4\u0086\u00e0\u00a4\u00a7\u00e0\u00a5\u0080\u00e0\u00a4\u00ac\u00e0\u00a5\u0082",
            "name_hu": "",
            "name_id": "Dakhlet Nouadhibou",
            "name_it": "regione di Dakhlet-Nouadhibou",
            "name_ja": "\u00e3\u0083\u0080\u00e3\u0083\u0095\u00e3\u0083\u00ac\u00e3\u0083\u0088\u00e3\u0083\u00bb\u00e3\u0083\u008c\u00e3\u0082\u00a2\u00e3\u0082\u00b8\u00e3\u0083\u0096\u00e5\u00b7\u009e",
            "name_ko": "\u00eb\u008b\u00a4\u00ed\u0081\u00b4\u00eb\u00a0\u0088\u00ed\u008a\u00b8\u00eb\u0088\u0084\u00ec\u0095\u0084\u00eb\u0094\u0094\u00eb\u00b6\u0080 \u00ec\u00a3\u00bc",
            "name_len": "18",
            "name_local": "",
            "name_nl": "Dakhlet Nouadhibou",
            "name_pl": "Dachlat Nawazibu",
            "name_pt": "Dakhlet Nouadhibou",
            "name_ru": "\u00d0\u0094\u00d0\u00b0\u00d1\u0085\u00d0\u00bb\u00d0\u00b5\u00d1\u0082-\u00d0\u009d\u00d1\u0083\u00d0\u00b0\u00d0\u00b4\u00d0\u00b8\u00d0\u00b1\u00d1\u0083",
            "name_sv": "Dakhlet Nouadhibou",
            "name_tr": "Dakhlet Nouadhi",
            "name_vi": "Dakhlet Nouadhibou",
            "name_zh": "\u00e5\u008a\u00aa\u00e7\u0093\u00a6\u00e8\u00bf\u00aa\u00e5\u00b8\u0083\u00e7\u0081\u00a3\u00e7\u009c\u0081",
            "ne_id": "1159313977",
            "note": "",
            "provnum_ne": "20001",
            "record_type": "state",
            "region": "",
            "region_cod": "",
            "region_sub": "",
            "sameascity": "6",
            "scalerank": "4",
            "sov_a3": "MRT",
            "sub_code": "",
            "wikidataid": "Q859573",
            "wikipedia": "",
            "woe_id": "2346248",
            "woe_label": "Dakhlet Nouadhibou, MR, Mauritania",
            "woe_name": "Dakhlet Nouadhibou"
        },
        "geo": {
            "latitude": 20.5985588,
            "longitude": -16.2522143,
            "max_latitude": 21.3397559,
            "max_longitude": -15.624716,
            "min_latitude": 19.275669,
            "min_longitude": -17.066521
        },
        "iso_3166_2": "MR-08",
        "iso_a2": "MR",
        "iso_a3": "MRT",
        "name": "Dakhlet Nou\u00e2dhibou",
        "postal": "08",
        "type": "Wilayat|R\u00c3\u00a9gion",
        "type_en": "Region"
    },
    "09": {
        "alt_names": [
            "Tagant"
        ],
        "cca2": "MR",
        "cca3": "MRT",
        "code_hasc": "MR.TG",
        "extra": {
            "abbrev": "",
            "adm0_a3": "MRT",
            "adm0_label": "2",
            "adm0_sr": "1",
            "adm1_code": "MRT-2798",
            "admin": "Mauritania",
            "area_sqkm": "0",
            "check_me": "0",
            "code_local": "",
            "data_sources": [
                "natural"
            ],
            "datarank": "7",
            "diss_me": "2798",
            "featurecla": "Admin-1 scale rank",
            "fips": "MR09",
            "fips_alt": "",
            "gadm_level": "1",
            "geonunit": "Mauritania",
            "gn_a1_code": "MR.09",
            "gn_id": "2376551",
            "gn_level": "1",
            "gn_name": "Tagant",
            "gn_region": "",
            "gns_adm1": "MR09",
            "gns_id": "-1403804",
            "gns_lang": "fra",
            "gns_level": "1",
            "gns_name": "Tagant, Wilaya du",
            "gns_region": "",
            "gu_a3": "MRT",
            "hasc_maybe": "",
            "labelrank": "4",
            "mapcolor9": "2",
            "mapcolor13": "1",
            "max_label": "11.0",
            "min_label": "6.6",
            "min_zoom": "6.6",
            "name_ar": "\u00d9\u0088\u00d9\u0084\u00d8\u00a7\u00d9\u008a\u00d8\u00a9 \u00d8\u00aa\u00d9\u0083\u00d8\u00a7\u00d9\u0086\u00d8\u00aa",
            "name_bn": "\u00e0\u00a6\u00a4\u00e0\u00a6\u00be\u00e0\u00a6\u0097\u00e0\u00a6\u00be\u00e0\u00a6\u00a8\u00e0\u00a7\u008d\u00e0\u00a6\u009f \u00e0\u00a6\u0085\u00e0\u00a6\u009e\u00e0\u00a7\u008d\u00e0\u00a6\u009a\u00e0\u00a6\u00b2",
            "name_de": "Tagant",
            "name_el": "\u00ce\u00a4\u00ce\u00b1\u00ce\u00b3\u00ce\u00ba\u00ce\u00ac\u00ce\u00bd\u00cf\u0084",
            "name_en": "Tagant Region",
            "name_es": "Tagant",
            "name_fr": "Tagant",
            "name_hi": "\u00e0\u00a4\u009f\u00e0\u00a5\u0088\u00e0\u00a4\u0097\u00e0\u00a5\u0088\u00e0\u00a4\u0082\u00e0\u00a4\u009f \u00e0\u00a4\u0095\u00e0\u00a5\u008d\u00e0\u00a4\u00b7\u00e0\u00a5\u0087\u00e0\u00a4\u00a4\u00e0\u00a5\u008d\u00e0\u00a4\u00b0",
            "name_hu": "",
            "name_id": "Tagant",
            "name_it": "regione di Tagant",
            "name_ja": "\u00e3\u0082\u00bf\u00e3\u0082\u00ac\u00e3\u0083\u00b3\u00e3\u0083\u0088\u00e5\u00b7\u009e",
            "name_ko": "\u00ed\u0083\u0080\u00ea\u00b0\u0084\u00ed\u008a\u00b8 \u00ec\u00a3\u00bc",
            "name_len": "6",
            "name_local": "",
            "name_nl": "Tagant",
            "name_pl": "Takant",
            "name_pt": "Tagant",
            "name_ru": "\u00d0\u00a2\u00d0\u00b0\u00d0\u00b3\u00d0\u00b0\u00d0\u00bd\u00d1\u0082",
            "name_sv": "Tagant",
            "name_tr": "Tagant B\u00c3\u00b6lgesi",
            "name_vi": "Khu v\u00e1\u00bb\u00b1c Tagant",
            "name_zh": "\u00e5\u00a1\u0094\u00e7\u0094\u0098\u00e7\u0089\u00b9\u00e7\u009c\u0081",
            "ne_id": "1159314037",
            "note": "",
            "provnum_ne": "20008",
            "record_type": "state",
            "region": "",
            "region_cod": "",
            "region_sub": "",
            "sameascity": "-99",
            "scalerank": "4",
            "sov_a3": "MRT",
            "sub_code": "",
            "wikidataid": "Q843903",
            "wikipedia": "",
            "woe_id": "2346249",
            "woe_label": "Tagant, MR, Mauritania",
            "woe_name": "Tagant"
        },
        "geo": {
            "latitude": 18.5467527,
            "longitude": -9.9018131,
            "max_latitude": 19.9094811,
            "max_longitude": -7.8348294,
            "min_latitude": 17.059023,
            "min_longitude": -12.711503
        },
        "iso_3166_2": "MR-09",
        "iso_a2": "MR",
        "iso_a3": "MRT",
        "name": "Tagant",
        "postal": "09",
        "type": "Wilayat|R\u00c3\u00a9gion",
        "type_en": "Region"
    },
    "10": {
        "alt_names": [
            "Guidimaka"
        ],
        "cca2": "MR",
        "cca3": "MRT",
        "code_hasc": "MR.GD",
        "extra": {
            "abbrev": "",
            "adm0_a3": "MRT",
            "adm0_label": "2",
            "adm0_sr": "1",
            "adm1_code": "MRT-2790",
            "admin": "Mauritania",
            "area_sqkm": "0",
            "check_me": "0",
            "code_local": "",
            "data_sources": [
                "natural"
            ],
            "datarank": "7",
            "diss_me": "2790",
            "featurecla": "Admin-1 scale rank",
            "fips": "MR10",
            "fips_alt": "",
            "gadm_level": "1",
            "geonunit": "Mauritania",
            "gn_a1_code": "MR.10",
            "gn_id": "2379216",
            "gn_level": "1",
            "gn_name": "Guidimaka",
            "gn_region": "",
            "gns_adm1": "MR10",
            "gns_id": "-1401127",
            "gns_lang": "fra",
            "gns_level": "1",
            "gns_name": "Guidimaka, Wilaya du",
            "gns_region": "",
            "gu_a3": "MRT",
            "hasc_maybe": "",
            "labelrank": "4",
            "mapcolor9": "2",
            "mapcolor13": "1",
            "max_label": "11.0",
            "min_label": "6.6",
            "min_zoom": "6.6",
            "name_ar": "\u00d9\u0088\u00d9\u0084\u00d8\u00a7\u00d9\u008a\u00d8\u00a9 \u00d8\u00ba\u00d9\u008a\u00d8\u00af\u00d9\u008a\u00d9\u0085\u00d8\u00a7\u00d8\u00ba\u00d8\u00a7",
            "name_bn": "\u00e0\u00a6\u0097\u00e0\u00a7\u008b\u00e0\u00a6\u0087\u00e0\u00a6\u00a1\u00e0\u00a6\u00bf\u00e0\u00a6\u00ae\u00e0\u00a6\u00be\u00e0\u00a6\u0095\u00e0\u00a6\u00be \u00e0\u00a6\u0085\u00e0\u00a6\u009e\u00e0\u00a7\u008d\u00e0\u00a6\u009a\u00e0\u00a6\u00b2",
            "name_de": "Guidimaka",
            "name_el": "\u00ce\u0093\u00ce\u00ba\u00ce\u00b9\u00ce\u00bd\u00cf\u0084\u00ce\u00b9\u00ce\u00bc\u00ce\u00ac\u00ce\u00b3\u00ce\u00ba\u00ce\u00b1",
            "name_en": "Guidimaka Region",
            "name_es": "Guidimaka",
            "name_fr": "Guidimakha",
            "name_hi": "\u00e0\u00a4\u0097\u00e0\u00a4\u00bf\u00e0\u00a4\u00a1\u00e0\u00a5\u0080\u00e0\u00a4\u00ae\u00e0\u00a4\u00be\u00e0\u00a4\u0095\u00e0\u00a4\u00be \u00e0\u00a4\u0095\u00e0\u00a5\u008d\u00e0\u00a4\u00b7\u00e0\u00a5\u0087\u00e0\u00a4\u00a4\u00e0\u00a5\u008d\u00e0\u00a4\u00b0",
            "name_hu": "",
            "name_id": "Guidimaka",
            "name_it": "regione di Guidimagha",
            "name_ja": "\u00e3\u0082\u00ae\u00e3\u0083\u0087\u00e3\u0082\u00a3\u00e3\u0083\u009e\u00e3\u0082\u00ab\u00e5\u00b7\u009e",
            "name_ko": "\u00ea\u00b8\u00b0\u00eb\u0094\u0094\u00eb\u00a7\u0088\u00ec\u00b9\u00b4 \u00ec\u00a3\u00bc",
            "name_len": "9",
            "name_local": "",
            "name_nl": "Guidimakha",
            "name_pl": "Ghidimagha",
            "name_pt": "Guidimaka",
            "name_ru": "\u00d0\u009a\u00d1\u0083\u00d0\u00b4\u00d0\u00b8\u00d0\u00bc\u00d0\u00b0\u00d0\u00b3\u00d0\u00b0",
            "name_sv": "Guidimaka",
            "name_tr": "Guidimaka B\u00c3\u00b6lgesi",
            "name_vi": "Khu v\u00e1\u00bb\u00b1c Guidimaka",
            "name_zh": "\u00e5\u0090\u0089\u00e8\u00bf\u00aa\u00e9\u00a6\u00ac\u00e5\u008d\u00a1\u00e7\u009c\u0081",
            "ne_id": "1159314027",
            "note": "",
            "provnum_ne": "20002",
            "record_type": "state",
            "region": "",
            "region_cod": "",
            "region_sub": "",
            "sameascity": "-99",
            "scalerank": "4",
            "sov_a3": "MRT",
            "sub_code": "",
            "wikidataid": "Q768119",
            "wikipedia": "",
            "woe_id": "2346250",
            "woe_label": "Guidimaka, MR, Mauritania",
            "woe_name": "Guidimaka"
        },
        "geo": {
            "latitude": 15.2557331,
            "longitude": -12.2547919,
            "max_latitude": 16.141872,
            "max_longitude": -11.596648,
            "min_latitude": 14.7155461,
            "min_longitude": -12.7553479
        },
        "iso_3166_2": "MR-10",
        "iso_a2": "MR",
        "iso_a3": "MRT",
        "name": "Guidimaka",
        "postal": "10",
        "type": "Wilayat|R\u00c3\u00a9gion",
        "type_en": "Region"
    },
    "11": {
        "alt_names": [
            "Tiris Zammur",
            "Tiris Zamm\u016br",
            "Tiris Zemmour"
        ],
        "cca2": "MR",
        "cca3": "MRT",
        "code_hasc": "MR.TZ",
        "extra": {
            "abbrev": "",
            "adm0_a3": "MRT",
            "adm0_label": "2",
            "adm0_sr": "1",
            "adm1_code": "MRT-2783",
            "admin": "Mauritania",
            "area_sqkm": "0",
            "check_me": "0",
            "code_local": "",
            "data_sources": [
                "natural"
            ],
            "datarank": "7",
            "diss_me": "2783",
            "featurecla": "Admin-1 scale rank",
            "fips": "MR11",
            "fips_alt": "",
            "gadm_level": "1",
            "geonunit": "Mauritania",
            "gn_a1_code": "MR.11",
            "gn_id": "2375989",
            "gn_level": "1",
            "gn_name": "Tiris Zemmour",
            "gn_region": "",
            "gns_adm1": "MR11",
            "gns_id": "-1404367",
            "gns_lang": "fra",
            "gns_level": "1",
            "gns_name": "Tiris Zemmour, Wilaya du",
            "gns_region": "",
            "gu_a3": "MRT",
            "hasc_maybe": "",
            "labelrank": "4",
            "mapcolor9": "2",
            "mapcolor13": "1",
            "max_label": "11.0",
            "min_label": "6.6",
            "min_zoom": "6.6",
            "name_ar": "\u00d9\u0088\u00d9\u0084\u00d8\u00a7\u00d9\u008a\u00d8\u00a9 \u00d8\u00aa\u00d9\u008a\u00d8\u00b1\u00d8\u00b3 \u00d8\u00b2\u00d9\u0085\u00d9\u0088\u00d8\u00b1",
            "name_bn": "\u00e0\u00a6\u00a4\u00e0\u00a6\u00be\u00e0\u00a6\u0087\u00e0\u00a6\u00b0\u00e0\u00a6\u00bf\u00e0\u00a6\u00b6 \u00e0\u00a6\u009c\u00e0\u00a7\u0087\u00e0\u00a6\u00ae\u00e0\u00a7\u008b\u00e0\u00a6\u00b0 \u00e0\u00a6\u0085\u00e0\u00a6\u009e\u00e0\u00a7\u008d\u00e0\u00a6\u009a\u00e0\u00a6\u00b2",
            "name_de": "Tiris Zemmour",
            "name_el": "\u00ce\u00a4\u00ce\u00af\u00cf\u0081\u00ce\u00b9\u00cf\u0082 \u00ce\u0096\u00ce\u00b5\u00ce\u00bc\u00ce\u00bf\u00cf\u008d\u00cf\u0081",
            "name_en": "Tiris Zemmour Region",
            "name_es": "Tiris Zemmur",
            "name_fr": "Tiris Zemmour",
            "name_hi": "\u00e0\u00a4\u00a4\u00e0\u00a4\u00bf\u00e0\u00a4\u00b0\u00e0\u00a5\u0080\u00e0\u00a4\u00b8 \u00e0\u00a4\u009c\u00e0\u00a4\u00bc\u00e0\u00a4\u00ae\u00e0\u00a5\u008c\u00e0\u00a4\u00b0 \u00e0\u00a4\u0095\u00e0\u00a5\u008d\u00e0\u00a4\u00b7\u00e0\u00a5\u0087\u00e0\u00a4\u00a4\u00e0\u00a5\u008d\u00e0\u00a4\u00b0",
            "name_hu": "",
            "name_id": "Tiris Zemmour",
            "name_it": "regione di Tiris-Zemmour",
            "name_ja": "\u00e3\u0083\u0086\u00e3\u0082\u00a3\u00e3\u0083\u00aa\u00e3\u0082\u00b9\u00e3\u0083\u00bb\u00e3\u0082\u00bc\u00e3\u0083\u00a0\u00e3\u0083\u00bc\u00e3\u0083\u00ab\u00e5\u00b7\u009e",
            "name_ko": "\u00ed\u008b\u00b0\u00eb\u00a6\u00ac\u00ec\u008a\u00a4\u00ec\u00a0\u00ac\u00eb\u00ac\u00b4\u00eb\u00a5\u00b4 \u00ec\u00a3\u00bc",
            "name_len": "13",
            "name_local": "",
            "name_nl": "Tiris Zemmour",
            "name_pl": "Tiris Zammur",
            "name_pt": "Tiris Zemmour",
            "name_ru": "\u00d0\u00a2\u00d0\u00b8\u00d1\u0080\u00d0\u00b8\u00d1\u0081-\u00d0\u0097\u00d0\u00b5\u00d0\u00bc\u00d0\u00bc\u00d1\u0083\u00d1\u0080",
            "name_sv": "Tiris Zemmour",
            "name_tr": "Tiris Zemmour B\u00c3\u00b6lgesi",
            "name_vi": "Khu v\u00e1\u00bb\u00b1c Tiris Zemmour",
            "name_zh": "\u00e6\u008f\u0090\u00e9\u0087\u008c\u00e6\u0096\u00af-\u00e5\u00ae\u00b0\u00e7\u00a9\u0086\u00e7\u0088\u00be\u00e7\u009c\u0081",
            "ne_id": "1159314013",
            "note": "",
            "provnum_ne": "20009",
            "record_type": "state",
            "region": "",
            "region_cod": "",
            "region_sub": "",
            "sameascity": "-99",
            "scalerank": "4",
            "sov_a3": "MRT",
            "sub_code": "",
            "wikidataid": "Q859567",
            "wikipedia": "",
            "woe_id": "2346251",
            "woe_label": "Tiris Zemmour, MR, Mauritania",
            "woe_name": "Tiris Zemmour"
        },
        "geo": {
            "latitude": 24.5773764,
            "longitude": -9.9018131,
            "max_latitude": 27.2980729,
            "max_longitude": -4.8276739,
            "min_latitude": 21.151442,
            "min_longitude": -13.1396484
        },
        "iso_3166_2": "MR-11",
        "iso_a2": "MR",
        "iso_a3": "MRT",
        "name": "Tiris Zemmour",
        "postal": "11",
        "type": "Wilayat|R\u00c3\u00a9gion",
        "type_en": "Region"
    },
    "12": {
        "alt_names": [
            "In\u0161iri",
            "Inchiri"
        ],
        "cca2": "MR",
        "cca3": "MRT",
        "code_hasc": "MR.IN",
        "extra": {
            "abbrev": "",
            "adm0_a3": "MRT",
            "adm0_label": "2",
            "adm0_sr": "1",
            "adm1_code": "MRT-2786",
            "admin": "Mauritania",
            "area_sqkm": "0",
            "check_me": "0",
            "code_local": "",
            "data_sources": [
                "natural"
            ],
            "datarank": "7",
            "diss_me": "2786",
            "featurecla": "Admin-1 scale rank",
            "fips": "MR12",
            "fips_alt": "",
            "gadm_level": "1",
            "geonunit": "Mauritania",
            "gn_a1_code": "MR.12",
            "gn_id": "2378903",
            "gn_level": "1",
            "gn_name": "Inchiri",
            "gn_region": "",
            "gns_adm1": "MR12",
            "gns_id": "-1401442",
            "gns_lang": "fra",
            "gns_level": "1",
            "gns_name": "Inchiri, Wilaya de l'",
            "gns_region": "",
            "gu_a3": "MRT",
            "hasc_maybe": "",
            "labelrank": "4",
            "mapcolor9": "2",
            "mapcolor13": "1",
            "max_label": "11.0",
            "min_label": "6.6",
            "min_zoom": "6.6",
            "name_ar": "\u00d9\u0088\u00d9\u0084\u00d8\u00a7\u00d9\u008a\u00d8\u00a9 \u00d8\u00a5\u00d9\u008a\u00d9\u0086\u00d8\u00b4\u00d9\u008a\u00d8\u00b1\u00d9\u008a",
            "name_bn": "\u00e0\u00a6\u0087\u00e0\u00a6\u00a8\u00e0\u00a6\u0095\u00e0\u00a6\u00bf\u00e0\u00a6\u00b0\u00e0\u00a6\u00bf \u00e0\u00a6\u0085\u00e0\u00a6\u009e\u00e0\u00a7\u008d\u00e0\u00a6\u009a\u00e0\u00a6\u00b2",
            "name_de": "Inchiri",
            "name_el": "\u00ce\u0099\u00ce\u00bd\u00cf\u0084\u00cf\u0083\u00ce\u00af\u00cf\u0081\u00ce\u00b9",
            "name_en": "Inchiri Region",
            "name_es": "Inchiri",
            "name_fr": "Inchiri",
            "name_hi": "\u00e0\u00a4\u0087\u00e0\u00a4\u00a8\u00e0\u00a5\u008d\u00e0\u00a4\u0095\u00e0\u00a5\u0080\u00e0\u00a4\u00b0\u00e0\u00a5\u0080 \u00e0\u00a4\u00aa\u00e0\u00a5\u008d\u00e0\u00a4\u00b0\u00e0\u00a4\u00a6\u00e0\u00a5\u0087\u00e0\u00a4\u00b6",
            "name_hu": "",
            "name_id": "Inchiri",
            "name_it": "regione di Inchiri",
            "name_ja": "\u00e3\u0082\u00a4\u00e3\u0083\u00b3\u00e3\u0082\u00b7\u00e3\u0083\u00aa\u00e5\u00b7\u009e",
            "name_ko": "\u00ec\u009d\u00b8\u00ec\u008b\u009c\u00eb\u00a6\u00ac \u00ec\u00a3\u00bc",
            "name_len": "7",
            "name_local": "",
            "name_nl": "Inchiri",
            "name_pl": "Insziri",
            "name_pt": "Inchiri",
            "name_ru": "\u00d0\u0098\u00d0\u00bd\u00d1\u0088\u00d0\u00b8\u00d1\u0080\u00d0\u00b8",
            "name_sv": "Inchiri",
            "name_tr": "Ichiri B\u00c3\u00b6lgesi",
            "name_vi": "Khu v\u00e1\u00bb\u00b1c Inchiri",
            "name_zh": "\u00e5\u009b\u00a0\u00e5\u00b8\u008c\u00e9\u0087\u008c\u00e7\u009c\u0081",
            "ne_id": "1159314017",
            "note": "",
            "provnum_ne": "20013",
            "record_type": "state",
            "region": "",
            "region_cod": "MRT-DND",
            "region_sub": "",
            "sameascity": "-99",
            "scalerank": "4",
            "sov_a3": "MRT",
            "sub_code": "MR08",
            "wikidataid": "Q850022",
            "wikipedia": "",
            "woe_id": "2346252",
            "woe_label": "Inchiri, MR, Mauritania",
            "woe_name": "Inchiri"
        },
        "geo": {
            "latitude": 20.0280561,
            "longitude": -15.4068079,
            "max_latitude": 21.3430535,
            "max_longitude": -14.1486749,
            "min_latitude": 18.9205761,
            "min_longitude": -16.472452
        },
        "iso_3166_2": "MR-12",
        "iso_a2": "MR",
        "iso_a3": "MRT",
        "name": "Inchiri",
        "postal": "12",
        "type": "Wilayat|R\u00c3\u00a9gion",
        "type_en": "Region"
    },
    "NKC": {
        "alt_names": [
            "Anw\u0101ks\u016b\u0163",
            "Nawakshut",
            "Naw\u0101k\u0161\u016b\u0163",
            "Nouakchott"
        ],
        "cca2": "MR",
        "cca3": "MRT",
        "code_hasc": "MR.NO",
        "extra": {
            "abbrev": "",
            "adm0_a3": "MRT",
            "adm0_label": "2",
            "adm0_sr": "1",
            "adm1_code": "MRT-2787",
            "admin": "Mauritania",
            "area_sqkm": "0",
            "check_me": "0",
            "code_local": "",
            "data_sources": [
                "natural"
            ],
            "datarank": "7",
            "diss_me": "2787",
            "featurecla": "Admin-1 scale rank",
            "fips": "MR06",
            "fips_alt": "",
            "gadm_level": "1",
            "geonunit": "Mauritania",
            "gn_a1_code": "MR.NKC",
            "gn_id": "2377449",
            "gn_level": "1",
            "gn_name": "District de Nouakchott",
            "gn_region": "",
            "gns_adm1": "MR13",
            "gns_id": "-1402902",
            "gns_lang": "fra",
            "gns_level": "1",
            "gns_name": "Nouakchott, Wilaya de",
            "gns_region": "",
            "gu_a3": "MRT",
            "hasc_maybe": "",
            "labelrank": "7",
            "mapcolor9": "2",
            "mapcolor13": "1",
            "max_label": "11.0",
            "min_label": "6.6",
            "min_zoom": "6.6",
            "name_ar": "\u00d9\u0086\u00d9\u0088\u00d8\u00a7\u00d9\u0083\u00d8\u00b4\u00d9\u0088\u00d8\u00b7",
            "name_bn": "\u00e0\u00a6\u00a8\u00e0\u00a7\u0081\u00e0\u00a6\u0093\u00e0\u00a6\u00af\u00e0\u00a6\u00bc\u00e0\u00a6\u00be\u00e0\u00a6\u0095\u00e0\u00a6\u00b6\u00e0\u00a7\u0081\u00e0\u00a6\u00a4",
            "name_de": "Nouakchott",
            "name_el": "\u00ce\u009d\u00ce\u00bf\u00cf\u0085\u00ce\u00b1\u00ce\u00ba\u00cf\u0083\u00cf\u008c\u00cf\u0084",
            "name_en": "Nouakchott",
            "name_es": "Nuakchot",
            "name_fr": "Nouakchott",
            "name_hi": "\u00e0\u00a4\u00a8\u00e0\u00a5\u0081\u00e0\u00a4\u0086\u00e0\u00a4\u0095\u00e0\u00a4\u00b6\u00e0\u00a5\u008b\u00e0\u00a4\u00a4",
            "name_hu": "Nouakchott",
            "name_id": "Nouakchott",
            "name_it": "Nouakchott",
            "name_ja": "\u00e3\u0083\u008c\u00e3\u0082\u00a2\u00e3\u0082\u00af\u00e3\u0082\u00b7\u00e3\u0083\u00a7\u00e3\u0083\u0083\u00e3\u0083\u0088",
            "name_ko": "\u00eb\u0088\u0084\u00ec\u0095\u0085\u00ec\u0087\u00bc\u00ed\u008a\u00b8",
            "name_len": "10",
            "name_local": "",
            "name_nl": "Nouakchott",
            "name_pl": "Nawakszut",
            "name_pt": "Nouakchott",
            "name_ru": "\u00d0\u009d\u00d1\u0083\u00d0\u00b0\u00d0\u00ba\u00d1\u0088\u00d0\u00be\u00d1\u0082",
            "name_sv": "Nouakchott",
            "name_tr": "Nuak\u00c5\u009fot",
            "name_vi": "Nouakchott",
            "name_zh": "\u00e5\u008a\u00aa\u00e7\u0093\u00a6\u00e5\u0085\u008b\u00e8\u0082\u0096\u00e7\u0089\u00b9",
            "ne_id": "1159314019",
            "note": "",
            "provnum_ne": "20012",
            "record_type": "state",
            "region": "",
            "region_cod": "MRT-TRR",
            "region_sub": "",
            "sameascity": "7",
            "scalerank": "4",
            "sov_a3": "MRT",
            "sub_code": "MR06",
            "wikidataid": "Q3688",
            "wikipedia": "",
            "woe_id": "24550716",
            "woe_label": "Nouakchott, MR, Mauritania",
            "woe_name": "Nouakchott"
        },
        "geo": {
            "latitude": 18.1,
            "longitude": -15.95,
            "max_latitude": 18.1614863,
            "max_longitude": -15.8803537,
            "min_latitude": 17.9728548,
            "min_longitude": -16.0267681
        },
        "iso_3166_2": "MR-NKC",
        "iso_a2": "MR",
        "iso_a3": "MRT",
        "name": "Nouakchott",
        "postal": "NKC",
        "type": "District",
        "type_en": "District"
    }
}