{
    "CA": {
        "alt_names": [
            "Zambezi"
        ],
        "cca2": "NA",
        "cca3": "NAM",
        "code_hasc": "NA.CA",
        "extra": {
            "abbrev": "",
            "adm0_a3": "NAM",
            "adm0_label": "2",
            "adm0_sr": "1",
            "adm1_code": "NAM-3356",
            "admin": "Namibia",
            "area_sqkm": "0",
            "check_me": "10",
            "code_local": "",
            "data_sources": [
                "natural"
            ],
            "datarank": "6",
            "diss_me": "3356",
            "featurecla": "Admin-1 scale rank",
            "fips": "WA28",
            "fips_alt": "WA28",
            "gadm_level": "1",
            "geonunit": "Namibia",
            "gn_a1_code": "NA.28",
            "gn_id": "1090052",
            "gn_level": "1",
            "gn_name": "Caprivi",
            "gn_region": "",
            "gns_adm1": "WA28",
            "gns_id": "311102",
            "gns_lang": "slv",
            "gns_level": "1",
            "gns_name": "Caprivi",
            "gns_region": "",
            "gu_a3": "NAM",
            "hasc_maybe": "",
            "labelrank": "4",
            "mapcolor9": "1",
            "mapcolor13": "7",
            "max_label": "11.0",
            "min_label": "6.0",
            "min_zoom": "6.0",
            "name_ar": "\u00d8\u00a7\u00d9\u0082\u00d9\u0084\u00d9\u008a\u00d9\u0085 \u00d8\u00b2\u00d8\u00a7\u00d9\u0085\u00d8\u00a8\u00d9\u008a\u00d8\u00b2\u00d9\u008a",
            "name_bn": "\u00e0\u00a6\u009c\u00e0\u00a6\u00be\u00e0\u00a6\u00ae\u00e0\u00a7\u008d\u00e0\u00a6\u00ac\u00e0\u00a7\u0087\u00e0\u00a6\u009c\u00e0\u00a6\u00bf \u00e0\u00a6\u0085\u00e0\u00a6\u009e\u00e0\u00a7\u008d\u00e0\u00a6\u009a\u00e0\u00a6\u00b2",
            "name_de": "Sambesi",
            "name_el": "\u00ce\u009a\u00ce\u00ac\u00cf\u0080\u00cf\u0081\u00ce\u00b9\u00ce\u00b2\u00ce\u00b9",
            "name_en": "Zambezi Region",
            "name_es": "Caprivi",
            "name_fr": "Zambezi",
            "name_hi": "\u00e0\u00a4\u0095\u00e0\u00a4\u00aa\u00e0\u00a5\u008d\u00e0\u00a4\u00b0\u00e0\u00a5\u0080\u00e0\u00a4\u00b5\u00e0\u00a5\u0080 \u00e0\u00a4\u00aa\u00e0\u00a5\u008d\u00e0\u00a4\u00b0\u00e0\u00a4\u00a6\u00e0\u00a5\u0087\u00e0\u00a4\u00b6",
            "name_hu": "",
            "name_id": "Wilayah Zambezi",
            "name_it": "regione dello Zambesi",
            "name_ja": "\u00e3\u0082\u00ab\u00e3\u0083\u0097\u00e3\u0083\u00aa\u00e3\u0083\u0093\u00e5\u00b7\u009e",
            "name_ko": "\u00ec\u00b9\u00b4\u00ed\u0094\u0084\u00eb\u00a6\u00ac\u00eb\u00b9\u0084 \u00ec\u00a3\u00bc",
            "name_len": "7",
            "name_local": "",
            "name_nl": "Caprivi",
            "name_pl": "Caprivi",
            "name_pt": "Caprivi",
            "name_ru": "\u00d0\u009a\u00d0\u00b0\u00d0\u00bf\u00d1\u0080\u00d0\u00b8\u00d0\u00b2\u00d0\u00b8",
            "name_sv": "Caprivi",
            "name_tr": "Caprivi",
            "name_vi": "Zambezi",
            "name_zh": "\u00e5\u008d\u00a1\u00e6\u0099\u00ae\u00e9\u0087\u008c\u00e7\u00bb\u00b4\u00e5\u008c\u00ba",
            "ne_id": "1159314967",
            "note": "Was reorganized from 26 districts into 13 regions.",
            "provnum_ne": "20009",
            "record_type": "state",
            "region": "",
            "region_cod": "NAM-COO",
            "region_sub": "",
            "sameascity": "-99",
            "scalerank": "4",
            "sov_a3": "NAM",
            "sub_code": "WA02",
            "wikidataid": "Q473190",
            "wikipedia": "",
            "woe_id": "20069834",
            "woe_label": "Caprivi, NA, Namibia",
            "woe_name": "Caprivi"
        },
        "geo": {
            "latitude": -17.8193419,
            "longitude": 23.9536466,
            "max_latitude": -17.476387,
            "max_longitude": 25.256701,
            "min_latitude": -18.5040471,
            "min_longitude": 22.5141629
        },
        "iso_3166_2": "NA-CA",
        "iso_a2": "NA",
        "iso_a3": "NAM",
        "name": "Zambezi",
        "postal": "CA",
        "type": "Region",
        "type_en": "Region"
    },
    "ER": {
        "alt_names": [
            "Erongo"
        ],
        "cca2": "NA",
        "cca3": "NAM",
        "code_hasc": "NA.ER",
        "extra": {
            "abbrev": "",
            "adm0_a3": "NAM",
            "adm0_label": "2",
            "adm0_sr": "1",
            "adm1_code": "NAM-3348",
            "admin": "Namibia",
            "area_sqkm": "0",
            "check_me": "10",
            "code_local": "",
            "data_sources": [
                "natural"
            ],
            "datarank": "6",
            "diss_me": "3348",
            "featurecla": "Admin-1 scale rank",
            "fips": "WA29",
            "fips_alt": "WA29",
            "gadm_level": "1",
            "geonunit": "Namibia",
            "gn_a1_code": "NA.29",
            "gn_id": "3371199",
            "gn_level": "1",
            "gn_name": "Erongo",
            "gn_region": "",
            "gns_adm1": "WA29",
            "gns_id": "311103",
            "gns_lang": "slv",
            "gns_level": "1",
            "gns_name": "Erongo",
            "gns_region": "",
            "gu_a3": "NAM",
            "hasc_maybe": "",
            "labelrank": "4",
            "mapcolor9": "1",
            "mapcolor13": "7",
            "max_label": "11.0",
            "min_label": "6.0",
            "min_zoom": "6.0",
            "name_ar": "\u00d8\u00a5\u00d9\u0082\u00d9\u0084\u00d9\u008a\u00d9\u0085 \u00d8\u00a5\u00d9\u008a\u00d8\u00b1\u00d9\u0088\u00d9\u0086\u00d8\u00ba\u00d9\u0088",
            "name_bn": "\u00e0\u00a6\u008f\u00e0\u00a6\u00b0\u00e0\u00a7\u008b\u00e0\u00a6\u0082\u00e0\u00a6\u0097\u00e0\u00a7\u0081 \u00e0\u00a6\u0085\u00e0\u00a6\u009e\u00e0\u00a7\u008d\u00e0\u00a6\u009a\u00e0\u00a6\u00b2",
            "name_de": "Erongo",
            "name_el": "\u00ce\u0095\u00cf\u0081\u00cf\u008c\u00ce\u00bd\u00ce\u00b3\u00ce\u00ba\u00ce\u00bf",
            "name_en": "Erongo Region",
            "name_es": "Erongo",
            "name_fr": "Erongo",
            "name_hi": "\u00e0\u00a4\u008f\u00e0\u00a4\u00b0\u00e0\u00a5\u008b\u00e0\u00a4\u0082\u00e0\u00a4\u0097\u00e0\u00a5\u008b \u00e0\u00a4\u00aa\u00e0\u00a5\u008d\u00e0\u00a4\u00b0\u00e0\u00a4\u00a6\u00e0\u00a5\u0087\u00e0\u00a4\u00b6",
            "name_hu": "",
            "name_id": "Wilayah Erongo",
            "name_it": "regione degli Erongo",
            "name_ja": "\u00e3\u0082\u00a8\u00e3\u0083\u00ad\u00e3\u0083\u00b3\u00e3\u0082\u00b4\u00e5\u00b7\u009e",
            "name_ko": "\u00ec\u0097\u0090\u00eb\u00a1\u00b1\u00ea\u00b3\u00a0 \u00ec\u00a3\u00bc",
            "name_len": "6",
            "name_local": "",
            "name_nl": "Erongo",
            "name_pl": "Erongo",
            "name_pt": "Erongo",
            "name_ru": "\u00d0\u00ad\u00d1\u0080\u00d0\u00be\u00d0\u00bd\u00d0\u00b3\u00d0\u00be",
            "name_sv": "Erongo",
            "name_tr": "Erongo",
            "name_vi": "Khu v\u00e1\u00bb\u00b1c Erongo",
            "name_zh": "\u00e5\u009f\u0083\u00e9\u00be\u008d\u00e6\u0088\u0088\u00e5\u008d\u0080",
            "ne_id": "1159314949",
            "note": "Was reorganized from 26 districts into 13 regions.",
            "provnum_ne": "20011",
            "record_type": "state",
            "region": "",
            "region_cod": "NAM-KRB",
            "region_sub": "",
            "sameascity": "-99",
            "scalerank": "4",
            "sov_a3": "NAM",
            "sub_code": "WA07",
            "wikidataid": "Q648753",
            "wikipedia": "",
            "woe_id": "20069837",
            "woe_label": "Erongo, NA, Namibia",
            "woe_name": "Erongo"
        },
        "geo": {
            "latitude": -22.2565682,
            "longitude": 15.4068079,
            "max_latitude": -20.489704,
            "max_longitude": 16.558625,
            "min_latitude": -23.811575,
            "min_longitude": 13.629421
        },
        "iso_3166_2": "NA-ER",
        "iso_a2": "NA",
        "iso_a3": "NAM",
        "name": "Erongo",
        "postal": "ER",
        "type": "Region",
        "type_en": "Region"
    },
    "HA": {
        "alt_names": [
            "Hardap"
        ],
        "cca2": "NA",
        "cca3": "NAM",
        "code_hasc": "NA.HA",
        "extra": {
            "abbrev": "",
            "adm0_a3": "NAM",
            "adm0_label": "2",
            "adm0_sr": "1",
            "adm1_code": "NAM-3339",
            "admin": "Namibia",
            "area_sqkm": "0",
            "check_me": "10",
            "code_local": "",
            "data_sources": [
                "natural"
            ],
            "datarank": "6",
            "diss_me": "3339",
            "featurecla": "Admin-1 scale rank",
            "fips": "WA30",
            "fips_alt": "WA30",
            "gadm_level": "1",
            "geonunit": "Namibia",
            "gn_a1_code": "NA.30",
            "gn_id": "3371200",
            "gn_level": "1",
            "gn_name": "Hardap",
            "gn_region": "",
            "gns_adm1": "WA30",
            "gns_id": "311104",
            "gns_lang": "slv",
            "gns_level": "1",
            "gns_name": "Hardap",
            "gns_region": "",
            "gu_a3": "NAM",
            "hasc_maybe": "",
            "labelrank": "4",
            "mapcolor9": "1",
            "mapcolor13": "7",
            "max_label": "11.0",
            "min_label": "6.0",
            "min_zoom": "6.0",
            "name_ar": "\u00d8\u00a5\u00d9\u0082\u00d9\u0084\u00d9\u008a\u00d9\u0085 \u00d9\u0087\u00d8\u00a7\u00d8\u00b1\u00d8\u00af\u00d8\u00a7\u00d8\u00a8",
            "name_bn": "\u00e0\u00a6\u00b9\u00e0\u00a6\u00be\u00e0\u00a6\u00b0\u00e0\u00a6\u00a1\u00e0\u00a6\u00be\u00e0\u00a6\u00aa \u00e0\u00a6\u0085\u00e0\u00a6\u009e\u00e0\u00a7\u008d\u00e0\u00a6\u009a\u00e0\u00a6\u00b2",
            "name_de": "Hardap",
            "name_el": "\u00ce\u00a7\u00ce\u00b1\u00cf\u0081\u00ce\u00bd\u00cf\u0084\u00ce\u00ac\u00cf\u0080",
            "name_en": "Hardap Region",
            "name_es": "Hardap",
            "name_fr": "Hardap",
            "name_hi": "\u00e0\u00a4\u00b9\u00e0\u00a4\u00be\u00e0\u00a4\u00b0\u00e0\u00a4\u00a1\u00e0\u00a4\u00be\u00e0\u00a4\u00aa \u00e0\u00a4\u00aa\u00e0\u00a5\u008d\u00e0\u00a4\u00b0\u00e0\u00a4\u00a6\u00e0\u00a5\u0087\u00e0\u00a4\u00b6",
            "name_hu": "",
            "name_id": "Wilayah Hardap",
            "name_it": "regione di Hardap",
            "name_ja": "\u00e3\u0083\u008f\u00e3\u0083\u00ab\u00e3\u0083\u0080\u00e3\u0083\u0097\u00e5\u00b7\u009e",
            "name_ko": "\u00ed\u0095\u0098\u00eb\u00a5\u00b4\u00eb\u008b\u00a4\u00ed\u0094\u0084 \u00ec\u00a3\u00bc",
            "name_len": "6",
            "name_local": "",
            "name_nl": "Hardap",
            "name_pl": "Hardap",
            "name_pt": "Hardap",
            "name_ru": "\u00d0\u00a5\u00d0\u00b0\u00d1\u0080\u00d0\u00b4\u00d0\u00b0\u00d0\u00bf",
            "name_sv": "Hardap",
            "name_tr": "Hardap",
            "name_vi": "Khu v\u00e1\u00bb\u00b1c Hardap",
            "name_zh": "\u00e5\u0093\u0088\u00e9\u0081\u0094\u00e6\u0099\u00ae\u00e5\u008d\u0080",
            "ne_id": "1159314943",
            "note": "Was reorganized from 26 districts into 13 regions.",
            "provnum_ne": "20006",
            "record_type": "state",
            "region": "",
            "region_cod": "NAM-MRN",
            "region_sub": "",
            "sameascity": "-99",
            "scalerank": "4",
            "sov_a3": "NAM",
            "sub_code": "WA26",
            "wikidataid": "Q752676",
            "wikipedia": "",
            "woe_id": "20069844",
            "woe_label": "Hardap, NA, Namibia",
            "woe_name": "Hardap"
        },
        "geo": {
            "latitude": -24.2310134,
            "longitude": 17.668887,
            "max_latitude": -23.165503,
            "max_longitude": 20.000244,
            "min_latitude": -25.870015,
            "min_longitude": 14.4522353
        },
        "iso_3166_2": "NA-HA",
        "iso_a2": "NA",
        "iso_a3": "NAM",
        "name": "Hardap",
        "postal": "HA",
        "type": "Region",
        "type_en": "Region"
    },
    "KA": {
        "alt_names": [
            "Karas"
        ],
        "cca2": "NA",
        "cca3": "NAM",
        "code_hasc": "NA.KA",
        "extra": {
            "abbrev": "",
            "adm0_a3": "NAM",
            "adm0_label": "2",
            "adm0_sr": "1",
            "adm1_code": "NAM-3338",
            "admin": "Namibia",
            "area_sqkm": "0",
            "check_me": "10",
            "code_local": "",
            "data_sources": [
                "natural"
            ],
            "datarank": "6",
            "diss_me": "3338",
            "featurecla": "Admin-1 scale rank",
            "fips": "WA31",
            "fips_alt": "WA31",
            "gadm_level": "1",
            "geonunit": "Namibia",
            "gn_a1_code": "NA.31",
            "gn_id": "3371201",
            "gn_level": "1",
            "gn_name": "Karas",
            "gn_region": "",
            "gns_adm1": "WA31",
            "gns_id": "311105",
            "gns_lang": "slv",
            "gns_level": "1",
            "gns_name": "Karas",
            "gns_region": "",
            "gu_a3": "NAM",
            "hasc_maybe": "",
            "labelrank": "4",
            "mapcolor9": "1",
            "mapcolor13": "7",
            "max_label": "11.0",
            "min_label": "6.0",
            "min_zoom": "6.0",
            "name_ar": "\u00d8\u00a5\u00d9\u0082\u00d9\u0084\u00d9\u008a\u00d9\u0085 \u00d9\u0083\u00d8\u00a7\u00d8\u00b1\u00d8\u00a7\u00d8\u00b3",
            "name_bn": "\u00e0\u00a6\u0095\u00e0\u00a6\u00be\u00e0\u00a6\u00b0\u00e0\u00a6\u00be\u00e0\u00a6\u00b8 \u00e0\u00a6\u0085\u00e0\u00a6\u009e\u00e0\u00a7\u008d\u00e0\u00a6\u009a\u00e0\u00a6\u00b2",
            "name_de": "\u00c7\u0080\u00c7\u0080Karas",
            "name_el": "\u00ce\u009a\u00ce\u00b1\u00cf\u0081\u00ce\u00ac\u00cf\u0082",
            "name_en": "Karas Region",
            "name_es": "Karas",
            "name_fr": "Karas",
            "name_hi": "\u00e0\u00a4\u0095\u00e0\u00a4\u00be\u00e0\u00a4\u00b0\u00e0\u00a4\u00be\u00e0\u00a4\u00b8 \u00e0\u00a4\u00aa\u00e0\u00a5\u008d\u00e0\u00a4\u00b0\u00e0\u00a4\u00a6\u00e0\u00a5\u0087\u00e0\u00a4\u00b6",
            "name_hu": "",
            "name_id": "Wilayah Karas",
            "name_it": "regione di Karas",
            "name_ja": "\u00e3\u0082\u00ab\u00e3\u0083\u00a9\u00e3\u0082\u00b9\u00e5\u00b7\u009e",
            "name_ko": "\u00ec\u00b9\u00b4\u00eb\u009d\u00bc\u00ec\u008a\u00a4 \u00ec\u00a3\u00bc",
            "name_len": "5",
            "name_local": "",
            "name_nl": "Karas",
            "name_pl": "Karas",
            "name_pt": "Karas",
            "name_ru": "\u00d0\u009a\u00d0\u00b0\u00d1\u0080\u00d0\u00b0\u00d1\u0081",
            "name_sv": "Karas",
            "name_tr": "Karas",
            "name_vi": "Khu v\u00e1\u00bb\u00b1c Karas",
            "name_zh": "\u00e5\u008d\u00a1\u00e6\u008b\u0089\u00e6\u0096\u00af\u00e5\u008d\u0080",
            "ne_id": "1159314941",
            "note": "Was reorganized from 26 districts into 13 regions.",
            "provnum_ne": "20005",
            "record_type": "state",
            "region": "",
            "region_cod": "NAM-KTM",
            "region_sub": "",
            "sameascity": "-99",
            "scalerank": "4",
            "sov_a3": "NAM",
            "sub_code": "WA08",
            "wikidataid": "Q573467",
            "wikipedia": "",
            "woe_id": "20069838",
            "woe_label": "Karas, NA, Namibia",
            "woe_name": "Karas"
        },
        "geo": {
            "latitude": -26.8429645,
            "longitude": 17.2902839,
            "max_latitude": -25.011831,
            "max_longitude": 20,
            "min_latitude": -28.9714299,
            "min_longitude": 14.8018954
        },
        "iso_3166_2": "NA-KA",
        "iso_a2": "NA",
        "iso_a3": "NAM",
        "name": "Karas",
        "postal": "KA",
        "type": "Region",
        "type_en": "Region"
    },
    "KH": {
        "alt_names": [
            "Khomas"
        ],
        "cca2": "NA",
        "cca3": "NAM",
        "code_hasc": "NA.KH",
        "extra": {
            "abbrev": "",
            "adm0_a3": "NAM",
            "adm0_label": "2",
            "adm0_sr": "1",
            "adm1_code": "NAM-3340",
            "admin": "Namibia",
            "area_sqkm": "0",
            "check_me": "10",
            "code_local": "",
            "data_sources": [
                "natural"
            ],
            "datarank": "6",
            "diss_me": "3340",
            "featurecla": "Admin-1 scale rank",
            "fips": "WA21",
            "fips_alt": "WA21",
            "gadm_level": "1",
            "geonunit": "Namibia",
            "gn_a1_code": "NA.21",
            "gn_id": "3352137",
            "gn_level": "1",
            "gn_name": "Khomas",
            "gn_region": "",
            "gns_adm1": "WA21",
            "gns_id": "-2587495",
            "gns_lang": "cym",
            "gns_level": "1",
            "gns_name": "Khomas",
            "gns_region": "",
            "gu_a3": "NAM",
            "hasc_maybe": "",
            "labelrank": "4",
            "mapcolor9": "1",
            "mapcolor13": "7",
            "max_label": "11.0",
            "min_label": "6.0",
            "min_zoom": "6.0",
            "name_ar": "\u00d8\u00a5\u00d9\u0082\u00d9\u0084\u00d9\u008a\u00d9\u0085 \u00d8\u00ae\u00d9\u0088\u00d9\u0085\u00d8\u00a7\u00d8\u00b3",
            "name_bn": "\u00e0\u00a6\u0096\u00e0\u00a7\u0081\u00e0\u00a6\u00ae\u00e0\u00a6\u00be\u00e0\u00a6\u00b8 \u00e0\u00a6\u0085\u00e0\u00a6\u009e\u00e0\u00a7\u008d\u00e0\u00a6\u009a\u00e0\u00a6\u00b2",
            "name_de": "Khomas",
            "name_el": "\u00ce\u009a\u00cf\u008c\u00ce\u00bc\u00ce\u00b1\u00cf\u0082",
            "name_en": "Khomas Region",
            "name_es": "Khomas",
            "name_fr": "Khomas",
            "name_hi": "\u00e0\u00a4\u0096\u00e0\u00a5\u008b\u00e0\u00a4\u00ae\u00e0\u00a4\u00be\u00e0\u00a4\u00b8 \u00e0\u00a4\u00aa\u00e0\u00a5\u008d\u00e0\u00a4\u00b0\u00e0\u00a4\u00a6\u00e0\u00a5\u0087\u00e0\u00a4\u00b6",
            "name_hu": "",
            "name_id": "Wilayah Khomas",
            "name_it": "regione di Khomas",
            "name_ja": "\u00e3\u0083\u009b\u00e3\u0083\u009e\u00e3\u0082\u00b9\u00e5\u00b7\u009e",
            "name_ko": "\u00ed\u0098\u00b8\u00eb\u00a7\u0088\u00ec\u008a\u00a4 \u00ec\u00a3\u00bc",
            "name_len": "6",
            "name_local": "",
            "name_nl": "Khomas",
            "name_pl": "Khomas",
            "name_pt": "Khomas",
            "name_ru": "\u00d0\u009a\u00d1\u0085\u00d0\u00be\u00d0\u00bc\u00d0\u00b0\u00d1\u0081",
            "name_sv": "Khomas",
            "name_tr": "Khomas",
            "name_vi": "Khomas",
            "name_zh": "\u00e9\u009c\u008d\u00e9\u00a6\u00ac\u00e6\u0096\u00af\u00e5\u008d\u0080",
            "ne_id": "1159314945",
            "note": "Was reorganized from 26 districts into 13 regions.",
            "provnum_ne": "20012",
            "record_type": "state",
            "region": "",
            "region_cod": "NAM-WND",
            "region_sub": "",
            "sameascity": "-99",
            "scalerank": "4",
            "sov_a3": "NAM",
            "sub_code": "WA21",
            "wikidataid": "Q834508",
            "wikipedia": "",
            "woe_id": "20069845",
            "woe_label": "Khomas, NA, Namibia",
            "woe_name": "Khomas"
        },
        "geo": {
            "latitude": -22.6377854,
            "longitude": 17.1011931,
            "max_latitude": -21.7083171,
            "max_longitude": 18.4967611,
            "min_latitude": -24.090521,
            "min_longitude": 15.723871
        },
        "iso_3166_2": "NA-KH",
        "iso_a2": "NA",
        "iso_a3": "NAM",
        "name": "Khomas",
        "postal": "KH",
        "type": "Region",
        "type_en": "Region"
    },
    "KU": {
        "alt_names": [
            "Kunene"
        ],
        "cca2": "NA",
        "cca3": "NAM",
        "code_hasc": "NA.KU",
        "extra": {
            "abbrev": "",
            "adm0_a3": "NAM",
            "adm0_label": "2",
            "adm0_sr": "1",
            "adm1_code": "NAM-3347",
            "admin": "Namibia",
            "area_sqkm": "0",
            "check_me": "10",
            "code_local": "",
            "data_sources": [
                "natural"
            ],
            "datarank": "6",
            "diss_me": "3347",
            "featurecla": "Admin-1 scale rank",
            "fips": "WA32",
            "fips_alt": "WA32",
            "gadm_level": "1",
            "geonunit": "Namibia",
            "gn_a1_code": "NA.32",
            "gn_id": "3371202",
            "gn_level": "1",
            "gn_name": "Kunene",
            "gn_region": "",
            "gns_adm1": "WA32",
            "gns_id": "311106",
            "gns_lang": "slv",
            "gns_level": "1",
            "gns_name": "Kunene",
            "gns_region": "",
            "gu_a3": "NAM",
            "hasc_maybe": "",
            "labelrank": "4",
            "mapcolor9": "1",
            "mapcolor13": "7",
            "max_label": "11.0",
            "min_label": "6.0",
            "min_zoom": "6.0",
            "name_ar": "\u00d8\u00a7\u00d9\u0082\u00d9\u0084\u00d9\u008a\u00d9\u0085 \u00d9\u0083\u00d9\u0088\u00d9\u0086\u00d9\u008a\u00d9\u0086\u00d9\u008a",
            "name_bn": "\u00e0\u00a6\u0095\u00e0\u00a7\u0081\u00e0\u00a6\u00a8\u00e0\u00a7\u0087\u00e0\u00a6\u00a8\u00e0\u00a7\u0087 \u00e0\u00a6\u0085\u00e0\u00a6\u009e\u00e0\u00a7\u008d\u00e0\u00a6\u009a\u00e0\u00a6\u00b2",
            "name_de": "Kunene",
            "name_el": "\u00ce\u009a\u00ce\u00bf\u00cf\u0085\u00ce\u00bd\u00ce\u00ad\u00ce\u00bd\u00ce\u00b5",
            "name_en": "Kunene Region",
            "name_es": "Kunene",
            "name_fr": "Kunene",
            "name_hi": "\u00e0\u00a4\u0095\u00e0\u00a5\u0081\u00e0\u00a4\u00a8\u00e0\u00a5\u0087\u00e0\u00a4\u00a8\u00e0\u00a5\u0087 \u00e0\u00a4\u00aa\u00e0\u00a5\u008d\u00e0\u00a4\u00b0\u00e0\u00a4\u00a6\u00e0\u00a5\u0087\u00e0\u00a4\u00b6",
            "name_hu": "",
            "name_id": "Wilayah Kunene",
            "name_it": "regione del Kunene",
            "name_ja": "\u00e3\u0082\u00af\u00e3\u0083\u008d\u00e3\u0083\u008d\u00e5\u00b7\u009e",
            "name_ko": "\u00ec\u00bf\u00a0\u00eb\u0084\u00a4\u00eb\u0084\u00a4 \u00ec\u00a3\u00bc",
            "name_len": "6",
            "name_local": "",
            "name_nl": "Kunene",
            "name_pl": "Kunene",
            "name_pt": "Kunene",
            "name_ru": "\u00d0\u009a\u00d1\u0083\u00d0\u00bd\u00d0\u00b5\u00d0\u00bd\u00d0\u00b5",
            "name_sv": "Kunene",
            "name_tr": "Kunene",
            "name_vi": "Khu v\u00e1\u00bb\u00b1c Kunene",
            "name_zh": "\u00e5\u00ba\u00ab\u00e5\u0085\u00a7\u00e5\u0085\u00a7\u00e5\u008d\u0080",
            "ne_id": "1159314947",
            "note": "Was reorganized from 26 districts into 13 regions.",
            "provnum_ne": "20001",
            "record_type": "state",
            "region": "",
            "region_cod": "NAM-DMR",
            "region_sub": "",
            "sameascity": "-99",
            "scalerank": "4",
            "sov_a3": "NAM",
            "sub_code": "WA22",
            "wikidataid": "Q834513",
            "wikipedia": "",
            "woe_id": "20069839",
            "woe_label": "Kunene, NA, Namibia",
            "woe_name": "Kunene"
        },
        "geo": {
            "latitude": -19.4086317,
            "longitude": 13.914399,
            "max_latitude": -16.959894,
            "max_longitude": 16.72092,
            "min_latitude": -21.1873635,
            "min_longitude": 11.7242468
        },
        "iso_3166_2": "NA-KU",
        "iso_a2": "NA",
        "iso_a3": "NAM",
        "name": "Kunene",
        "postal": "KU",
        "type": "Region",
        "type_en": "Region"
    },
    "OD": {
        "alt_names": [
            "Otjozondjupa"
        ],
        "cca2": "NA",
        "cca3": "NAM",
        "code_hasc": "NA.OD",
        "extra": {
            "abbrev": "",
            "adm0_a3": "NAM",
            "adm0_label": "2",
            "adm0_sr": "1",
            "adm1_code": "NAM-3349",
            "admin": "Namibia",
            "area_sqkm": "0",
            "check_me": "10",
            "code_local": "",
            "data_sources": [
                "natural"
            ],
            "datarank": "6",
            "diss_me": "3349",
            "featurecla": "Admin-1 scale rank",
            "fips": "WA39",
            "fips_alt": "WA39",
            "gadm_level": "1",
            "geonunit": "Namibia",
            "gn_a1_code": "NA.39",
            "gn_id": "3371209",
            "gn_level": "1",
            "gn_name": "Otjozondjupa",
            "gn_region": "",
            "gns_adm1": "WA39",
            "gns_id": "311113",
            "gns_lang": "slv",
            "gns_level": "1",
            "gns_name": "Otjozondjupa",
            "gns_region": "",
            "gu_a3": "NAM",
            "hasc_maybe": "",
            "labelrank": "4",
            "mapcolor9": "1",
            "mapcolor13": "7",
            "max_label": "11.0",
            "min_label": "6.0",
            "min_zoom": "6.0",
            "name_ar": "\u00d8\u00a5\u00d9\u0082\u00d9\u0084\u00d9\u008a\u00d9\u0085 \u00d8\u00a3\u00d9\u0088\u00d8\u00aa\u00d8\u00ac\u00d9\u0088\u00d8\u00b2\u00d9\u0088\u00d9\u0086\u00d8\u00af\u00d8\u00ac\u00d9\u0088\u00d8\u00a8\u00d8\u00a7",
            "name_bn": "\u00e0\u00a6\u0085\u00e0\u00a6\u00a4\u00e0\u00a6\u009c\u00e0\u00a7\u0081\u00e0\u00a6\u00a8\u00e0\u00a7\u008d\u00e0\u00a6\u00a1\u00e0\u00a6\u009c\u00e0\u00a7\u0081\u00e0\u00a6\u00aa\u00e0\u00a6\u00be \u00e0\u00a6\u0085\u00e0\u00a6\u009e\u00e0\u00a7\u008d\u00e0\u00a6\u009a\u00e0\u00a6\u00b2",
            "name_de": "Otjozondjupa",
            "name_el": "\u00ce\u009f\u00cf\u0084\u00ce\u00b6\u00ce\u00bf\u00ce\u00b6\u00ce\u00bf\u00ce\u00bd\u00cf\u0084\u00ce\u00b6\u00ce\u00bf\u00cf\u008d\u00cf\u0080\u00ce\u00b1",
            "name_en": "Otjozondjupa Region",
            "name_es": "Otjozondjupa",
            "name_fr": "Otjozondjupa",
            "name_hi": "\u00e0\u00a4\u0093\u00e0\u00a4\u009f\u00e0\u00a5\u008d\u00e0\u00a4\u00af\u00e0\u00a5\u008b\u00e0\u00a4\u009c\u00e0\u00a4\u00bc\u00e0\u00a4\u00a8\u00e0\u00a5\u008d\u00e0\u00a4\u00a6\u00e0\u00a5\u008d\u00e0\u00a4\u00af\u00e0\u00a5\u0082\u00e0\u00a4\u00aa\u00e0\u00a4\u00be \u00e0\u00a4\u00aa\u00e0\u00a5\u008d\u00e0\u00a4\u00b0\u00e0\u00a4\u00a6\u00e0\u00a5\u0087\u00e0\u00a4\u00b6",
            "name_hu": "",
            "name_id": "Wilayah Otjozondjupa",
            "name_it": "regione di Otjozondjupa",
            "name_ja": "\u00e3\u0082\u00aa\u00e3\u0083\u0081\u00e3\u0083\u00a7\u00e3\u0082\u00bd\u00e3\u0083\u00b3\u00e3\u0083\u0087\u00e3\u0083\u00a5\u00e3\u0083\u0091\u00e5\u00b7\u009e",
            "name_ko": "\u00ec\u0098\u00a4\u00ec\u00b4\u0088\u00ec\u00a1\u00b4\u00ec\u00a3\u00bc\u00ed\u008c\u008c \u00ec\u00a3\u00bc",
            "name_len": "12",
            "name_local": "",
            "name_nl": "Otjozondjupa",
            "name_pl": "Otjozondjupa",
            "name_pt": "Otjozondjupa",
            "name_ru": "\u00d0\u009e\u00d1\u0087\u00d0\u00be\u00d1\u0081\u00d0\u00be\u00d0\u00bd\u00d0\u00b4\u00d1\u008c\u00d1\u008e\u00d0\u00bf\u00d0\u00b0",
            "name_sv": "Otjozondjupa",
            "name_tr": "Otjozondjupa",
            "name_vi": "Khu v\u00e1\u00bb\u00b1c Otjozondjupa",
            "name_zh": "\u00e5\u00a5\u00a7\u00e5\u0096\u00ac\u00e5\u00ae\u0097\u00e6\u009c\u00b1\u00e5\u00b8\u0095\u00e5\u008d\u0080",
            "ne_id": "1159314951",
            "note": "Was reorganized from 26 districts into 13 regions.",
            "provnum_ne": "20010",
            "record_type": "state",
            "region": "",
            "region_cod": "NAM-OTJ",
            "region_sub": "",
            "sameascity": "-99",
            "scalerank": "4",
            "sov_a3": "NAM",
            "sub_code": "WA13",
            "wikidataid": "Q876506",
            "wikipedia": "",
            "woe_id": "20069835",
            "woe_label": "Otjozondjupa, NA, Namibia",
            "woe_name": "Otjozondjupa"
        },
        "geo": {
            "latitude": -20.5486916,
            "longitude": 17.668887,
            "max_latitude": -18.7453048,
            "max_longitude": 20.997551,
            "min_latitude": -22.3778689,
            "min_longitude": 15.5702269
        },
        "iso_3166_2": "NA-OD",
        "iso_a2": "NA",
        "iso_a3": "NAM",
        "name": "Otjozondjupa",
        "postal": "OD",
        "type": "Region",
        "type_en": "Region"
    },
    "OH": {
        "alt_names": [
            "Omaheke"
        ],
        "cca2": "NA",
        "cca3": "NAM",
        "code_hasc": "NA.OH",
        "extra": {
            "abbrev": "",
            "adm0_a3": "NAM",
            "adm0_label": "2",
            "adm0_sr": "1",
            "adm1_code": "NAM-3353",
            "admin": "Namibia",
            "area_sqkm": "0",
            "check_me": "10",
            "code_local": "",
            "data_sources": [
                "natural"
            ],
            "datarank": "6",
            "diss_me": "3353",
            "featurecla": "Admin-1 scale rank",
            "fips": "WA35",
            "fips_alt": "WA35",
            "gadm_level": "1",
            "geonunit": "Namibia",
            "gn_a1_code": "NA.35",
            "gn_id": "3371205",
            "gn_level": "1",
            "gn_name": "Omaheke",
            "gn_region": "",
            "gns_adm1": "WA35",
            "gns_id": "311109",
            "gns_lang": "slv",
            "gns_level": "1",
            "gns_name": "Omaheke",
            "gns_region": "",
            "gu_a3": "NAM",
            "hasc_maybe": "",
            "labelrank": "4",
            "mapcolor9": "1",
            "mapcolor13": "7",
            "max_label": "11.0",
            "min_label": "6.0",
            "min_zoom": "6.0",
            "name_ar": "\u00d8\u00a5\u00d9\u0082\u00d9\u0084\u00d9\u008a\u00d9\u0085 \u00d8\u00a3\u00d9\u0088\u00d9\u0085\u00d8\u00a7\u00d9\u0087\u00d9\u008a\u00d9\u0083\u00d9\u008a",
            "name_bn": "",
            "name_de": "Omaheke",
            "name_el": "",
            "name_en": "Omaheke Region",
            "name_es": "Omaheke",
            "name_fr": "Omaheke",
            "name_hi": "\u00e0\u00a4\u0093\u00e0\u00a4\u00ae\u00e0\u00a4\u00be\u00e0\u00a4\u00b9\u00e0\u00a5\u0087\u00e0\u00a4\u0095\u00e0\u00a5\u0087 \u00e0\u00a4\u00aa\u00e0\u00a5\u008d\u00e0\u00a4\u00b0\u00e0\u00a4\u00a6\u00e0\u00a5\u0087\u00e0\u00a4\u00b6",
            "name_hu": "",
            "name_id": "",
            "name_it": "regione di Omaheke",
            "name_ja": "\u00e3\u0082\u00aa\u00e3\u0083\u009e\u00e3\u0083\u0098\u00e3\u0082\u00b1\u00e5\u00b7\u009e",
            "name_ko": "\u00ec\u0098\u00a4\u00eb\u00a7\u0088\u00ed\u0097\u00a4\u00ec\u00bc\u0080 \u00ec\u00a3\u00bc",
            "name_len": "7",
            "name_local": "",
            "name_nl": "Omaheke",
            "name_pl": "Omaheke",
            "name_pt": "Omaheke",
            "name_ru": "\u00d0\u009e\u00d0\u00bc\u00d0\u00b0\u00d1\u0085\u00d0\u00b5\u00d0\u00ba\u00d0\u00b5",
            "name_sv": "",
            "name_tr": "Omaheke",
            "name_vi": "",
            "name_zh": "\u00e5\u00a5\u00a7\u00e9\u00a6\u00ac\u00e6\u00b5\u00b7\u00e5\u0087\u00b1\u00e5\u008d\u0080",
            "ne_id": "1159314961",
            "note": "Was reorganized from 26 districts into 13 regions.",
            "provnum_ne": "20008",
            "record_type": "state",
            "region": "",
            "region_cod": "NAM-GBB",
            "region_sub": "",
            "sameascity": "-99",
            "scalerank": "4",
            "sov_a3": "NAM",
            "sub_code": "WA04",
            "wikidataid": "Q838775",
            "wikipedia": "",
            "woe_id": "20069836",
            "woe_label": "Omaheke, NA, Namibia",
            "woe_name": "Omaheke"
        },
        "geo": {
            "latitude": -21.8466651,
            "longitude": 19.1880047,
            "max_latitude": -20.2402009,
            "max_longitude": 21.0017411,
            "min_latitude": -23.877103,
            "min_longitude": 17.9521831
        },
        "iso_3166_2": "NA-OH",
        "iso_a2": "NA",
        "iso_a3": "NAM",
        "name": "Omaheke",
        "postal": "OH",
        "type": "Region",
        "type_en": "Region"
    },
    "OK": {
        "alt_names": [
            ""
        ],
        "cca2": "NA",
        "cca3": "NAM",
        "code_hasc": "NA.OK",
        "extra": {
            "abbrev": "",
            "adm0_a3": "NAM",
            "adm0_label": "2",
            "adm0_sr": "1",
            "adm1_code": "NAM-3354",
            "admin": "Namibia",
            "area_sqkm": "0",
            "check_me": "10",
            "code_local": "",
            "data_sources": [
                "natural"
            ],
            "datarank": "6",
            "diss_me": "3354",
            "featurecla": "Admin-1 scale rank",
            "fips": "WA07",
            "fips_alt": "WA34",
            "gadm_level": "1",
            "geonunit": "Namibia",
            "gn_a1_code": "NA.34",
            "gn_id": "3371204",
            "gn_level": "1",
            "gn_name": "Okavango",
            "gn_region": "",
            "gns_adm1": "WA34",
            "gns_id": "311108",
            "gns_lang": "slv",
            "gns_level": "1",
            "gns_name": "Okavango",
            "gns_region": "",
            "gu_a3": "NAM",
            "hasc_maybe": "",
            "labelrank": "4",
            "mapcolor9": "1",
            "mapcolor13": "7",
            "max_label": "11.0",
            "min_label": "6.0",
            "min_zoom": "6.0",
            "name_ar": "\u00d8\u00a5\u00d9\u0082\u00d9\u0084\u00d9\u008a\u00d9\u0085 \u00d8\u00a3\u00d9\u0088\u00d9\u0083\u00d8\u00a7\u00d9\u0081\u00d8\u00a7\u00d9\u0086\u00d8\u00ba\u00d9\u0088",
            "name_bn": "\u00e0\u00a6\u0095\u00e0\u00a6\u00be\u00e0\u00a6\u00ad\u00e0\u00a6\u00be\u00e0\u00a6\u0099\u00e0\u00a7\u008d\u00e0\u00a6\u0097\u00e0\u00a7\u008b \u00e0\u00a6\u0085\u00e0\u00a6\u009e\u00e0\u00a7\u008d\u00e0\u00a6\u009a\u00e0\u00a6\u00b2",
            "name_de": "Kavango",
            "name_el": "\u00ce\u009a\u00ce\u00b1\u00ce\u00b2\u00ce\u00ac\u00ce\u00bd\u00ce\u00b3\u00ce\u00ba\u00ce\u00bf",
            "name_en": "Kavango Region",
            "name_es": "Kavango",
            "name_fr": "Kavango",
            "name_hi": "\u00e0\u00a4\u0095\u00e0\u00a4\u00b5\u00e0\u00a4\u00be\u00e0\u00a4\u0082\u00e0\u00a4\u0097\u00e0\u00a5\u008b \u00e0\u00a4\u00aa\u00e0\u00a5\u008d\u00e0\u00a4\u00b0\u00e0\u00a4\u00a6\u00e0\u00a5\u0087\u00e0\u00a4\u00b6",
            "name_hu": "",
            "name_id": "Wilayah Kavango",
            "name_it": "regione di Kavango",
            "name_ja": "\u00e3\u0082\u00ab\u00e3\u0083\u0090\u00e3\u0083\u00b3\u00e3\u0082\u00b4\u00e5\u00b7\u009e",
            "name_ko": "\u00ec\u00b9\u00b4\u00eb\u00b0\u00a9\u00ea\u00b3\u00a0 \u00ec\u00a3\u00bc",
            "name_len": "7",
            "name_local": "",
            "name_nl": "Kavango",
            "name_pl": "Kavango",
            "name_pt": "Kavango",
            "name_ru": "\u00d0\u009e\u00d0\u00ba\u00d0\u00b0\u00d0\u00b2\u00d0\u00b0\u00d0\u00bd\u00d0\u00b3\u00d0\u00be",
            "name_sv": "Kavango",
            "name_tr": "Kavango",
            "name_vi": "Khu v\u00e1\u00bb\u00b1c Kavango",
            "name_zh": "\u00e5\u00a5\u00a7\u00e5\u008d\u00a1\u00e8\u0090\u00ac\u00e6\u0088\u0088\u00e5\u008d\u0080",
            "ne_id": "1159314963",
            "note": "Was reorganized from 26 districts into 13 regions.",
            "provnum_ne": "20007",
            "record_type": "state",
            "region": "",
            "region_cod": "NAM-KVN",
            "region_sub": "",
            "sameascity": "-99",
            "scalerank": "4",
            "sov_a3": "NAM",
            "sub_code": "WA25",
            "wikidataid": "Q13156669",
            "wikipedia": "",
            "woe_id": "20069820",
            "woe_label": "Okavango, NA, Namibia",
            "woe_name": "Kavango"
        },
        "geo": {
            "latitude": "-18.52240000",
            "longitude": "19.4968000"
        },
        "iso_3166_2": "NA-OK",
        "iso_a2": "NA",
        "iso_a3": "NAM",
        "name": "Kavango",
        "postal": "OK",
        "type": "Region",
        "type_en": "Region"
    },
    "ON": {
        "alt_names": [
            "Oshana"
        ],
        "cca2": "NA",
        "cca3": "NAM",
        "code_hasc": "NA.ON",
        "extra": {
            "abbrev": "",
            "adm0_a3": "NAM",
            "adm0_label": "2",
            "adm0_sr": "1",
            "adm1_code": "NAM-3351",
            "admin": "Namibia",
            "area_sqkm": "0",
            "check_me": "10",
            "code_local": "",
            "data_sources": [
                "natural"
            ],
            "datarank": "6",
            "diss_me": "3351",
            "featurecla": "Admin-1 scale rank",
            "fips": "WA37",
            "fips_alt": "WA37",
            "gadm_level": "1",
            "geonunit": "Namibia",
            "gn_a1_code": "NA.37",
            "gn_id": "3371207",
            "gn_level": "1",
            "gn_name": "Oshana",
            "gn_region": "",
            "gns_adm1": "WA37",
            "gns_id": "311111",
            "gns_lang": "slv",
            "gns_level": "1",
            "gns_name": "Oshana",
            "gns_region": "",
            "gu_a3": "NAM",
            "hasc_maybe": "",
            "labelrank": "4",
            "mapcolor9": "1",
            "mapcolor13": "7",
            "max_label": "11.0",
            "min_label": "6.0",
            "min_zoom": "6.0",
            "name_ar": "\u00d8\u00a5\u00d9\u0082\u00d9\u0084\u00d9\u008a\u00d9\u0085 \u00d8\u00a3\u00d9\u0088\u00d8\u00b4\u00d8\u00a7\u00d9\u0086\u00d8\u00a7",
            "name_bn": "\u00e0\u00a6\u0093\u00e0\u00a6\u00b6\u00e0\u00a6\u00be\u00e0\u00a6\u00a8\u00e0\u00a6\u00be \u00e0\u00a6\u0085\u00e0\u00a6\u009e\u00e0\u00a7\u008d\u00e0\u00a6\u009a\u00e0\u00a6\u00b2",
            "name_de": "Oshana",
            "name_el": "\u00ce\u009f\u00cf\u0083\u00ce\u00ac\u00ce\u00bd\u00ce\u00b1",
            "name_en": "Oshana Region",
            "name_es": "Oshana",
            "name_fr": "Oshana",
            "name_hi": "\u00e0\u00a4\u0093\u00e0\u00a4\u00b6\u00e0\u00a4\u00be\u00e0\u00a4\u00a8\u00e0\u00a4\u00be \u00e0\u00a4\u00aa\u00e0\u00a5\u008d\u00e0\u00a4\u00b0\u00e0\u00a4\u00a6\u00e0\u00a5\u0087\u00e0\u00a4\u00b6",
            "name_hu": "",
            "name_id": "Wilayah Oshana",
            "name_it": "regione dell'Oshana",
            "name_ja": "\u00e3\u0082\u00aa\u00e3\u0082\u00b7\u00e3\u0083\u00a3\u00e3\u0083\u008a\u00e5\u00b7\u009e",
            "name_ko": "\u00ec\u0098\u00a4\u00ec\u0083\u00a4\u00eb\u0082\u0098 \u00ec\u00a3\u00bc",
            "name_len": "6",
            "name_local": "",
            "name_nl": "Oshana",
            "name_pl": "Oshana",
            "name_pt": "Oshana",
            "name_ru": "\u00d0\u009e\u00d1\u0088\u00d0\u00b0\u00d0\u00bd\u00d0\u00b0",
            "name_sv": "Oshana",
            "name_tr": "Oshana",
            "name_vi": "Khu v\u00e1\u00bb\u00b1c Oshana",
            "name_zh": "\u00e5\u00a5\u00a7\u00e6\u00b2\u0099\u00e7\u00b4\u008d\u00e5\u008d\u0080",
            "ne_id": "1159314955",
            "note": "Was reorganized from 26 districts into 13 regions.",
            "provnum_ne": "20004",
            "record_type": "state",
            "region": "",
            "region_cod": "NAM-OWM",
            "region_sub": "",
            "sameascity": "-99",
            "scalerank": "4",
            "sov_a3": "NAM",
            "sub_code": "WA15",
            "wikidataid": "Q534528",
            "wikipedia": "",
            "woe_id": "20069843",
            "woe_label": "Oshana, NA, Namibia",
            "woe_name": "Oshana"
        },
        "geo": {
            "latitude": -18.4305064,
            "longitude": 15.6881788,
            "max_latitude": -17.675126,
            "max_longitude": 16.0409669,
            "min_latitude": -19.32805,
            "min_longitude": 15.2764
        },
        "iso_3166_2": "NA-ON",
        "iso_a2": "NA",
        "iso_a3": "NAM",
        "name": "Oshana",
        "postal": "ON",
        "type": "Region",
        "type_en": "Region"
    },
    "OS": {
        "alt_names": [
            "Omusati"
        ],
        "cca2": "NA",
        "cca3": "NAM",
        "code_hasc": "NA.OS",
        "extra": {
            "abbrev": "",
            "adm0_a3": "NAM",
            "adm0_label": "2",
            "adm0_sr": "1",
            "adm1_code": "NAM-3350",
            "admin": "Namibia",
            "area_sqkm": "0",
            "check_me": "10",
            "code_local": "",
            "data_sources": [
                "natural"
            ],
            "datarank": "6",
            "diss_me": "3350",
            "featurecla": "Admin-1 scale rank",
            "fips": "WA36",
            "fips_alt": "WA36",
            "gadm_level": "1",
            "geonunit": "Namibia",
            "gn_a1_code": "NA.36",
            "gn_id": "3371206",
            "gn_level": "1",
            "gn_name": "Omusati",
            "gn_region": "",
            "gns_adm1": "WA36",
            "gns_id": "311110",
            "gns_lang": "slv",
            "gns_level": "1",
            "gns_name": "Omusati",
            "gns_region": "",
            "gu_a3": "NAM",
            "hasc_maybe": "",
            "labelrank": "4",
            "mapcolor9": "1",
            "mapcolor13": "7",
            "max_label": "11.0",
            "min_label": "6.0",
            "min_zoom": "6.0",
            "name_ar": "\u00d8\u00a5\u00d9\u0082\u00d9\u0084\u00d9\u008a\u00d9\u0085 \u00d8\u00a3\u00d9\u0088\u00d9\u0085\u00d9\u0088\u00d8\u00b3\u00d8\u00a7\u00d8\u00aa\u00d9\u008a",
            "name_bn": "\u00e0\u00a6\u0093\u00e0\u00a6\u00ae\u00e0\u00a7\u008b\u00e0\u00a6\u00b8\u00e0\u00a6\u00be\u00e0\u00a6\u00a5\u00e0\u00a6\u00bf \u00e0\u00a6\u0085\u00e0\u00a6\u009e\u00e0\u00a7\u008d\u00e0\u00a6\u009a\u00e0\u00a6\u00b2",
            "name_de": "Omusati",
            "name_el": "\u00ce\u009f\u00ce\u00bc\u00ce\u00bf\u00cf\u0085\u00cf\u0083\u00ce\u00ac\u00cf\u0084\u00ce\u00b9",
            "name_en": "Omusati Region",
            "name_es": "Omusati",
            "name_fr": "Omusati",
            "name_hi": "\u00e0\u00a4\u0093\u00e0\u00a4\u00ae\u00e0\u00a5\u0081\u00e0\u00a4\u00b8\u00e0\u00a4\u00be\u00e0\u00a4\u00a4\u00e0\u00a5\u0080 \u00e0\u00a4\u00aa\u00e0\u00a5\u008d\u00e0\u00a4\u00b0\u00e0\u00a4\u00a6\u00e0\u00a5\u0087\u00e0\u00a4\u00b6",
            "name_hu": "",
            "name_id": "Wilayah Omusati",
            "name_it": "regione di Omusati",
            "name_ja": "\u00e3\u0082\u00aa\u00e3\u0083\u00a0\u00e3\u0082\u00b5\u00e3\u0083\u0086\u00e3\u0082\u00a3\u00e5\u00b7\u009e",
            "name_ko": "\u00ec\u0098\u00a4\u00eb\u00ac\u00b4\u00ec\u0082\u00ac\u00ed\u008b\u00b0 \u00ec\u00a3\u00bc",
            "name_len": "7",
            "name_local": "",
            "name_nl": "Omusati",
            "name_pl": "Omusati",
            "name_pt": "Omusati",
            "name_ru": "\u00d0\u009e\u00d0\u00bc\u00d1\u0083\u00d1\u0081\u00d0\u00b0\u00d1\u0082\u00d0\u00b8",
            "name_sv": "Omusati",
            "name_tr": "Omusati",
            "name_vi": "Khu v\u00e1\u00bb\u00b1c Omusati",
            "name_zh": "\u00e5\u00a5\u00a7\u00e7\u00a9\u0086\u00e8\u0096\u00a9\u00e8\u0092\u0082\u00e5\u008d\u0080",
            "ne_id": "1159314953",
            "note": "Was reorganized from 26 districts into 13 regions.",
            "provnum_ne": "20003",
            "record_type": "state",
            "region": "",
            "region_cod": "NAM-OWM",
            "region_sub": "",
            "sameascity": "-99",
            "scalerank": "4",
            "sov_a3": "NAM",
            "sub_code": "WA15",
            "wikidataid": "Q764385",
            "wikipedia": "",
            "woe_id": "20069842",
            "woe_label": "Omusati, NA, Namibia",
            "woe_name": "Omusati"
        },
        "geo": {
            "latitude": -18.4070294,
            "longitude": 14.8454619,
            "max_latitude": -17.3843629,
            "max_longitude": 15.6579149,
            "min_latitude": -19.4149837,
            "min_longitude": 14.1303229
        },
        "iso_3166_2": "NA-OS",
        "iso_a2": "NA",
        "iso_a3": "NAM",
        "name": "Omusati",
        "postal": "OS",
        "type": "Region",
        "type_en": "Region"
    },
    "OT": {
        "alt_names": [
            "Otjikoto"
        ],
        "cca2": "NA",
        "cca3": "NAM",
        "code_hasc": "NA.OT",
        "extra": {
            "abbrev": "",
            "adm0_a3": "NAM",
            "adm0_label": "2",
            "adm0_sr": "1",
            "adm1_code": "NAM-3355",
            "admin": "Namibia",
            "area_sqkm": "0",
            "check_me": "10",
            "code_local": "",
            "data_sources": [
                "natural"
            ],
            "datarank": "6",
            "diss_me": "3355",
            "featurecla": "Admin-1 scale rank",
            "fips": "WA38",
            "fips_alt": "WA38",
            "gadm_level": "1",
            "geonunit": "Namibia",
            "gn_a1_code": "NA.38",
            "gn_id": "3371208",
            "gn_level": "1",
            "gn_name": "Oshikoto",
            "gn_region": "",
            "gns_adm1": "WA38",
            "gns_id": "311112",
            "gns_lang": "slv",
            "gns_level": "1",
            "gns_name": "Oshikoto",
            "gns_region": "",
            "gu_a3": "NAM",
            "hasc_maybe": "",
            "labelrank": "4",
            "mapcolor9": "1",
            "mapcolor13": "7",
            "max_label": "11.0",
            "min_label": "6.0",
            "min_zoom": "6.0",
            "name_ar": "\u00d8\u00a5\u00d9\u0082\u00d9\u0084\u00d9\u008a\u00d9\u0085 \u00d8\u00a3\u00d9\u0088\u00d8\u00b4\u00d9\u008a\u00d9\u0083\u00d9\u0088\u00d8\u00aa\u00d9\u0088",
            "name_bn": "\u00e0\u00a6\u0093\u00e0\u00a6\u00b8\u00e0\u00a6\u00bf\u00e0\u00a6\u0095\u00e0\u00a7\u008b\u00e0\u00a6\u00a4\u00e0\u00a7\u008b \u00e0\u00a6\u0085\u00e0\u00a6\u009e\u00e0\u00a7\u008d\u00e0\u00a6\u009a\u00e0\u00a6\u00b2",
            "name_de": "Oshikoto",
            "name_el": "\u00ce\u009f\u00cf\u0083\u00ce\u00b9\u00ce\u00ba\u00cf\u008c\u00cf\u0084\u00ce\u00bf",
            "name_en": "Oshikoto Region",
            "name_es": "Oshikoto",
            "name_fr": "Oshikoto",
            "name_hi": "\u00e0\u00a4\u0093\u00e0\u00a4\u00b6\u00e0\u00a5\u0080\u00e0\u00a4\u0095\u00e0\u00a5\u008b\u00e0\u00a4\u00a4\u00e0\u00a5\u008b \u00e0\u00a4\u00aa\u00e0\u00a5\u008d\u00e0\u00a4\u00b0\u00e0\u00a4\u00a6\u00e0\u00a5\u0087\u00e0\u00a4\u00b6",
            "name_hu": "",
            "name_id": "Wilayah Oshikoto",
            "name_it": "regione di Oshikoto",
            "name_ja": "\u00e3\u0082\u00aa\u00e3\u0082\u00b7\u00e3\u0082\u00b3\u00e3\u0083\u0088\u00e5\u00b7\u009e",
            "name_ko": "\u00ec\u0098\u00a4\u00ec\u008b\u009c\u00ec\u00bd\u0094\u00ed\u0086\u00a0 \u00ec\u00a3\u00bc",
            "name_len": "8",
            "name_local": "",
            "name_nl": "Oshikoto",
            "name_pl": "Oshikoto",
            "name_pt": "Oshikoto",
            "name_ru": "\u00d0\u009e\u00d1\u0088\u00d0\u00b8\u00d0\u00ba\u00d0\u00be\u00d1\u0082\u00d0\u00be",
            "name_sv": "Oshikoto",
            "name_tr": "Oshikoto",
            "name_vi": "Khu v\u00e1\u00bb\u00b1c Oshikoto",
            "name_zh": "\u00e5\u00a5\u00a7\u00e5\u00b8\u008c\u00e7\u00a7\u0091\u00e6\u0089\u0098\u00e5\u008d\u0080",
            "ne_id": "1159314965",
            "note": "Was reorganized from 26 districts into 13 regions.",
            "provnum_ne": "20002",
            "record_type": "state",
            "region": "",
            "region_cod": "NAM-TSM",
            "region_sub": "",
            "sameascity": "-99",
            "scalerank": "4",
            "sov_a3": "NAM",
            "sub_code": "WA18",
            "wikidataid": "Q876512",
            "wikipedia": "",
            "woe_id": "20069841",
            "woe_label": "Oshikoto, NA, Namibia",
            "woe_name": "Oshikoto"
        },
        "geo": {
            "latitude": -18.4152575,
            "longitude": 16.912251,
            "max_latitude": -17.6955739,
            "max_longitude": 18.2046669,
            "min_latitude": -19.520187,
            "min_longitude": 15.8708732
        },
        "iso_3166_2": "NA-OT",
        "iso_a2": "NA",
        "iso_a3": "NAM",
        "name": "Oshikoto",
        "postal": "OT",
        "type": "Region",
        "type_en": "Region"
    },
    "OW": {
        "alt_names": [
            "Ohangwena"
        ],
        "cca2": "NA",
        "cca3": "NAM",
        "code_hasc": "NA.OW",
        "extra": {
            "abbrev": "",
            "adm0_a3": "NAM",
            "adm0_label": "2",
            "adm0_sr": "1",
            "adm1_code": "NAM-3352",
            "admin": "Namibia",
            "area_sqkm": "0",
            "check_me": "10",
            "code_local": "",
            "data_sources": [
                "natural"
            ],
            "datarank": "6",
            "diss_me": "3352",
            "featurecla": "Admin-1 scale rank",
            "fips": "WA33",
            "fips_alt": "WA33",
            "gadm_level": "1",
            "geonunit": "Namibia",
            "gn_a1_code": "NA.33",
            "gn_id": "3371203",
            "gn_level": "1",
            "gn_name": "Ohangwena",
            "gn_region": "",
            "gns_adm1": "WA33",
            "gns_id": "311107",
            "gns_lang": "slv",
            "gns_level": "1",
            "gns_name": "Ohangwena",
            "gns_region": "",
            "gu_a3": "NAM",
            "hasc_maybe": "",
            "labelrank": "4",
            "mapcolor9": "1",
            "mapcolor13": "7",
            "max_label": "11.0",
            "min_label": "6.0",
            "min_zoom": "6.0",
            "name_ar": "\u00d8\u00a5\u00d9\u0082\u00d9\u0084\u00d9\u008a\u00d9\u0085 \u00d8\u00a3\u00d9\u0088\u00d9\u0087\u00d8\u00a7\u00d9\u0086\u00d8\u00ba\u00d9\u0088\u00d9\u008a\u00d9\u0086\u00d8\u00a7",
            "name_bn": "\u00e0\u00a6\u0093\u00e0\u00a6\u00b9\u00e0\u00a6\u00be\u00e0\u00a6\u0082\u00e0\u00a6\u00af\u00e0\u00a6\u00bc\u00e0\u00a7\u0087\u00e0\u00a6\u00a8\u00e0\u00a6\u00be \u00e0\u00a6\u0085\u00e0\u00a6\u009e\u00e0\u00a7\u008d\u00e0\u00a6\u009a\u00e0\u00a6\u00b2",
            "name_de": "Ohangwena",
            "name_el": "\u00ce\u009f\u00cf\u0087\u00ce\u00b1\u00ce\u00bd\u00ce\u00b3\u00ce\u00ba\u00ce\u00b2\u00ce\u00ad\u00ce\u00bd\u00ce\u00b1",
            "name_en": "Ohangwena Region",
            "name_es": "Ohangwena",
            "name_fr": "Ohangwena",
            "name_hi": "\u00e0\u00a4\u0093\u00e0\u00a4\u00b9\u00e0\u00a4\u00be\u00e0\u00a4\u0082\u00e0\u00a4\u0097\u00e0\u00a4\u00b5\u00e0\u00a5\u0087\u00e0\u00a4\u00a8\u00e0\u00a4\u00be \u00e0\u00a4\u00aa\u00e0\u00a5\u008d\u00e0\u00a4\u00b0\u00e0\u00a4\u00a6\u00e0\u00a5\u0087\u00e0\u00a4\u00b6",
            "name_hu": "",
            "name_id": "Wilayah Ohangwena",
            "name_it": "regione di Ohangwena",
            "name_ja": "\u00e3\u0082\u00aa\u00e3\u0083\u008f\u00e3\u0083\u00b3\u00e3\u0082\u00b0\u00e3\u0082\u00a6\u00e3\u0082\u00a7\u00e3\u0083\u008a\u00e5\u00b7\u009e",
            "name_ko": "\u00ec\u0098\u00a4\u00ed\u0095\u00ad\u00ea\u00b6\u00a4\u00eb\u0082\u0098 \u00ec\u00a3\u00bc",
            "name_len": "9",
            "name_local": "",
            "name_nl": "Ohangwena",
            "name_pl": "Ohangwena",
            "name_pt": "Ohangwena",
            "name_ru": "\u00d0\u009e\u00d1\u0085\u00d0\u00b0\u00d0\u00bd\u00d0\u00b3\u00d0\u00b2\u00d0\u00b5\u00d0\u00bd\u00d0\u00b0",
            "name_sv": "Ohangwena",
            "name_tr": "Ohangwena",
            "name_vi": "Khu v\u00e1\u00bb\u00b1c Ohangwena",
            "name_zh": "\u00e5\u00a5\u00a7\u00e6\u00bc\u00a2\u00e5\u009c\u00ad\u00e7\u00b4\u008d\u00e5\u008d\u0080",
            "ne_id": "1159314959",
            "note": "Was reorganized from 26 districts into 13 regions.",
            "provnum_ne": "20013",
            "record_type": "state",
            "region": "",
            "region_cod": "NAM-OWM",
            "region_sub": "",
            "sameascity": "-99",
            "scalerank": "4",
            "sov_a3": "NAM",
            "sub_code": "WA15",
            "wikidataid": "Q845702",
            "wikipedia": "",
            "woe_id": "20069840",
            "woe_label": "Ohangwena, NA, Namibia",
            "woe_name": "Ohangwena"
        },
        "geo": {
            "latitude": -17.5979291,
            "longitude": 16.8178377,
            "max_latitude": -17.391181,
            "max_longitude": 18.000832,
            "min_latitude": -17.9292601,
            "min_longitude": 15.5463691
        },
        "iso_3166_2": "NA-OW",
        "iso_a2": "NA",
        "iso_a3": "NAM",
        "name": "Ohangwena",
        "postal": "OW",
        "type": "Region",
        "type_en": "Region"
    }
}