{
    "X01~": {
        "alt_names": [
            ""
        ],
        "cca2": "NU",
        "cca3": "NIU",
        "code_hasc": "NU.NU",
        "extra": {
            "abbrev": "",
            "adm0_a3": "NIU",
            "adm0_label": "5",
            "adm0_sr": "3",
            "adm1_code": "NIU-5481",
            "admin": "Niue",
            "area_sqkm": "0",
            "check_me": "0",
            "code_local": "",
            "data_sources": [
                "natural"
            ],
            "datarank": "10",
            "diss_me": "5481",
            "featurecla": "Admin-1 scale rank",
            "fips": "",
            "fips_alt": "",
            "gadm_level": "0",
            "geonunit": "Niue",
            "gn_a1_code": "NU.",
            "gn_id": "0",
            "gn_level": "0",
            "gn_name": "",
            "gn_region": "",
            "gns_adm1": "",
            "gns_id": "0",
            "gns_lang": "",
            "gns_level": "0",
            "gns_name": "",
            "gns_region": "",
            "gu_a3": "NIU",
            "hasc_maybe": "",
            "labelrank": "20",
            "mapcolor9": "4",
            "mapcolor13": "4",
            "max_label": "18.0",
            "min_label": "18.0",
            "min_zoom": "18.0",
            "name_ar": "",
            "name_bn": "",
            "name_de": "",
            "name_el": "",
            "name_en": "",
            "name_es": "",
            "name_fr": "",
            "name_hi": "",
            "name_hu": "",
            "name_id": "",
            "name_it": "",
            "name_ja": "",
            "name_ko": "",
            "name_len": "4",
            "name_local": "",
            "name_nl": "",
            "name_pl": "",
            "name_pt": "",
            "name_ru": "",
            "name_sv": "",
            "name_tr": "",
            "name_vi": "",
            "name_zh": "",
            "ne_id": "1159315491",
            "note": "",
            "provnum_ne": "0",
            "record_type": "state",
            "region": "",
            "region_cod": "",
            "region_sub": "",
            "sameascity": "-99",
            "scalerank": "10",
            "sov_a3": "NZ1",
            "sub_code": "",
            "wikidataid": "",
            "wikipedia": "",
            "woe_id": "23424904",
            "woe_label": "",
            "woe_name": "Niue"
        },
        "geo": {
            "latitude": "-19.04670000",
            "longitude": "-169.8660000"
        },
        "iso_3166_2": "NU-X01~",
        "iso_a2": "NU",
        "iso_a3": "NIU",
        "name": "Niue",
        "postal": "X01~",
        "type": "",
        "type_en": ""
    }
}