{
    "01": {
        "alt_names": [
            "Aiwo"
        ],
        "cca2": "NR",
        "cca3": "NRU",
        "code_hasc": "NR.AI",
        "extra": {
            "abbrev": "",
            "adm0_a3": "NRU",
            "adm0_label": "3",
            "adm0_sr": "3",
            "adm1_code": "NRU-4972",
            "admin": "Nauru",
            "area_sqkm": "0",
            "check_me": "0",
            "code_local": "",
            "data_sources": [
                "natural"
            ],
            "datarank": "10",
            "diss_me": "4972",
            "featurecla": "Admin-1 scale rank",
            "fips": "NR01",
            "fips_alt": "",
            "gadm_level": "0",
            "geonunit": "Nauru",
            "gn_a1_code": "NR.01",
            "gn_id": "2110451",
            "gn_level": "1",
            "gn_name": "Aiwo District",
            "gn_region": "",
            "gns_adm1": "NR01",
            "gns_id": "-1187278",
            "gns_lang": "fra",
            "gns_level": "1",
            "gns_name": "Aiwo",
            "gns_region": "",
            "gu_a3": "NRU",
            "hasc_maybe": "",
            "labelrank": "20",
            "mapcolor9": "6",
            "mapcolor13": "9",
            "max_label": "11.0",
            "min_label": "9.0",
            "min_zoom": "9.0",
            "name_ar": "\u00d8\u00b6\u00d8\u00a7\u00d8\u00ad\u00d9\u008a\u00d8\u00a9 \u00d8\u00a5\u00d9\u008a\u00d9\u0088",
            "name_bn": "\u00e0\u00a6\u0086\u00e0\u00a6\u00af\u00e0\u00a6\u00bc\u00e0\u00a7\u008b \u00e0\u00a6\u009c\u00e0\u00a7\u0087\u00e0\u00a6\u00b2\u00e0\u00a6\u00be",
            "name_de": "Aiwo",
            "name_el": "\u00ce\u0086\u00ce\u00b9\u00ce\u00b2\u00ce\u00bf",
            "name_en": "Aiwo District",
            "name_es": "Aiwo",
            "name_fr": "Aiwo",
            "name_hi": "\u00e0\u00a4\u0086\u00e0\u00a4\u00af\u00e0\u00a4\u00b5\u00e0\u00a5\u008b \u00e0\u00a4\u009c\u00e0\u00a4\u00bf\u00e0\u00a4\u00b2\u00e0\u00a4\u00be",
            "name_hu": "",
            "name_id": "Aiwo",
            "name_it": "Aiwo",
            "name_ja": "\u00e3\u0082\u00a2\u00e3\u0082\u00a4\u00e3\u0082\u00a6\u00e3\u0082\u00a9\u00e5\u009c\u00b0\u00e5\u008c\u00ba",
            "name_ko": "\u00ec\u0095\u0084\u00ec\u009d\u00b4\u00ec\u009b\u008c \u00ea\u00b5\u00ac",
            "name_len": "4",
            "name_local": "",
            "name_nl": "Aiwo",
            "name_pl": "Aiwo",
            "name_pt": "Aiwo",
            "name_ru": "\u00d0\u0090\u00d0\u00b9\u00d0\u00b2\u00d0\u00be",
            "name_sv": "Aiwo",
            "name_tr": "Aiwo District",
            "name_vi": "Aiwo",
            "name_zh": "\u00e6\u0084\u009b\u00e5\u0092\u008c\u00e5\u008d\u0080",
            "ne_id": "1159316159",
            "note": "",
            "provnum_ne": "0",
            "record_type": "state",
            "region": "",
            "region_cod": "",
            "region_sub": "",
            "sameascity": "-99",
            "scalerank": "5",
            "sov_a3": "NRU",
            "sub_code": "",
            "wikidataid": "Q240017",
            "wikipedia": "http:\/\/en.wikipedia.org\/wiki\/Aiwo_District",
            "woe_id": "20070298",
            "woe_label": "",
            "woe_name": "Aiwo"
        },
        "geo": {
            "latitude": -0.5340012,
            "longitude": 166.9138873,
            "max_latitude": -0.5264073,
            "max_longitude": 166.918411,
            "min_latitude": -0.5406168,
            "min_longitude": 166.9095518
        },
        "iso_3166_2": "NR-01",
        "iso_a2": "NR",
        "iso_a3": "NRU",
        "name": "Aiwo",
        "postal": "01",
        "type": "",
        "type_en": ""
    },
    "02": {
        "alt_names": [
            "Anabar"
        ],
        "cca2": "NR",
        "cca3": "NRU",
        "code_hasc": "NR.AB",
        "extra": {
            "abbrev": "",
            "adm0_a3": "NRU",
            "adm0_label": "3",
            "adm0_sr": "3",
            "adm1_code": "NRU-4979",
            "admin": "Nauru",
            "area_sqkm": "0",
            "check_me": "0",
            "code_local": "",
            "data_sources": [
                "natural"
            ],
            "datarank": "10",
            "diss_me": "4979",
            "featurecla": "Admin-1 scale rank",
            "fips": "NR02",
            "fips_alt": "",
            "gadm_level": "0",
            "geonunit": "Nauru",
            "gn_a1_code": "NR.02",
            "gn_id": "2110449",
            "gn_level": "1",
            "gn_name": "Anabar District",
            "gn_region": "",
            "gns_adm1": "NR02",
            "gns_id": "-1187280",
            "gns_lang": "fra",
            "gns_level": "1",
            "gns_name": "Anabar District",
            "gns_region": "",
            "gu_a3": "NRU",
            "hasc_maybe": "",
            "labelrank": "20",
            "mapcolor9": "6",
            "mapcolor13": "9",
            "max_label": "11.0",
            "min_label": "9.0",
            "min_zoom": "9.0",
            "name_ar": "\u00d8\u00b6\u00d8\u00a7\u00d8\u00ad\u00d9\u008a\u00d8\u00a9 \u00d8\u00a3\u00d9\u0086\u00d8\u00a7\u00d8\u00a8\u00d8\u00a7\u00d8\u00b1",
            "name_bn": "\u00e0\u00a6\u0086\u00e0\u00a6\u00a8\u00e0\u00a6\u00be\u00e0\u00a6\u00ac\u00e0\u00a6\u00be\u00e0\u00a6\u00b0 \u00e0\u00a6\u009c\u00e0\u00a7\u0087\u00e0\u00a6\u00b2\u00e0\u00a6\u00be",
            "name_de": "Anabar",
            "name_el": "\u00ce\u00a0\u00ce\u00b5\u00cf\u0081\u00ce\u00b9\u00cf\u0086\u00ce\u00ad\u00cf\u0081\u00ce\u00b5\u00ce\u00b9\u00ce\u00b1 \u00ce\u0086\u00ce\u00bd\u00ce\u00b1\u00ce\u00bc\u00cf\u0080\u00ce\u00b1\u00cf\u0081",
            "name_en": "Anabar District",
            "name_es": "Anabar",
            "name_fr": "Anabar",
            "name_hi": "\u00e0\u00a4\u0085\u00e0\u00a4\u00a8\u00e0\u00a4\u00be\u00e0\u00a4\u00ac\u00e0\u00a4\u00be\u00e0\u00a4\u00b0 \u00e0\u00a4\u009c\u00e0\u00a4\u00bf\u00e0\u00a4\u00b2\u00e0\u00a4\u00be",
            "name_hu": "",
            "name_id": "Anabar",
            "name_it": "Anabar",
            "name_ja": "\u00e3\u0082\u00a2\u00e3\u0083\u008a\u00e3\u0083\u0090\u00e3\u0083\u00bc\u00e5\u009c\u00b0\u00e5\u008c\u00ba",
            "name_ko": "\u00ec\u0095\u0084\u00eb\u0082\u0098\u00eb\u00b0\u0094\u00eb\u00a5\u00b4 \u00ea\u00b5\u00ac",
            "name_len": "6",
            "name_local": "",
            "name_nl": "Anabar",
            "name_pl": "Anabar",
            "name_pt": "Anabar",
            "name_ru": "\u00d0\u0090\u00d0\u00bd\u00d0\u00b0\u00d0\u00b1\u00d0\u00b0\u00d1\u0080",
            "name_sv": "Anabar",
            "name_tr": "Anabar District",
            "name_vi": "Anabar",
            "name_zh": "\u00e9\u0098\u00bf\u00e7\u00b4\u008d\u00e5\u00b7\u00b4\u00e7\u0088\u00be\u00e5\u008d\u0080",
            "ne_id": "1159316175",
            "note": "",
            "provnum_ne": "0",
            "record_type": "state",
            "region": "",
            "region_cod": "",
            "region_sub": "",
            "sameascity": "-99",
            "scalerank": "5",
            "sov_a3": "NRU",
            "sub_code": "",
            "wikidataid": "Q328735",
            "wikipedia": "http:\/\/en.wikipedia.org\/wiki\/Anabar_District",
            "woe_id": "20070308",
            "woe_label": "",
            "woe_name": "Anabar"
        },
        "geo": {
            "latitude": -0.5133517,
            "longitude": 166.9484624,
            "max_latitude": -0.5043035,
            "max_longitude": 166.9578031,
            "min_latitude": -0.522434,
            "min_longitude": 166.9397261
        },
        "iso_3166_2": "NR-02",
        "iso_a2": "NR",
        "iso_a3": "NRU",
        "name": "Anabar",
        "postal": "02",
        "type": "",
        "type_en": ""
    },
    "03": {
        "alt_names": [
            "Anetan"
        ],
        "cca2": "NR",
        "cca3": "NRU",
        "code_hasc": "NR.AT",
        "extra": {
            "abbrev": "",
            "adm0_a3": "NRU",
            "adm0_label": "3",
            "adm0_sr": "3",
            "adm1_code": "NRU-4978",
            "admin": "Nauru",
            "area_sqkm": "0",
            "check_me": "0",
            "code_local": "",
            "data_sources": [
                "natural"
            ],
            "datarank": "10",
            "diss_me": "4978",
            "featurecla": "Admin-1 scale rank",
            "fips": "NR03",
            "fips_alt": "",
            "gadm_level": "0",
            "geonunit": "Nauru",
            "gn_a1_code": "NR.03",
            "gn_id": "2110448",
            "gn_level": "1",
            "gn_name": "Anetan District",
            "gn_region": "",
            "gns_adm1": "NR03",
            "gns_id": "-1187281",
            "gns_lang": "fra",
            "gns_level": "1",
            "gns_name": "Anetan District",
            "gns_region": "",
            "gu_a3": "NRU",
            "hasc_maybe": "",
            "labelrank": "20",
            "mapcolor9": "6",
            "mapcolor13": "9",
            "max_label": "11.0",
            "min_label": "9.0",
            "min_zoom": "9.0",
            "name_ar": "\u00d8\u00b6\u00d8\u00a7\u00d8\u00ad\u00d9\u008a\u00d8\u00a9 \u00d8\u00a3\u00d9\u0086\u00d8\u00aa\u00d8\u00a7\u00d9\u0086",
            "name_bn": "\u00e0\u00a6\u0086\u00e0\u00a6\u00a8\u00e0\u00a7\u0087\u00e0\u00a6\u00a4\u00e0\u00a6\u00be\u00e0\u00a6\u00a8 \u00e0\u00a6\u009c\u00e0\u00a7\u0087\u00e0\u00a6\u00b2\u00e0\u00a6\u00be",
            "name_de": "Anetan",
            "name_el": "\u00ce\u0091\u00ce\u00bd\u00ce\u00ad\u00cf\u0084\u00ce\u00b1\u00ce\u00bd",
            "name_en": "Anetan District",
            "name_es": "Anetan",
            "name_fr": "Anetan",
            "name_hi": "\u00e0\u00a4\u008f\u00e0\u00a4\u00a8\u00e0\u00a5\u0087\u00e0\u00a4\u009f\u00e0\u00a4\u00a8 \u00e0\u00a4\u009c\u00e0\u00a4\u00bf\u00e0\u00a4\u00b2\u00e0\u00a4\u00be",
            "name_hu": "",
            "name_id": "Anetan",
            "name_it": "Anetan",
            "name_ja": "\u00e3\u0082\u00a2\u00e3\u0083\u008d\u00e3\u0082\u00bf\u00e3\u0083\u00b3\u00e5\u009c\u00b0\u00e5\u008c\u00ba",
            "name_ko": "\u00ec\u0095\u0084\u00eb\u0084\u00a4\u00ed\u0083\u0084 \u00ea\u00b5\u00ac",
            "name_len": "6",
            "name_local": "",
            "name_nl": "Anetan",
            "name_pl": "Anetan",
            "name_pt": "Anetan",
            "name_ru": "\u00d0\u0090\u00d0\u00bd\u00d0\u00b5\u00d1\u0082\u00d0\u00b0\u00d0\u00bd",
            "name_sv": "Anetan",
            "name_tr": "Anetan District",
            "name_vi": "Anetan",
            "name_zh": "\u00e5\u00ae\u0089\u00e9\u0084\u0082\u00e7\u0081\u0098\u00e5\u008d\u0080",
            "ne_id": "1159316173",
            "note": "",
            "provnum_ne": "0",
            "record_type": "state",
            "region": "",
            "region_cod": "",
            "region_sub": "",
            "sameascity": "-99",
            "scalerank": "5",
            "sov_a3": "NRU",
            "sub_code": "",
            "wikidataid": "Q378813",
            "wikipedia": "http:\/\/en.wikipedia.org\/wiki\/Anetan_District",
            "woe_id": "20070311",
            "woe_label": "",
            "woe_name": "Anetan"
        },
        "geo": {
            "latitude": -0.5064343,
            "longitude": 166.9427006,
            "max_latitude": -0.5027978,
            "max_longitude": 166.9484027,
            "min_latitude": -0.518731,
            "min_longitude": 166.9389193
        },
        "iso_3166_2": "NR-03",
        "iso_a2": "NR",
        "iso_a3": "NRU",
        "name": "Anetan",
        "postal": "03",
        "type": "",
        "type_en": ""
    },
    "04": {
        "alt_names": [
            "Anibare"
        ],
        "cca2": "NR",
        "cca3": "NRU",
        "code_hasc": "NR.AR",
        "extra": {
            "abbrev": "",
            "adm0_a3": "NRU",
            "adm0_label": "3",
            "adm0_sr": "3",
            "adm1_code": "NRU-4981",
            "admin": "Nauru",
            "area_sqkm": "0",
            "check_me": "0",
            "code_local": "",
            "data_sources": [
                "natural"
            ],
            "datarank": "10",
            "diss_me": "4981",
            "featurecla": "Admin-1 scale rank",
            "fips": "NR04",
            "fips_alt": "",
            "gadm_level": "0",
            "geonunit": "Nauru",
            "gn_a1_code": "NR.04",
            "gn_id": "2110445",
            "gn_level": "1",
            "gn_name": "Anibare District",
            "gn_region": "",
            "gns_adm1": "NR04",
            "gns_id": "-1187284",
            "gns_lang": "fra",
            "gns_level": "1",
            "gns_name": "Anibare District",
            "gns_region": "",
            "gu_a3": "NRU",
            "hasc_maybe": "",
            "labelrank": "20",
            "mapcolor9": "6",
            "mapcolor13": "9",
            "max_label": "11.0",
            "min_label": "9.0",
            "min_zoom": "9.0",
            "name_ar": "\u00d8\u00b6\u00d8\u00a7\u00d8\u00ad\u00d9\u008a\u00d8\u00a9 \u00d8\u00a3\u00d9\u0086\u00d8\u00a8\u00d8\u00a7\u00d9\u008a\u00d8\u00b1",
            "name_bn": "\u00e0\u00a6\u0086\u00e0\u00a6\u00a8\u00e0\u00a6\u00bf\u00e0\u00a6\u00ac\u00e0\u00a6\u00be\u00e0\u00a6\u00b0\u00e0\u00a7\u0087 \u00e0\u00a6\u009c\u00e0\u00a7\u0087\u00e0\u00a6\u00b2\u00e0\u00a6\u00be",
            "name_de": "Anibare",
            "name_el": "\u00ce\u0091\u00ce\u00bd\u00ce\u00b9\u00ce\u00bc\u00cf\u0080\u00ce\u00ac\u00cf\u0081\u00ce\u00b5",
            "name_en": "Anibare District",
            "name_es": "Anibare",
            "name_fr": "Anibare",
            "name_hi": "\u00e0\u00a4\u0085\u00e0\u00a4\u00a8\u00e0\u00a4\u00bf\u00e0\u00a4\u00ac\u00e0\u00a4\u00be\u00e0\u00a4\u00b0\u00e0\u00a5\u0087 \u00e0\u00a4\u009c\u00e0\u00a4\u00bf\u00e0\u00a4\u00b2\u00e0\u00a4\u00be",
            "name_hu": "",
            "name_id": "Anibare",
            "name_it": "Anibare",
            "name_ja": "\u00e3\u0082\u00a2\u00e3\u0083\u008b\u00e3\u0083\u0090\u00e3\u0083\u00ac\u00e5\u009c\u00b0\u00e5\u008c\u00ba",
            "name_ko": "\u00ec\u0095\u0084\u00eb\u008b\u0088\u00eb\u00b0\u0094\u00eb\u00a0\u0088 \u00ea\u00b5\u00ac",
            "name_len": "7",
            "name_local": "",
            "name_nl": "Anibare",
            "name_pl": "Anibare",
            "name_pt": "Anibare",
            "name_ru": "\u00d0\u0090\u00d0\u00bd\u00d0\u00b8\u00d0\u00b1\u00d0\u00b0\u00d1\u0080",
            "name_sv": "Anibare",
            "name_tr": "Anibare District",
            "name_vi": "Anibare",
            "name_zh": "\u00e5\u00ae\u0089\u00e5\u00b0\u00bc\u00e5\u00b7\u00b4\u00e6\u0083\u00b9\u00e5\u008d\u0080",
            "ne_id": "1159316179",
            "note": "",
            "provnum_ne": "0",
            "record_type": "state",
            "region": "",
            "region_cod": "",
            "region_sub": "",
            "sameascity": "-99",
            "scalerank": "5",
            "sov_a3": "NRU",
            "sub_code": "",
            "wikidataid": "Q328733",
            "wikipedia": "http:\/\/en.wikipedia.org\/wiki\/Anibare_District",
            "woe_id": "20070304",
            "woe_label": "",
            "woe_name": "Anibare"
        },
        "geo": {
            "latitude": -0.532915,
            "longitude": 166.944141,
            "max_latitude": -0.520894,
            "max_longitude": 166.9563043,
            "min_latitude": -0.5423,
            "min_longitude": 166.9355289
        },
        "iso_3166_2": "NR-04",
        "iso_a2": "NR",
        "iso_a3": "NRU",
        "name": "Anibare",
        "postal": "04",
        "type": "",
        "type_en": ""
    },
    "05": {
        "alt_names": [
            "Baiti"
        ],
        "cca2": "NR",
        "cca3": "NRU",
        "code_hasc": "NR.BA",
        "extra": {
            "abbrev": "",
            "adm0_a3": "NRU",
            "adm0_label": "3",
            "adm0_sr": "3",
            "adm1_code": "NRU-4976",
            "admin": "Nauru",
            "area_sqkm": "0",
            "check_me": "0",
            "code_local": "",
            "data_sources": [
                "natural"
            ],
            "datarank": "10",
            "diss_me": "4976",
            "featurecla": "Admin-1 scale rank",
            "fips": "NR05",
            "fips_alt": "",
            "gadm_level": "0",
            "geonunit": "Nauru",
            "gn_a1_code": "NR.05",
            "gn_id": "2110442",
            "gn_level": "1",
            "gn_name": "Baiti District",
            "gn_region": "",
            "gns_adm1": "NR05",
            "gns_id": "-1187287",
            "gns_lang": "fra",
            "gns_level": "1",
            "gns_name": "Baiti District",
            "gns_region": "",
            "gu_a3": "NRU",
            "hasc_maybe": "",
            "labelrank": "20",
            "mapcolor9": "6",
            "mapcolor13": "9",
            "max_label": "11.0",
            "min_label": "9.0",
            "min_zoom": "9.0",
            "name_ar": "\u00d8\u00b6\u00d8\u00a7\u00d8\u00ad\u00d9\u008a\u00d8\u00a9 \u00d8\u00a8\u00d8\u00a7\u00d9\u008a\u00d8\u00aa\u00d8\u00b3\u00d9\u008a",
            "name_bn": "\u00e0\u00a6\u00ac\u00e0\u00a7\u008b\u00e0\u00a6\u0087\u00e0\u00a6\u00a4\u00e0\u00a6\u00bf \u00e0\u00a6\u009c\u00e0\u00a7\u0087\u00e0\u00a6\u00b2\u00e0\u00a6\u00be",
            "name_de": "Baiti",
            "name_el": "\u00ce\u009c\u00cf\u0080\u00ce\u00b1\u00ce\u0090\u00cf\u0084\u00cf\u0083\u00ce\u00b9",
            "name_en": "Baiti District",
            "name_es": "Baiti",
            "name_fr": "Baiti",
            "name_hi": "\u00e0\u00a4\u00ac\u00e0\u00a5\u0088\u00e0\u00a4\u00a4\u00e0\u00a5\u0080 \u00e0\u00a4\u009c\u00e0\u00a4\u00bf\u00e0\u00a4\u00b2\u00e0\u00a4\u00be",
            "name_hu": "",
            "name_id": "Baiti",
            "name_it": "Baiti",
            "name_ja": "\u00e3\u0083\u0090\u00e3\u0082\u00a4\u00e3\u0083\u0081\u00e5\u009c\u00b0\u00e5\u008c\u00ba",
            "name_ko": "\u00eb\u00b0\u0094\u00ec\u009d\u00b4\u00ed\u008b\u00b0 \u00ea\u00b5\u00ac",
            "name_len": "5",
            "name_local": "",
            "name_nl": "Baiti",
            "name_pl": "Baiti",
            "name_pt": "Baiti",
            "name_ru": "\u00d0\u0091\u00d0\u00b0\u00d0\u00b8\u00d1\u0082\u00d0\u00b8",
            "name_sv": "Baiti",
            "name_tr": "Baiti",
            "name_vi": "Baiti",
            "name_zh": "\u00e7\u0099\u00bd\u00e5\u00b8\u009d\u00e5\u008d\u0080",
            "ne_id": "1159316169",
            "note": "",
            "provnum_ne": "0",
            "record_type": "state",
            "region": "",
            "region_cod": "",
            "region_sub": "",
            "sameascity": "-99",
            "scalerank": "5",
            "sov_a3": "NRU",
            "sub_code": "",
            "wikidataid": "Q328727",
            "wikipedia": "http:\/\/en.wikipedia.org\/wiki\/Baiti_District",
            "woe_id": "20070309",
            "woe_label": "",
            "woe_name": "Baiti"
        },
        "geo": {
            "latitude": -0.5133158,
            "longitude": 166.9311761,
            "max_latitude": -0.5060557,
            "max_longitude": 166.941229,
            "min_latitude": -0.5243401,
            "min_longitude": 166.925876
        },
        "iso_3166_2": "NR-05",
        "iso_a2": "NR",
        "iso_a3": "NRU",
        "name": "Baiti",
        "postal": "05",
        "type": "",
        "type_en": ""
    },
    "06": {
        "alt_names": [
            "Boe"
        ],
        "cca2": "NR",
        "cca3": "NRU",
        "code_hasc": "NR.BO",
        "extra": {
            "abbrev": "",
            "adm0_a3": "NRU",
            "adm0_label": "3",
            "adm0_sr": "3",
            "adm1_code": "NRU-4971",
            "admin": "Nauru",
            "area_sqkm": "0",
            "check_me": "0",
            "code_local": "",
            "data_sources": [
                "natural"
            ],
            "datarank": "10",
            "diss_me": "4971",
            "featurecla": "Admin-1 scale rank",
            "fips": "NR06",
            "fips_alt": "",
            "gadm_level": "0",
            "geonunit": "Nauru",
            "gn_a1_code": "NR.06",
            "gn_id": "2110441",
            "gn_level": "1",
            "gn_name": "Boe District",
            "gn_region": "",
            "gns_adm1": "NR06",
            "gns_id": "-1187288",
            "gns_lang": "fra",
            "gns_level": "1",
            "gns_name": "Boe District",
            "gns_region": "",
            "gu_a3": "NRU",
            "hasc_maybe": "",
            "labelrank": "20",
            "mapcolor9": "6",
            "mapcolor13": "9",
            "max_label": "11.0",
            "min_label": "9.0",
            "min_zoom": "9.0",
            "name_ar": "\u00d8\u00b6\u00d8\u00a7\u00d8\u00ad\u00d9\u008a\u00d8\u00a9 \u00d8\u00a8\u00d9\u0088",
            "name_bn": "\u00e0\u00a6\u00ac\u00e0\u00a7\u008b\u00e0\u00a6\u00af\u00e0\u00a6\u00bc\u00e0\u00a7\u0087 \u00e0\u00a6\u009c\u00e0\u00a7\u0087\u00e0\u00a6\u00b2\u00e0\u00a6\u00be",
            "name_de": "Boe",
            "name_el": "\u00ce\u009c\u00cf\u0080\u00cf\u008c\u00ce\u00b5",
            "name_en": "Boe District",
            "name_es": "Boe",
            "name_fr": "Boe",
            "name_hi": "\u00e0\u00a4\u00ac\u00e0\u00a5\u008b \u00e0\u00a4\u009c\u00e0\u00a4\u00bf\u00e0\u00a4\u00b2\u00e0\u00a4\u00be",
            "name_hu": "",
            "name_id": "Boe",
            "name_it": "Boe",
            "name_ja": "\u00e3\u0083\u009c\u00e3\u0082\u00a8\u00e5\u009c\u00b0\u00e5\u008c\u00ba",
            "name_ko": "\u00eb\u00b3\u00b4\u00ec\u0097\u0090 \u00ea\u00b5\u00ac",
            "name_len": "3",
            "name_local": "",
            "name_nl": "Boe",
            "name_pl": "Boe",
            "name_pt": "Boe",
            "name_ru": "\u00d0\u0091\u00d0\u00be\u00d1\u008d",
            "name_sv": "Boe",
            "name_tr": "Boe District",
            "name_vi": "Boe",
            "name_zh": "\u00e6\u00b3\u008a\u00e5\u008d\u0080",
            "ne_id": "1159316157",
            "note": "",
            "provnum_ne": "0",
            "record_type": "state",
            "region": "",
            "region_cod": "",
            "region_sub": "",
            "sameascity": "-99",
            "scalerank": "5",
            "sov_a3": "NRU",
            "sub_code": "",
            "wikidataid": "Q378829",
            "wikipedia": "http:\/\/en.wikipedia.org\/wiki\/Boe_District",
            "woe_id": "20070299",
            "woe_label": "",
            "woe_name": "Boe"
        },
        "geo": {
            "latitude": -0.5414945,
            "longitude": 166.9174893,
            "max_latitude": -0.538305,
            "max_longitude": 166.922186,
            "min_latitude": -0.544316,
            "min_longitude": 166.9117951
        },
        "iso_3166_2": "NR-06",
        "iso_a2": "NR",
        "iso_a3": "NRU",
        "name": "Boe",
        "postal": "06",
        "type": "",
        "type_en": ""
    },
    "07": {
        "alt_names": [
            "Buada"
        ],
        "cca2": "NR",
        "cca3": "NRU",
        "code_hasc": "NR.BU",
        "extra": {
            "abbrev": "",
            "adm0_a3": "NRU",
            "adm0_label": "3",
            "adm0_sr": "3",
            "adm1_code": "NRU-4970",
            "admin": "Nauru",
            "area_sqkm": "0",
            "check_me": "0",
            "code_local": "",
            "data_sources": [
                "natural"
            ],
            "datarank": "10",
            "diss_me": "4970",
            "featurecla": "Admin-1 scale rank",
            "fips": "NR07",
            "fips_alt": "",
            "gadm_level": "0",
            "geonunit": "Nauru",
            "gn_a1_code": "NR.07",
            "gn_id": "2110440",
            "gn_level": "1",
            "gn_name": "Buada District",
            "gn_region": "",
            "gns_adm1": "NR07",
            "gns_id": "-1187289",
            "gns_lang": "fra",
            "gns_level": "1",
            "gns_name": "Buada District",
            "gns_region": "",
            "gu_a3": "NRU",
            "hasc_maybe": "",
            "labelrank": "20",
            "mapcolor9": "6",
            "mapcolor13": "9",
            "max_label": "11.0",
            "min_label": "9.0",
            "min_zoom": "9.0",
            "name_ar": "\u00d8\u00b6\u00d8\u00a7\u00d8\u00ad\u00d9\u008a\u00d8\u00a9 \u00d8\u00a8\u00d9\u0088\u00d8\u00a7\u00d8\u00af\u00d8\u00a7",
            "name_bn": "\u00e0\u00a6\u00ac\u00e0\u00a7\u0081\u00e0\u00a6\u00af\u00e0\u00a6\u00bc\u00e0\u00a6\u00be\u00e0\u00a6\u00a6\u00e0\u00a6\u00be \u00e0\u00a6\u009c\u00e0\u00a7\u0087\u00e0\u00a6\u00b2\u00e0\u00a6\u00be",
            "name_de": "Buada",
            "name_el": "\u00ce\u009c\u00cf\u0080\u00ce\u00bf\u00cf\u0085\u00ce\u00ac\u00ce\u00bd\u00cf\u0084\u00ce\u00b1",
            "name_en": "Buada District",
            "name_es": "Buada",
            "name_fr": "Buada",
            "name_hi": "\u00e0\u00a4\u00ac\u00e0\u00a5\u0081\u00e0\u00a4\u0086\u00e0\u00a4\u00a1\u00e0\u00a4\u00be \u00e0\u00a4\u009c\u00e0\u00a4\u00bf\u00e0\u00a4\u00b2\u00e0\u00a4\u00be",
            "name_hu": "",
            "name_id": "Buada",
            "name_it": "Buada",
            "name_ja": "\u00e3\u0083\u0096\u00e3\u0082\u00a2\u00e3\u0083\u0080\u00e5\u009c\u00b0\u00e5\u008c\u00ba",
            "name_ko": "\u00eb\u00b6\u0080\u00ec\u0095\u0084\u00eb\u008b\u00a4 \u00ea\u00b5\u00ac",
            "name_len": "5",
            "name_local": "",
            "name_nl": "Buada",
            "name_pl": "Buada",
            "name_pt": "Buada",
            "name_ru": "\u00d0\u0091\u00d1\u0083\u00d0\u00b0\u00d0\u00b4\u00d0\u00b0",
            "name_sv": "Buada",
            "name_tr": "Buada District",
            "name_vi": "Buada",
            "name_zh": "\u00e9\u0083\u00a8\u00e4\u00ba\u009e\u00e9\u0081\u0094\u00e5\u008d\u0080",
            "ne_id": "1159315507",
            "note": "",
            "provnum_ne": "0",
            "record_type": "state",
            "region": "",
            "region_cod": "",
            "region_sub": "",
            "sameascity": "-99",
            "scalerank": "5",
            "sov_a3": "NRU",
            "sub_code": "",
            "wikidataid": "Q202747",
            "wikipedia": "http:\/\/en.wikipedia.org\/wiki\/Buada_District",
            "woe_id": "20070303",
            "woe_label": "",
            "woe_name": "Buada"
        },
        "geo": {
            "latitude": -0.5328777,
            "longitude": 166.9268541,
            "max_latitude": -0.5264839,
            "max_longitude": 166.936519,
            "min_latitude": -0.542245,
            "min_longitude": 166.916138
        },
        "iso_3166_2": "NR-07",
        "iso_a2": "NR",
        "iso_a3": "NRU",
        "name": "Buada",
        "postal": "07",
        "type": "",
        "type_en": ""
    },
    "08": {
        "alt_names": [
            "Denigomodu"
        ],
        "cca2": "NR",
        "cca3": "NRU",
        "code_hasc": "NR.DE",
        "extra": {
            "abbrev": "",
            "adm0_a3": "NRU",
            "adm0_label": "3",
            "adm0_sr": "3",
            "adm1_code": "NRU-4973",
            "admin": "Nauru",
            "area_sqkm": "0",
            "check_me": "0",
            "code_local": "",
            "data_sources": [
                "natural"
            ],
            "datarank": "10",
            "diss_me": "4973",
            "featurecla": "Admin-1 scale rank",
            "fips": "NR08",
            "fips_alt": "",
            "gadm_level": "0",
            "geonunit": "Nauru",
            "gn_a1_code": "NR.08",
            "gn_id": "2110437",
            "gn_level": "1",
            "gn_name": "Denigomodu District",
            "gn_region": "",
            "gns_adm1": "NR08",
            "gns_id": "-1187292",
            "gns_lang": "fra",
            "gns_level": "1",
            "gns_name": "Denigomodu District",
            "gns_region": "",
            "gu_a3": "NRU",
            "hasc_maybe": "",
            "labelrank": "20",
            "mapcolor9": "6",
            "mapcolor13": "9",
            "max_label": "11.0",
            "min_label": "9.0",
            "min_zoom": "9.0",
            "name_ar": "\u00d8\u00b6\u00d8\u00a7\u00d8\u00ad\u00d9\u008a\u00d8\u00a9 \u00d8\u00af\u00d9\u008a\u00d9\u0086\u00d9\u008a\u00d8\u00ba\u00d9\u0088\u00d9\u0085\u00d9\u0088\u00d8\u00af\u00d9\u0088",
            "name_bn": "\u00e0\u00a6\u00a1\u00e0\u00a7\u0087\u00e0\u00a6\u00a8\u00e0\u00a6\u00bf\u00e0\u00a6\u0097\u00e0\u00a7\u008b\u00e0\u00a6\u00ae\u00e0\u00a7\u0081\u00e0\u00a6\u00a6\u00e0\u00a7\u008b \u00e0\u00a6\u009c\u00e0\u00a7\u0087\u00e0\u00a6\u00b2\u00e0\u00a6\u00be",
            "name_de": "Denigomodu",
            "name_el": "\u00ce\u009d\u00cf\u0084\u00ce\u00b5\u00ce\u00bd\u00ce\u00b9\u00ce\u00b3\u00ce\u00ba\u00ce\u00bf\u00ce\u00bc\u00cf\u008c\u00ce\u00bd\u00cf\u0084\u00ce\u00bf\u00cf\u0085",
            "name_en": "Denigomodu District",
            "name_es": "Denigomodu",
            "name_fr": "Denigomodu",
            "name_hi": "\u00e0\u00a4\u00a1\u00e0\u00a5\u0087\u00e0\u00a4\u00a8\u00e0\u00a5\u0080\u00e0\u00a4\u0097\u00e0\u00a5\u008b\u00e0\u00a4\u00ae\u00e0\u00a5\u008b\u00e0\u00a4\u00a6\u00e0\u00a5\u0081 \u00e0\u00a4\u009c\u00e0\u00a4\u00bf\u00e0\u00a4\u00b2\u00e0\u00a4\u00be",
            "name_hu": "",
            "name_id": "Denigomodu",
            "name_it": "Denigomodu",
            "name_ja": "\u00e3\u0083\u0087\u00e3\u0083\u008b\u00e3\u0082\u00b4\u00e3\u0083\u00a0\u00e3\u0083\u0089\u00e3\u0082\u00a5\u00e5\u009c\u00b0\u00e5\u008c\u00ba",
            "name_ko": "\u00eb\u008d\u00b0\u00eb\u008b\u0088\u00ea\u00b3\u00a0\u00eb\u00aa\u00a8\u00eb\u0091\u0090 \u00ea\u00b5\u00ac",
            "name_len": "10",
            "name_local": "",
            "name_nl": "Denigomodu",
            "name_pl": "Denigomodu",
            "name_pt": "Anexo:Distritos de Nauru",
            "name_ru": "\u00d0\u0094\u00d0\u00b5\u00d0\u00bd\u00d0\u00b8\u00d0\u00b3\u00d0\u00be\u00d0\u00bc\u00d0\u00be\u00d0\u00b4\u00d1\u0083",
            "name_sv": "Denigomodu",
            "name_tr": "Denigomodu District",
            "name_vi": "Denigomodu",
            "name_zh": "\u00e5\u00be\u00b7\u00e5\u00b0\u00bc\u00e9\u00ab\u0098\u00e8\u008e\u00ab\u00e9\u0083\u00bd\u00e5\u008d\u0080",
            "ne_id": "1159316161",
            "note": "",
            "provnum_ne": "0",
            "record_type": "state",
            "region": "",
            "region_cod": "",
            "region_sub": "",
            "sameascity": "-99",
            "scalerank": "5",
            "sov_a3": "NRU",
            "sub_code": "",
            "wikidataid": "Q1187200",
            "wikipedia": "http:\/\/en.wikipedia.org\/wiki\/Denigomodu_District",
            "woe_id": "20070302",
            "woe_label": "",
            "woe_name": "Denigomodu"
        },
        "geo": {
            "latitude": -0.5247964,
            "longitude": 166.9167689,
            "max_latitude": -0.5191129,
            "max_longitude": 166.925101,
            "min_latitude": -0.5291599,
            "min_longitude": 166.9108336
        },
        "iso_3166_2": "NR-08",
        "iso_a2": "NR",
        "iso_a3": "NRU",
        "name": "Denigomodu",
        "postal": "08",
        "type": "",
        "type_en": ""
    },
    "09": {
        "alt_names": [
            "Ewa"
        ],
        "cca2": "NR",
        "cca3": "NRU",
        "code_hasc": "NR.EW",
        "extra": {
            "abbrev": "",
            "adm0_a3": "NRU",
            "adm0_label": "3",
            "adm0_sr": "3",
            "adm1_code": "NRU-4977",
            "admin": "Nauru",
            "area_sqkm": "0",
            "check_me": "0",
            "code_local": "",
            "data_sources": [
                "natural"
            ],
            "datarank": "10",
            "diss_me": "4977",
            "featurecla": "Admin-1 scale rank",
            "fips": "NR09",
            "fips_alt": "",
            "gadm_level": "0",
            "geonunit": "Nauru",
            "gn_a1_code": "NR.09",
            "gn_id": "2110435",
            "gn_level": "1",
            "gn_name": "Ewa District",
            "gn_region": "",
            "gns_adm1": "NR09",
            "gns_id": "-1187294",
            "gns_lang": "fra",
            "gns_level": "1",
            "gns_name": "Ewa District",
            "gns_region": "",
            "gu_a3": "NRU",
            "hasc_maybe": "",
            "labelrank": "20",
            "mapcolor9": "6",
            "mapcolor13": "9",
            "max_label": "11.0",
            "min_label": "9.0",
            "min_zoom": "9.0",
            "name_ar": "\u00d8\u00b6\u00d8\u00a7\u00d8\u00ad\u00d9\u008a\u00d8\u00a9 \u00d8\u00a5\u00d9\u008a\u00d9\u0088\u00d8\u00a7",
            "name_bn": "\u00e0\u00a6\u008f\u00e0\u00a6\u0093\u00e0\u00a6\u00af\u00e0\u00a6\u00bc\u00e0\u00a6\u00be \u00e0\u00a6\u009c\u00e0\u00a7\u0087\u00e0\u00a6\u00b2\u00e0\u00a6\u00be",
            "name_de": "Ewa",
            "name_el": "\u00ce\u0088\u00ce\u00b2\u00ce\u00b1",
            "name_en": "Ewa District",
            "name_es": "Ewa",
            "name_fr": "Ewa",
            "name_hi": "\u00e0\u00a4\u008f\u00e0\u00a4\u00b5\u00e0\u00a4\u00be \u00e0\u00a4\u009c\u00e0\u00a4\u00bf\u00e0\u00a4\u00b2\u00e0\u00a4\u00be",
            "name_hu": "",
            "name_id": "Ewa",
            "name_it": "Ewa",
            "name_ja": "\u00e3\u0082\u00a8\u00e3\u0082\u00a6\u00e3\u0082\u00a1\u00e5\u009c\u00b0\u00e5\u008c\u00ba",
            "name_ko": "\u00ec\u0097\u0090\u00ec\u0099\u0080 \u00ea\u00b5\u00ac",
            "name_len": "3",
            "name_local": "",
            "name_nl": "Ewa",
            "name_pl": "Ewa",
            "name_pt": "Ewa",
            "name_ru": "\u00d0\u0095\u00d0\u00b2\u00d0\u00b0",
            "name_sv": "Ewa",
            "name_tr": "Ewa District",
            "name_vi": "Ewa",
            "name_zh": "\u00e5\u009f\u0083\u00e7\u0093\u00a6\u00e5\u008d\u0080",
            "ne_id": "1159316171",
            "note": "",
            "provnum_ne": "0",
            "record_type": "state",
            "region": "",
            "region_cod": "",
            "region_sub": "",
            "sameascity": "-99",
            "scalerank": "5",
            "sov_a3": "NRU",
            "sub_code": "",
            "wikidataid": "Q274381",
            "wikipedia": "http:\/\/en.wikipedia.org\/wiki\/Ewa_District",
            "woe_id": "20070310",
            "woe_label": "",
            "woe_name": "Ewa"
        },
        "geo": {
            "latitude": -0.5087241,
            "longitude": 166.9369384,
            "max_latitude": -0.5026395,
            "max_longitude": 166.9437219,
            "min_latitude": -0.5203079,
            "min_longitude": 166.9306406
        },
        "iso_3166_2": "NR-09",
        "iso_a2": "NR",
        "iso_a3": "NRU",
        "name": "Ewa",
        "postal": "09",
        "type": "",
        "type_en": ""
    },
    "10": {
        "alt_names": [
            "Ijuw"
        ],
        "cca2": "NR",
        "cca3": "NRU",
        "code_hasc": "NR.IJ",
        "extra": {
            "abbrev": "",
            "adm0_a3": "NRU",
            "adm0_label": "3",
            "adm0_sr": "3",
            "adm1_code": "NRU-4980",
            "admin": "Nauru",
            "area_sqkm": "0",
            "check_me": "0",
            "code_local": "",
            "data_sources": [
                "natural"
            ],
            "datarank": "10",
            "diss_me": "4980",
            "featurecla": "Admin-1 scale rank",
            "fips": "NR10",
            "fips_alt": "",
            "gadm_level": "0",
            "geonunit": "Nauru",
            "gn_a1_code": "NR.10",
            "gn_id": "2110432",
            "gn_level": "1",
            "gn_name": "Ijuw District",
            "gn_region": "",
            "gns_adm1": "NR10",
            "gns_id": "-1187297",
            "gns_lang": "fra",
            "gns_level": "1",
            "gns_name": "Ijuw",
            "gns_region": "",
            "gu_a3": "NRU",
            "hasc_maybe": "",
            "labelrank": "20",
            "mapcolor9": "6",
            "mapcolor13": "9",
            "max_label": "11.0",
            "min_label": "9.0",
            "min_zoom": "9.0",
            "name_ar": "\u00d8\u00b6\u00d8\u00a7\u00d8\u00ad\u00d9\u008a\u00d8\u00a9 \u00d8\u00a3\u00d9\u008a\u00d8\u00ac\u00d9\u0088",
            "name_bn": "\u00e0\u00a6\u0087\u00e0\u00a6\u009c\u00e0\u00a7\u0081\u00e0\u00a6\u0089 \u00e0\u00a6\u009c\u00e0\u00a7\u0087\u00e0\u00a6\u00b2\u00e0\u00a6\u00be",
            "name_de": "Ijuw",
            "name_el": "\u00ce\u008a\u00cf\u0084\u00ce\u00b6\u00ce\u00bf\u00cf\u0085",
            "name_en": "Ijuw District",
            "name_es": "Ijuw",
            "name_fr": "Ijuw",
            "name_hi": "\u00e0\u00a4\u0087\u00e0\u00a4\u00af\u00e0\u00a5\u0081\u00e0\u00a4\u00b5 \u00e0\u00a4\u009c\u00e0\u00a4\u00bf\u00e0\u00a4\u00b2\u00e0\u00a4\u00be",
            "name_hu": "",
            "name_id": "Ijuw",
            "name_it": "Ijuw",
            "name_ja": "\u00e3\u0082\u00a4\u00e3\u0082\u00b8\u00e3\u0083\u00a5\u00e3\u0082\u00a6\u00e5\u009c\u00b0\u00e5\u008c\u00ba",
            "name_ko": "\u00ec\u009d\u00b4\u00ec\u009c\u00a0\u00eb\u00b8\u008c \u00ea\u00b5\u00ac",
            "name_len": "4",
            "name_local": "",
            "name_nl": "Ijuw",
            "name_pl": "Ijuw",
            "name_pt": "Ijuw",
            "name_ru": "\u00d0\u0098\u00d1\u008e\u00d0\u00b2",
            "name_sv": "Ijuw",
            "name_tr": "\u00c4\u00b0yuv",
            "name_vi": "Ijuw",
            "name_zh": "\u00e8\u0089\u00be\u00e7\u008f\u00a0\u00e5\u008d\u0080",
            "ne_id": "1159316177",
            "note": "",
            "provnum_ne": "0",
            "record_type": "state",
            "region": "",
            "region_cod": "",
            "region_sub": "",
            "sameascity": "-99",
            "scalerank": "5",
            "sov_a3": "NRU",
            "sub_code": "",
            "wikidataid": "Q328738",
            "wikipedia": "http:\/\/en.wikipedia.org\/wiki\/Ijuw_District",
            "woe_id": "20070305",
            "woe_label": "",
            "woe_name": "Ijuw"
        },
        "geo": {
            "latitude": -0.5202646,
            "longitude": 166.9513432,
            "max_latitude": -0.514258,
            "max_longitude": 166.958865,
            "min_latitude": -0.523936,
            "min_longitude": 166.9436481
        },
        "iso_3166_2": "NR-10",
        "iso_a2": "NR",
        "iso_a3": "NRU",
        "name": "Ijuw",
        "postal": "10",
        "type": "",
        "type_en": ""
    },
    "11": {
        "alt_names": [
            "Meneng"
        ],
        "cca2": "NR",
        "cca3": "NRU",
        "code_hasc": "NR.ME",
        "extra": {
            "abbrev": "",
            "adm0_a3": "NRU",
            "adm0_label": "3",
            "adm0_sr": "3",
            "adm1_code": "NRU-4982",
            "admin": "Nauru",
            "area_sqkm": "0",
            "check_me": "0",
            "code_local": "",
            "data_sources": [
                "natural"
            ],
            "datarank": "10",
            "diss_me": "4982",
            "featurecla": "Admin-1 scale rank",
            "fips": "NR11",
            "fips_alt": "",
            "gadm_level": "0",
            "geonunit": "Nauru",
            "gn_a1_code": "NR.04",
            "gn_id": "2110445",
            "gn_level": "1",
            "gn_name": "Anibare District",
            "gn_region": "",
            "gns_adm1": "NR11",
            "gns_id": "-1187299",
            "gns_lang": "fra",
            "gns_level": "1",
            "gns_name": "Meneng District",
            "gns_region": "",
            "gu_a3": "NRU",
            "hasc_maybe": "",
            "labelrank": "20",
            "mapcolor9": "6",
            "mapcolor13": "9",
            "max_label": "11.0",
            "min_label": "9.0",
            "min_zoom": "9.0",
            "name_ar": "\u00d8\u00b6\u00d8\u00a7\u00d8\u00ad\u00d9\u008a\u00d8\u00a9 \u00d9\u0085\u00d9\u008a\u00d9\u0086\u00d9\u008a\u00d9\u0086\u00d8\u00ba",
            "name_bn": "\u00e0\u00a6\u00ae\u00e0\u00a7\u0087\u00e0\u00a6\u00a8\u00e0\u00a7\u0087\u00e0\u00a6\u0082 \u00e0\u00a6\u009c\u00e0\u00a7\u0087\u00e0\u00a6\u00b2\u00e0\u00a6\u00be",
            "name_de": "Meneng",
            "name_el": "\u00ce\u009c\u00ce\u00b5\u00ce\u00bd\u00ce\u00ad\u00ce\u00bd\u00ce\u00b3\u00ce\u00ba",
            "name_en": "Meneng District",
            "name_es": "Meneng",
            "name_fr": "Meneng",
            "name_hi": "\u00e0\u00a4\u00ae\u00e0\u00a5\u0087\u00e0\u00a4\u00a8\u00e0\u00a5\u0087\u00e0\u00a4\u0082\u00e0\u00a4\u0097 \u00e0\u00a4\u009c\u00e0\u00a4\u00bf\u00e0\u00a4\u00b2\u00e0\u00a4\u00be",
            "name_hu": "",
            "name_id": "Meneng",
            "name_it": "Meneng",
            "name_ja": "\u00e3\u0083\u00a1\u00e3\u0083\u008d\u00e3\u0083\u00b3\u00e5\u009c\u00b0\u00e5\u008c\u00ba",
            "name_ko": "\u00eb\u00a9\u0094\u00eb\u0084\u00b9 \u00ea\u00b5\u00ac",
            "name_len": "6",
            "name_local": "",
            "name_nl": "Meneng",
            "name_pl": "Meneng",
            "name_pt": "Meneng",
            "name_ru": "\u00d0\u009c\u00d0\u00b5\u00d0\u00bd\u00d0\u00b5\u00d0\u00bd\u00d0\u00b3",
            "name_sv": "Meneng",
            "name_tr": "Meneng District",
            "name_vi": "Meneng",
            "name_zh": "\u00e6\u00b9\u0084\u00e6\u00bf\u0098\u00e5\u008d\u0080",
            "ne_id": "1159316183",
            "note": "",
            "provnum_ne": "0",
            "record_type": "state",
            "region": "",
            "region_cod": "",
            "region_sub": "",
            "sameascity": "-99",
            "scalerank": "5",
            "sov_a3": "NRU",
            "sub_code": "",
            "wikidataid": "Q327788",
            "wikipedia": "http:\/\/en.wikipedia.org\/wiki\/Meneng_District",
            "woe_id": "20070301",
            "woe_label": "",
            "woe_name": "Meneng"
        },
        "geo": {
            "latitude": -0.546724,
            "longitude": 166.938379,
            "max_latitude": -0.5366,
            "max_longitude": 166.9506771,
            "min_latitude": -0.5539963,
            "min_longitude": 166.9286009
        },
        "iso_3166_2": "NR-11",
        "iso_a2": "NR",
        "iso_a3": "NRU",
        "name": "Meneng",
        "postal": "11",
        "type": "",
        "type_en": ""
    },
    "12": {
        "alt_names": [
            "Nibok"
        ],
        "cca2": "NR",
        "cca3": "NRU",
        "code_hasc": "NR.NI",
        "extra": {
            "abbrev": "",
            "adm0_a3": "NRU",
            "adm0_label": "3",
            "adm0_sr": "3",
            "adm1_code": "NRU-4974",
            "admin": "Nauru",
            "area_sqkm": "0",
            "check_me": "0",
            "code_local": "",
            "data_sources": [
                "natural"
            ],
            "datarank": "10",
            "diss_me": "4974",
            "featurecla": "Admin-1 scale rank",
            "fips": "NR12",
            "fips_alt": "",
            "gadm_level": "0",
            "geonunit": "Nauru",
            "gn_a1_code": "NR.13",
            "gn_id": "2110420",
            "gn_level": "1",
            "gn_name": "Uaboe District",
            "gn_region": "",
            "gns_adm1": "NR12",
            "gns_id": "-1187307",
            "gns_lang": "fra",
            "gns_level": "1",
            "gns_name": "Nibok District",
            "gns_region": "",
            "gu_a3": "NRU",
            "hasc_maybe": "",
            "labelrank": "20",
            "mapcolor9": "6",
            "mapcolor13": "9",
            "max_label": "11.0",
            "min_label": "9.0",
            "min_zoom": "9.0",
            "name_ar": "\u00d8\u00b6\u00d8\u00a7\u00d8\u00ad\u00d9\u008a\u00d8\u00a9 \u00d9\u0086\u00d9\u008a\u00d8\u00a8\u00d9\u0088\u00d9\u0083",
            "name_bn": "\u00e0\u00a6\u00a8\u00e0\u00a6\u00bf\u00e0\u00a6\u00ac\u00e0\u00a7\u0081\u00e0\u00a6\u0095 \u00e0\u00a6\u009c\u00e0\u00a7\u0087\u00e0\u00a6\u00b2\u00e0\u00a6\u00be",
            "name_de": "Nibok",
            "name_el": "\u00ce\u009d\u00ce\u00af\u00ce\u00bc\u00cf\u0080\u00ce\u00bf\u00ce\u00ba",
            "name_en": "Nibok District",
            "name_es": "Nibok",
            "name_fr": "Nibok",
            "name_hi": "\u00e0\u00a4\u00a8\u00e0\u00a4\u00bf\u00e0\u00a4\u00ac\u00e0\u00a5\u008b\u00e0\u00a4\u0095 \u00e0\u00a4\u009c\u00e0\u00a4\u00bf\u00e0\u00a4\u00b2\u00e0\u00a4\u00be",
            "name_hu": "",
            "name_id": "Nibok",
            "name_it": "Nibok",
            "name_ja": "\u00e3\u0083\u008b\u00e3\u0083\u009c\u00e3\u0082\u00af\u00e5\u009c\u00b0\u00e5\u008c\u00ba",
            "name_ko": "\u00eb\u008b\u0088\u00eb\u00b3\u00b4\u00ed\u0081\u00ac \u00ea\u00b5\u00ac",
            "name_len": "5",
            "name_local": "",
            "name_nl": "Nibok",
            "name_pl": "Nibok",
            "name_pt": "Nibok",
            "name_ru": "\u00d0\u009d\u00d0\u00b8\u00d0\u00b1\u00d0\u00be\u00d0\u00ba",
            "name_sv": "Nibok",
            "name_tr": "Nibok District",
            "name_vi": "Nibok",
            "name_zh": "\u00e5\u00b0\u00bc\u00e6\u009f\u008f\u00e5\u008d\u0080",
            "ne_id": "1159316165",
            "note": "",
            "provnum_ne": "0",
            "record_type": "state",
            "region": "",
            "region_cod": "",
            "region_sub": "",
            "sameascity": "-99",
            "scalerank": "5",
            "sov_a3": "NRU",
            "sub_code": "",
            "wikidataid": "Q378780",
            "wikipedia": "http:\/\/en.wikipedia.org\/wiki\/Nibok_District",
            "woe_id": "20070306",
            "woe_label": "",
            "woe_name": "Nibok"
        },
        "geo": {
            "latitude": -0.5225124,
            "longitude": 166.9254134,
            "max_latitude": -0.5136925,
            "max_longitude": 166.9371241,
            "min_latitude": -0.530461,
            "min_longitude": 166.917013
        },
        "iso_3166_2": "NR-12",
        "iso_a2": "NR",
        "iso_a3": "NRU",
        "name": "Nibok",
        "postal": "12",
        "type": "",
        "type_en": ""
    },
    "13": {
        "alt_names": [
            "Uaboe"
        ],
        "cca2": "NR",
        "cca3": "NRU",
        "code_hasc": "NR.UA",
        "extra": {
            "abbrev": "",
            "adm0_a3": "NRU",
            "adm0_label": "3",
            "adm0_sr": "3",
            "adm1_code": "NRU-4975",
            "admin": "Nauru",
            "area_sqkm": "0",
            "check_me": "0",
            "code_local": "",
            "data_sources": [
                "natural"
            ],
            "datarank": "10",
            "diss_me": "4975",
            "featurecla": "Admin-1 scale rank",
            "fips": "NR13",
            "fips_alt": "",
            "gadm_level": "0",
            "geonunit": "Nauru",
            "gn_a1_code": "NR.13",
            "gn_id": "2110420",
            "gn_level": "1",
            "gn_name": "Uaboe District",
            "gn_region": "",
            "gns_adm1": "NR13",
            "gns_id": "-1187312",
            "gns_lang": "fra",
            "gns_level": "1",
            "gns_name": "Uaboe District",
            "gns_region": "",
            "gu_a3": "NRU",
            "hasc_maybe": "",
            "labelrank": "20",
            "mapcolor9": "6",
            "mapcolor13": "9",
            "max_label": "11.0",
            "min_label": "9.0",
            "min_zoom": "9.0",
            "name_ar": "\u00d8\u00b6\u00d8\u00a7\u00d8\u00ad\u00d9\u008a\u00d8\u00a9 \u00d9\u008a\u00d9\u0088\u00d8\u00a7\u00d8\u00a8\u00d9\u0088\u00d9\u008a",
            "name_bn": "\u00e0\u00a6\u0089\u00e0\u00a6\u00af\u00e0\u00a6\u00bc\u00e0\u00a6\u00be\u00e0\u00a6\u00ac\u00e0\u00a7\u0081\u00e0\u00a6\u00af\u00e0\u00a6\u00bc\u00e0\u00a7\u0087 \u00e0\u00a6\u009c\u00e0\u00a7\u0087\u00e0\u00a6\u00b2\u00e0\u00a6\u00be",
            "name_de": "Uaboe",
            "name_el": "\u00ce\u009f\u00cf\u0085\u00ce\u00b1\u00ce\u00bc\u00cf\u0080\u00cf\u008c\u00ce\u00b5",
            "name_en": "Uaboe District",
            "name_es": "Uaboe",
            "name_fr": "Uaboe",
            "name_hi": "\u00e0\u00a4\u00af\u00e0\u00a5\u0081\u00e0\u00a4\u0086\u00e0\u00a4\u00ac\u00e0\u00a5\u008b \u00e0\u00a4\u009c\u00e0\u00a4\u00bf\u00e0\u00a4\u00b2\u00e0\u00a4\u00be",
            "name_hu": "",
            "name_id": "Uaboe",
            "name_it": "Uaboe",
            "name_ja": "\u00e3\u0082\u00a6\u00e3\u0082\u00a2\u00e3\u0083\u009c\u00e3\u0082\u00a8\u00e5\u009c\u00b0\u00e5\u008c\u00ba",
            "name_ko": "\u00ec\u009a\u00b0\u00ec\u0095\u0084\u00eb\u00b3\u00b4\u00ec\u0097\u0090 \u00ea\u00b5\u00ac",
            "name_len": "5",
            "name_local": "",
            "name_nl": "Uaboe",
            "name_pl": "Uaboe",
            "name_pt": "Uaboe",
            "name_ru": "\u00d0\u00a3\u00d0\u00b0\u00d0\u00b1\u00d0\u00be",
            "name_sv": "Uaboe",
            "name_tr": "Uaboe District",
            "name_vi": "Uaboe",
            "name_zh": "\u00e5\u0084\u00aa\u00e9\u009b\u0085\u00e5\u00b8\u0083\u00e5\u008d\u0080",
            "ne_id": "1159316167",
            "note": "",
            "provnum_ne": "0",
            "record_type": "state",
            "region": "",
            "region_cod": "",
            "region_sub": "",
            "sameascity": "-99",
            "scalerank": "5",
            "sov_a3": "NRU",
            "sub_code": "",
            "wikidataid": "Q473764",
            "wikipedia": "http:\/\/en.wikipedia.org\/wiki\/Uaboe_District",
            "woe_id": "20070307",
            "woe_label": "",
            "woe_name": "Uaboe"
        },
        "geo": {
            "latitude": -0.5173398,
            "longitude": 166.9290151,
            "max_latitude": -0.5118939,
            "max_longitude": 166.939466,
            "min_latitude": -0.5244783,
            "min_longitude": 166.9229766
        },
        "iso_3166_2": "NR-13",
        "iso_a2": "NR",
        "iso_a3": "NRU",
        "name": "Uaboe",
        "postal": "13",
        "type": "",
        "type_en": ""
    },
    "14": {
        "alt_names": [
            "Yaren"
        ],
        "cca2": "NR",
        "cca3": "NRU",
        "code_hasc": "NR.YA",
        "extra": {
            "abbrev": "",
            "adm0_a3": "NRU",
            "adm0_label": "3",
            "adm0_sr": "3",
            "adm1_code": "NRU-4983",
            "admin": "Nauru",
            "area_sqkm": "0",
            "check_me": "0",
            "code_local": "",
            "data_sources": [
                "natural"
            ],
            "datarank": "10",
            "diss_me": "4983",
            "featurecla": "Admin-1 scale rank",
            "fips": "NR14",
            "fips_alt": "",
            "gadm_level": "0",
            "geonunit": "Nauru",
            "gn_a1_code": "NR.14",
            "gn_id": "2110418",
            "gn_level": "1",
            "gn_name": "Yaren",
            "gn_region": "",
            "gns_adm1": "NR14",
            "gns_id": "-1187314",
            "gns_lang": "fra",
            "gns_level": "1",
            "gns_name": "Yaren District",
            "gns_region": "",
            "gu_a3": "NRU",
            "hasc_maybe": "",
            "labelrank": "20",
            "mapcolor9": "6",
            "mapcolor13": "9",
            "max_label": "11.0",
            "min_label": "9.0",
            "min_zoom": "9.0",
            "name_ar": "\u00d8\u00b6\u00d8\u00a7\u00d8\u00ad\u00d9\u008a\u00d8\u00a9 \u00d9\u008a\u00d8\u00a7\u00d8\u00b1\u00d9\u008a\u00d9\u0086",
            "name_bn": "\u00e0\u00a6\u0087\u00e0\u00a6\u00af\u00e0\u00a6\u00bc\u00e0\u00a6\u00be\u00e0\u00a6\u00b0\u00e0\u00a7\u0087\u00e0\u00a6\u00a8 \u00e0\u00a6\u009c\u00e0\u00a7\u0087\u00e0\u00a6\u00b2\u00e0\u00a6\u00be",
            "name_de": "Yaren",
            "name_el": "\u00ce\u0093\u00ce\u00b9\u00ce\u00b1\u00cf\u0081\u00ce\u00ad\u00ce\u00bd",
            "name_en": "Yaren District",
            "name_es": "Yaren",
            "name_fr": "Yaren",
            "name_hi": "\u00e0\u00a4\u00af\u00e0\u00a4\u00be\u00e0\u00a4\u00b0\u00e0\u00a5\u0087\u00e0\u00a4\u00a8 \u00e0\u00a4\u009c\u00e0\u00a4\u00bf\u00e0\u00a4\u00b2\u00e0\u00a4\u00be",
            "name_hu": "Yaren",
            "name_id": "Yaren",
            "name_it": "Yaren",
            "name_ja": "\u00e3\u0083\u00a4\u00e3\u0083\u00ac\u00e3\u0083\u00b3\u00e5\u009c\u00b0\u00e5\u008c\u00ba",
            "name_ko": "\u00ec\u0095\u00bc\u00eb\u00a0\u008c \u00ea\u00b5\u00ac",
            "name_len": "5",
            "name_local": "",
            "name_nl": "Yaren",
            "name_pl": "Yaren",
            "name_pt": "Yaren",
            "name_ru": "\u00d0\u00af\u00d1\u0080\u00d0\u00b5\u00d0\u00bd",
            "name_sv": "Yaren",
            "name_tr": "Yaren",
            "name_vi": "Yaren",
            "name_zh": "\u00e4\u00ba\u009e\u00e5\u0080\u00ab\u00e5\u008d\u0080",
            "ne_id": "1159316185",
            "note": "",
            "provnum_ne": "0",
            "record_type": "state",
            "region": "",
            "region_cod": "",
            "region_sub": "",
            "sameascity": "-99",
            "scalerank": "5",
            "sov_a3": "NRU",
            "sub_code": "",
            "wikidataid": "Q31026",
            "wikipedia": "http:\/\/en.wikipedia.org\/wiki\/Yaren_District",
            "woe_id": "20070300",
            "woe_label": "",
            "woe_name": "Yaren"
        },
        "geo": {
            "latitude": -0.5466857,
            "longitude": 166.9210913,
            "max_latitude": -0.5398079,
            "max_longitude": 166.9298291,
            "min_latitude": -0.5541411,
            "min_longitude": 166.9109682
        },
        "iso_3166_2": "NR-14",
        "iso_a2": "NR",
        "iso_a3": "NRU",
        "name": "Yaren",
        "postal": "14",
        "type": "",
        "type_en": ""
    }
}