{
    "002": {
        "alt_names": [
            "Aimeliik"
        ],
        "cca2": "PW",
        "cca3": "PLW",
        "code_hasc": "PW.AM",
        "extra": {
            "abbrev": "",
            "adm0_a3": "PLW",
            "adm0_label": "2",
            "adm0_sr": "4",
            "adm1_code": "PLW-5244",
            "admin": "Palau",
            "area_sqkm": "0",
            "check_me": "0",
            "code_local": "",
            "data_sources": [
                "natural"
            ],
            "datarank": "10",
            "diss_me": "5244",
            "featurecla": "Admin-1 scale rank",
            "fips": "",
            "fips_alt": "",
            "gadm_level": "0",
            "geonunit": "Palau",
            "gn_a1_code": "PW.01",
            "gn_id": "1559964",
            "gn_level": "1",
            "gn_name": "State of Aimeliik",
            "gn_region": "",
            "gns_adm1": "PS01",
            "gns_id": "-3737939",
            "gns_lang": "eng",
            "gns_level": "1",
            "gns_name": "Aimeliik, State of",
            "gns_region": "",
            "gu_a3": "PLW",
            "hasc_maybe": "",
            "labelrank": "20",
            "mapcolor9": "1",
            "mapcolor13": "12",
            "max_label": "11.0",
            "min_label": "11.0",
            "min_zoom": "11.0",
            "name_ar": "\u00d8\u00a3\u00d9\u008a\u00d9\u0085\u00d9\u008a\u00d9\u0084\u00d9\u008a\u00d9\u0083",
            "name_bn": "\u00e0\u00a6\u008f\u00e0\u00a6\u0087\u00e0\u00a6\u00ae\u00e0\u00a7\u0087\u00e0\u00a6\u00b2\u00e0\u00a6\u00bf\u00e0\u00a6\u0095",
            "name_de": "Aimeliik",
            "name_el": "\u00ce\u0091\u00cf\u008a\u00ce\u00bc\u00ce\u00b5\u00ce\u00bb\u00ce\u00af\u00ce\u00ba",
            "name_en": "Aimeliik",
            "name_es": "Aimeliik",
            "name_fr": "Aimeliik",
            "name_hi": "\u00e0\u00a4\u008f\u00e0\u00a4\u00ae\u00e0\u00a4\u00bf\u00e0\u00a4\u00b2\u00e0\u00a5\u0080\u00e0\u00a4\u0087\u00e0\u00a4\u0095",
            "name_hu": "",
            "name_id": "Aimeliik",
            "name_it": "Aimeliik",
            "name_ja": "\u00e3\u0082\u00a2\u00e3\u0082\u00a4\u00e3\u0083\u00a1\u00e3\u0083\u00aa\u00e3\u0083\u00bc\u00e3\u0082\u00af\u00e5\u00b7\u009e",
            "name_ko": "\u00ec\u0095\u0084\u00ec\u009d\u00b4\u00eb\u00a9\u009c\u00eb\u00a6\u00ac\u00ed\u0081\u00ac \u00ec\u00a3\u00bc",
            "name_len": "8",
            "name_local": "",
            "name_nl": "Aimeliik",
            "name_pl": "Aimeliik",
            "name_pt": "Aimeliik",
            "name_ru": "\u00d0\u0090\u00d0\u00b8\u00d0\u00bc\u00d0\u00b5\u00d0\u00bb\u00d0\u00b8\u00d0\u00b8\u00d0\u00ba",
            "name_sv": "Aimeliik",
            "name_tr": "Aimeliik",
            "name_vi": "Aimeliik",
            "name_zh": "\u00e8\u0089\u00be\u00e6\u00a2\u0085\u00e5\u0088\u00a9\u00e5\u0085\u008b\u00e5\u00b7\u009e",
            "ne_id": "1159316713",
            "note": "",
            "provnum_ne": "0",
            "record_type": "state",
            "region": "",
            "region_cod": "",
            "region_sub": "",
            "sameascity": "-99",
            "scalerank": "10",
            "sov_a3": "PLW",
            "sub_code": "",
            "wikidataid": "Q405589",
            "wikipedia": "",
            "woe_id": "24549821",
            "woe_label": "",
            "woe_name": "Aimeliik"
        },
        "geo": {
            "latitude": 7.4455859,
            "longitude": 134.5030878,
            "max_latitude": 7.479571,
            "max_longitude": 134.540505,
            "min_latitude": 7.393169,
            "min_longitude": 134.4686879
        },
        "iso_3166_2": "PW-002",
        "iso_a2": "PW",
        "iso_a3": "PLW",
        "name": "Aimeliik",
        "postal": "002",
        "type": "",
        "type_en": ""
    },
    "004": {
        "alt_names": [
            "Airai"
        ],
        "cca2": "PW",
        "cca3": "PLW",
        "code_hasc": "PW.AR",
        "extra": {
            "abbrev": "",
            "adm0_a3": "PLW",
            "adm0_label": "2",
            "adm0_sr": "4",
            "adm1_code": "PLW-5245",
            "admin": "Palau",
            "area_sqkm": "0",
            "check_me": "0",
            "code_local": "",
            "data_sources": [
                "natural"
            ],
            "datarank": "10",
            "diss_me": "5245",
            "featurecla": "Admin-1 scale rank",
            "fips": "",
            "fips_alt": "",
            "gadm_level": "0",
            "geonunit": "Palau",
            "gn_a1_code": "PW.02",
            "gn_id": "4037645",
            "gn_level": "1",
            "gn_name": "State of Airai",
            "gn_region": "",
            "gns_adm1": "PS02",
            "gns_id": "-3737940",
            "gns_lang": "eng",
            "gns_level": "1",
            "gns_name": "Airai, State of",
            "gns_region": "",
            "gu_a3": "PLW",
            "hasc_maybe": "",
            "labelrank": "20",
            "mapcolor9": "1",
            "mapcolor13": "12",
            "max_label": "11.0",
            "min_label": "11.0",
            "min_zoom": "11.0",
            "name_ar": "\u00d9\u0088\u00d9\u0084\u00d8\u00a7\u00d9\u008a\u00d8\u00a9 \u00d8\u00a3\u00d9\u008a\u00d8\u00b1\u00d8\u00a7\u00d9\u008a",
            "name_bn": "\u00e0\u00a6\u008f\u00e0\u00a6\u0087\u00e0\u00a6\u00b0\u00e0\u00a6\u00be\u00e0\u00a6\u00af\u00e0\u00a6\u00bc",
            "name_de": "Airai",
            "name_el": "\u00ce\u0091\u00cf\u008a\u00cf\u0081\u00ce\u00ac\u00ce\u00b9",
            "name_en": "Airai",
            "name_es": "Airai",
            "name_fr": "Airai",
            "name_hi": "\u00e0\u00a4\u0090\u00e0\u00a4\u00b0\u00e0\u00a4\u00be\u00e0\u00a4\u0088",
            "name_hu": "",
            "name_id": "Airai",
            "name_it": "Airai",
            "name_ja": "\u00e3\u0082\u00a2\u00e3\u0082\u00a4\u00e3\u0083\u00a9\u00e3\u0082\u00a4\u00e5\u00b7\u009e",
            "name_ko": "\u00ec\u0095\u0084\u00ec\u009d\u00b4\u00eb\u009d\u00bc\u00ec\u009d\u00b4 \u00ec\u00a3\u00bc",
            "name_len": "5",
            "name_local": "",
            "name_nl": "Airai",
            "name_pl": "Airai",
            "name_pt": "Airai",
            "name_ru": "\u00d0\u0090\u00d0\u00b8\u00d1\u0080\u00d0\u00b0\u00d0\u00b8",
            "name_sv": "Airai",
            "name_tr": "Airai",
            "name_vi": "Airai",
            "name_zh": "\u00e8\u0089\u00be\u00e6\u008b\u0089\u00e4\u00bc\u008a\u00e5\u00b7\u009e",
            "ne_id": "1159316723",
            "note": "",
            "provnum_ne": "0",
            "record_type": "state",
            "region": "",
            "region_cod": "",
            "region_sub": "",
            "sameascity": "-99",
            "scalerank": "10",
            "sov_a3": "PLW",
            "sub_code": "",
            "wikidataid": "Q407967",
            "wikipedia": "",
            "woe_id": "24549819",
            "woe_label": "Airai, PW, Palau",
            "woe_name": "Airai"
        },
        "geo": {
            "latitude": 7.3641842,
            "longitude": 134.5360667,
            "max_latitude": 7.3903012,
            "max_longitude": 134.5656967,
            "min_latitude": 7.3503367,
            "min_longitude": 134.5076989
        },
        "iso_3166_2": "PW-004",
        "iso_a2": "PW",
        "iso_a3": "PLW",
        "name": "Airai",
        "postal": "004",
        "type": "",
        "type_en": ""
    },
    "010": {
        "alt_names": [
            "Angaur"
        ],
        "cca2": "PW",
        "cca3": "PLW",
        "code_hasc": "PW.AN",
        "extra": {
            "abbrev": "",
            "adm0_a3": "PLW",
            "adm0_label": "2",
            "adm0_sr": "4",
            "adm1_code": "PLW-5246",
            "admin": "Palau",
            "area_sqkm": "0",
            "check_me": "0",
            "code_local": "",
            "data_sources": [
                "natural"
            ],
            "datarank": "10",
            "diss_me": "5246",
            "featurecla": "Admin-1 scale rank",
            "fips": "",
            "fips_alt": "",
            "gadm_level": "0",
            "geonunit": "Palau",
            "gn_a1_code": "PW.03",
            "gn_id": "4037653",
            "gn_level": "1",
            "gn_name": "State of Angaur",
            "gn_region": "",
            "gns_adm1": "PS03",
            "gns_id": "-3738149",
            "gns_lang": "pau",
            "gns_level": "1",
            "gns_name": "Angaur, State of",
            "gns_region": "",
            "gu_a3": "PLW",
            "hasc_maybe": "",
            "labelrank": "20",
            "mapcolor9": "1",
            "mapcolor13": "12",
            "max_label": "11.0",
            "min_label": "11.0",
            "min_zoom": "11.0",
            "name_ar": "\u00d9\u0088\u00d9\u0084\u00d8\u00a7\u00d9\u008a\u00d8\u00a9 \u00d8\u00a3\u00d9\u0086\u00d8\u00ba\u00d8\u00a7\u00d9\u0088\u00d8\u00b1",
            "name_bn": "\u00e0\u00a6\u008f\u00e0\u00a6\u0099\u00e0\u00a7\u008d\u00e0\u00a6\u0097\u00e0\u00a7\u0081\u00e0\u00a6\u00af\u00e0\u00a6\u00bc\u00e0\u00a6\u00be\u00e0\u00a6\u00b0",
            "name_de": "Angaur",
            "name_el": "\u00ce\u0091\u00ce\u00bd\u00ce\u00b3\u00ce\u00ba\u00cf\u008c\u00cf\u0081",
            "name_en": "Angaur",
            "name_es": "Angaur",
            "name_fr": "Angaur",
            "name_hi": "\u00e0\u00a4\u0085\u00e0\u00a4\u0082\u00e0\u00a4\u0097\u00e0\u00a5\u008c\u00e0\u00a4\u00b0",
            "name_hu": "",
            "name_id": "Angaur",
            "name_it": "Angaur",
            "name_ja": "\u00e3\u0082\u00a2\u00e3\u0083\u00b3\u00e3\u0082\u00ac\u00e3\u0082\u00a6\u00e3\u0083\u00ab\u00e5\u00b7\u009e",
            "name_ko": "\u00ec\u0095\u0099\u00ea\u00b0\u0080\u00ec\u009a\u00b0\u00eb\u00a5\u00b4 \u00ec\u00a3\u00bc",
            "name_len": "6",
            "name_local": "",
            "name_nl": "Angaur",
            "name_pl": "Angaur",
            "name_pt": "Angaur",
            "name_ru": "\u00d0\u0090\u00d0\u00bd\u00d0\u00b3\u00d0\u00b0\u00d1\u0083\u00d1\u0080",
            "name_sv": "Angaur",
            "name_tr": "Angaur",
            "name_vi": "Angaur",
            "name_zh": "\u00e5\u00ae\u0089\u00e5\u008a\u00a0\u00e7\u0088\u00be",
            "ne_id": "1159316707",
            "note": "",
            "provnum_ne": "0",
            "record_type": "state",
            "region": "",
            "region_cod": "",
            "region_sub": "",
            "sameascity": "-99",
            "scalerank": "10",
            "sov_a3": "PLW",
            "sub_code": "",
            "wikidataid": "Q530813",
            "wikipedia": "",
            "woe_id": "24549824",
            "woe_label": "",
            "woe_name": "Angaur"
        },
        "geo": {
            "latitude": 6.909223,
            "longitude": 134.1387934,
            "max_latitude": 6.9251063,
            "max_longitude": 134.1539668,
            "min_latitude": 6.8877426,
            "min_longitude": 134.121834
        },
        "iso_3166_2": "PW-010",
        "iso_a2": "PW",
        "iso_a3": "PLW",
        "name": "Angaur",
        "postal": "010",
        "type": "",
        "type_en": ""
    },
    "050": {
        "alt_names": [
            "Hatobohei"
        ],
        "cca2": "PW",
        "cca3": "PLW",
        "code_hasc": "PW.HA",
        "extra": {
            "abbrev": "",
            "adm0_a3": "PLW",
            "adm0_label": "2",
            "adm0_sr": "4",
            "adm1_code": "PLW-5247",
            "admin": "Palau",
            "area_sqkm": "0",
            "check_me": "0",
            "code_local": "",
            "data_sources": [
                "natural"
            ],
            "datarank": "10",
            "diss_me": "5247",
            "featurecla": "Admin-1 scale rank",
            "fips": "",
            "fips_alt": "",
            "gadm_level": "0",
            "geonunit": "Palau",
            "gn_a1_code": "PW.04",
            "gn_id": "1559776",
            "gn_level": "1",
            "gn_name": "State of Hatohobei",
            "gn_region": "",
            "gns_adm1": "PS04",
            "gns_id": "-3738137",
            "gns_lang": "pau",
            "gns_level": "1",
            "gns_name": "Hatohobei State",
            "gns_region": "",
            "gu_a3": "PLW",
            "hasc_maybe": "",
            "labelrank": "20",
            "mapcolor9": "1",
            "mapcolor13": "12",
            "max_label": "11.0",
            "min_label": "11.0",
            "min_zoom": "11.0",
            "name_ar": "\u00d9\u0088\u00d9\u0084\u00d8\u00a7\u00d9\u008a\u00d8\u00a9 \u00d9\u0087\u00d8\u00a7\u00d8\u00aa\u00d9\u0088\u00d9\u0087\u00d9\u0088\u00d8\u00a8\u00d9\u008a",
            "name_bn": "\u00e0\u00a6\u00b9\u00e0\u00a6\u00be\u00e0\u00a6\u00a4\u00e0\u00a7\u008b\u00e0\u00a6\u00b9\u00e0\u00a6\u00ac\u00e0\u00a7\u0087\u00e0\u00a6\u0087",
            "name_de": "Hatohobei",
            "name_el": "\u00ce\u00a7\u00ce\u00b1\u00cf\u0084\u00ce\u00bf\u00cf\u0087\u00ce\u00bf\u00ce\u00bc\u00cf\u0080\u00ce\u00ad\u00ce\u00b9",
            "name_en": "Hatohobei",
            "name_es": "Hatohobei",
            "name_fr": "Hatohobei",
            "name_hi": "\u00e0\u00a4\u00b9\u00e0\u00a4\u00a4\u00e0\u00a5\u008b\u00e0\u00a4\u00b9\u00e0\u00a5\u008b\u00e0\u00a4\u00ac\u00e0\u00a5\u0087\u00e0\u00a4\u0088",
            "name_hu": "",
            "name_id": "Hatohobei",
            "name_it": "Hatohobei",
            "name_ja": "\u00e3\u0083\u008f\u00e3\u0083\u0088\u00e3\u0083\u009b\u00e3\u0083\u0099\u00e3\u0082\u00a4\u00e5\u00b7\u009e",
            "name_ko": "\u00ed\u0095\u0098\u00ed\u0086\u00a0\u00ed\u0098\u00b8\u00eb\u00b2\u00a0\u00ec\u009d\u00b4 \u00ec\u00a3\u00bc",
            "name_len": "9",
            "name_local": "",
            "name_nl": "Hatohobei",
            "name_pl": "Hatohobei",
            "name_pt": "Hatohobei",
            "name_ru": "\u00d0\u00a5\u00d0\u00b0\u00d1\u0082\u00d0\u00be\u00d1\u0085\u00d0\u00be\u00d0\u00b1\u00d0\u00b5\u00d0\u00b8",
            "name_sv": "Hatohobei",
            "name_tr": "Hatohobei",
            "name_vi": "Hatohobei",
            "name_zh": "\u00e5\u0093\u0088\u00e6\u0089\u0098\u00e5\u008d\u009a\u00e6\u00b5\u00b7\u00e4\u00bc\u008a\u00e5\u00b7\u009e",
            "ne_id": "1159315517",
            "note": "",
            "provnum_ne": "0",
            "record_type": "state",
            "region": "",
            "region_cod": "",
            "region_sub": "",
            "sameascity": "-99",
            "scalerank": "10",
            "sov_a3": "PLW",
            "sub_code": "",
            "wikidataid": "Q3516752",
            "wikipedia": "",
            "woe_id": "24549812",
            "woe_label": "",
            "woe_name": "Hatohobei"
        },
        "geo": {
            "latitude": 3.0048867,
            "longitude": 131.1214186,
            "max_latitude": 3.0074129,
            "max_longitude": 131.124487,
            "min_latitude": 3.0008772,
            "min_longitude": 131.1203134
        },
        "iso_3166_2": "PW-050",
        "iso_a2": "PW",
        "iso_a3": "PLW",
        "name": "Hatobohei",
        "postal": "050",
        "type": "",
        "type_en": ""
    },
    "100": {
        "alt_names": [
            "Kayangel"
        ],
        "cca2": "PW",
        "cca3": "PLW",
        "code_hasc": "PW.KA",
        "extra": {
            "abbrev": "",
            "adm0_a3": "PLW",
            "adm0_label": "2",
            "adm0_sr": "4",
            "adm1_code": "PLW-5248",
            "admin": "Palau",
            "area_sqkm": "0",
            "check_me": "0",
            "code_local": "",
            "data_sources": [
                "natural"
            ],
            "datarank": "10",
            "diss_me": "5248",
            "featurecla": "Admin-1 scale rank",
            "fips": "",
            "fips_alt": "",
            "gadm_level": "0",
            "geonunit": "Palau",
            "gn_a1_code": "PW.05",
            "gn_id": "1559774",
            "gn_level": "1",
            "gn_name": "State of Kayangel",
            "gn_region": "",
            "gns_adm1": "PS05",
            "gns_id": "-3738139",
            "gns_lang": "pau",
            "gns_level": "1",
            "gns_name": "Kayangel, State of",
            "gns_region": "",
            "gu_a3": "PLW",
            "hasc_maybe": "",
            "labelrank": "20",
            "mapcolor9": "1",
            "mapcolor13": "12",
            "max_label": "11.0",
            "min_label": "11.0",
            "min_zoom": "11.0",
            "name_ar": "\u00d9\u0083\u00d8\u00a7\u00d9\u008a\u00d8\u00a7\u00d9\u0086\u00d8\u00ba\u00d9\u008a\u00d9\u0084",
            "name_bn": "\u00e0\u00a6\u0095\u00e0\u00a6\u00be\u00e0\u00a6\u00af\u00e0\u00a6\u00bc\u00e0\u00a6\u00be\u00e0\u00a6\u00a8\u00e0\u00a6\u009c\u00e0\u00a7\u0087\u00e0\u00a6\u00b2",
            "name_de": "Kayangel",
            "name_el": "\u00ce\u009a\u00ce\u00b1\u00ce\u00b3\u00ce\u00b9\u00ce\u00ac\u00ce\u00bd\u00ce\u00b3\u00ce\u00ba\u00ce\u00b5\u00ce\u00bb",
            "name_en": "Kayangel",
            "name_es": "Kayangel",
            "name_fr": "Kayangel",
            "name_hi": "\u00e0\u00a4\u0095\u00e0\u00a4\u00af\u00e0\u00a4\u00be\u00e0\u00a4\u0082\u00e0\u00a4\u0097\u00e0\u00a5\u0087\u00e0\u00a4\u00b2",
            "name_hu": "",
            "name_id": "Kayangel",
            "name_it": "Kayangel",
            "name_ja": "\u00e3\u0082\u00ab\u00e3\u0083\u00a4\u00e3\u0083\u00b3\u00e3\u0082\u00b2\u00e3\u0083\u00ab\u00e5\u00b7\u009e",
            "name_ko": "\u00ec\u00b9\u00b4\u00ec\u0096\u0091\u00ea\u00b2\u0094 \u00ec\u00a3\u00bc",
            "name_len": "8",
            "name_local": "",
            "name_nl": "Kayangel",
            "name_pl": "Kayangel",
            "name_pt": "Kayangel",
            "name_ru": "\u00d0\u009a\u00d0\u00b0\u00d1\u008f\u00d0\u00bd\u00d0\u00b3\u00d0\u00b5\u00d0\u00bb",
            "name_sv": "Kayangel",
            "name_tr": "Kayangel",
            "name_vi": "Kayangel",
            "name_zh": "\u00e5\u008d\u00a1\u00e6\u008f\u009a\u00e5\u009f\u0083\u00e7\u0088\u00be",
            "ne_id": "1159316735",
            "note": "",
            "provnum_ne": "0",
            "record_type": "state",
            "region": "",
            "region_cod": "",
            "region_sub": "",
            "sameascity": "-99",
            "scalerank": "10",
            "sov_a3": "PLW",
            "sub_code": "",
            "wikidataid": "Q871222",
            "wikipedia": "",
            "woe_id": "24549826",
            "woe_label": "",
            "woe_name": "Kayangel"
        },
        "geo": {
            "latitude": 8.0889471,
            "longitude": 134.709999,
            "max_latitude": 8.1035034,
            "max_longitude": 134.7238827,
            "min_latitude": 8.0378983,
            "min_longitude": 134.6807957
        },
        "iso_3166_2": "PW-100",
        "iso_a2": "PW",
        "iso_a3": "PLW",
        "name": "Kayangel",
        "postal": "100",
        "type": "",
        "type_en": ""
    },
    "150": {
        "alt_names": [
            "Koror"
        ],
        "cca2": "PW",
        "cca3": "PLW",
        "code_hasc": "PW.KO",
        "extra": {
            "abbrev": "",
            "adm0_a3": "PLW",
            "adm0_label": "2",
            "adm0_sr": "4",
            "adm1_code": "PLW-5249",
            "admin": "Palau",
            "area_sqkm": "0",
            "check_me": "0",
            "code_local": "",
            "data_sources": [
                "natural"
            ],
            "datarank": "10",
            "diss_me": "5249",
            "featurecla": "Admin-1 scale rank",
            "fips": "",
            "fips_alt": "",
            "gadm_level": "0",
            "geonunit": "Palau",
            "gn_a1_code": "PW.06",
            "gn_id": "4037892",
            "gn_level": "1",
            "gn_name": "State of Koror",
            "gn_region": "",
            "gns_adm1": "PS06",
            "gns_id": "-3737943",
            "gns_lang": "eng",
            "gns_level": "1",
            "gns_name": "Koror, State of",
            "gns_region": "",
            "gu_a3": "PLW",
            "hasc_maybe": "",
            "labelrank": "20",
            "mapcolor9": "1",
            "mapcolor13": "12",
            "max_label": "11.0",
            "min_label": "11.0",
            "min_zoom": "11.0",
            "name_ar": "\u00d9\u0083\u00d9\u0088\u00d8\u00b1\u00d9\u0088\u00d8\u00b1",
            "name_bn": "\u00e0\u00a6\u0095\u00e0\u00a7\u008b\u00e0\u00a6\u00b0\u00e0\u00a6\u00be",
            "name_de": "Koror",
            "name_el": "\u00ce\u009a\u00ce\u00bf\u00cf\u0081\u00cf\u008c\u00cf\u0081",
            "name_en": "Koror",
            "name_es": "Koror",
            "name_fr": "Koror",
            "name_hi": "\u00e0\u00a4\u0095\u00e0\u00a5\u008b\u00e0\u00a4\u00b0\u00e0\u00a4\u00b0",
            "name_hu": "",
            "name_id": "Koror",
            "name_it": "Koror",
            "name_ja": "\u00e3\u0082\u00b3\u00e3\u0083\u00ad\u00e3\u0083\u00bc\u00e3\u0083\u00ab",
            "name_ko": "\u00ec\u00bd\u0094\u00eb\u00a1\u009c\u00eb\u00a5\u00b4",
            "name_len": "5",
            "name_local": "",
            "name_nl": "Koror",
            "name_pl": "Koror",
            "name_pt": "Koror",
            "name_ru": "\u00d0\u009a\u00d0\u00be\u00d1\u0080\u00d0\u00be\u00d1\u0080",
            "name_sv": "Koror",
            "name_tr": "Koror",
            "name_vi": "Koror",
            "name_zh": "\u00e7\u00a7\u0091\u00e7\u00be\u0085\u00e7\u0088\u00be\u00e5\u00b7\u009e",
            "ne_id": "1159316711",
            "note": "",
            "provnum_ne": "0",
            "record_type": "state",
            "region": "",
            "region_cod": "",
            "region_sub": "",
            "sameascity": "-99",
            "scalerank": "10",
            "sov_a3": "PLW",
            "sub_code": "",
            "wikidataid": "Q189426",
            "wikipedia": "",
            "woe_id": "24549822",
            "woe_label": "Koror, PW, Palau",
            "woe_name": "Koror"
        },
        "geo": {
            "latitude": 7.3419444,
            "longitude": 134.4791667,
            "max_latitude": null,
            "max_longitude": null,
            "min_latitude": null,
            "min_longitude": null
        },
        "iso_3166_2": "PW-150",
        "iso_a2": "PW",
        "iso_a3": "PLW",
        "name": "Koror",
        "postal": "150",
        "type": "",
        "type_en": ""
    },
    "212": {
        "alt_names": [
            "Melekeok"
        ],
        "cca2": "PW",
        "cca3": "PLW",
        "code_hasc": "PW.ME",
        "extra": {
            "abbrev": "",
            "adm0_a3": "PLW",
            "adm0_label": "2",
            "adm0_sr": "4",
            "adm1_code": "PLW-5250",
            "admin": "Palau",
            "area_sqkm": "0",
            "check_me": "0",
            "code_local": "",
            "data_sources": [
                "natural"
            ],
            "datarank": "10",
            "diss_me": "5250",
            "featurecla": "Admin-1 scale rank",
            "fips": "",
            "fips_alt": "",
            "gadm_level": "0",
            "geonunit": "Palau",
            "gn_a1_code": "PW.07",
            "gn_id": "4037930",
            "gn_level": "1",
            "gn_name": "State of Melekeok",
            "gn_region": "",
            "gns_adm1": "PS07",
            "gns_id": "-3738110",
            "gns_lang": "eng",
            "gns_level": "1",
            "gns_name": "Melekeok, State of",
            "gns_region": "",
            "gu_a3": "PLW",
            "hasc_maybe": "",
            "labelrank": "20",
            "mapcolor9": "1",
            "mapcolor13": "12",
            "max_label": "11.0",
            "min_label": "11.0",
            "min_zoom": "11.0",
            "name_ar": "\u00d9\u0088\u00d9\u0084\u00d8\u00a7\u00d9\u008a\u00d8\u00a9 \u00d9\u0085\u00d9\u008a\u00d9\u0084\u00d9\u0083\u00d9\u008a\u00d9\u0088\u00d9\u0083",
            "name_bn": "\u00e0\u00a6\u00ae\u00e0\u00a7\u0087\u00e0\u00a6\u00b2\u00e0\u00a7\u0087\u00e0\u00a6\u0095\u00e0\u00a7\u0087\u00e0\u00a6\u0093\u00e0\u00a6\u0095",
            "name_de": "Melekeok",
            "name_el": "\u00ce\u009c\u00ce\u00b5\u00ce\u00bb\u00ce\u00b5\u00ce\u00ba\u00ce\u00b5\u00cf\u008c\u00ce\u00ba",
            "name_en": "Melekeok",
            "name_es": "Melekeok",
            "name_fr": "Melekeok",
            "name_hi": "\u00e0\u00a4\u00ae\u00e0\u00a5\u0087\u00e0\u00a4\u00b2\u00e0\u00a5\u0087\u00e0\u00a4\u0095\u00e0\u00a5\u008b\u00e0\u00a4\u0095",
            "name_hu": "Melekeok",
            "name_id": "Melekeok",
            "name_it": "Melekeok",
            "name_ja": "\u00e3\u0083\u009e\u00e3\u0083\u00ab\u00e3\u0082\u00ad\u00e3\u0083\u00a7\u00e3\u0082\u00af\u00e5\u00b7\u009e",
            "name_ko": "\u00eb\u00a9\u009c\u00eb\u00a0\u0088\u00ec\u00bc\u0080\u00ec\u0098\u00a4\u00ed\u0081\u00ac \u00ec\u00a3\u00bc",
            "name_len": "8",
            "name_local": "",
            "name_nl": "Melekeok",
            "name_pl": "Melekeok",
            "name_pt": "Melekeok",
            "name_ru": "\u00d0\u009c\u00d0\u00b5\u00d0\u00bb\u00d0\u00b5\u00d0\u00ba\u00d0\u00b5\u00d0\u00be\u00d0\u00ba",
            "name_sv": "Melekeok",
            "name_tr": "Melekeok",
            "name_vi": "Melekeok",
            "name_zh": "\u00e6\u00a2\u0085\u00e8\u008e\u00b1\u00e5\u0087\u00af\u00e5\u00a5\u00a5\u00e5\u0085\u008b\u00e5\u00b7\u009e",
            "ne_id": "1159316727",
            "note": "",
            "provnum_ne": "0",
            "record_type": "state",
            "region": "",
            "region_cod": "",
            "region_sub": "",
            "sameascity": "-99",
            "scalerank": "10",
            "sov_a3": "PLW",
            "sub_code": "",
            "wikidataid": "Q12898552",
            "wikipedia": "",
            "woe_id": "24549818",
            "woe_label": "",
            "woe_name": "Melekeok"
        },
        "geo": {
            "latitude": 7.4951158,
            "longitude": 134.6336896,
            "max_latitude": 7.4995374,
            "max_longitude": 134.6382129,
            "min_latitude": 7.491069,
            "min_longitude": 134.6302414
        },
        "iso_3166_2": "PW-212",
        "iso_a2": "PW",
        "iso_a3": "PLW",
        "name": "Melekeok",
        "postal": "212",
        "type": "",
        "type_en": ""
    },
    "214": {
        "alt_names": [
            "Ngaraard"
        ],
        "cca2": "PW",
        "cca3": "PLW",
        "code_hasc": "PW.ND",
        "extra": {
            "abbrev": "",
            "adm0_a3": "PLW",
            "adm0_label": "2",
            "adm0_sr": "4",
            "adm1_code": "PLW-5251",
            "admin": "Palau",
            "area_sqkm": "0",
            "check_me": "0",
            "code_local": "",
            "data_sources": [
                "natural"
            ],
            "datarank": "10",
            "diss_me": "5251",
            "featurecla": "Admin-1 scale rank",
            "fips": "",
            "fips_alt": "",
            "gadm_level": "0",
            "geonunit": "Palau",
            "gn_a1_code": "PW.08",
            "gn_id": "4037962",
            "gn_level": "1",
            "gn_name": "State of Ngaraard",
            "gn_region": "",
            "gns_adm1": "PS08",
            "gns_id": "-3738182",
            "gns_lang": "pau",
            "gns_level": "1",
            "gns_name": "Ngaraard, State of",
            "gns_region": "",
            "gu_a3": "PLW",
            "hasc_maybe": "",
            "labelrank": "20",
            "mapcolor9": "1",
            "mapcolor13": "12",
            "max_label": "11.0",
            "min_label": "11.0",
            "min_zoom": "11.0",
            "name_ar": "\u00d9\u0086\u00d8\u00ba\u00d8\u00a7\u00d8\u00b1\u00d8\u00a3\u00d8\u00b1\u00d8\u00af",
            "name_bn": "\u00e0\u00a6\u00a8\u00e0\u00a6\u00be\u00e0\u00a6\u0097\u00e0\u00a6\u00be\u00e0\u00a6\u00b0\u00e0\u00a6\u00be\u00e0\u00a6\u00b0\u00e0\u00a7\u008d\u00e0\u00a6\u00a6",
            "name_de": "Ngaraard",
            "name_el": "\u00ce\u009d\u00ce\u00b3\u00ce\u00ba\u00ce\u00b1\u00cf\u0081\u00ce\u00b1\u00ce\u00ac\u00cf\u0081\u00ce\u00bd\u00cf\u0084",
            "name_en": "Ngaraard",
            "name_es": "Ngaraard",
            "name_fr": "Ngaraard",
            "name_hi": "\u00e0\u00a4\u0097\u00e0\u00a5\u0088\u00e0\u00a4\u00b0\u00e0\u00a4\u00be\u00e0\u00a4\u00b0\u00e0\u00a5\u008d\u00e0\u00a4\u00a1",
            "name_hu": "",
            "name_id": "Ngaraard",
            "name_it": "Ngaraard",
            "name_ja": "\u00e3\u0082\u00ac\u00e3\u0083\u00a9\u00e3\u0083\u00ab\u00e3\u0083\u0089\u00e5\u00b7\u009e",
            "name_ko": "\u00ea\u00b0\u0080\u00eb\u009d\u00bc\u00eb\u00a5\u00b4\u00eb\u0093\u009c \u00ec\u00a3\u00bc",
            "name_len": "8",
            "name_local": "",
            "name_nl": "Ngaraard",
            "name_pl": "Ngaraard",
            "name_pt": "Ngaraard",
            "name_ru": "\u00d0\u009d\u00d0\u00b3\u00d0\u00b0\u00d1\u0080\u00d0\u00b0\u00d0\u00b0\u00d1\u0080\u00d0\u00b4",
            "name_sv": "Ngaraard",
            "name_tr": "Ngaraard",
            "name_vi": "Ngaraard",
            "name_zh": "\u00e9\u009b\u0085\u00e6\u008b\u0089\u00e7\u0088\u00be\u00e5\u00be\u00b7\u00e5\u00b7\u009e",
            "ne_id": "1159316731",
            "note": "",
            "provnum_ne": "0",
            "record_type": "state",
            "region": "",
            "region_cod": "",
            "region_sub": "",
            "sameascity": "-99",
            "scalerank": "10",
            "sov_a3": "PLW",
            "sub_code": "",
            "wikidataid": "Q1154127",
            "wikipedia": "",
            "woe_id": "24549814",
            "woe_label": "",
            "woe_name": "Ngaraard"
        },
        "geo": {
            "latitude": 7.60794,
            "longitude": 134.6348645,
            "max_latitude": 7.6869353,
            "max_longitude": 134.6466028,
            "min_latitude": 7.5722982,
            "min_longitude": 134.593708
        },
        "iso_3166_2": "PW-214",
        "iso_a2": "PW",
        "iso_a3": "PLW",
        "name": "Ngaraard",
        "postal": "214",
        "type": "",
        "type_en": ""
    },
    "218": {
        "alt_names": [
            "Ngarchelong"
        ],
        "cca2": "PW",
        "cca3": "PLW",
        "code_hasc": "PW.NC",
        "extra": {
            "abbrev": "",
            "adm0_a3": "PLW",
            "adm0_label": "2",
            "adm0_sr": "4",
            "adm1_code": "PLW-5252",
            "admin": "Palau",
            "area_sqkm": "0",
            "check_me": "0",
            "code_local": "",
            "data_sources": [
                "natural"
            ],
            "datarank": "10",
            "diss_me": "5252",
            "featurecla": "Admin-1 scale rank",
            "fips": "",
            "fips_alt": "",
            "gadm_level": "0",
            "geonunit": "Palau",
            "gn_a1_code": "PW.09",
            "gn_id": "4038037",
            "gn_level": "1",
            "gn_name": "State of Ngarchelong",
            "gn_region": "",
            "gns_adm1": "PS09",
            "gns_id": "-3738193",
            "gns_lang": "pau",
            "gns_level": "1",
            "gns_name": "Ngarchelong, State of",
            "gns_region": "",
            "gu_a3": "PLW",
            "hasc_maybe": "",
            "labelrank": "20",
            "mapcolor9": "1",
            "mapcolor13": "12",
            "max_label": "11.0",
            "min_label": "11.0",
            "min_zoom": "11.0",
            "name_ar": "\u00d9\u0088\u00d9\u0084\u00d8\u00a7\u00d9\u008a\u00d8\u00a9 \u00d9\u0086\u00d8\u00ba\u00d8\u00a7\u00d8\u00b1\u00d8\u00aa\u00d8\u00b4\u00d9\u008a\u00d9\u0084\u00d9\u0088\u00d9\u0086\u00d8\u00ba",
            "name_bn": "\u00e0\u00a6\u0097\u00e0\u00a6\u00be\u00e0\u00a6\u00b0\u00e0\u00a6\u009a\u00e0\u00a7\u0087\u00e0\u00a6\u00b2\u00e0\u00a6\u0082",
            "name_de": "Ngarchelong",
            "name_el": "\u00ce\u009d\u00ce\u00b3\u00ce\u00ba\u00ce\u00b1\u00cf\u0081\u00cf\u0084\u00cf\u0083\u00ce\u00b5\u00ce\u00bb\u00cf\u008c\u00ce\u00bd\u00ce\u00b3\u00ce\u00ba",
            "name_en": "Ngarchelong",
            "name_es": "Ngarchelong",
            "name_fr": "Ngarchelong",
            "name_hi": "\u00e0\u00a4\u0097\u00e0\u00a4\u00be\u00e0\u00a4\u00b0\u00e0\u00a5\u008d\u00e0\u00a4\u00b6\u00e0\u00a4\u00bf\u00e0\u00a4\u00b2\u00e0\u00a5\u0089\u00e0\u00a4\u00a8\u00e0\u00a5\u008d\u00e0\u00a4\u0097",
            "name_hu": "",
            "name_id": "Ngarchelong",
            "name_it": "Ngarchelong",
            "name_ja": "\u00e3\u0082\u00a2\u00e3\u0083\u00ab\u00e3\u0082\u00b3\u00e3\u0083\u00ad\u00e3\u0083\u00b3\u00e5\u00b7\u009e",
            "name_ko": "\u00ea\u00b0\u0080\u00eb\u00a5\u00b4\u00ec\u00b2\u00bc\u00eb\u00a1\u00b1 \u00ec\u00a3\u00bc",
            "name_len": "11",
            "name_local": "",
            "name_nl": "Ngarchelong",
            "name_pl": "Ngarchelong",
            "name_pt": "Ngarchelong",
            "name_ru": "\u00d0\u009d\u00d0\u00b3\u00d0\u00b0\u00d1\u0080\u00d1\u0087\u00d0\u00b5\u00d0\u00bb\u00d0\u00be\u00d0\u00bd\u00d0\u00b3",
            "name_sv": "Ngarchelong",
            "name_tr": "Ngarchelong",
            "name_vi": "Ngarchelong",
            "name_zh": "\u00e9\u009b\u0085\u00e5\u0088\u0087\u00e9\u009a\u0086\u00e5\u00b7\u009e",
            "ne_id": "1159316733",
            "note": "",
            "provnum_ne": "0",
            "record_type": "state",
            "region": "",
            "region_cod": "",
            "region_sub": "",
            "sameascity": "-99",
            "scalerank": "10",
            "sov_a3": "PLW",
            "sub_code": "",
            "wikidataid": "Q1070185",
            "wikipedia": "",
            "woe_id": "24549813",
            "woe_label": "",
            "woe_name": "Ngarchelong"
        },
        "geo": {
            "latitude": 7.7105469,
            "longitude": 134.6301646,
            "max_latitude": 7.7316628,
            "max_longitude": 134.6457489,
            "min_latitude": 7.6863351,
            "min_longitude": 134.609328
        },
        "iso_3166_2": "PW-218",
        "iso_a2": "PW",
        "iso_a3": "PLW",
        "name": "Ngarchelong",
        "postal": "218",
        "type": "",
        "type_en": ""
    },
    "222": {
        "alt_names": [
            "Ngardmau"
        ],
        "cca2": "PW",
        "cca3": "PLW",
        "code_hasc": "PW.NM",
        "extra": {
            "abbrev": "",
            "adm0_a3": "PLW",
            "adm0_label": "2",
            "adm0_sr": "4",
            "adm1_code": "PLW-5253",
            "admin": "Palau",
            "area_sqkm": "0",
            "check_me": "0",
            "code_local": "",
            "data_sources": [
                "natural"
            ],
            "datarank": "10",
            "diss_me": "5253",
            "featurecla": "Admin-1 scale rank",
            "fips": "",
            "fips_alt": "",
            "gadm_level": "0",
            "geonunit": "Palau",
            "gn_a1_code": "PW.10",
            "gn_id": "4038043",
            "gn_level": "1",
            "gn_name": "State of Ngardmau",
            "gn_region": "",
            "gns_adm1": "PS10",
            "gns_id": "-3738130",
            "gns_lang": "eng",
            "gns_level": "1",
            "gns_name": "Ngardmau, State of",
            "gns_region": "",
            "gu_a3": "PLW",
            "hasc_maybe": "",
            "labelrank": "20",
            "mapcolor9": "1",
            "mapcolor13": "12",
            "max_label": "11.0",
            "min_label": "11.0",
            "min_zoom": "11.0",
            "name_ar": "\u00d9\u0086\u00d8\u00ba\u00d8\u00a7\u00d8\u00b1\u00d8\u00af\u00d9\u0085\u00d8\u00a7\u00d9\u0088",
            "name_bn": "\u00e0\u00a6\u0097\u00e0\u00a6\u00be\u00e0\u00a6\u00b0\u00e0\u00a7\u008d\u00e0\u00a6\u00a1\u00e0\u00a6\u00ae\u00e0\u00a6\u00be\u00e0\u00a6\u0089",
            "name_de": "Ngardmau",
            "name_el": "\u00ce\u009d\u00ce\u00b3\u00ce\u00ba\u00ce\u00b1\u00cf\u0081\u00ce\u00bd\u00cf\u0084\u00ce\u00bc\u00ce\u00ac\u00ce\u00bf\u00cf\u0085",
            "name_en": "Ngardmau",
            "name_es": "Ngardmau",
            "name_fr": "Ngardmau",
            "name_hi": "\u00e0\u00a4\u0097\u00e0\u00a4\u00be\u00e0\u00a4\u00b0\u00e0\u00a5\u008d\u00e0\u00a4\u00a1\u00e0\u00a4\u00ae\u00e0\u00a4\u00be\u00e0\u00a4\u0089",
            "name_hu": "",
            "name_id": "Ngardmau",
            "name_it": "Ngardmau",
            "name_ja": "\u00e3\u0082\u00ac\u00e3\u0083\u00a9\u00e3\u0082\u00b9\u00e3\u0083\u009e\u00e3\u0082\u00aa\u00e5\u00b7\u009e",
            "name_ko": "\u00ea\u00b0\u0080\u00eb\u00a5\u00b4\u00eb\u0093\u009c\u00eb\u00a7\u0088\u00ec\u009a\u00b0 \u00ec\u00a3\u00bc",
            "name_len": "8",
            "name_local": "",
            "name_nl": "Ngardmau",
            "name_pl": "Ngardmau",
            "name_pt": "Ngardmau",
            "name_ru": "\u00d0\u009d\u00d0\u00b3\u00d0\u00b0\u00d1\u0080\u00d0\u00b4\u00d0\u00bc\u00d0\u00b0\u00d1\u0083",
            "name_sv": "Ngardmau",
            "name_tr": "Ngardmau",
            "name_vi": "Ngardmau",
            "name_zh": "\u00e9\u009b\u0085\u00e5\u00be\u00b7\u00e9\u00a6\u00ac\u00e7\u0083\u008f\u00e5\u00b7\u009e",
            "ne_id": "1159316719",
            "note": "",
            "provnum_ne": "0",
            "record_type": "state",
            "region": "",
            "region_cod": "",
            "region_sub": "",
            "sameascity": "-99",
            "scalerank": "10",
            "sov_a3": "PLW",
            "sub_code": "",
            "wikidataid": "Q1144496",
            "wikipedia": "",
            "woe_id": "24549816",
            "woe_label": "",
            "woe_name": "Ngardmau"
        },
        "geo": {
            "latitude": 7.5850486,
            "longitude": 134.5596089,
            "max_latitude": 7.6205105,
            "max_longitude": 134.6022465,
            "min_latitude": 7.555898,
            "min_longitude": 134.5350928
        },
        "iso_3166_2": "PW-222",
        "iso_a2": "PW",
        "iso_a3": "PLW",
        "name": "Ngardmau",
        "postal": "222",
        "type": "",
        "type_en": ""
    },
    "224": {
        "alt_names": [
            "Ngatpang"
        ],
        "cca2": "PW",
        "cca3": "PLW",
        "code_hasc": "PW.NP",
        "extra": {
            "abbrev": "",
            "adm0_a3": "PLW",
            "adm0_label": "2",
            "adm0_sr": "4",
            "adm1_code": "PLW-5254",
            "admin": "Palau",
            "area_sqkm": "0",
            "check_me": "0",
            "code_local": "",
            "data_sources": [
                "natural"
            ],
            "datarank": "10",
            "diss_me": "5254",
            "featurecla": "Admin-1 scale rank",
            "fips": "",
            "fips_alt": "",
            "gadm_level": "0",
            "geonunit": "Palau",
            "gn_a1_code": "PW.11",
            "gn_id": "1559532",
            "gn_level": "1",
            "gn_name": "State of Ngatpang",
            "gn_region": "",
            "gns_adm1": "PS11",
            "gns_id": "-3738412",
            "gns_lang": "",
            "gns_level": "1",
            "gns_name": "Ngatpang, State of",
            "gns_region": "",
            "gu_a3": "PLW",
            "hasc_maybe": "",
            "labelrank": "20",
            "mapcolor9": "1",
            "mapcolor13": "12",
            "max_label": "11.0",
            "min_label": "11.0",
            "min_zoom": "11.0",
            "name_ar": "\u00d9\u0088\u00d9\u0084\u00d8\u00a7\u00d9\u008a\u00d8\u00a9 \u00d9\u0086\u00d8\u00ba\u00d8\u00a7\u00d8\u00aa\u00d8\u00a8\u00d8\u00a7\u00d9\u0086\u00d8\u00ba",
            "name_bn": "\u00e0\u00a6\u00a8\u00e0\u00a6\u00be\u00e0\u00a6\u0097\u00e0\u00a6\u00be\u00e0\u00a6\u00aa\u00e0\u00a6\u00be\u00e0\u00a6\u0082",
            "name_de": "Ngatpang",
            "name_el": "\u00ce\u009d\u00ce\u00b3\u00ce\u00ba\u00ce\u00b1\u00cf\u0084\u00cf\u0080\u00ce\u00ac\u00ce\u00bd\u00ce\u00b3\u00ce\u00ba",
            "name_en": "Ngatpang",
            "name_es": "Ngatpang",
            "name_fr": "Ngatpang",
            "name_hi": "\u00e0\u00a4\u0097\u00e0\u00a5\u0088\u00e0\u00a4\u00a4\u00e0\u00a5\u008d\u00e0\u00a4\u00aa\u00e0\u00a5\u0088\u00e0\u00a4\u0082\u00e0\u00a4\u0097",
            "name_hu": "",
            "name_id": "Ngatpang",
            "name_it": "Ngatpang",
            "name_ja": "\u00e3\u0082\u00ac\u00e3\u0082\u00b9\u00e3\u0083\u0091\u00e3\u0083\u00b3\u00e5\u00b7\u009e",
            "name_ko": "\u00ea\u00b0\u0080\u00ed\u008a\u00b8\u00ed\u008c\u00a1 \u00ec\u00a3\u00bc",
            "name_len": "8",
            "name_local": "",
            "name_nl": "Ngatpang",
            "name_pl": "Ngatpang",
            "name_pt": "Ngatpang",
            "name_ru": "\u00d0\u009d\u00d0\u00b3\u00d0\u00b0\u00d1\u0082\u00d0\u00bf\u00d0\u00b0\u00d0\u00bd\u00d0\u00b3",
            "name_sv": "Ngatpang",
            "name_tr": "Ngatpang",
            "name_vi": "Ngatpang",
            "name_zh": "\u00e9\u009b\u0085\u00e9\u00be\u0090",
            "ne_id": "1159316715",
            "note": "",
            "provnum_ne": "0",
            "record_type": "state",
            "region": "",
            "region_cod": "",
            "region_sub": "",
            "sameascity": "-99",
            "scalerank": "10",
            "sov_a3": "PLW",
            "sub_code": "",
            "wikidataid": "Q430385",
            "wikipedia": "",
            "woe_id": "24549820",
            "woe_label": "Ngatpang, PW, Palau",
            "woe_name": "Ngatpang"
        },
        "geo": {
            "latitude": 7.4710994,
            "longitude": 134.5266466,
            "max_latitude": 7.5069398,
            "max_longitude": 134.560673,
            "min_latitude": 7.417311,
            "min_longitude": 134.484237
        },
        "iso_3166_2": "PW-224",
        "iso_a2": "PW",
        "iso_a3": "PLW",
        "name": "Ngatpang",
        "postal": "224",
        "type": "",
        "type_en": ""
    },
    "226": {
        "alt_names": [
            "Ngchesar"
        ],
        "cca2": "PW",
        "cca3": "PLW",
        "code_hasc": "PW.NS",
        "extra": {
            "abbrev": "",
            "adm0_a3": "PLW",
            "adm0_label": "2",
            "adm0_sr": "4",
            "adm1_code": "PLW-5255",
            "admin": "Palau",
            "area_sqkm": "0",
            "check_me": "0",
            "code_local": "",
            "data_sources": [
                "natural"
            ],
            "datarank": "10",
            "diss_me": "5255",
            "featurecla": "Admin-1 scale rank",
            "fips": "",
            "fips_alt": "",
            "gadm_level": "0",
            "geonunit": "Palau",
            "gn_a1_code": "PW.12",
            "gn_id": "4037976",
            "gn_level": "1",
            "gn_name": "State of Ngchesar",
            "gn_region": "",
            "gns_adm1": "PS12",
            "gns_id": "-3738144",
            "gns_lang": "pau",
            "gns_level": "1",
            "gns_name": "Ngchesar, State of",
            "gns_region": "",
            "gu_a3": "PLW",
            "hasc_maybe": "",
            "labelrank": "20",
            "mapcolor9": "1",
            "mapcolor13": "12",
            "max_label": "11.0",
            "min_label": "11.0",
            "min_zoom": "11.0",
            "name_ar": "\u00d9\u0086\u00d9\u008a\u00d8\u00ba\u00d8\u00aa\u00d8\u00b4\u00d9\u008a\u00d8\u00b3\u00d8\u00a7\u00d8\u00b1",
            "name_bn": "\u00e0\u00a6\u0097\u00e0\u00a6\u009a\u00e0\u00a7\u0087\u00e0\u00a6\u00b8\u00e0\u00a6\u00be\u00e0\u00a6\u00b0",
            "name_de": "Ngchesar",
            "name_el": "\u00ce\u009d\u00ce\u00b3\u00ce\u00ba\u00cf\u0084\u00cf\u0083\u00ce\u00b5\u00cf\u0083\u00ce\u00ac\u00cf\u0081",
            "name_en": "Ngchesar",
            "name_es": "Ngchesar",
            "name_fr": "Ngchesar",
            "name_hi": "\u00e0\u00a4\u00a8\u00e0\u00a4\u00bf\u00e0\u00a4\u00b6\u00e0\u00a5\u008d\u00e0\u00a4\u00b8\u00e0\u00a4\u00b0",
            "name_hu": "",
            "name_id": "Ngchesar",
            "name_it": "Ngchesar",
            "name_ja": "\u00e3\u0082\u00a8\u00e3\u0082\u00b5\u00e3\u0083\u00bc\u00e3\u0083\u00ab\u00e5\u00b7\u009e",
            "name_ko": "\u00ec\u00b2\u00b4\u00ec\u0082\u00ac\u00eb\u00a5\u00b4 \u00ec\u00a3\u00bc",
            "name_len": "8",
            "name_local": "",
            "name_nl": "Ngchesar",
            "name_pl": "Ngchesar",
            "name_pt": "Ngchesar",
            "name_ru": "\u00d0\u009d\u00d0\u00b3\u00d1\u0087\u00d0\u00b5\u00d1\u0081\u00d0\u00b0\u00d1\u0080",
            "name_sv": "Ngchesar",
            "name_tr": "Ngchesar",
            "name_vi": "Ngchesar",
            "name_zh": "\u00e6\u0081\u00a9\u00e5\u0088\u0087\u00e8\u0096\u00a9\u00e7\u0088\u00be\u00e5\u00b7\u009e",
            "ne_id": "1159316725",
            "note": "",
            "provnum_ne": "0",
            "record_type": "state",
            "region": "",
            "region_cod": "",
            "region_sub": "",
            "sameascity": "-99",
            "scalerank": "10",
            "sov_a3": "PLW",
            "sub_code": "",
            "wikidataid": "Q1070180",
            "wikipedia": "",
            "woe_id": "24549827",
            "woe_label": "Ngchesar, PW, Palau",
            "woe_name": "Ngchesar"
        },
        "geo": {
            "latitude": 7.452328,
            "longitude": 134.5784342,
            "max_latitude": 7.502811,
            "max_longitude": 134.6229831,
            "min_latitude": 7.4116455,
            "min_longitude": 134.549198
        },
        "iso_3166_2": "PW-226",
        "iso_a2": "PW",
        "iso_a3": "PLW",
        "name": "Ngchesar",
        "postal": "226",
        "type": "",
        "type_en": ""
    },
    "227": {
        "alt_names": [
            "Ngeremlengui"
        ],
        "cca2": "PW",
        "cca3": "PLW",
        "code_hasc": "PW.NL",
        "extra": {
            "abbrev": "",
            "adm0_a3": "PLW",
            "adm0_label": "2",
            "adm0_sr": "4",
            "adm1_code": "PLW-5256",
            "admin": "Palau",
            "area_sqkm": "0",
            "check_me": "0",
            "code_local": "",
            "data_sources": [
                "natural"
            ],
            "datarank": "10",
            "diss_me": "5256",
            "featurecla": "Admin-1 scale rank",
            "fips": "",
            "fips_alt": "",
            "gadm_level": "0",
            "geonunit": "Palau",
            "gn_a1_code": "PW.13",
            "gn_id": "4038068",
            "gn_level": "1",
            "gn_name": "State of Ngeremlengui",
            "gn_region": "",
            "gns_adm1": "PS13",
            "gns_id": "-3738226",
            "gns_lang": "pau",
            "gns_level": "1",
            "gns_name": "Ngeremlengui",
            "gns_region": "",
            "gu_a3": "PLW",
            "hasc_maybe": "",
            "labelrank": "20",
            "mapcolor9": "1",
            "mapcolor13": "12",
            "max_label": "11.0",
            "min_label": "11.0",
            "min_zoom": "11.0",
            "name_ar": "\u00d9\u0086\u00d8\u00ba\u00d8\u00a7\u00d8\u00b1\u00d9\u008a\u00d9\u0085\u00d9\u0084\u00d9\u008a\u00d9\u0086\u00d8\u00ba\u00d9\u0088\u00d9\u008a",
            "name_bn": "\u00e0\u00a6\u0097\u00e0\u00a7\u0087\u00e0\u00a6\u00b0\u00e0\u00a7\u0087\u00e0\u00a6\u00ae\u00e0\u00a7\u008d\u00e0\u00a6\u00b2\u00e0\u00a7\u0087\u00e0\u00a6\u0099\u00e0\u00a7\u008d\u00e0\u00a6\u0097\u00e0\u00a7\u0081\u00e0\u00a6\u0087",
            "name_de": "Ngaremlengui",
            "name_el": "\u00ce\u009d\u00ce\u00b3\u00ce\u00ba\u00ce\u00b5\u00cf\u0081\u00ce\u00b5\u00ce\u00bc\u00ce\u00bb\u00ce\u00b5\u00ce\u00bd\u00ce\u00b3\u00ce\u00ba\u00ce\u00bf\u00cf\u008d\u00ce\u00b9",
            "name_en": "Ngeremlengui",
            "name_es": "Ngeremlengui",
            "name_fr": "Ngaremlengui",
            "name_hi": "\u00e0\u00a4\u0097\u00e0\u00a5\u0087\u00e0\u00a4\u00b0\u00e0\u00a5\u0087\u00e0\u00a4\u00ae\u00e0\u00a4\u00b2\u00e0\u00a5\u0087\u00e0\u00a4\u0082\u00e0\u00a4\u0097\u00e0\u00a5\u0081\u00e0\u00a4\u0088",
            "name_hu": "",
            "name_id": "Ngaremlengui",
            "name_it": "Ngaremlengui",
            "name_ja": "\u00e3\u0082\u00a2\u00e3\u0083\u00ab\u00e3\u0083\u00a2\u00e3\u0083\u008e\u00e3\u0082\u00b0\u00e3\u0082\u00a4\u00e5\u00b7\u009e",
            "name_ko": "\u00ea\u00b0\u0080\u00eb\u00a0\u0098\u00eb\u00a0\u009d\u00ea\u00b5\u00ac\u00ec\u009d\u00b4 \u00ec\u00a3\u00bc",
            "name_len": "12",
            "name_local": "",
            "name_nl": "Ngeremlengui",
            "name_pl": "Ngeremlengui",
            "name_pt": "Ngeremlengui",
            "name_ru": "\u00d0\u009d\u00d0\u00b3\u00d0\u00b5\u00d1\u0080\u00d0\u00b5\u00d0\u00bc\u00d0\u00bb\u00d0\u00b5\u00d0\u00bd\u00d0\u00b3\u00d0\u00b8",
            "name_sv": "Ngeremlengui",
            "name_tr": "Ngeremlengui",
            "name_vi": "Ngaremlengui",
            "name_zh": "\u00e5\u009f\u0083\u00e9\u009b\u00b7\u00e5\u00a7\u0086\u00e5\u0080\u00ab\u00e7\u00b6\u00ad\u00e5\u00b7\u009e",
            "ne_id": "1159316717",
            "note": "",
            "provnum_ne": "0",
            "record_type": "state",
            "region": "",
            "region_cod": "",
            "region_sub": "",
            "sameascity": "-99",
            "scalerank": "10",
            "sov_a3": "PLW",
            "sub_code": "",
            "wikidataid": "Q975076",
            "wikipedia": "",
            "woe_id": "24549817",
            "woe_label": "Ngeremlengui, PW, Palau",
            "woe_name": "Ngeremlengui"
        },
        "geo": {
            "latitude": 7.5198397,
            "longitude": 134.5596089,
            "max_latitude": 7.5774421,
            "max_longitude": 134.599446,
            "min_latitude": 7.464199,
            "min_longitude": 134.49916
        },
        "iso_3166_2": "PW-227",
        "iso_a2": "PW",
        "iso_a3": "PLW",
        "name": "Ngeremlengui",
        "postal": "227",
        "type": "",
        "type_en": ""
    },
    "228": {
        "alt_names": [
            "Ngiwal"
        ],
        "cca2": "PW",
        "cca3": "PLW",
        "code_hasc": "PW.NW",
        "extra": {
            "abbrev": "",
            "adm0_a3": "PLW",
            "adm0_label": "2",
            "adm0_sr": "4",
            "adm1_code": "PLW-5257",
            "admin": "Palau",
            "area_sqkm": "0",
            "check_me": "0",
            "code_local": "",
            "data_sources": [
                "natural"
            ],
            "datarank": "10",
            "diss_me": "5257",
            "featurecla": "Admin-1 scale rank",
            "fips": "",
            "fips_alt": "",
            "gadm_level": "0",
            "geonunit": "Palau",
            "gn_a1_code": "PW.14",
            "gn_id": "4038179",
            "gn_level": "1",
            "gn_name": "State of Ngiwal",
            "gn_region": "",
            "gns_adm1": "PS14",
            "gns_id": "-3738296",
            "gns_lang": "",
            "gns_level": "1",
            "gns_name": "Ngiwal, State of",
            "gns_region": "",
            "gu_a3": "PLW",
            "hasc_maybe": "",
            "labelrank": "20",
            "mapcolor9": "1",
            "mapcolor13": "12",
            "max_label": "11.0",
            "min_label": "11.0",
            "min_zoom": "11.0",
            "name_ar": "\u00d9\u0086\u00d8\u00ba\u00d9\u008a\u00d9\u0088\u00d8\u00a7\u00d9\u0084",
            "name_bn": "\u00e0\u00a6\u0097\u00e0\u00a6\u00bf\u00e0\u00a6\u00ac\u00e0\u00a6\u00be\u00e0\u00a6\u00b2",
            "name_de": "Ngiwal",
            "name_el": "\u00ce\u009d\u00ce\u00b3\u00ce\u00ba\u00ce\u00af\u00ce\u00b2\u00ce\u00b1\u00ce\u00bb",
            "name_en": "Ngiwal",
            "name_es": "Ngiwal",
            "name_fr": "Ngiwal",
            "name_hi": "\u00e0\u00a4\u0097\u00e0\u00a5\u0080\u00e0\u00a4\u00b5\u00e0\u00a4\u00be\u00e0\u00a4\u00b2",
            "name_hu": "",
            "name_id": "Ngiwal",
            "name_it": "Ngiwal",
            "name_ja": "\u00e3\u0082\u00aa\u00e3\u0082\u00ae\u00e3\u0083\u00af\u00e3\u0083\u00ab\u00e5\u00b7\u009e",
            "name_ko": "\u00ea\u00b8\u00b0\u00ec\u0099\u0088 \u00ec\u00a3\u00bc",
            "name_len": "6",
            "name_local": "",
            "name_nl": "Ngiwal",
            "name_pl": "Ngiwal",
            "name_pt": "Ngiwal",
            "name_ru": "\u00d0\u009d\u00d0\u00b3\u00d0\u00b8\u00d0\u00b2\u00d0\u00b0\u00d0\u00bb",
            "name_sv": "Ngiwal",
            "name_tr": "Ngiwal",
            "name_vi": "Ngiwal",
            "name_zh": "\u00e5\u00ae\u009c\u00e7\u0093\u00a6\u00e5\u00b0\u0094\u00e5\u00b7\u009e",
            "ne_id": "1159316729",
            "note": "",
            "provnum_ne": "0",
            "record_type": "state",
            "region": "",
            "region_cod": "",
            "region_sub": "",
            "sameascity": "-99",
            "scalerank": "10",
            "sov_a3": "PLW",
            "sub_code": "",
            "wikidataid": "Q1154101",
            "wikipedia": "",
            "woe_id": "24549815",
            "woe_label": "Ngiwal, PW, Palau",
            "woe_name": "Ngiwal"
        },
        "geo": {
            "latitude": 7.5614764,
            "longitude": 134.6160619,
            "max_latitude": 7.5800329,
            "max_longitude": 134.6382236,
            "min_latitude": 7.5320549,
            "min_longitude": 134.594404
        },
        "iso_3166_2": "PW-228",
        "iso_a2": "PW",
        "iso_a3": "PLW",
        "name": "Ngiwal",
        "postal": "228",
        "type": "",
        "type_en": ""
    },
    "350": {
        "alt_names": [
            "Peleliu"
        ],
        "cca2": "PW",
        "cca3": "PLW",
        "code_hasc": "PW.PE",
        "extra": {
            "abbrev": "",
            "adm0_a3": "PLW",
            "adm0_label": "2",
            "adm0_sr": "4",
            "adm1_code": "PLW-5258",
            "admin": "Palau",
            "area_sqkm": "0",
            "check_me": "0",
            "code_local": "",
            "data_sources": [
                "natural"
            ],
            "datarank": "10",
            "diss_me": "5258",
            "featurecla": "Admin-1 scale rank",
            "fips": "",
            "fips_alt": "",
            "gadm_level": "0",
            "geonunit": "Palau",
            "gn_a1_code": "PW.15",
            "gn_id": "4038261",
            "gn_level": "1",
            "gn_name": "State of Peleliu",
            "gn_region": "",
            "gns_adm1": "PS15",
            "gns_id": "-3737969",
            "gns_lang": "eng",
            "gns_level": "1",
            "gns_name": "Peleliu, State of",
            "gns_region": "",
            "gu_a3": "PLW",
            "hasc_maybe": "",
            "labelrank": "20",
            "mapcolor9": "1",
            "mapcolor13": "12",
            "max_label": "11.0",
            "min_label": "11.0",
            "min_zoom": "11.0",
            "name_ar": "\u00d8\u00a8\u00d9\u008a\u00d9\u0084\u00d9\u008a\u00d9\u0084\u00d9\u008a\u00d9\u0088",
            "name_bn": "\u00e0\u00a6\u00aa\u00e0\u00a7\u0087\u00e0\u00a6\u00b2\u00e0\u00a7\u0087\u00e0\u00a6\u00b2\u00e0\u00a6\u00bf\u00e0\u00a6\u0089",
            "name_de": "Peleliu",
            "name_el": "\u00ce\u00a0\u00ce\u00b5\u00ce\u00bb\u00ce\u00b5\u00ce\u00bb\u00ce\u00af\u00ce\u00bf\u00cf\u0085",
            "name_en": "Peleliu",
            "name_es": "Peleliu",
            "name_fr": "Peleliu",
            "name_hi": "\u00e0\u00a4\u00aa\u00e0\u00a5\u0087\u00e0\u00a4\u00b2\u00e0\u00a5\u0087\u00e0\u00a4\u00b2\u00e0\u00a4\u00bf\u00e0\u00a4\u008a",
            "name_hu": "",
            "name_id": "Peleliu",
            "name_it": "Peleliu",
            "name_ja": "\u00e3\u0083\u009a\u00e3\u0083\u00aa\u00e3\u0083\u00aa\u00e3\u0083\u00a5\u00e3\u0083\u00bc\u00e5\u00b7\u009e",
            "name_ko": "\u00ed\u008e\u00a0\u00eb\u00a0\u0090\u00eb\u00a6\u00ac\u00ec\u009a\u00b0 \u00ec\u00a3\u00bc",
            "name_len": "7",
            "name_local": "",
            "name_nl": "Peleliu",
            "name_pl": "Peleliu",
            "name_pt": "Peleliu",
            "name_ru": "\u00d0\u009f\u00d0\u00b5\u00d0\u00bb\u00d0\u00b5\u00d0\u00bb\u00d0\u00b8\u00d1\u0083",
            "name_sv": "Peleliu",
            "name_tr": "Peleliu",
            "name_vi": "Peleliu",
            "name_zh": "\u00e8\u00b2\u009d\u00e9\u0087\u008c\u00e7\u0090\u0089\u00e5\u00b7\u009e",
            "ne_id": "1159316709",
            "note": "",
            "provnum_ne": "0",
            "record_type": "state",
            "region": "",
            "region_cod": "",
            "region_sub": "",
            "sameascity": "-99",
            "scalerank": "10",
            "sov_a3": "PLW",
            "sub_code": "",
            "wikidataid": "Q497981",
            "wikipedia": "",
            "woe_id": "24549823",
            "woe_label": "Peleliu, PW, Palau",
            "woe_name": "Peleliu"
        },
        "geo": {
            "latitude": 7.0022906,
            "longitude": 134.2431628,
            "max_latitude": 7.049378,
            "max_longitude": 134.2706156,
            "min_latitude": 6.973422,
            "min_longitude": 134.2217079
        },
        "iso_3166_2": "PW-350",
        "iso_a2": "PW",
        "iso_a3": "PLW",
        "name": "Peleliu",
        "postal": "350",
        "type": "",
        "type_en": ""
    },
    "370": {
        "alt_names": [
            "Sonsorol"
        ],
        "cca2": "PW",
        "cca3": "PLW",
        "code_hasc": "PW.SO",
        "extra": {
            "abbrev": "",
            "adm0_a3": "PLW",
            "adm0_label": "2",
            "adm0_sr": "4",
            "adm1_code": "PLW-5259",
            "admin": "Palau",
            "area_sqkm": "0",
            "check_me": "0",
            "code_local": "",
            "data_sources": [
                "natural"
            ],
            "datarank": "10",
            "diss_me": "5259",
            "featurecla": "Admin-1 scale rank",
            "fips": "",
            "fips_alt": "",
            "gadm_level": "0",
            "geonunit": "Palau",
            "gn_a1_code": "PW.16",
            "gn_id": "1559630",
            "gn_level": "1",
            "gn_name": "State of Sonsorol",
            "gn_region": "",
            "gns_adm1": "PS16",
            "gns_id": "-3738292",
            "gns_lang": "",
            "gns_level": "1",
            "gns_name": "Sonsorol State",
            "gns_region": "",
            "gu_a3": "PLW",
            "hasc_maybe": "",
            "labelrank": "20",
            "mapcolor9": "1",
            "mapcolor13": "12",
            "max_label": "11.0",
            "min_label": "11.0",
            "min_zoom": "11.0",
            "name_ar": "\u00d8\u00b3\u00d9\u0088\u00d9\u0086\u00d8\u00b3\u00d9\u0088\u00d8\u00b1\u00d9\u0088\u00d9\u0084",
            "name_bn": "\u00e0\u00a6\u00b8\u00e0\u00a6\u00a8\u00e0\u00a7\u008d\u00e0\u00a6\u00b8\u00e0\u00a7\u008b\u00e0\u00a6\u00b0\u00e0\u00a7\u008b\u00e0\u00a6\u00b2",
            "name_de": "Sonsorol",
            "name_el": "\u00ce\u00a3\u00ce\u00bf\u00ce\u00bd\u00cf\u0083\u00ce\u00bf\u00cf\u0081\u00cf\u008c\u00ce\u00bb",
            "name_en": "Sonsorol",
            "name_es": "Sonsoral",
            "name_fr": "Sonsorol",
            "name_hi": "\u00e0\u00a4\u00b8\u00e0\u00a5\u008b\u00e0\u00a4\u0082\u00e0\u00a4\u00b8\u00e0\u00a5\u008b\u00e0\u00a4\u00b0\u00e0\u00a5\u008b\u00e0\u00a4\u00b2",
            "name_hu": "",
            "name_id": "Sonsorol",
            "name_it": "Sonsorol",
            "name_ja": "\u00e3\u0082\u00bd\u00e3\u0083\u00b3\u00e3\u0082\u00bd\u00e3\u0083\u00ad\u00e3\u0083\u00bc\u00e3\u0083\u00ab\u00e5\u00b7\u009e",
            "name_ko": "\u00ec\u0086\u0090\u00ec\u0086\u008c\u00eb\u00a1\u00a4 \u00ec\u00a3\u00bc",
            "name_len": "8",
            "name_local": "",
            "name_nl": "Sonsorol",
            "name_pl": "Sonsorol",
            "name_pt": "Sonsoral",
            "name_ru": "\u00d0\u00a1\u00d0\u00be\u00d0\u00bd\u00d1\u0081\u00d0\u00be\u00d1\u0080\u00d0\u00be\u00d0\u00bb",
            "name_sv": "Sonsoral",
            "name_tr": "Sonsorol",
            "name_vi": "Sonsorol",
            "name_zh": "\u00e6\u009d\u00be\u00e7\u00b4\u00a2\u00e7\u00be\u0085\u00e7\u0088\u00be",
            "ne_id": "1159316705",
            "note": "",
            "provnum_ne": "0",
            "record_type": "state",
            "region": "",
            "region_cod": "",
            "region_sub": "",
            "sameascity": "-99",
            "scalerank": "10",
            "sov_a3": "PLW",
            "sub_code": "",
            "wikidataid": "Q866699",
            "wikipedia": "",
            "woe_id": "24549825",
            "woe_label": "",
            "woe_name": "Sonsorol"
        },
        "geo": {
            "latitude": 4.3199718,
            "longitude": 132.3126369,
            "max_latitude": 4.6583571,
            "max_longitude": 132.3141002,
            "min_latitude": 4.3124723,
            "min_longitude": 131.947925
        },
        "iso_3166_2": "PW-370",
        "iso_a2": "PW",
        "iso_a3": "PLW",
        "name": "Sonsorol",
        "postal": "370",
        "type": "",
        "type_en": ""
    }
}