{
    "01": {
        "alt_names": [
            "Aveiro"
        ],
        "cca2": "PT",
        "cca3": "PRT",
        "code_hasc": "PT.AV",
        "extra": {
            "abbrev": "",
            "adm0_a3": "PRT",
            "adm0_label": "2",
            "adm0_sr": "1",
            "adm1_code": "PRT-739",
            "admin": "Portugal",
            "area_sqkm": "0",
            "check_me": "20",
            "code_local": "",
            "data_sources": [
                "natural"
            ],
            "datarank": "6",
            "diss_me": "739",
            "featurecla": "Admin-1 scale rank",
            "fips": "PO02",
            "fips_alt": "",
            "gadm_level": "1",
            "geonunit": "Portugal",
            "gn_a1_code": "PT.02",
            "gn_id": "2742610",
            "gn_level": "1",
            "gn_name": "Distrito de Aveiro",
            "gn_region": "",
            "gns_adm1": "PO02",
            "gns_id": "-2158958",
            "gns_lang": "fra",
            "gns_level": "1",
            "gns_name": "Aveiro, Distrito de",
            "gns_region": "",
            "gu_a3": "PRX",
            "hasc_maybe": "",
            "labelrank": "7",
            "mapcolor9": "1",
            "mapcolor13": "4",
            "max_label": "11.0",
            "min_label": "8.0",
            "min_zoom": "7.7",
            "name_ar": "\u00d9\u0085\u00d8\u00ad\u00d8\u00a7\u00d9\u0081\u00d8\u00b8\u00d8\u00a9 \u00d8\u00a3\u00d9\u0081\u00d9\u008a\u00d9\u008a\u00d8\u00b1\u00d9\u0088",
            "name_bn": "",
            "name_de": "Distrikt Aveiro",
            "name_el": "",
            "name_en": "Aveiro District",
            "name_es": "Distrito de Aveiro",
            "name_fr": "District d'Aveiro",
            "name_hi": "",
            "name_hu": "Aveiro",
            "name_id": "Distrik Aveiro",
            "name_it": "distretto di Aveiro",
            "name_ja": "\u00e3\u0082\u00a2\u00e3\u0083\u00b4\u00e3\u0082\u00a7\u00e3\u0082\u00a4\u00e3\u0083\u00ad\u00e7\u009c\u008c",
            "name_ko": "\u00ec\u0095\u0084\u00eb\u00b2\u00a0\u00ec\u009d\u00b4\u00eb\u00a3\u00a8 \u00ed\u0098\u0084",
            "name_len": "6",
            "name_local": "",
            "name_nl": "Aveiro",
            "name_pl": "Dystrykt Aveiro",
            "name_pt": "Distrito de Aveiro",
            "name_ru": "\u00d0\u0090\u00d0\u00b2\u00d0\u00b5\u00d0\u00b9\u00d1\u0080\u00d1\u0083",
            "name_sv": "Aveiro",
            "name_tr": "",
            "name_vi": "Aveiro",
            "name_zh": "\u00e9\u0098\u00bf\u00e5\u00a8\u0081\u00e7\u00be\u0085\u00e5\u008d\u0080",
            "ne_id": "1159310559",
            "note": "",
            "provnum_ne": "9",
            "record_type": "state",
            "region": "Norte, Centro",
            "region_cod": "",
            "region_sub": "",
            "sameascity": "7",
            "scalerank": "7",
            "sov_a3": "PRT",
            "sub_code": "",
            "wikidataid": "Q210527",
            "wikipedia": "",
            "woe_id": "2346562",
            "woe_label": "Aveiro, PT, Portugal",
            "woe_name": "Aveiro"
        },
        "geo": {
            "latitude": 40.6405055,
            "longitude": -8.6537539,
            "max_latitude": 40.6545896,
            "max_longitude": -8.6238121,
            "min_latitude": 40.6241712,
            "min_longitude": -8.6654438
        },
        "iso_3166_2": "PT-01",
        "iso_a2": "PT",
        "iso_a3": "PRT",
        "name": "Aveiro",
        "postal": "01",
        "type": "Distrito",
        "type_en": "District"
    },
    "02": {
        "alt_names": [
            "Beja"
        ],
        "cca2": "PT",
        "cca3": "PRT",
        "code_hasc": "PT.BE",
        "extra": {
            "abbrev": "",
            "adm0_a3": "PRT",
            "adm0_label": "2",
            "adm0_sr": "1",
            "adm1_code": "PRT-743",
            "admin": "Portugal",
            "area_sqkm": "0",
            "check_me": "20",
            "code_local": "",
            "data_sources": [
                "natural"
            ],
            "datarank": "6",
            "diss_me": "743",
            "featurecla": "Admin-1 scale rank",
            "fips": "PO03",
            "fips_alt": "",
            "gadm_level": "1",
            "geonunit": "Portugal",
            "gn_a1_code": "PT.03",
            "gn_id": "2270984",
            "gn_level": "1",
            "gn_name": "Distrito de Beja",
            "gn_region": "",
            "gns_adm1": "PO03",
            "gns_id": "-2159656",
            "gns_lang": "fra",
            "gns_level": "1",
            "gns_name": "Beja, Distrito de",
            "gns_region": "",
            "gu_a3": "PRX",
            "hasc_maybe": "",
            "labelrank": "7",
            "mapcolor9": "1",
            "mapcolor13": "4",
            "max_label": "11.0",
            "min_label": "8.0",
            "min_zoom": "7.7",
            "name_ar": "\u00d9\u0085\u00d8\u00ad\u00d8\u00a7\u00d9\u0081\u00d8\u00b8\u00d8\u00a9 \u00d8\u00a8\u00d9\u008a\u00d8\u00ac\u00d8\u00a7",
            "name_bn": "\u00e0\u00a6\u00ac\u00e0\u00a7\u0087\u00e0\u00a6\u009c\u00e0\u00a6\u00be \u00e0\u00a6\u009c\u00e0\u00a7\u0087\u00e0\u00a6\u00b2\u00e0\u00a6\u00be",
            "name_de": "Distrikt Beja",
            "name_el": "\u00ce\u009c\u00cf\u0080\u00ce\u00ad\u00cf\u0084\u00ce\u00b6\u00ce\u00b1",
            "name_en": "Beja District",
            "name_es": "Distrito de Beja",
            "name_fr": "District de Beja",
            "name_hi": "\u00e0\u00a4\u00ac\u00e0\u00a5\u0087\u00e0\u00a4\u009c\u00e0\u00a4\u00be \u00e0\u00a4\u009c\u00e0\u00a4\u00bf\u00e0\u00a4\u00b2\u00e0\u00a4\u00be",
            "name_hu": "Beja",
            "name_id": "Distrik Beja",
            "name_it": "distretto di Beja",
            "name_ja": "\u00e3\u0083\u0099\u00e3\u0083\u00bc\u00e3\u0082\u00b8\u00e3\u0083\u00a3\u00e7\u009c\u008c",
            "name_ko": "\u00eb\u00b2\u00a0\u00ec\u009e\u0090 \u00ed\u0098\u0084",
            "name_len": "4",
            "name_local": "",
            "name_nl": "Beja",
            "name_pl": "Dystrykt Beja",
            "name_pt": "Distrito de Beja",
            "name_ru": "\u00d0\u0091\u00d0\u00b5\u00d0\u00b6\u00d0\u00b0",
            "name_sv": "Beja",
            "name_tr": "Beja District",
            "name_vi": "Beja",
            "name_zh": "\u00e8\u00b2\u009d\u00e9\u009b\u0085\u00e5\u008d\u0080",
            "ne_id": "1159310567",
            "note": "",
            "provnum_ne": "16",
            "record_type": "state",
            "region": "Alentejo",
            "region_cod": "",
            "region_sub": "",
            "sameascity": "7",
            "scalerank": "7",
            "sov_a3": "PRT",
            "sub_code": "",
            "wikidataid": "Q321455",
            "wikipedia": "",
            "woe_id": "2346563",
            "woe_label": "Beja, PT, Portugal",
            "woe_name": "Beja"
        },
        "geo": {
            "latitude": 38.0153039,
            "longitude": -7.8627308,
            "max_latitude": 38.0746209,
            "max_longitude": -7.8177491,
            "min_latitude": 37.97009,
            "min_longitude": -7.9595048
        },
        "iso_3166_2": "PT-02",
        "iso_a2": "PT",
        "iso_a3": "PRT",
        "name": "Beja",
        "postal": "02",
        "type": "Distrito",
        "type_en": "District"
    },
    "03": {
        "alt_names": [
            "Braga"
        ],
        "cca2": "PT",
        "cca3": "PRT",
        "code_hasc": "PT.BR",
        "extra": {
            "abbrev": "",
            "adm0_a3": "PRT",
            "adm0_label": "2",
            "adm0_sr": "1",
            "adm1_code": "PRT-749",
            "admin": "Portugal",
            "area_sqkm": "0",
            "check_me": "20",
            "code_local": "",
            "data_sources": [
                "natural"
            ],
            "datarank": "6",
            "diss_me": "749",
            "featurecla": "Admin-1 scale rank",
            "fips": "PO04",
            "fips_alt": "",
            "gadm_level": "1",
            "geonunit": "Portugal",
            "gn_a1_code": "PT.04",
            "gn_id": "2742031",
            "gn_level": "1",
            "gn_name": "Distrito de Braga",
            "gn_region": "",
            "gns_adm1": "PO04",
            "gns_id": "-2160206",
            "gns_lang": "fra",
            "gns_level": "1",
            "gns_name": "Braga, Distrito de",
            "gns_region": "",
            "gu_a3": "PRX",
            "hasc_maybe": "",
            "labelrank": "7",
            "mapcolor9": "1",
            "mapcolor13": "4",
            "max_label": "11.0",
            "min_label": "8.0",
            "min_zoom": "7.7",
            "name_ar": "\u00d9\u0085\u00d8\u00ad\u00d8\u00a7\u00d9\u0081\u00d8\u00b8\u00d8\u00a9 \u00d8\u00a8\u00d8\u00b1\u00d8\u00a7\u00d8\u00ba\u00d8\u00a7",
            "name_bn": "\u00e0\u00a6\u00ac\u00e0\u00a7\u008d\u00e0\u00a6\u00b0\u00e0\u00a6\u00be\u00e0\u00a6\u0097\u00e0\u00a6\u00be \u00e0\u00a6\u009c\u00e0\u00a7\u0087\u00e0\u00a6\u00b2\u00e0\u00a6\u00be",
            "name_de": "Distrikt Braga",
            "name_el": "\u00ce\u009c\u00cf\u0080\u00cf\u0081\u00ce\u00ac\u00ce\u00b3\u00ce\u00ba\u00ce\u00b1",
            "name_en": "Braga District",
            "name_es": "Distrito de Braga",
            "name_fr": "District de Braga",
            "name_hi": "\u00e0\u00a4\u00ac\u00e0\u00a5\u008d\u00e0\u00a4\u00b0\u00e0\u00a4\u00be\u00e0\u00a4\u0097\u00e0\u00a4\u00be \u00e0\u00a4\u009c\u00e0\u00a4\u00bf\u00e0\u00a4\u00b2\u00e0\u00a4\u00be",
            "name_hu": "Braga",
            "name_id": "Distrik Braga",
            "name_it": "distretto di Braga",
            "name_ja": "\u00e3\u0083\u0096\u00e3\u0083\u00a9\u00e3\u0082\u00ac\u00e7\u009c\u008c",
            "name_ko": "\u00eb\u00b8\u008c\u00eb\u009d\u00bc\u00ea\u00b0\u0080 \u00ed\u0098\u0084",
            "name_len": "5",
            "name_local": "",
            "name_nl": "Braga",
            "name_pl": "Dystrykt Braga",
            "name_pt": "Distrito de Braga",
            "name_ru": "\u00d0\u0091\u00d1\u0080\u00d0\u00b0\u00d0\u00b3\u00d0\u00b0",
            "name_sv": "Braga",
            "name_tr": "Braga District",
            "name_vi": "Braga",
            "name_zh": "\u00e5\u00b8\u0083\u00e6\u008b\u0089\u00e5\u008a\u00a0\u00e5\u008d\u0080",
            "ne_id": "1159310575",
            "note": "",
            "provnum_ne": "4",
            "record_type": "state",
            "region": "Norte",
            "region_cod": "",
            "region_sub": "",
            "sameascity": "7",
            "scalerank": "7",
            "sov_a3": "PRT",
            "sub_code": "",
            "wikidataid": "Q326203",
            "wikipedia": "",
            "woe_id": "2346564",
            "woe_label": "Braga, PT, Portugal",
            "woe_name": "Braga"
        },
        "geo": {
            "latitude": 41.5454486,
            "longitude": -8.426507,
            "max_latitude": 41.5841477,
            "max_longitude": -8.3421791,
            "min_latitude": 41.510402,
            "min_longitude": -8.4806633
        },
        "iso_3166_2": "PT-03",
        "iso_a2": "PT",
        "iso_a3": "PRT",
        "name": "Braga",
        "postal": "03",
        "type": "Distrito",
        "type_en": "District"
    },
    "04": {
        "alt_names": [
            "Bragan\u00e7a"
        ],
        "cca2": "PT",
        "cca3": "PRT",
        "code_hasc": "PT.BA",
        "extra": {
            "abbrev": "",
            "adm0_a3": "PRT",
            "adm0_label": "2",
            "adm0_sr": "1",
            "adm1_code": "PRT-750",
            "admin": "Portugal",
            "area_sqkm": "0",
            "check_me": "20",
            "code_local": "",
            "data_sources": [
                "natural"
            ],
            "datarank": "6",
            "diss_me": "750",
            "featurecla": "Admin-1 scale rank",
            "fips": "PO05",
            "fips_alt": "",
            "gadm_level": "1",
            "geonunit": "Portugal",
            "gn_a1_code": "PT.05",
            "gn_id": "2742026",
            "gn_level": "1",
            "gn_name": "Distrito de Braganca",
            "gn_region": "",
            "gns_adm1": "PO05",
            "gns_id": "-2160211",
            "gns_lang": "fra",
            "gns_level": "1",
            "gns_name": "Braganca, Distrito de",
            "gns_region": "",
            "gu_a3": "PRX",
            "hasc_maybe": "",
            "labelrank": "7",
            "mapcolor9": "1",
            "mapcolor13": "4",
            "max_label": "11.0",
            "min_label": "8.0",
            "min_zoom": "7.7",
            "name_ar": "\u00d9\u0085\u00d8\u00ad\u00d8\u00a7\u00d9\u0081\u00d8\u00b8\u00d8\u00a9 \u00d8\u00a8\u00d8\u00b1\u00d8\u00a7\u00d8\u00ba\u00d8\u00a7\u00d9\u0086\u00d8\u00b2\u00d8\u00a7",
            "name_bn": "",
            "name_de": "Distrikt Bragan\u00c3\u00a7a",
            "name_el": "",
            "name_en": "Bragan\u00c3\u00a7a District",
            "name_es": "Distrito de Braganza",
            "name_fr": "District de Bragance",
            "name_hi": "",
            "name_hu": "Bragan\u00c3\u00a7a",
            "name_id": "Distrik Bragan\u00c3\u00a7a",
            "name_it": "distretto di Braganza",
            "name_ja": "\u00e3\u0083\u0096\u00e3\u0083\u00a9\u00e3\u0082\u00ac\u00e3\u0083\u00b3\u00e3\u0082\u00b5\u00e7\u009c\u008c",
            "name_ko": "\u00eb\u00b8\u008c\u00eb\u009d\u00bc\u00ea\u00b0\u0084\u00ec\u0082\u00ac \u00ed\u0098\u0084",
            "name_len": "8",
            "name_local": "",
            "name_nl": "Bragan\u00c3\u00a7a",
            "name_pl": "Dystrykt Bragan\u00c3\u00a7a",
            "name_pt": "Distrito de Bragan\u00c3\u00a7a",
            "name_ru": "\u00d0\u0091\u00d1\u0080\u00d0\u00b0\u00d0\u00b3\u00d0\u00b0\u00d0\u00bd\u00d1\u0081\u00d0\u00b0",
            "name_sv": "Bragan\u00c3\u00a7a",
            "name_tr": "",
            "name_vi": "Bragan\u00c3\u00a7a",
            "name_zh": "\u00e5\u00b8\u0083\u00e6\u008b\u0089\u00e5\u00b9\u00b2\u00e8\u0096\u00a9\u00e5\u008d\u0080",
            "ne_id": "1159310577",
            "note": "",
            "provnum_ne": "11",
            "record_type": "state",
            "region": "Norte",
            "region_cod": "",
            "region_sub": "",
            "sameascity": "7",
            "scalerank": "7",
            "sov_a3": "PRT",
            "sub_code": "",
            "wikidataid": "Q373528",
            "wikipedia": "",
            "woe_id": "2346565",
            "woe_label": "Bragan\u00c3\u0083\u00c2\u00a7a, PT, Portugal",
            "woe_name": "Bragan\u00c3\u00a7a"
        },
        "geo": {
            "latitude": 41.8061131,
            "longitude": -6.756738,
            "max_latitude": 41.8369891,
            "max_longitude": -6.7063504,
            "min_latitude": 41.7861053,
            "min_longitude": -6.7907131
        },
        "iso_3166_2": "PT-04",
        "iso_a2": "PT",
        "iso_a3": "PRT",
        "name": "Bragan\u00e7a",
        "postal": "04",
        "type": "Distrito",
        "type_en": "District"
    },
    "05": {
        "alt_names": [
            "Castelo Branco"
        ],
        "cca2": "PT",
        "cca3": "PRT",
        "code_hasc": "PT.CB",
        "extra": {
            "abbrev": "",
            "adm0_a3": "PRT",
            "adm0_label": "2",
            "adm0_sr": "1",
            "adm1_code": "PRT-751",
            "admin": "Portugal",
            "area_sqkm": "0",
            "check_me": "20",
            "code_local": "",
            "data_sources": [
                "natural"
            ],
            "datarank": "6",
            "diss_me": "751",
            "featurecla": "Admin-1 scale rank",
            "fips": "PO06",
            "fips_alt": "",
            "gadm_level": "1",
            "geonunit": "Portugal",
            "gn_a1_code": "PT.06",
            "gn_id": "2269513",
            "gn_level": "1",
            "gn_name": "Distrito de Castelo Branco",
            "gn_region": "",
            "gns_adm1": "PO06",
            "gns_id": "-2162528",
            "gns_lang": "fra",
            "gns_level": "1",
            "gns_name": "Castelo Branco, Distrito de",
            "gns_region": "",
            "gu_a3": "PRX",
            "hasc_maybe": "",
            "labelrank": "7",
            "mapcolor9": "1",
            "mapcolor13": "4",
            "max_label": "11.0",
            "min_label": "8.0",
            "min_zoom": "7.7",
            "name_ar": "\u00d9\u0085\u00d8\u00ad\u00d8\u00a7\u00d9\u0081\u00d8\u00b8\u00d8\u00a9 \u00d9\u0083\u00d8\u00a7\u00d8\u00b3\u00d8\u00aa\u00d9\u008a\u00d9\u0084\u00d9\u0088 \u00d8\u00a8\u00d8\u00b1\u00d8\u00a7\u00d9\u0086\u00d9\u0083\u00d9\u0088",
            "name_bn": "\u00e0\u00a6\u0095\u00e0\u00a6\u00be\u00e0\u00a6\u00b8\u00e0\u00a7\u008d\u00e0\u00a6\u009f\u00e0\u00a7\u0087\u00e0\u00a6\u00b2\u00e0\u00a7\u008b \u00e0\u00a6\u00ac\u00e0\u00a7\u008d\u00e0\u00a6\u00b0\u00e0\u00a6\u00be\u00e0\u00a6\u0099\u00e0\u00a7\u008d\u00e0\u00a6\u0095\u00e0\u00a7\u008b \u00e0\u00a6\u009c\u00e0\u00a7\u0087\u00e0\u00a6\u00b2\u00e0\u00a6\u00be",
            "name_de": "Distrikt Castelo Branco",
            "name_el": "\u00ce\u009a\u00ce\u00b1\u00cf\u0083\u00cf\u0084\u00ce\u00ad\u00ce\u00bb\u00ce\u00bf \u00ce\u009c\u00cf\u0080\u00cf\u0081\u00ce\u00ac\u00ce\u00bd\u00ce\u00ba\u00ce\u00bf",
            "name_en": "Castelo Branco District",
            "name_es": "Distrito de Castelo Branco",
            "name_fr": "District de Castelo Branco",
            "name_hi": "\u00e0\u00a4\u0095\u00e0\u00a4\u00be\u00e0\u00a4\u00b8\u00e0\u00a5\u008d\u00e0\u00a4\u009f\u00e0\u00a5\u0087\u00e0\u00a4\u00b2\u00e0\u00a5\u008b \u00e0\u00a4\u00ac\u00e0\u00a5\u008d\u00e0\u00a4\u00b0\u00e0\u00a5\u0088\u00e0\u00a4\u0082\u00e0\u00a4\u0095\u00e0\u00a5\u008b \u00e0\u00a4\u009c\u00e0\u00a4\u00bf\u00e0\u00a4\u00b2\u00e0\u00a4\u00be",
            "name_hu": "Castelo Branco",
            "name_id": "Distrik Castelo Branco",
            "name_it": "distretto di Castelo Branco",
            "name_ja": "\u00e3\u0082\u00ab\u00e3\u0082\u00b9\u00e3\u0083\u0086\u00e3\u0083\u00ad\u00e3\u0083\u00bb\u00e3\u0083\u0096\u00e3\u0083\u00a9\u00e3\u0083\u00b3\u00e3\u0082\u00b3\u00e7\u009c\u008c",
            "name_ko": "\u00ec\u00b9\u00b4\u00ec\u008a\u00a4\u00ed\u0085\u0094\u00eb\u00a3\u00a8\u00eb\u00b8\u008c\u00eb\u009e\u0091\u00ec\u00bf\u00a0 \u00ed\u0098\u0084",
            "name_len": "14",
            "name_local": "",
            "name_nl": "Castelo Branco",
            "name_pl": "Dystrykt Castelo Branco",
            "name_pt": "Distrito de Castelo Branco",
            "name_ru": "\u00d0\u009a\u00d0\u00b0\u00d1\u0088\u00d1\u0082\u00d0\u00b5\u00d0\u00bb\u00d1\u0083-\u00d0\u0091\u00d1\u0080\u00d0\u00b0\u00d0\u00bd\u00d0\u00ba\u00d1\u0083",
            "name_sv": "Castelo Branco",
            "name_tr": "Castello Branco District",
            "name_vi": "Castelo Branco",
            "name_zh": "\u00e5\u00b8\u0083\u00e6\u009c\u0097\u00e5\u00ba\u00ab\u00e5\u00a0\u00a1\u00e5\u008d\u0080",
            "ne_id": "1159310579",
            "note": "",
            "provnum_ne": "10",
            "record_type": "state",
            "region": "Centro",
            "region_cod": "",
            "region_sub": "",
            "sameascity": "7",
            "scalerank": "7",
            "sov_a3": "PRT",
            "sub_code": "",
            "wikidataid": "Q273529",
            "wikipedia": "",
            "woe_id": "2346566",
            "woe_label": "Castelo Branco, PT, Portugal",
            "woe_name": "Castelo Branco"
        },
        "geo": {
            "latitude": 39.8197117,
            "longitude": -7.4964662,
            "max_latitude": 39.9093461,
            "max_longitude": -7.36709,
            "min_latitude": 39.7136873,
            "min_longitude": -7.5591241
        },
        "iso_3166_2": "PT-05",
        "iso_a2": "PT",
        "iso_a3": "PRT",
        "name": "Castelo Branco",
        "postal": "05",
        "type": "Distrito",
        "type_en": "District"
    },
    "06": {
        "alt_names": [
            "Coimbra"
        ],
        "cca2": "PT",
        "cca3": "PRT",
        "code_hasc": "PT.CO",
        "extra": {
            "abbrev": "",
            "adm0_a3": "PRT",
            "adm0_label": "2",
            "adm0_sr": "1",
            "adm1_code": "PRT-752",
            "admin": "Portugal",
            "area_sqkm": "0",
            "check_me": "20",
            "code_local": "",
            "data_sources": [
                "natural"
            ],
            "datarank": "6",
            "diss_me": "752",
            "featurecla": "Admin-1 scale rank",
            "fips": "PO07",
            "fips_alt": "",
            "gadm_level": "1",
            "geonunit": "Portugal",
            "gn_a1_code": "PT.07",
            "gn_id": "2740636",
            "gn_level": "1",
            "gn_name": "Distrito de Coimbra",
            "gn_region": "",
            "gns_adm1": "PO07",
            "gns_id": "-2163276",
            "gns_lang": "fra",
            "gns_level": "1",
            "gns_name": "Coimbra, Distrito de",
            "gns_region": "",
            "gu_a3": "PRX",
            "hasc_maybe": "",
            "labelrank": "7",
            "mapcolor9": "1",
            "mapcolor13": "4",
            "max_label": "11.0",
            "min_label": "8.0",
            "min_zoom": "7.7",
            "name_ar": "\u00d9\u0085\u00d8\u00ad\u00d8\u00a7\u00d9\u0081\u00d8\u00b8\u00d8\u00a9 \u00d9\u0083\u00d9\u0088\u00d9\u008a\u00d9\u0085\u00d8\u00a8\u00d8\u00b1\u00d8\u00a7",
            "name_bn": "\u00e0\u00a6\u0095\u00e0\u00a6\u00ae\u00e0\u00a6\u00ac\u00e0\u00a7\u008d\u00e0\u00a6\u00b0\u00e0\u00a6\u00be \u00e0\u00a6\u009c\u00e0\u00a7\u0087\u00e0\u00a6\u00b2\u00e0\u00a6\u00be",
            "name_de": "Distrikt Coimbra",
            "name_el": "\u00ce\u009a\u00cf\u008c\u00ce\u00b9\u00ce\u00bc\u00cf\u0080\u00cf\u0081\u00ce\u00b1",
            "name_en": "Coimbra District",
            "name_es": "Distrito de Co\u00c3\u00admbra",
            "name_fr": "District de Coimbra",
            "name_hi": "\u00e0\u00a4\u0095\u00e0\u00a5\u008b\u00e0\u00a4\u0087\u00e0\u00a4\u00ae\u00e0\u00a5\u008d\u00e0\u00a4\u00ac\u00e0\u00a5\u008d\u00e0\u00a4\u00b0\u00e0\u00a4\u00be \u00e0\u00a4\u009c\u00e0\u00a4\u00bf\u00e0\u00a4\u00b2\u00e0\u00a4\u00be",
            "name_hu": "Coimbra",
            "name_id": "Distrik Coimbra",
            "name_it": "distretto di Coimbra",
            "name_ja": "\u00e3\u0082\u00b3\u00e3\u0082\u00a4\u00e3\u0083\u00b3\u00e3\u0083\u0096\u00e3\u0083\u00a9\u00e7\u009c\u008c",
            "name_ko": "\u00ec\u00bd\u0094\u00ec\u009e\u0084\u00eb\u00b8\u008c\u00eb\u009d\u00bc \u00ed\u0098\u0084",
            "name_len": "7",
            "name_local": "",
            "name_nl": "Coimbra",
            "name_pl": "Dystrykt Coimbra",
            "name_pt": "Distrito de Coimbra",
            "name_ru": "\u00d0\u009a\u00d0\u00be\u00d0\u00b8\u00d0\u00bc\u00d0\u00b1\u00d1\u0080\u00d0\u00b0",
            "name_sv": "Coimbra",
            "name_tr": "Coimbra District",
            "name_vi": "Coimbra",
            "name_zh": "\u00e7\u00a7\u0091\u00e8\u008b\u00b1\u00e5\u00b8\u0083\u00e6\u008b\u0089\u00e5\u008d\u0080",
            "ne_id": "1159310581",
            "note": "",
            "provnum_ne": "7",
            "record_type": "state",
            "region": "Centro",
            "region_cod": "",
            "region_sub": "",
            "sameascity": "7",
            "scalerank": "7",
            "sov_a3": "PRT",
            "sub_code": "",
            "wikidataid": "Q244517",
            "wikipedia": "",
            "woe_id": "2346567",
            "woe_label": "Coimbra, PT, Portugal",
            "woe_name": "Coimbra"
        },
        "geo": {
            "latitude": 40.2033145,
            "longitude": -8.4102573,
            "max_latitude": 40.2861477,
            "max_longitude": -8.3229076,
            "min_latitude": 40.1713722,
            "min_longitude": -8.5096411
        },
        "iso_3166_2": "PT-06",
        "iso_a2": "PT",
        "iso_a3": "PRT",
        "name": "Coimbra",
        "postal": "06",
        "type": "Distrito",
        "type_en": "District"
    },
    "07": {
        "alt_names": [
            "\u00c9vora"
        ],
        "cca2": "PT",
        "cca3": "PRT",
        "code_hasc": "PT.EV",
        "extra": {
            "abbrev": "",
            "adm0_a3": "PRT",
            "adm0_label": "2",
            "adm0_sr": "1",
            "adm1_code": "PRT-744",
            "admin": "Portugal",
            "area_sqkm": "0",
            "check_me": "20",
            "code_local": "",
            "data_sources": [
                "natural"
            ],
            "datarank": "6",
            "diss_me": "744",
            "featurecla": "Admin-1 scale rank",
            "fips": "PO08",
            "fips_alt": "",
            "gadm_level": "1",
            "geonunit": "Portugal",
            "gn_a1_code": "PT.08",
            "gn_id": "2268404",
            "gn_level": "1",
            "gn_name": "Distrito de Evora",
            "gn_region": "",
            "gns_adm1": "PO08",
            "gns_id": "-2164924",
            "gns_lang": "fra",
            "gns_level": "1",
            "gns_name": "Evora, Distrito de",
            "gns_region": "",
            "gu_a3": "PRX",
            "hasc_maybe": "",
            "labelrank": "7",
            "mapcolor9": "1",
            "mapcolor13": "4",
            "max_label": "11.0",
            "min_label": "8.0",
            "min_zoom": "7.7",
            "name_ar": "\u00d9\u0085\u00d8\u00ad\u00d8\u00a7\u00d9\u0081\u00d8\u00b8\u00d8\u00a9 \u00d8\u00a5\u00d9\u008a\u00d9\u0081\u00d9\u0088\u00d8\u00b1\u00d8\u00a7",
            "name_bn": "\u00e0\u00a6\u008f\u00e0\u00a6\u00ad\u00e0\u00a7\u008b\u00e0\u00a6\u00b0\u00e0\u00a6\u00be \u00e0\u00a6\u009c\u00e0\u00a7\u0087\u00e0\u00a6\u00b2\u00e0\u00a6\u00be",
            "name_de": "Distrikt \u00c3\u0089vora",
            "name_el": "\u00ce\u0088\u00ce\u00b2\u00ce\u00bf\u00cf\u0081\u00ce\u00b1",
            "name_en": "\u00c3\u0089vora District",
            "name_es": "Distrito de \u00c3\u0089vora",
            "name_fr": "District d'\u00c3\u0089vora",
            "name_hi": "\u00e0\u00a4\u008f\u00e0\u00a4\u00b5\u00e0\u00a5\u008b\u00e0\u00a4\u00b0\u00e0\u00a4\u00be \u00e0\u00a4\u009c\u00e0\u00a4\u00bf\u00e0\u00a4\u00b2\u00e0\u00a4\u00be",
            "name_hu": "\u00c3\u0089vora",
            "name_id": "Distrik \u00c3\u0089vora",
            "name_it": "distretto di \u00c3\u0089vora",
            "name_ja": "\u00e3\u0082\u00a8\u00e3\u0083\u00b4\u00e3\u0082\u00a9\u00e3\u0083\u00a9\u00e7\u009c\u008c",
            "name_ko": "\u00ec\u0097\u0090\u00eb\u00b3\u00b4\u00eb\u009d\u00bc \u00ed\u0098\u0084",
            "name_len": "5",
            "name_local": "",
            "name_nl": "\u00c3\u0089vora",
            "name_pl": "Dystrykt \u00c3\u0089vora",
            "name_pt": "Distrito de \u00c3\u0089vora",
            "name_ru": "\u00d0\u00ad\u00d0\u00b2\u00d0\u00be\u00d1\u0080\u00d0\u00b0",
            "name_sv": "\u00c3\u0089vora",
            "name_tr": "\u00c3\u00a9vora District",
            "name_vi": "\u00c3\u0089vora",
            "name_zh": "\u00e5\u009f\u0083\u00e6\u00ad\u00a6\u00e6\u008b\u0089\u00e5\u008d\u0080",
            "ne_id": "1159310569",
            "note": "",
            "provnum_ne": "14",
            "record_type": "state",
            "region": "Alentejo",
            "region_cod": "",
            "region_sub": "",
            "sameascity": "7",
            "scalerank": "7",
            "sov_a3": "PRT",
            "sub_code": "",
            "wikidataid": "Q274118",
            "wikipedia": "",
            "woe_id": "2346568",
            "woe_label": "Evora, PT, Portugal",
            "woe_name": "\u00c3\u0089vora"
        },
        "geo": {
            "latitude": 38.571431,
            "longitude": -7.913502,
            "max_latitude": 38.6169193,
            "max_longitude": -7.8435146,
            "min_latitude": 38.5227211,
            "min_longitude": -7.9785036
        },
        "iso_3166_2": "PT-07",
        "iso_a2": "PT",
        "iso_a3": "PRT",
        "name": "\u00c9vora",
        "postal": "07",
        "type": "Distrito",
        "type_en": "District"
    },
    "08": {
        "alt_names": [
            "Faro"
        ],
        "cca2": "PT",
        "cca3": "PRT",
        "code_hasc": "PT.FA",
        "extra": {
            "abbrev": "",
            "adm0_a3": "PRT",
            "adm0_label": "2",
            "adm0_sr": "6",
            "adm1_code": "PRT-745",
            "admin": "Portugal",
            "area_sqkm": "0",
            "check_me": "20",
            "code_local": "",
            "data_sources": [
                "natural"
            ],
            "datarank": "6",
            "diss_me": "745",
            "featurecla": "Admin-1 scale rank",
            "fips": "PO09",
            "fips_alt": "",
            "gadm_level": "1",
            "geonunit": "Portugal",
            "gn_a1_code": "PT.09",
            "gn_id": "2268337",
            "gn_level": "1",
            "gn_name": "Distrito de Faro",
            "gn_region": "",
            "gns_adm1": "PO09",
            "gns_id": "-2165077",
            "gns_lang": "fra",
            "gns_level": "1",
            "gns_name": "Faro, Distrito de",
            "gns_region": "",
            "gu_a3": "PRX",
            "hasc_maybe": "",
            "labelrank": "7",
            "mapcolor9": "1",
            "mapcolor13": "4",
            "max_label": "11.0",
            "min_label": "8.0",
            "min_zoom": "7.7",
            "name_ar": "\u00d9\u0085\u00d8\u00ad\u00d8\u00a7\u00d9\u0081\u00d8\u00b8\u00d8\u00a9 \u00d9\u0081\u00d8\u00a7\u00d8\u00b1\u00d9\u0088",
            "name_bn": "\u00e0\u00a6\u00ab\u00e0\u00a6\u00be\u00e0\u00a6\u00b0\u00e0\u00a7\u008b \u00e0\u00a6\u009c\u00e0\u00a7\u0087\u00e0\u00a6\u00b2\u00e0\u00a6\u00be",
            "name_de": "Distrikt Faro",
            "name_el": "\u00ce\u00a6\u00ce\u00ac\u00cf\u0081\u00ce\u00bf",
            "name_en": "Faro District",
            "name_es": "Distrito de Faro",
            "name_fr": "District de Faro",
            "name_hi": "\u00e0\u00a4\u00ab\u00e0\u00a4\u00bc\u00e0\u00a4\u00be\u00e0\u00a4\u00b0\u00e0\u00a5\u008b \u00e0\u00a4\u009c\u00e0\u00a4\u00bf\u00e0\u00a4\u00b2\u00e0\u00a4\u00be",
            "name_hu": "Faro",
            "name_id": "Distrik Faro",
            "name_it": "distretto di Faro",
            "name_ja": "\u00e3\u0083\u0095\u00e3\u0082\u00a1\u00e3\u0083\u00bc\u00e3\u0083\u00ad\u00e7\u009c\u008c",
            "name_ko": "\u00ed\u008c\u008c\u00eb\u00a3\u00a8 \u00ed\u0098\u0084",
            "name_len": "4",
            "name_local": "",
            "name_nl": "Faro",
            "name_pl": "Dystrykt Faro",
            "name_pt": "Distrito de Faro",
            "name_ru": "\u00d0\u00a4\u00d0\u00b0\u00d1\u0080\u00d1\u0083",
            "name_sv": "Faro",
            "name_tr": "Faro District",
            "name_vi": "Faro",
            "name_zh": "\u00e6\u00b3\u0095\u00e9\u00ad\u00af\u00e5\u008d\u0080",
            "ne_id": "1159308421",
            "note": "",
            "provnum_ne": "13",
            "record_type": "state",
            "region": "Algarve",
            "region_cod": "",
            "region_sub": "",
            "sameascity": "7",
            "scalerank": "7",
            "sov_a3": "PRT",
            "sub_code": "",
            "wikidataid": "Q244521",
            "wikipedia": "",
            "woe_id": "2346569",
            "woe_label": "Faro, PT, Portugal",
            "woe_name": "Faro"
        },
        "geo": {
            "latitude": 37.0193548,
            "longitude": -7.9304397,
            "max_latitude": 37.0738998,
            "max_longitude": -7.8093544,
            "min_latitude": 36.9617104,
            "min_longitude": -8.0004006
        },
        "iso_3166_2": "PT-08",
        "iso_a2": "PT",
        "iso_a3": "PRT",
        "name": "Faro",
        "postal": "08",
        "type": "Distrito",
        "type_en": "District"
    },
    "09": {
        "alt_names": [
            "Guarda"
        ],
        "cca2": "PT",
        "cca3": "PRT",
        "code_hasc": "PT.GU",
        "extra": {
            "abbrev": "",
            "adm0_a3": "PRT",
            "adm0_label": "2",
            "adm0_sr": "1",
            "adm1_code": "PRT-753",
            "admin": "Portugal",
            "area_sqkm": "0",
            "check_me": "20",
            "code_local": "",
            "data_sources": [
                "natural"
            ],
            "datarank": "6",
            "diss_me": "753",
            "featurecla": "Admin-1 scale rank",
            "fips": "PO11",
            "fips_alt": "",
            "gadm_level": "1",
            "geonunit": "Portugal",
            "gn_a1_code": "PT.11",
            "gn_id": "2738782",
            "gn_level": "1",
            "gn_name": "Distrito da Guarda",
            "gn_region": "",
            "gns_adm1": "PO11",
            "gns_id": "-2166968",
            "gns_lang": "fra",
            "gns_level": "1",
            "gns_name": "Guarda, Distrito da",
            "gns_region": "",
            "gu_a3": "PRX",
            "hasc_maybe": "",
            "labelrank": "7",
            "mapcolor9": "1",
            "mapcolor13": "4",
            "max_label": "11.0",
            "min_label": "8.0",
            "min_zoom": "7.7",
            "name_ar": "\u00d9\u0085\u00d8\u00ad\u00d8\u00a7\u00d9\u0081\u00d8\u00b8\u00d8\u00a9 \u00d8\u00ba\u00d9\u0088\u00d8\u00a7\u00d8\u00b1\u00d8\u00af\u00d8\u00a7",
            "name_bn": "",
            "name_de": "Distrikt Guarda",
            "name_el": "",
            "name_en": "Guarda District",
            "name_es": "Distrito de Guarda",
            "name_fr": "District de Guarda",
            "name_hi": "",
            "name_hu": "Guarda",
            "name_id": "Distrik Guarda",
            "name_it": "distretto di Guarda",
            "name_ja": "\u00e3\u0082\u00b0\u00e3\u0082\u00a2\u00e3\u0083\u00ab\u00e3\u0083\u0080\u00e7\u009c\u008c",
            "name_ko": "\u00ea\u00b5\u00ac\u00ec\u0095\u0084\u00eb\u00a5\u00b4\u00eb\u008b\u00a4 \u00ed\u0098\u0084",
            "name_len": "6",
            "name_local": "",
            "name_nl": "Guarda",
            "name_pl": "Dystrykt Guarda",
            "name_pt": "Distrito da Guarda",
            "name_ru": "\u00d0\u0093\u00d1\u0083\u00d0\u00b0\u00d1\u0080\u00d0\u00b4\u00d0\u00b0",
            "name_sv": "Guarda",
            "name_tr": "",
            "name_vi": "Guarda",
            "name_zh": "\u00e7\u0093\u009c\u00e9\u0081\u0094\u00e5\u008d\u0080",
            "ne_id": "1159310585",
            "note": "",
            "provnum_ne": "12",
            "record_type": "state",
            "region": "Centro",
            "region_cod": "",
            "region_sub": "",
            "sameascity": "7",
            "scalerank": "7",
            "sov_a3": "PRT",
            "sub_code": "",
            "wikidataid": "Q273533",
            "wikipedia": "",
            "woe_id": "2346571",
            "woe_label": "Guarda, PT, Portugal",
            "woe_name": "Guarda"
        },
        "geo": {
            "latitude": 40.5383482,
            "longitude": -7.2661315,
            "max_latitude": 40.5738913,
            "max_longitude": -7.1980682,
            "min_latitude": 40.50446,
            "min_longitude": -7.2926517
        },
        "iso_3166_2": "PT-09",
        "iso_a2": "PT",
        "iso_a3": "PRT",
        "name": "Guarda",
        "postal": "09",
        "type": "Distrito",
        "type_en": "District"
    },
    "10": {
        "alt_names": [
            "Leiria"
        ],
        "cca2": "PT",
        "cca3": "PRT",
        "code_hasc": "PT.LE",
        "extra": {
            "abbrev": "",
            "adm0_a3": "PRT",
            "adm0_label": "2",
            "adm0_sr": "1",
            "adm1_code": "PRT-740",
            "admin": "Portugal",
            "area_sqkm": "0",
            "check_me": "20",
            "code_local": "",
            "data_sources": [
                "natural"
            ],
            "datarank": "6",
            "diss_me": "740",
            "featurecla": "Admin-1 scale rank",
            "fips": "PO13",
            "fips_alt": "",
            "gadm_level": "1",
            "geonunit": "Portugal",
            "gn_a1_code": "PT.13",
            "gn_id": "2267094",
            "gn_level": "1",
            "gn_name": "Distrito de Leiria",
            "gn_region": "",
            "gns_adm1": "PO13",
            "gns_id": "-2167878",
            "gns_lang": "fra",
            "gns_level": "1",
            "gns_name": "Leiria, Distrito de",
            "gns_region": "",
            "gu_a3": "PRX",
            "hasc_maybe": "",
            "labelrank": "7",
            "mapcolor9": "1",
            "mapcolor13": "4",
            "max_label": "11.0",
            "min_label": "8.0",
            "min_zoom": "7.7",
            "name_ar": "\u00d9\u0085\u00d8\u00ad\u00d8\u00a7\u00d9\u0081\u00d8\u00b8\u00d8\u00a9 \u00d9\u0084\u00d9\u008a\u00d8\u00b1\u00d9\u008a\u00d8\u00a7",
            "name_bn": "\u00e0\u00a6\u00b2\u00e0\u00a7\u0087\u00e0\u00a6\u0087\u00e0\u00a6\u00b0\u00e0\u00a6\u00be\u00e0\u00a6\u0087\u00e0\u00a6\u00af\u00e0\u00a6\u00bc\u00e0\u00a6\u00be  \u00e0\u00a6\u009c\u00e0\u00a7\u0087\u00e0\u00a6\u00b2\u00e0\u00a6\u00be",
            "name_de": "Distrikt Leiria",
            "name_el": "\u00ce\u009b\u00ce\u00b5\u00ce\u00b9\u00cf\u0081\u00ce\u00af\u00ce\u00b1",
            "name_en": "Leiria District",
            "name_es": "Distrito de Leiria",
            "name_fr": "District de Leiria",
            "name_hi": "\u00e0\u00a4\u00b2\u00e0\u00a5\u0080\u00e0\u00a4\u00b0\u00e0\u00a4\u00bf\u00e0\u00a4\u00af\u00e0\u00a4\u00be \u00e0\u00a4\u009c\u00e0\u00a4\u00bf\u00e0\u00a4\u00b2\u00e0\u00a4\u00be",
            "name_hu": "Leiria",
            "name_id": "Distrik Leiria",
            "name_it": "distretto di Leiria",
            "name_ja": "\u00e3\u0083\u00ac\u00e3\u0082\u00a4\u00e3\u0083\u00aa\u00e3\u0082\u00a2\u00e7\u009c\u008c",
            "name_ko": "\u00eb\u00a0\u0088\u00ec\u009d\u00b4\u00eb\u00a6\u00ac\u00ec\u0095\u0084 \u00ed\u0098\u0084",
            "name_len": "6",
            "name_local": "",
            "name_nl": "Leiria",
            "name_pl": "Dystrykt Leiria",
            "name_pt": "Distrito de Leiria",
            "name_ru": "\u00d0\u009b\u00d0\u00b5\u00d0\u00b9\u00d1\u0080\u00d0\u00b8\u00d1\u008f",
            "name_sv": "Leiria",
            "name_tr": "Leiria District",
            "name_vi": "Leiria",
            "name_zh": "\u00e8\u0090\u008a\u00e9\u0087\u008c\u00e4\u00ba\u009e\u00e5\u008d\u0080",
            "ne_id": "1159310561",
            "note": "",
            "provnum_ne": "5",
            "record_type": "state",
            "region": "Centro",
            "region_cod": "",
            "region_sub": "",
            "sameascity": "7",
            "scalerank": "7",
            "sov_a3": "PRT",
            "sub_code": "",
            "wikidataid": "Q244512",
            "wikipedia": "",
            "woe_id": "2346572",
            "woe_label": "Leiria, PT, Portugal",
            "woe_name": "Leiria"
        },
        "geo": {
            "latitude": 39.7495331,
            "longitude": -8.807683,
            "max_latitude": 39.798205,
            "max_longitude": -8.7350657,
            "min_latitude": 39.709918,
            "min_longitude": -8.8768517
        },
        "iso_3166_2": "PT-10",
        "iso_a2": "PT",
        "iso_a3": "PRT",
        "name": "Leiria",
        "postal": "10",
        "type": "Distrito",
        "type_en": "District"
    },
    "11": {
        "alt_names": [
            "Lisboa"
        ],
        "cca2": "PT",
        "cca3": "PRT",
        "code_hasc": "PT.LI",
        "extra": {
            "abbrev": "",
            "adm0_a3": "PRT",
            "adm0_label": "2",
            "adm0_sr": "5",
            "adm1_code": "PRT-746",
            "admin": "Portugal",
            "area_sqkm": "0",
            "check_me": "20",
            "code_local": "",
            "data_sources": [
                "natural"
            ],
            "datarank": "6",
            "diss_me": "746",
            "featurecla": "Admin-1 scale rank",
            "fips": "PO14",
            "fips_alt": "",
            "gadm_level": "1",
            "geonunit": "Portugal",
            "gn_a1_code": "PT.14",
            "gn_id": "2267056",
            "gn_level": "1",
            "gn_name": "Distrito de Lisboa",
            "gn_region": "",
            "gns_adm1": "PO14",
            "gns_id": "-2167974",
            "gns_lang": "fra",
            "gns_level": "1",
            "gns_name": "Lisboa, Distrito de",
            "gns_region": "",
            "gu_a3": "PRX",
            "hasc_maybe": "",
            "labelrank": "7",
            "mapcolor9": "1",
            "mapcolor13": "4",
            "max_label": "11.0",
            "min_label": "8.0",
            "min_zoom": "7.7",
            "name_ar": "\u00d9\u0085\u00d8\u00ad\u00d8\u00a7\u00d9\u0081\u00d8\u00b8\u00d8\u00a9 \u00d9\u0084\u00d8\u00b4\u00d8\u00a8\u00d9\u0088\u00d9\u0086\u00d8\u00a9",
            "name_bn": "",
            "name_de": "Distrikt Lissabon",
            "name_el": "",
            "name_en": "Lisbon District",
            "name_es": "Distrito de Lisboa",
            "name_fr": "District de Lisbonne",
            "name_hi": "",
            "name_hu": "Lisszabon",
            "name_id": "Distrik Lisboa",
            "name_it": "distretto di Lisbona",
            "name_ja": "\u00e3\u0083\u00aa\u00e3\u0082\u00b9\u00e3\u0083\u009c\u00e3\u0083\u00b3\u00e7\u009c\u008c",
            "name_ko": "\u00eb\u00a6\u00ac\u00ec\u008a\u00a4\u00eb\u00b3\u00b4\u00ec\u0095\u0084 \u00ed\u0098\u0084",
            "name_len": "6",
            "name_local": "",
            "name_nl": "Lissabon",
            "name_pl": "Dystrykt Lizbona",
            "name_pt": "Distrito de Lisboa",
            "name_ru": "\u00d0\u009b\u00d0\u00b8\u00d1\u0081\u00d1\u0081\u00d0\u00b0\u00d0\u00b1\u00d0\u00be\u00d0\u00bd",
            "name_sv": "Lissabon",
            "name_tr": "",
            "name_vi": "Lisbon",
            "name_zh": "\u00e9\u0087\u008c\u00e6\u0096\u00af\u00e6\u009c\u00ac\u00e5\u008d\u0080",
            "ne_id": "1159310551",
            "note": "",
            "provnum_ne": "1",
            "record_type": "state",
            "region": "Lisbon",
            "region_cod": "",
            "region_sub": "",
            "sameascity": "7",
            "scalerank": "7",
            "sov_a3": "PRT",
            "sub_code": "",
            "wikidataid": "Q207199",
            "wikipedia": "",
            "woe_id": "2346573",
            "woe_label": "Lisbon, PT, Portugal",
            "woe_name": "Lisboa"
        },
        "geo": {
            "latitude": 38.7222524,
            "longitude": -9.1393366,
            "max_latitude": 38.7958538,
            "max_longitude": -9.0905718,
            "min_latitude": 38.6913994,
            "min_longitude": -9.2298356
        },
        "iso_3166_2": "PT-11",
        "iso_a2": "PT",
        "iso_a3": "PRT",
        "name": "Lisboa",
        "postal": "11",
        "type": "Distrito",
        "type_en": "District"
    },
    "12": {
        "alt_names": [
            "Portalegre"
        ],
        "cca2": "PT",
        "cca3": "PRT",
        "code_hasc": "PT.PA",
        "extra": {
            "abbrev": "",
            "adm0_a3": "PRT",
            "adm0_label": "2",
            "adm0_sr": "1",
            "adm1_code": "PRT-747",
            "admin": "Portugal",
            "area_sqkm": "0",
            "check_me": "20",
            "code_local": "",
            "data_sources": [
                "natural"
            ],
            "datarank": "6",
            "diss_me": "747",
            "featurecla": "Admin-1 scale rank",
            "fips": "PO16",
            "fips_alt": "",
            "gadm_level": "1",
            "geonunit": "Portugal",
            "gn_a1_code": "PT.16",
            "gn_id": "2264507",
            "gn_level": "1",
            "gn_name": "Distrito de Portalegre",
            "gn_region": "",
            "gns_adm1": "PO16",
            "gns_id": "-2172972",
            "gns_lang": "fra",
            "gns_level": "1",
            "gns_name": "Portalegre, Distrito de",
            "gns_region": "",
            "gu_a3": "PRX",
            "hasc_maybe": "",
            "labelrank": "7",
            "mapcolor9": "1",
            "mapcolor13": "4",
            "max_label": "11.0",
            "min_label": "8.0",
            "min_zoom": "7.7",
            "name_ar": "\u00d9\u0085\u00d8\u00ad\u00d8\u00a7\u00d9\u0081\u00d8\u00b8\u00d8\u00a9 \u00d8\u00a8\u00d9\u0088\u00d8\u00b1\u00d8\u00aa\u00d8\u00a7\u00d9\u0084\u00d9\u008a\u00d8\u00ac\u00d8\u00b1\u00d9\u008a",
            "name_bn": "",
            "name_de": "Distrikt Portalegre",
            "name_el": "",
            "name_en": "Portalegre District",
            "name_es": "Distrito de Portalegre",
            "name_fr": "District de Portalegre",
            "name_hi": "",
            "name_hu": "Portalegre",
            "name_id": "Distrik Portalegre",
            "name_it": "distretto di Portalegre",
            "name_ja": "\u00e3\u0083\u009d\u00e3\u0083\u00ab\u00e3\u0082\u00bf\u00e3\u0083\u00ac\u00e3\u0082\u00b0\u00e3\u0083\u00ac\u00e7\u009c\u008c",
            "name_ko": "\u00ed\u008f\u00ac\u00eb\u00a5\u00b4\u00ed\u0083\u0088\u00eb\u00a0\u0088\u00ea\u00b7\u00b8\u00eb\u00a5\u00b4 \u00ed\u0098\u0084",
            "name_len": "10",
            "name_local": "",
            "name_nl": "Portalegre",
            "name_pl": "Dystrykt Portalegre",
            "name_pt": "Distrito de Portalegre",
            "name_ru": "\u00d0\u009f\u00d0\u00be\u00d1\u0080\u00d1\u0082\u00d0\u00b0\u00d0\u00bb\u00d0\u00b5\u00d0\u00b3\u00d1\u0080\u00d0\u00b8",
            "name_sv": "Portalegre",
            "name_tr": "",
            "name_vi": "Portalegre",
            "name_zh": "\u00e6\u00b3\u00a2\u00e5\u00a1\u0094\u00e8\u0090\u008a\u00e6\u00a0\u00bc\u00e9\u009b\u00b7\u00e5\u008d\u0080",
            "ne_id": "1159310571",
            "note": "",
            "provnum_ne": "15",
            "record_type": "state",
            "region": "Alentejo",
            "region_cod": "",
            "region_sub": "",
            "sameascity": "7",
            "scalerank": "7",
            "sov_a3": "PRT",
            "sub_code": "",
            "wikidataid": "Q225189",
            "wikipedia": "",
            "woe_id": "2346574",
            "woe_label": "Portalegre, PT, Portugal",
            "woe_name": "Portalegre"
        },
        "geo": {
            "latitude": 39.2967086,
            "longitude": -7.4284755,
            "max_latitude": 39.3153866,
            "max_longitude": -7.3995175,
            "min_latitude": 39.262495,
            "min_longitude": -7.4664739
        },
        "iso_3166_2": "PT-12",
        "iso_a2": "PT",
        "iso_a3": "PRT",
        "name": "Portalegre",
        "postal": "12",
        "type": "Distrito",
        "type_en": "District"
    },
    "13": {
        "alt_names": [
            "Porto"
        ],
        "cca2": "PT",
        "cca3": "PRT",
        "code_hasc": "PT.PO",
        "extra": {
            "abbrev": "",
            "adm0_a3": "PRT",
            "adm0_label": "2",
            "adm0_sr": "1",
            "adm1_code": "PRT-754",
            "admin": "Portugal",
            "area_sqkm": "0",
            "check_me": "20",
            "code_local": "",
            "data_sources": [
                "natural"
            ],
            "datarank": "6",
            "diss_me": "754",
            "featurecla": "Admin-1 scale rank",
            "fips": "PO17",
            "fips_alt": "",
            "gadm_level": "1",
            "geonunit": "Portugal",
            "gn_a1_code": "PT.17",
            "gn_id": "2735941",
            "gn_level": "1",
            "gn_name": "Distrito do Porto",
            "gn_region": "",
            "gns_adm1": "PO17",
            "gns_id": "-2173091",
            "gns_lang": "fra",
            "gns_level": "1",
            "gns_name": "Porto, Distrito do",
            "gns_region": "",
            "gu_a3": "PRX",
            "hasc_maybe": "",
            "labelrank": "7",
            "mapcolor9": "1",
            "mapcolor13": "4",
            "max_label": "11.0",
            "min_label": "8.0",
            "min_zoom": "7.7",
            "name_ar": "\u00d9\u0085\u00d8\u00ad\u00d8\u00a7\u00d9\u0081\u00d8\u00b8\u00d8\u00a9 \u00d8\u00a8\u00d9\u0088\u00d8\u00b1\u00d8\u00aa\u00d9\u0088",
            "name_bn": "",
            "name_de": "Distrikt Porto",
            "name_el": "",
            "name_en": "Porto District",
            "name_es": "Distrito de Oporto",
            "name_fr": "District de Porto",
            "name_hi": "",
            "name_hu": "",
            "name_id": "Distrik Porto",
            "name_it": "distretto di Porto",
            "name_ja": "\u00e3\u0083\u009d\u00e3\u0083\u00ab\u00e3\u0083\u0088\u00e7\u009c\u008c",
            "name_ko": "\u00ed\u008f\u00ac\u00eb\u00a5\u00b4\u00ed\u0088\u00ac \u00ed\u0098\u0084",
            "name_len": "5",
            "name_local": "",
            "name_nl": "Porto",
            "name_pl": "",
            "name_pt": "Distrito do Porto",
            "name_ru": "\u00d0\u009f\u00d0\u00be\u00d1\u0080\u00d1\u0082\u00d1\u0083",
            "name_sv": "Porto",
            "name_tr": "",
            "name_vi": "Porto",
            "name_zh": "\u00e6\u00b3\u00a2\u00e7\u0088\u00be\u00e5\u009c\u0096\u00e5\u008d\u0080",
            "ne_id": "1159310587",
            "note": "",
            "provnum_ne": "8",
            "record_type": "state",
            "region": "Norte",
            "region_cod": "",
            "region_sub": "",
            "sameascity": "7",
            "scalerank": "7",
            "sov_a3": "PRT",
            "sub_code": "",
            "wikidataid": "Q322792",
            "wikipedia": "",
            "woe_id": "2346575",
            "woe_label": "Porto, PT, Portugal",
            "woe_name": "Porto"
        },
        "geo": {
            "latitude": 41.1579438,
            "longitude": -8.6291053,
            "max_latitude": 41.1859353,
            "max_longitude": -8.5526134,
            "min_latitude": 41.1383506,
            "min_longitude": -8.6910927
        },
        "iso_3166_2": "PT-13",
        "iso_a2": "PT",
        "iso_a3": "PRT",
        "name": "Porto",
        "postal": "13",
        "type": "Distrito",
        "type_en": "District"
    },
    "14": {
        "alt_names": [
            "Santar\u00e9m"
        ],
        "cca2": "PT",
        "cca3": "PRT",
        "code_hasc": "PT.SA",
        "extra": {
            "abbrev": "",
            "adm0_a3": "PRT",
            "adm0_label": "2",
            "adm0_sr": "1",
            "adm1_code": "PRT-748",
            "admin": "Portugal",
            "area_sqkm": "0",
            "check_me": "20",
            "code_local": "",
            "data_sources": [
                "natural"
            ],
            "datarank": "6",
            "diss_me": "748",
            "featurecla": "Admin-1 scale rank",
            "fips": "PO18",
            "fips_alt": "",
            "gadm_level": "1",
            "geonunit": "Portugal",
            "gn_a1_code": "PT.18",
            "gn_id": "2263478",
            "gn_level": "1",
            "gn_name": "Distrito de Santarem",
            "gn_region": "",
            "gns_adm1": "PO18",
            "gns_id": "-2175490",
            "gns_lang": "fra",
            "gns_level": "1",
            "gns_name": "Santarem, Distrito de",
            "gns_region": "",
            "gu_a3": "PRX",
            "hasc_maybe": "",
            "labelrank": "7",
            "mapcolor9": "1",
            "mapcolor13": "4",
            "max_label": "11.0",
            "min_label": "8.0",
            "min_zoom": "7.7",
            "name_ar": "\u00d9\u0085\u00d8\u00ad\u00d8\u00a7\u00d9\u0081\u00d8\u00b8\u00d8\u00a9 \u00d8\u00b3\u00d8\u00a7\u00d9\u0086\u00d8\u00aa\u00d8\u00a7\u00d8\u00b1\u00d9\u008a\u00d9\u0085",
            "name_bn": "\u00e0\u00a6\u00b8\u00e0\u00a6\u00be\u00e0\u00a6\u00a8\u00e0\u00a7\u008d\u00e0\u00a6\u00a4\u00e0\u00a6\u00be\u00e0\u00a6\u00b0\u00e0\u00a7\u0087\u00e0\u00a6\u00ae \u00e0\u00a6\u009c\u00e0\u00a7\u0087\u00e0\u00a6\u00b2\u00e0\u00a6\u00be",
            "name_de": "Distrikt Santar\u00c3\u00a9m",
            "name_el": "\u00ce\u00a3\u00ce\u00b1\u00ce\u00bd\u00cf\u0084\u00ce\u00b1\u00cf\u0081\u00ce\u00ad\u00ce\u00bc",
            "name_en": "Santar\u00c3\u00a9m District",
            "name_es": "Distrito de Santar\u00c3\u00a9m",
            "name_fr": "District de Santar\u00c3\u00a9m",
            "name_hi": "\u00e0\u00a4\u00b8\u00e0\u00a5\u0088\u00e0\u00a4\u00a8\u00e0\u00a5\u008d\u00e0\u00a4\u00a4\u00e0\u00a4\u00be\u00e0\u00a4\u00b0\u00e0\u00a5\u0087\u00e0\u00a4\u00ae \u00e0\u00a4\u009c\u00e0\u00a4\u00bf\u00e0\u00a4\u00b2\u00e0\u00a4\u00be",
            "name_hu": "Santar\u00c3\u00a9m",
            "name_id": "Distrik Santar\u00c3\u00a9m",
            "name_it": "distretto di Santar\u00c3\u00a9m",
            "name_ja": "\u00e3\u0082\u00b5\u00e3\u0083\u00b3\u00e3\u0082\u00bf\u00e3\u0083\u00ac\u00e3\u0083\u00b3\u00e7\u009c\u008c",
            "name_ko": "\u00ec\u0082\u00b0\u00ed\u0083\u0080\u00eb\u00a0\u009d \u00ed\u0098\u0084",
            "name_len": "8",
            "name_local": "",
            "name_nl": "Santar\u00c3\u00a9m",
            "name_pl": "Dystrykt Santar\u00c3\u00a9m",
            "name_pt": "Distrito de Santar\u00c3\u00a9m",
            "name_ru": "\u00d0\u00a1\u00d0\u00b0\u00d0\u00bd\u00d1\u0082\u00d0\u00b0\u00d1\u0080\u00d0\u00b5\u00d0\u00bd",
            "name_sv": "Santar\u00c3\u00a9m",
            "name_tr": "Santar\u00c3\u00a9m District",
            "name_vi": "Santar\u00c3\u00a9m",
            "name_zh": "\u00e8\u0081\u0096\u00e5\u00a1\u0094\u00e5\u0080\u00ab\u00e5\u008d\u0080",
            "ne_id": "1159310573",
            "note": "",
            "provnum_ne": "6",
            "record_type": "state",
            "region": "Alentejo",
            "region_cod": "",
            "region_sub": "",
            "sameascity": "7",
            "scalerank": "7",
            "sov_a3": "PRT",
            "sub_code": "",
            "wikidataid": "Q244510",
            "wikipedia": "",
            "woe_id": "2346576",
            "woe_label": "Santar\u00c3\u0083\u00c2\u00a9m, PT, Portugal",
            "woe_name": "Santar\u00c3\u00a9m"
        },
        "geo": {
            "latitude": 39.2366618,
            "longitude": -8.6860119,
            "max_latitude": 39.2869109,
            "max_longitude": -8.6266653,
            "min_latitude": 39.1687465,
            "min_longitude": -8.7494918
        },
        "iso_3166_2": "PT-14",
        "iso_a2": "PT",
        "iso_a3": "PRT",
        "name": "Santar\u00e9m",
        "postal": "14",
        "type": "Distrito",
        "type_en": "District"
    },
    "15": {
        "alt_names": [
            "Set\u00fabal"
        ],
        "cca2": "PT",
        "cca3": "PRT",
        "code_hasc": "PT.SE",
        "extra": {
            "abbrev": "",
            "adm0_a3": "PRT",
            "adm0_label": "2",
            "adm0_sr": "5",
            "adm1_code": "PRT-5498",
            "admin": "Portugal",
            "area_sqkm": "0",
            "check_me": "20",
            "code_local": "",
            "data_sources": [
                "natural"
            ],
            "datarank": "6",
            "diss_me": "5498",
            "featurecla": "Admin-1 scale rank",
            "fips": "PO19",
            "fips_alt": "",
            "gadm_level": "1",
            "geonunit": "Portugal",
            "gn_a1_code": "PT.19",
            "gn_id": "2262961",
            "gn_level": "1",
            "gn_name": "Distrito de Setubal",
            "gn_region": "",
            "gns_adm1": "PO19",
            "gns_id": "-2176726",
            "gns_lang": "fra",
            "gns_level": "1",
            "gns_name": "Setubal, Distrito de",
            "gns_region": "",
            "gu_a3": "PRX",
            "hasc_maybe": "",
            "labelrank": "7",
            "mapcolor9": "1",
            "mapcolor13": "4",
            "max_label": "11.0",
            "min_label": "8.0",
            "min_zoom": "7.7",
            "name_ar": "\u00d9\u0085\u00d8\u00ad\u00d8\u00a7\u00d9\u0081\u00d8\u00b8\u00d8\u00a9 \u00d8\u00b3\u00d9\u008a\u00d8\u00aa\u00d9\u0088\u00d8\u00a8\u00d8\u00a7\u00d9\u0084",
            "name_bn": "\u00e0\u00a6\u00b8\u00e0\u00a7\u0087\u00e0\u00a6\u00a4\u00e0\u00a7\u008b\u00e0\u00a6\u00ac\u00e0\u00a6\u00be\u00e0\u00a6\u00b2 \u00e0\u00a6\u009c\u00e0\u00a7\u0087\u00e0\u00a6\u00b2\u00e0\u00a6\u00be",
            "name_de": "Distrikt Set\u00c3\u00babal",
            "name_el": "\u00ce\u00a3\u00ce\u00b5\u00cf\u0084\u00ce\u00bf\u00cf\u008d\u00ce\u00bc\u00cf\u0080\u00ce\u00b1\u00ce\u00bb",
            "name_en": "Set\u00c3\u00babal District",
            "name_es": "Set\u00c3\u00babal",
            "name_fr": "District de Set\u00c3\u00babal",
            "name_hi": "\u00e0\u00a4\u00b8\u00e0\u00a5\u0087\u00e0\u00a4\u00a4\u00e0\u00a5\u0081\u00e0\u00a4\u00ac\u00e0\u00a4\u00b2 \u00e0\u00a4\u009c\u00e0\u00a4\u00bf\u00e0\u00a4\u00b2\u00e0\u00a4\u00be",
            "name_hu": "Set\u00c3\u00babal",
            "name_id": "Distrik Set\u00c3\u00babal",
            "name_it": "distretto di Set\u00c3\u00babal",
            "name_ja": "\u00e3\u0082\u00bb\u00e3\u0083\u0088\u00e3\u0082\u00a5\u00e3\u0083\u00bc\u00e3\u0083\u0090\u00e3\u0083\u00ab\u00e7\u009c\u008c",
            "name_ko": "\u00ec\u0084\u00b8\u00ed\u0088\u00ac\u00eb\u00b0\u009c \u00ed\u0098\u0084",
            "name_len": "7",
            "name_local": "",
            "name_nl": "Set\u00c3\u00babal",
            "name_pl": "Dystrykt Set\u00c3\u00babal",
            "name_pt": "Distrito de Set\u00c3\u00babal",
            "name_ru": "\u00d0\u00a1\u00d0\u00b5\u00d1\u0082\u00d1\u0083\u00d0\u00b1\u00d0\u00b0\u00d0\u00bb",
            "name_sv": "Set\u00c3\u00babal",
            "name_tr": "Setubal District",
            "name_vi": "Set\u00c3\u00babal",
            "name_zh": "\u00e5\u00a1\u009e\u00e5\u009c\u0096\u00e5\u00b7\u00b4\u00e7\u0088\u00be\u00e5\u008d\u0080",
            "ne_id": "1159317143",
            "note": "",
            "provnum_ne": "1",
            "record_type": "state",
            "region": "Lisbon",
            "region_cod": "",
            "region_sub": "",
            "sameascity": "7",
            "scalerank": "7",
            "sov_a3": "PRT",
            "sub_code": "",
            "wikidataid": "Q274109",
            "wikipedia": "http:\/\/en.wikipedia.org\/wiki\/Set%C3%BAbal_District",
            "woe_id": "2346577",
            "woe_label": "",
            "woe_name": ""
        },
        "geo": {
            "latitude": 38.5260437,
            "longitude": -8.8909328,
            "max_latitude": 38.5641093,
            "max_longitude": -8.7556919,
            "min_latitude": 38.4840016,
            "min_longitude": -8.9725114
        },
        "iso_3166_2": "PT-15",
        "iso_a2": "PT",
        "iso_a3": "PRT",
        "name": "Set\u00fabal",
        "postal": "15",
        "type": "Distrito",
        "type_en": "District"
    },
    "16": {
        "alt_names": [
            "Viana do Castelo"
        ],
        "cca2": "PT",
        "cca3": "PRT",
        "code_hasc": "PT.VC",
        "extra": {
            "abbrev": "",
            "adm0_a3": "PRT",
            "adm0_label": "2",
            "adm0_sr": "1",
            "adm1_code": "PRT-741",
            "admin": "Portugal",
            "area_sqkm": "0",
            "check_me": "20",
            "code_local": "",
            "data_sources": [
                "natural"
            ],
            "datarank": "6",
            "diss_me": "741",
            "featurecla": "Admin-1 scale rank",
            "fips": "PO20",
            "fips_alt": "",
            "gadm_level": "1",
            "geonunit": "Portugal",
            "gn_a1_code": "PT.20",
            "gn_id": "2732772",
            "gn_level": "1",
            "gn_name": "Distrito de Viana do Castelo",
            "gn_region": "",
            "gns_adm1": "PO20",
            "gns_id": "-2179315",
            "gns_lang": "fra",
            "gns_level": "1",
            "gns_name": "Viana do Castelo, Distrito de",
            "gns_region": "",
            "gu_a3": "PRX",
            "hasc_maybe": "",
            "labelrank": "7",
            "mapcolor9": "1",
            "mapcolor13": "4",
            "max_label": "11.0",
            "min_label": "8.0",
            "min_zoom": "7.7",
            "name_ar": "\u00d9\u0085\u00d8\u00ad\u00d8\u00a7\u00d9\u0081\u00d8\u00b8\u00d8\u00a9 \u00d9\u0081\u00d9\u008a\u00d8\u00a7\u00d9\u0086\u00d8\u00a7\u00d8\u00af\u00d9\u0088 \u00d9\u0083\u00d8\u00a7\u00d8\u00b3\u00d8\u00aa\u00d9\u008a\u00d9\u0084\u00d9\u0088",
            "name_bn": "\u00e0\u00a6\u00ad\u00e0\u00a6\u00bf\u00e0\u00a6\u00af\u00e0\u00a6\u00bc\u00e0\u00a6\u00be\u00e0\u00a6\u00a8\u00e0\u00a6\u00be \u00e0\u00a6\u00a1\u00e0\u00a7\u0081 \u00e0\u00a6\u0095\u00e0\u00a6\u00be\u00e0\u00a6\u00b8\u00e0\u00a7\u008d\u00e0\u00a6\u009f\u00e0\u00a7\u0087\u00e0\u00a6\u00b2\u00e0\u00a7\u008b \u00e0\u00a6\u009c\u00e0\u00a7\u0087\u00e0\u00a6\u00b2\u00e0\u00a6\u00be",
            "name_de": "Distrikt Viana do Castelo",
            "name_el": "\u00ce\u0092\u00ce\u00b9\u00ce\u00ac\u00ce\u00bd\u00ce\u00b1 \u00ce\u00bd\u00cf\u0084\u00ce\u00bf \u00ce\u009a\u00ce\u00b1\u00cf\u0083\u00cf\u0084\u00ce\u00ad\u00ce\u00bb\u00ce\u00bf",
            "name_en": "Viana do Castelo District",
            "name_es": "Distrito de Viana do Castelo",
            "name_fr": "District de Viana do Castelo",
            "name_hi": "\u00e0\u00a4\u00b5\u00e0\u00a4\u00bf\u00e0\u00a4\u00af\u00e0\u00a4\u00be\u00e0\u00a4\u00a8\u00e0\u00a4\u00be \u00e0\u00a4\u00a1\u00e0\u00a5\u008b \u00e0\u00a4\u0095\u00e0\u00a5\u0088\u00e0\u00a4\u00b8\u00e0\u00a5\u008d\u00e0\u00a4\u009f\u00e0\u00a5\u0087\u00e0\u00a4\u00b2\u00e0\u00a5\u008b \u00e0\u00a4\u009c\u00e0\u00a4\u00bf\u00e0\u00a4\u00b2\u00e0\u00a4\u00be",
            "name_hu": "Viana do Castelo",
            "name_id": "Distrik Viana do Castelo",
            "name_it": "distretto di Viana do Castelo",
            "name_ja": "\u00e3\u0083\u00b4\u00e3\u0082\u00a3\u00e3\u0082\u00a2\u00e3\u0083\u008a\u00e3\u0083\u00bb\u00e3\u0083\u0089\u00e3\u0083\u00bb\u00e3\u0082\u00ab\u00e3\u0082\u00b9\u00e3\u0083\u0086\u00e3\u0083\u00ad\u00e7\u009c\u008c",
            "name_ko": "\u00eb\u00b9\u0084\u00ec\u0095\u0084\u00eb\u0082\u0098\u00eb\u0091\u0090\u00ec\u00b9\u00b4\u00ec\u008a\u00a4\u00ed\u0085\u0094\u00eb\u00a3\u00a8 \u00ed\u0098\u0084",
            "name_len": "16",
            "name_local": "",
            "name_nl": "Viana do Castelo",
            "name_pl": "Dystrykt Viana do Castelo",
            "name_pt": "Distrito de Viana do Castelo",
            "name_ru": "\u00d0\u0092\u00d0\u00b8\u00d0\u00b0\u00d0\u00bd\u00d0\u00b0-\u00d0\u00b4\u00d1\u0083-\u00d0\u009a\u00d0\u00b0\u00d1\u0088\u00d1\u0082\u00d0\u00b5\u00d0\u00bb\u00d1\u0083",
            "name_sv": "Viana do Castelo",
            "name_tr": "Viano do Castelo District",
            "name_vi": "Viana do Castelo",
            "name_zh": "\u00e7\u00b6\u00ad\u00e4\u00ba\u009e\u00e7\u00b4\u008d\u00e5\u00a0\u00a1\u00e5\u008d\u0080",
            "ne_id": "1159310563",
            "note": "",
            "provnum_ne": "18",
            "record_type": "state",
            "region": "Norte",
            "region_cod": "",
            "region_sub": "",
            "sameascity": "7",
            "scalerank": "7",
            "sov_a3": "PRT",
            "sub_code": "",
            "wikidataid": "Q326214",
            "wikipedia": "",
            "woe_id": "2346578",
            "woe_label": "Viana do Castelo, PT, Portugal",
            "woe_name": "Viana do Castelo"
        },
        "geo": {
            "latitude": 41.6918275,
            "longitude": -8.8344101,
            "max_latitude": 41.7605686,
            "max_longitude": -8.7483575,
            "min_latitude": 41.6714037,
            "min_longitude": -8.8693403
        },
        "iso_3166_2": "PT-16",
        "iso_a2": "PT",
        "iso_a3": "PRT",
        "name": "Viana do Castelo",
        "postal": "16",
        "type": "Distrito",
        "type_en": "District"
    },
    "17": {
        "alt_names": [
            "Vila Real"
        ],
        "cca2": "PT",
        "cca3": "PRT",
        "code_hasc": "PT.VR",
        "extra": {
            "abbrev": "",
            "adm0_a3": "PRT",
            "adm0_label": "2",
            "adm0_sr": "1",
            "adm1_code": "PRT-756",
            "admin": "Portugal",
            "area_sqkm": "0",
            "check_me": "20",
            "code_local": "",
            "data_sources": [
                "natural"
            ],
            "datarank": "6",
            "diss_me": "756",
            "featurecla": "Admin-1 scale rank",
            "fips": "PO21",
            "fips_alt": "",
            "gadm_level": "1",
            "geonunit": "Portugal",
            "gn_a1_code": "PT.21",
            "gn_id": "2732437",
            "gn_level": "1",
            "gn_name": "Distrito de Vila Real",
            "gn_region": "",
            "gns_adm1": "PO21",
            "gns_id": "-2179753",
            "gns_lang": "fra",
            "gns_level": "1",
            "gns_name": "Vila Real, Distrito de",
            "gns_region": "",
            "gu_a3": "PRX",
            "hasc_maybe": "",
            "labelrank": "7",
            "mapcolor9": "1",
            "mapcolor13": "4",
            "max_label": "11.0",
            "min_label": "8.0",
            "min_zoom": "7.7",
            "name_ar": "\u00d9\u0085\u00d8\u00ad\u00d8\u00a7\u00d9\u0081\u00d8\u00b8\u00d8\u00a9 \u00d9\u0081\u00d9\u008a\u00d9\u0084\u00d8\u00a7 \u00d8\u00b1\u00d9\u008a\u00d8\u00a7\u00d9\u0084",
            "name_bn": "",
            "name_de": "Distrikt Vila Real",
            "name_el": "",
            "name_en": "Vila Real District",
            "name_es": "Distrito de Vila Real",
            "name_fr": "District de Vila Real",
            "name_hi": "",
            "name_hu": "",
            "name_id": "Distrik Vila Real",
            "name_it": "distretto di Vila Real",
            "name_ja": "\u00e3\u0083\u00b4\u00e3\u0082\u00a3\u00e3\u0083\u00a9\u00e3\u0083\u00bb\u00e3\u0083\u00ac\u00e3\u0082\u00a2\u00e3\u0083\u00ab\u00e7\u009c\u008c",
            "name_ko": "\u00eb\u00b9\u008c\u00eb\u009d\u00bc\u00ed\u0097\u00a4\u00ec\u0095\u008c \u00ed\u0098\u0084",
            "name_len": "9",
            "name_local": "",
            "name_nl": "Vila Real",
            "name_pl": "Dystrykt Vila Real",
            "name_pt": "Distrito de Vila Real",
            "name_ru": "\u00d0\u0092\u00d0\u00b8\u00d0\u00bb\u00d0\u00b0-\u00d0\u00a0\u00d0\u00b5\u00d0\u00b0\u00d0\u00bb",
            "name_sv": "Vila Real",
            "name_tr": "",
            "name_vi": "Vila Real",
            "name_zh": "\u00e9\u009b\u00b7\u00e4\u00ba\u009e\u00e7\u0088\u00be\u00e5\u009f\u008e\u00e5\u008d\u0080",
            "ne_id": "1159310591",
            "note": "",
            "provnum_ne": "19",
            "record_type": "state",
            "region": "Norte",
            "region_cod": "",
            "region_sub": "",
            "sameascity": "7",
            "scalerank": "7",
            "sov_a3": "PRT",
            "sub_code": "",
            "wikidataid": "Q379372",
            "wikipedia": "",
            "woe_id": "2346579",
            "woe_label": "Vila Real, PT, Portugal",
            "woe_name": "Vila Real"
        },
        "geo": {
            "latitude": 41.3010351,
            "longitude": -7.7422354,
            "max_latitude": 41.3635472,
            "max_longitude": -7.6639146,
            "min_latitude": 41.2401615,
            "min_longitude": -7.7902948
        },
        "iso_3166_2": "PT-17",
        "iso_a2": "PT",
        "iso_a3": "PRT",
        "name": "Vila Real",
        "postal": "17",
        "type": "Distrito",
        "type_en": "District"
    },
    "18": {
        "alt_names": [
            "Viseu"
        ],
        "cca2": "PT",
        "cca3": "PRT",
        "code_hasc": "PT.VI",
        "extra": {
            "abbrev": "",
            "adm0_a3": "PRT",
            "adm0_label": "2",
            "adm0_sr": "1",
            "adm1_code": "PRT-755",
            "admin": "Portugal",
            "area_sqkm": "0",
            "check_me": "20",
            "code_local": "",
            "data_sources": [
                "natural"
            ],
            "datarank": "6",
            "diss_me": "755",
            "featurecla": "Admin-1 scale rank",
            "fips": "PO22",
            "fips_alt": "",
            "gadm_level": "1",
            "geonunit": "Portugal",
            "gn_a1_code": "PT.22",
            "gn_id": "2732264",
            "gn_level": "1",
            "gn_name": "Distrito de Viseu",
            "gn_region": "",
            "gns_adm1": "PO22",
            "gns_id": "-2179986",
            "gns_lang": "fra",
            "gns_level": "1",
            "gns_name": "Viseu, Distrito de",
            "gns_region": "",
            "gu_a3": "PRX",
            "hasc_maybe": "",
            "labelrank": "7",
            "mapcolor9": "1",
            "mapcolor13": "4",
            "max_label": "11.0",
            "min_label": "8.0",
            "min_zoom": "7.7",
            "name_ar": "\u00d9\u0085\u00d8\u00ad\u00d8\u00a7\u00d9\u0081\u00d8\u00b8\u00d8\u00a9 \u00d9\u0081\u00d9\u008a\u00d8\u00b3\u00d9\u008a\u00d9\u0088",
            "name_bn": "\u00e0\u00a6\u00ad\u00e0\u00a6\u00bf\u00e0\u00a6\u00b8\u00e0\u00a7\u0087\u00e0\u00a6\u0089 \u00e0\u00a6\u009c\u00e0\u00a7\u0087\u00e0\u00a6\u00b2\u00e0\u00a6\u00be",
            "name_de": "Distrikt Viseu",
            "name_el": "\u00ce\u0092\u00ce\u00b9\u00cf\u0083\u00ce\u00ad\u00ce\u00bf\u00cf\u0085",
            "name_en": "Viseu District",
            "name_es": "Distrito de Viseu",
            "name_fr": "District de Viseu",
            "name_hi": "\u00e0\u00a4\u00b5\u00e0\u00a4\u00bf\u00e0\u00a4\u00b8\u00e0\u00a5\u0082 \u00e0\u00a4\u009c\u00e0\u00a4\u00bf\u00e0\u00a4\u00b2\u00e0\u00a4\u00be",
            "name_hu": "Viseu",
            "name_id": "Distrik Viseu",
            "name_it": "distretto di Viseu",
            "name_ja": "\u00e3\u0083\u00b4\u00e3\u0082\u00a3\u00e3\u0082\u00bc\u00e3\u0082\u00a6\u00e7\u009c\u008c",
            "name_ko": "\u00eb\u00b9\u0084\u00ec\u00a0\u009c\u00ec\u009a\u00b0 \u00ed\u0098\u0084",
            "name_len": "5",
            "name_local": "",
            "name_nl": "Viseu",
            "name_pl": "Dystrykt Viseu",
            "name_pt": "Distrito de Viseu",
            "name_ru": "\u00d0\u0092\u00d0\u00b8\u00d0\u00b7\u00d0\u00b5\u00d1\u0083",
            "name_sv": "Viseu",
            "name_tr": "Viseu District",
            "name_vi": "Viseu",
            "name_zh": "\u00e7\u00b6\u00ad\u00e5\u00a1\u009e\u00e7\u0083\u008f\u00e5\u008d\u0080",
            "ne_id": "1159310589",
            "note": "",
            "provnum_ne": "17",
            "record_type": "state",
            "region": "Centro",
            "region_cod": "",
            "region_sub": "",
            "sameascity": "7",
            "scalerank": "7",
            "sov_a3": "PRT",
            "sub_code": "",
            "wikidataid": "Q273525",
            "wikipedia": "",
            "woe_id": "2346580",
            "woe_label": "Viseu, PT, Portugal",
            "woe_name": "Viseu"
        },
        "geo": {
            "latitude": 40.6565861,
            "longitude": -7.9124712,
            "max_latitude": 40.7325793,
            "max_longitude": -7.8250273,
            "min_latitude": 40.6072458,
            "min_longitude": -7.9660481
        },
        "iso_3166_2": "PT-18",
        "iso_a2": "PT",
        "iso_a3": "PRT",
        "name": "Viseu",
        "postal": "18",
        "type": "Distrito",
        "type_en": "District"
    },
    "20": {
        "alt_names": [
            "A\u00e7ores"
        ],
        "cca2": "PT",
        "cca3": "PRT",
        "code_hasc": "PT.AC",
        "extra": {
            "abbrev": "",
            "adm0_a3": "PRT",
            "adm0_label": "5",
            "adm0_sr": "3",
            "adm1_code": "PRT-735",
            "admin": "Portugal",
            "area_sqkm": "0",
            "check_me": "0",
            "code_local": "",
            "data_sources": [
                "natural"
            ],
            "datarank": "6",
            "diss_me": "735",
            "featurecla": "Admin-1 scale rank",
            "fips": "PO23",
            "fips_alt": "",
            "gadm_level": "1",
            "geonunit": "Azores",
            "gn_a1_code": "PT.23",
            "gn_id": "3411865",
            "gn_level": "1",
            "gn_name": "Regiao Autonoma dos Acores",
            "gn_region": "",
            "gns_adm1": "PO23",
            "gns_id": "6133108",
            "gns_lang": "",
            "gns_level": "1",
            "gns_name": "Acores, Regiao Autonoma dos",
            "gns_region": "",
            "gu_a3": "PAZ",
            "hasc_maybe": "",
            "labelrank": "7",
            "mapcolor9": "1",
            "mapcolor13": "4",
            "max_label": "11.0",
            "min_label": "8.0",
            "min_zoom": "7.7",
            "name_ar": "\u00d8\u00a7\u00d9\u0084\u00d8\u00a3\u00d8\u00b2\u00d9\u0088\u00d8\u00b1",
            "name_bn": "\u00e0\u00a6\u0085\u00e0\u00a7\u008d\u00e0\u00a6\u00af\u00e0\u00a6\u00be\u00e0\u00a6\u009c\u00e0\u00a7\u008b\u00e0\u00a6\u00b0\u00e0\u00a7\u0087\u00e0\u00a6\u00b8",
            "name_de": "Azoren",
            "name_el": "\u00ce\u0091\u00ce\u00b6\u00cf\u008c\u00cf\u0081\u00ce\u00b5\u00cf\u0082",
            "name_en": "Azores",
            "name_es": "Azores",
            "name_fr": "A\u00c3\u00a7ores",
            "name_hi": "\u00e0\u00a4\u008f\u00e0\u00a4\u009c\u00e0\u00a4\u00bc\u00e0\u00a5\u008b\u00e0\u00a4\u00b0\u00e0\u00a5\u0087\u00e0\u00a4\u00b8",
            "name_hu": "Azori-szigetek",
            "name_id": "Azores",
            "name_it": "Azzorre",
            "name_ja": "\u00e3\u0082\u00a2\u00e3\u0082\u00be\u00e3\u0083\u00ac\u00e3\u0082\u00b9\u00e8\u00ab\u00b8\u00e5\u00b3\u00b6",
            "name_ko": "\u00ec\u0095\u0084\u00ec\u0086\u008c\u00eb\u00a5\u00b4\u00ec\u008a\u00a4 \u00ec\u00a0\u009c\u00eb\u008f\u0084",
            "name_len": "6",
            "name_local": "",
            "name_nl": "Azoren",
            "name_pl": "Azory",
            "name_pt": "A\u00c3\u00a7ores",
            "name_ru": "\u00d0\u0090\u00d0\u00b7\u00d0\u00be\u00d1\u0080\u00d1\u0081\u00d0\u00ba\u00d0\u00b8\u00d0\u00b5 \u00d0\u00be\u00d1\u0081\u00d1\u0082\u00d1\u0080\u00d0\u00be\u00d0\u00b2\u00d0\u00b0",
            "name_sv": "Azorerna",
            "name_tr": "Azorlar",
            "name_vi": "A\u00c3\u00a7ores",
            "name_zh": "\u00e4\u00ba\u009a\u00e9\u0080\u009f\u00e5\u00b0\u0094\u00e7\u00be\u00a4\u00e5\u00b2\u009b",
            "ne_id": "1159310543",
            "note": "",
            "provnum_ne": "3",
            "record_type": "state",
            "region": "",
            "region_cod": "",
            "region_sub": "",
            "sameascity": "-99",
            "scalerank": "7",
            "sov_a3": "PRT",
            "sub_code": "",
            "wikidataid": "Q25263",
            "wikipedia": "",
            "woe_id": "15021776",
            "woe_label": "Azores, PT, Portugal",
            "woe_name": "Azores"
        },
        "geo": {
            "latitude": 37.7412488,
            "longitude": -25.6755944,
            "max_latitude": 39.7261497,
            "max_longitude": -25.0131855,
            "min_latitude": 36.9278178,
            "min_longitude": -31.2687948
        },
        "iso_3166_2": "PT-20",
        "iso_a2": "PT",
        "iso_a3": "PRT",
        "name": "A\u00e7ores",
        "postal": "20",
        "type": "Regi\u00c3\u00b5es aut\u00c3\u00b4noma",
        "type_en": "Autonomous region"
    },
    "30": {
        "alt_names": [
            "Madeira"
        ],
        "cca2": "PT",
        "cca3": "PRT",
        "code_hasc": "PT.MA",
        "extra": {
            "abbrev": "",
            "adm0_a3": "PRT",
            "adm0_label": "5",
            "adm0_sr": "5",
            "adm1_code": "PRT-736",
            "admin": "Portugal",
            "area_sqkm": "0",
            "check_me": "0",
            "code_local": "",
            "data_sources": [
                "natural"
            ],
            "datarank": "6",
            "diss_me": "736",
            "featurecla": "Admin-1 scale rank",
            "fips": "PO10",
            "fips_alt": "",
            "gadm_level": "1",
            "geonunit": "Madeira",
            "gn_a1_code": "PT.10",
            "gn_id": "2593105",
            "gn_level": "1",
            "gn_name": "Regiao Autonoma da Madeira",
            "gn_region": "",
            "gns_adm1": "PO10",
            "gns_id": "6133109",
            "gns_lang": "",
            "gns_level": "1",
            "gns_name": "Madeira, Regiao Autonoma da",
            "gns_region": "",
            "gu_a3": "PMD",
            "hasc_maybe": "",
            "labelrank": "7",
            "mapcolor9": "1",
            "mapcolor13": "4",
            "max_label": "11.0",
            "min_label": "7.7",
            "min_zoom": "7.7",
            "name_ar": "\u00d8\u00ac\u00d8\u00b2\u00d8\u00b1 \u00d9\u0085\u00d8\u00a7\u00d8\u00af\u00d9\u008a\u00d8\u00b1\u00d8\u00a7",
            "name_bn": "",
            "name_de": "Autonome Region Madeira",
            "name_el": "\u00ce\u009c\u00ce\u00b1\u00ce\u00b4\u00ce\u00ad\u00cf\u0081\u00ce\u00b1",
            "name_en": "Madeira",
            "name_es": "Madeira",
            "name_fr": "Mad\u00c3\u00a8re",
            "name_hi": "\u00e0\u00a4\u00ae\u00e0\u00a4\u00a6\u00e0\u00a5\u0087\u00e0\u00a4\u00b0\u00e0\u00a4\u00be",
            "name_hu": "Madeira-szigetek",
            "name_id": "Madeira",
            "name_it": "Madera",
            "name_ja": "\u00e3\u0083\u009e\u00e3\u0083\u0087\u00e3\u0082\u00a4\u00e3\u0083\u00a9\u00e8\u00ab\u00b8\u00e5\u00b3\u00b6",
            "name_ko": "\u00eb\u00a7\u0088\u00eb\u008d\u00b0\u00ec\u009d\u00b4\u00eb\u009d\u00bc \u00ec\u00a0\u009c\u00eb\u008f\u0084",
            "name_len": "7",
            "name_local": "",
            "name_nl": "Madeira",
            "name_pl": "Madera",
            "name_pt": "Regi\u00c3\u00a3o Aut\u00c3\u00b3noma da Madeira",
            "name_ru": "\u00d0\u009c\u00d0\u00b0\u00d0\u00b4\u00d0\u00b5\u00d0\u00b9\u00d1\u0080\u00d0\u00b0",
            "name_sv": "Madeira",
            "name_tr": "Madeira Adalar\u00c4\u00b1",
            "name_vi": "Madeira",
            "name_zh": "\u00e9\u00a6\u00ac\u00e5\u00be\u00b7\u00e6\u008b\u0089",
            "ne_id": "1159310443",
            "note": "",
            "provnum_ne": "2",
            "record_type": "state",
            "region": "",
            "region_cod": "",
            "region_sub": "",
            "sameascity": "-99",
            "scalerank": "7",
            "sov_a3": "PRT",
            "sub_code": "",
            "wikidataid": "Q26253",
            "wikipedia": "",
            "woe_id": "2346570",
            "woe_label": "Madeira, PT, Portugal",
            "woe_name": "Madeira"
        },
        "geo": {
            "latitude": 32.7607074,
            "longitude": -16.9594723,
            "max_latitude": 33.1281375,
            "max_longitude": -15.8566922,
            "min_latitude": 30.0303451,
            "min_longitude": -17.2659373
        },
        "iso_3166_2": "PT-30",
        "iso_a2": "PT",
        "iso_a3": "PRT",
        "name": "Madeira",
        "postal": "30",
        "type": "Regi\u00c3\u00b5es aut\u00c3\u00b4noma",
        "type_en": "Autonomous region"
    }
}