{
    "X01~": {
        "alt_names": [
            ""
        ],
        "cca2": "VG",
        "cca3": "VGB",
        "code_hasc": "VG.VI",
        "extra": {
            "abbrev": "",
            "adm0_a3": "VGB",
            "adm0_label": "8",
            "adm0_sr": "5",
            "adm1_code": "VGB+00?",
            "admin": "British Virgin Islands",
            "area_sqkm": "0",
            "check_me": "0",
            "code_local": "",
            "data_sources": [
                "natural"
            ],
            "datarank": "10",
            "diss_me": "10187",
            "featurecla": "Admin-1 aggregation",
            "fips": "",
            "fips_alt": "",
            "gadm_level": "0",
            "geonunit": "British Virgin Islands",
            "gn_a1_code": "VG.",
            "gn_id": "0",
            "gn_level": "0",
            "gn_name": "",
            "gn_region": "",
            "gns_adm1": "",
            "gns_id": "0",
            "gns_lang": "",
            "gns_level": "0",
            "gns_name": "",
            "gns_region": "",
            "gu_a3": "VGB",
            "hasc_maybe": "",
            "labelrank": "20",
            "mapcolor9": "6",
            "mapcolor13": "3",
            "max_label": "18.0",
            "min_label": "18.0",
            "min_zoom": "18.0",
            "name_ar": "",
            "name_bn": "",
            "name_de": "",
            "name_el": "",
            "name_en": "",
            "name_es": "",
            "name_fr": "",
            "name_hi": "",
            "name_hu": "",
            "name_id": "",
            "name_it": "",
            "name_ja": "",
            "name_ko": "",
            "name_len": "22",
            "name_local": "",
            "name_nl": "",
            "name_pl": "",
            "name_pt": "",
            "name_ru": "",
            "name_sv": "",
            "name_tr": "",
            "name_vi": "",
            "name_zh": "",
            "ne_id": "1159315557",
            "note": "",
            "provnum_ne": "0",
            "record_type": "state",
            "region": "",
            "region_cod": "",
            "region_sub": "",
            "sameascity": "-99",
            "scalerank": "10",
            "sov_a3": "GB1",
            "sub_code": "",
            "wikidataid": "",
            "wikipedia": "",
            "woe_id": "23424983",
            "woe_label": "",
            "woe_name": "British Virgin Islands"
        },
        "geo": {
            "latitude": "18.35360000",
            "longitude": "-64.5854000"
        },
        "iso_3166_2": "VG-X01~",
        "iso_a2": "VG",
        "iso_a3": "VGB",
        "name": "British Virgin Islands",
        "postal": "X01~",
        "type": "",
        "type_en": ""
    }
}