{
    "EC": {
        "alt_names": [
            "Oos Kaap"
        ],
        "cca2": "ZA",
        "cca3": "ZAF",
        "code_hasc": "ZA.EC",
        "extra": {
            "abbrev": "",
            "adm0_a3": "ZAF",
            "adm0_label": "2",
            "adm0_sr": "1",
            "adm1_code": "ZAF-1926",
            "admin": "South Africa",
            "area_sqkm": "0",
            "check_me": "20",
            "code_local": "",
            "data_sources": [
                "natural"
            ],
            "datarank": "3",
            "diss_me": "1926",
            "featurecla": "Admin-1 scale rank",
            "fips": "SF05",
            "fips_alt": "SF05",
            "gadm_level": "1",
            "geonunit": "South Africa",
            "gn_a1_code": "ZA.05",
            "gn_id": "1085593",
            "gn_level": "1",
            "gn_name": "Province of Eastern Cape",
            "gn_region": "",
            "gns_adm1": "SF05",
            "gns_id": "204039",
            "gns_lang": "khm",
            "gns_level": "1",
            "gns_name": "Eastern Cape",
            "gns_region": "",
            "gu_a3": "ZAF",
            "hasc_maybe": "",
            "labelrank": "2",
            "mapcolor9": "4",
            "mapcolor13": "2",
            "max_label": "10.1",
            "min_label": "4.6",
            "min_zoom": "4.6",
            "name_ar": "\u00d9\u0083\u00d9\u008a\u00d8\u00a8 \u00d8\u00a7\u00d9\u0084\u00d8\u00b4\u00d8\u00b1\u00d9\u0082\u00d9\u008a\u00d8\u00a9",
            "name_bn": "\u00e0\u00a6\u00aa\u00e0\u00a7\u0082\u00e0\u00a6\u00b0\u00e0\u00a7\u008d\u00e0\u00a6\u00ac \u00e0\u00a6\u0095\u00e0\u00a7\u0087\u00e0\u00a6\u00aa \u00e0\u00a6\u00aa\u00e0\u00a7\u008d\u00e0\u00a6\u00b0\u00e0\u00a6\u00a6\u00e0\u00a7\u0087\u00e0\u00a6\u00b6",
            "name_de": "Ostkap",
            "name_el": "\u00ce\u0091\u00ce\u00bd\u00ce\u00b1\u00cf\u0084\u00ce\u00bf\u00ce\u00bb\u00ce\u00b9\u00ce\u00ba\u00cf\u008c\u00cf\u0084\u00ce\u00b5\u00cf\u0081\u00ce\u00bf \u00ce\u0091\u00ce\u00ba\u00cf\u0081\u00cf\u0089\u00cf\u0084\u00ce\u00ae\u00cf\u0081\u00ce\u00b9\u00ce\u00bf",
            "name_en": "Eastern Cape",
            "name_es": "Provincia Oriental del Cabo",
            "name_fr": "Cap-Oriental",
            "name_hi": "\u00e0\u00a4\u00aa\u00e0\u00a5\u0082\u00e0\u00a4\u00b0\u00e0\u00a5\u008d\u00e0\u00a4\u00b5\u00e0\u00a5\u0080 \u00e0\u00a4\u0095\u00e0\u00a5\u0087\u00e0\u00a4\u00aa \u00e0\u00a4\u00aa\u00e0\u00a5\u008d\u00e0\u00a4\u00b0\u00e0\u00a4\u00be\u00e0\u00a4\u00a8\u00e0\u00a5\u008d\u00e0\u00a4\u00a4",
            "name_hu": "",
            "name_id": "Eastern Cape",
            "name_it": "provincia del Capo Orientale",
            "name_ja": "\u00e6\u009d\u00b1\u00e3\u0082\u00b1\u00e3\u0083\u00bc\u00e3\u0083\u0097\u00e5\u00b7\u009e",
            "name_ko": "\u00ec\u009d\u00b4\u00ec\u008a\u00a4\u00ed\u0084\u00b4\u00ec\u00bc\u0080\u00ec\u009d\u00b4\u00ed\u0094\u0084 \u00ec\u00a3\u00bc",
            "name_len": "12",
            "name_local": "",
            "name_nl": "Oost-Kaap",
            "name_pl": "Prowincja Przyl\u00c4\u0085dkowa Wschodnia",
            "name_pt": "Cabo Oriental",
            "name_ru": "\u00d0\u0092\u00d0\u00be\u00d1\u0081\u00d1\u0082\u00d0\u00be\u00d1\u0087\u00d0\u00bd\u00d0\u00be-\u00d0\u009a\u00d0\u00b0\u00d0\u00bf\u00d1\u0081\u00d0\u00ba\u00d0\u00b0\u00d1\u008f \u00d0\u00bf\u00d1\u0080\u00d0\u00be\u00d0\u00b2\u00d0\u00b8\u00d0\u00bd\u00d1\u0086\u00d0\u00b8\u00d1\u008f",
            "name_sv": "\u00c3\u0096stra Kapprovinsen",
            "name_tr": "Do\u00c4\u009fu Kap",
            "name_vi": "\u00c4\u0090\u00c3\u00b4ng Cape",
            "name_zh": "\u00e6\u009d\u00b1\u00e9\u0096\u008b\u00e6\u0099\u00ae\u00e7\u009c\u0081",
            "ne_id": "1159311157",
            "note": "CSS 2, Formerly part of Cape of Good Hope",
            "provnum_ne": "1",
            "record_type": "state",
            "region": "",
            "region_cod": "",
            "region_sub": "",
            "sameascity": "-99",
            "scalerank": "2",
            "sov_a3": "ZAF",
            "sub_code": "",
            "wikidataid": "Q130840",
            "wikipedia": "",
            "woe_id": "2346979",
            "woe_label": "Eastern Cape, ZA, South Africa",
            "woe_name": "Eastern Cape"
        },
        "geo": {
            "latitude": -32.2968402,
            "longitude": 26.419389,
            "max_latitude": -30.0018012,
            "max_longitude": 30.1947187,
            "min_latitude": -34.2136378,
            "min_longitude": 22.7357412
        },
        "iso_3166_2": "ZA-EC",
        "iso_a2": "ZA",
        "iso_a3": "ZAF",
        "name": "Eastern Cape",
        "postal": "EC",
        "type": "Provinsie",
        "type_en": "Province"
    },
    "FS": {
        "alt_names": [
            "Foreistata",
            "Vrystaat"
        ],
        "cca2": "ZA",
        "cca3": "ZAF",
        "code_hasc": "ZA.FS",
        "extra": {
            "abbrev": "",
            "adm0_a3": "ZAF",
            "adm0_label": "2",
            "adm0_sr": "1",
            "adm1_code": "ZAF-1206",
            "admin": "South Africa",
            "area_sqkm": "0",
            "check_me": "20",
            "code_local": "",
            "data_sources": [
                "natural"
            ],
            "datarank": "3",
            "diss_me": "1206",
            "featurecla": "Admin-1 scale rank",
            "fips": "SF03",
            "fips_alt": "SF03",
            "gadm_level": "1",
            "geonunit": "South Africa",
            "gn_a1_code": "ZA.03",
            "gn_id": "967573",
            "gn_level": "1",
            "gn_name": "Free State",
            "gn_region": "",
            "gns_adm1": "SF03",
            "gns_id": "-1269735",
            "gns_lang": "por",
            "gns_level": "1",
            "gns_name": "Free State",
            "gns_region": "",
            "gu_a3": "ZAF",
            "hasc_maybe": "",
            "labelrank": "2",
            "mapcolor9": "4",
            "mapcolor13": "2",
            "max_label": "10.1",
            "min_label": "4.6",
            "min_zoom": "4.6",
            "name_ar": "\u00d9\u0081\u00d8\u00b1\u00d9\u008a \u00d8\u00b3\u00d8\u00aa\u00d9\u008a\u00d8\u00aa",
            "name_bn": "\u00e0\u00a6\u00ab\u00e0\u00a7\u008d\u00e0\u00a6\u00b0\u00e0\u00a6\u00bf \u00e0\u00a6\u0085\u00e0\u00a6\u0099\u00e0\u00a7\u008d\u00e0\u00a6\u0097\u00e0\u00a6\u00b0\u00e0\u00a6\u00be\u00e0\u00a6\u009c\u00e0\u00a7\u008d\u00e0\u00a6\u00af",
            "name_de": "Freistaat",
            "name_el": "\u00ce\u0095\u00ce\u00bb\u00ce\u00b5\u00cf\u008d\u00ce\u00b8\u00ce\u00b5\u00cf\u0081\u00ce\u00bf \u00ce\u009a\u00cf\u0081\u00ce\u00ac\u00cf\u0084\u00ce\u00bf\u00cf\u0082 \u00cf\u0084\u00ce\u00b7\u00cf\u0082 \u00ce\u009f\u00cf\u0081\u00ce\u00ac\u00ce\u00b3\u00ce\u00b3\u00ce\u00b7\u00cf\u0082",
            "name_en": "Free State",
            "name_es": "Provincia del Estado Libre",
            "name_fr": "\u00c3\u0089tat-Libre",
            "name_hi": "\u00e0\u00a4\u00ab\u00e0\u00a4\u00bc\u00e0\u00a5\u008d\u00e0\u00a4\u00b0\u00e0\u00a5\u0080 \u00e0\u00a4\u00b8\u00e0\u00a5\u008d\u00e0\u00a4\u009f\u00e0\u00a5\u0087\u00e0\u00a4\u009f \u00e0\u00a4\u00aa\u00e0\u00a5\u008d\u00e0\u00a4\u00b0\u00e0\u00a4\u00be\u00e0\u00a4\u00a8\u00e0\u00a5\u008d\u00e0\u00a4\u00a4",
            "name_hu": "",
            "name_id": "Free State",
            "name_it": "Free State",
            "name_ja": "\u00e3\u0083\u0095\u00e3\u0083\u00aa\u00e3\u0083\u00bc\u00e3\u0082\u00b9\u00e3\u0083\u0086\u00e3\u0082\u00a4\u00e3\u0083\u0088\u00e5\u00b7\u009e",
            "name_ko": "\u00ed\u0094\u0084\u00eb\u00a6\u00ac\u00ec\u008a\u00a4\u00ed\u0085\u008c\u00ec\u009d\u00b4\u00ed\u008a\u00b8 \u00ec\u00a3\u00bc",
            "name_len": "17",
            "name_local": "",
            "name_nl": "Vrijstaat",
            "name_pl": "Wolne Pa\u00c5\u0084stwo",
            "name_pt": "Estado Livre",
            "name_ru": "\u00d0\u00a4\u00d1\u0080\u00d0\u00b8-\u00d0\u00a1\u00d1\u0082\u00d0\u00b5\u00d0\u00b9\u00d1\u0082",
            "name_sv": "Fristatsprovinsen",
            "name_tr": "\u00c3\u0096zg\u00c3\u00bcr Devlet",
            "name_vi": "Free State",
            "name_zh": "\u00e8\u0087\u00aa\u00e7\u0094\u00b1\u00e9\u0082\u00a6\u00e7\u009c\u0081",
            "ne_id": "1159309739",
            "note": "",
            "provnum_ne": "7",
            "record_type": "state",
            "region": "",
            "region_cod": "",
            "region_sub": "",
            "sameascity": "-99",
            "scalerank": "2",
            "sov_a3": "ZAF",
            "sub_code": "",
            "wikidataid": "Q160284",
            "wikipedia": "",
            "woe_id": "2346980",
            "woe_label": "Free State, ZA, South Africa",
            "woe_name": "Orange Free State"
        },
        "geo": {
            "latitude": -28.4541105,
            "longitude": 26.7967849,
            "max_latitude": -26.6687389,
            "max_longitude": 29.7851298,
            "min_latitude": -30.69408,
            "min_longitude": 24.3466211
        },
        "iso_3166_2": "ZA-FS",
        "iso_a2": "ZA",
        "iso_a3": "ZAF",
        "name": "Free State",
        "postal": "FS",
        "type": "Provinsie",
        "type_en": "Province"
    },
    "GT": {
        "alt_names": [
            "Pretoria-Witwatersrand-Vereeniging"
        ],
        "cca2": "ZA",
        "cca3": "ZAF",
        "code_hasc": "ZA.GT",
        "extra": {
            "abbrev": "",
            "adm0_a3": "ZAF",
            "adm0_label": "2",
            "adm0_sr": "1",
            "adm1_code": "ZAF-1208",
            "admin": "South Africa",
            "area_sqkm": "0",
            "check_me": "20",
            "code_local": "",
            "data_sources": [
                "natural"
            ],
            "datarank": "3",
            "diss_me": "1208",
            "featurecla": "Admin-1 scale rank",
            "fips": "SF06",
            "fips_alt": "SF06",
            "gadm_level": "1",
            "geonunit": "South Africa",
            "gn_a1_code": "ZA.06",
            "gn_id": "1085594",
            "gn_level": "1",
            "gn_name": "Gauteng",
            "gn_region": "",
            "gns_adm1": "SF06",
            "gns_id": "204226",
            "gns_lang": "khm",
            "gns_level": "1",
            "gns_name": "Gauteng",
            "gns_region": "",
            "gu_a3": "ZAF",
            "hasc_maybe": "",
            "labelrank": "2",
            "mapcolor9": "4",
            "mapcolor13": "2",
            "max_label": "10.1",
            "min_label": "4.6",
            "min_zoom": "4.6",
            "name_ar": "\u00d8\u00ba\u00d8\u00a7\u00d9\u0088\u00d8\u00aa\u00d9\u008a\u00d9\u0086\u00d8\u00ac",
            "name_bn": "\u00e0\u00a6\u0097\u00e0\u00a7\u0081\u00e0\u00a6\u009f\u00e0\u00a7\u0087\u00e0\u00a6\u0082",
            "name_de": "Gauteng",
            "name_el": "\u00ce\u0093\u00ce\u00ba\u00ce\u00b1\u00ce\u00bf\u00cf\u0085\u00cf\u0084\u00ce\u00ad\u00ce\u00bd\u00ce\u00b3\u00ce\u00ba",
            "name_en": "Gauteng",
            "name_es": "Gauteng",
            "name_fr": "Gauteng",
            "name_hi": "\u00e0\u00a4\u0096\u00e0\u00a4\u00bc\u00e0\u00a4\u00be\u00e0\u00a4\u0089\u00e0\u00a4\u00a4\u00e0\u00a5\u0087\u00e0\u00a4\u00a8\u00e0\u00a5\u008d\u00e0\u00a4\u0097 \u00e0\u00a4\u00aa\u00e0\u00a5\u008d\u00e0\u00a4\u00b0\u00e0\u00a4\u00be\u00e0\u00a4\u00a8\u00e0\u00a5\u008d\u00e0\u00a4\u00a4",
            "name_hu": "",
            "name_id": "Gauteng",
            "name_it": "Gauteng",
            "name_ja": "\u00e3\u0083\u008f\u00e3\u0082\u00a6\u00e3\u0083\u0086\u00e3\u0083\u00b3\u00e5\u00b7\u009e",
            "name_ko": "\u00ed\u0095\u0098\u00ec\u009a\u00b0\u00ed\u0085\u00a1 \u00ec\u00a3\u00bc",
            "name_len": "7",
            "name_local": "",
            "name_nl": "Gauteng",
            "name_pl": "Gauteng",
            "name_pt": "Gauteng",
            "name_ru": "\u00d0\u0093\u00d0\u00b0\u00d1\u0083\u00d1\u0082\u00d0\u00b5\u00d0\u00bd\u00d0\u00b3",
            "name_sv": "Gauteng",
            "name_tr": "Gauteng",
            "name_vi": "Gauteng",
            "name_zh": "\u00e8\u00b1\u00aa\u00e7\u0099\u00bb\u00e7\u009c\u0081",
            "ne_id": "1159309741",
            "note": "CSS 7, Formerly part of Transvaal",
            "provnum_ne": "6",
            "record_type": "state",
            "region": "",
            "region_cod": "",
            "region_sub": "",
            "sameascity": "-99",
            "scalerank": "2",
            "sov_a3": "ZAF",
            "sub_code": "",
            "wikidataid": "Q133083",
            "wikipedia": "",
            "woe_id": "2346981",
            "woe_label": "Gauteng, ZA, South Africa",
            "woe_name": "Gauteng"
        },
        "geo": {
            "latitude": -26.2707593,
            "longitude": 28.1122679,
            "max_latitude": -25.1096099,
            "max_longitude": 29.0984187,
            "min_latitude": -26.9118973,
            "min_longitude": 27.1563401
        },
        "iso_3166_2": "ZA-GT",
        "iso_a2": "ZA",
        "iso_a3": "ZAF",
        "name": "Gauteng",
        "postal": "GT",
        "type": "Provinsie",
        "type_en": "Province"
    },
    "LP": {
        "alt_names": [
            "Limpopo"
        ],
        "cca2": "ZA",
        "cca3": "ZAF",
        "code_hasc": "ZA.NP",
        "extra": {
            "abbrev": "",
            "adm0_a3": "ZAF",
            "adm0_label": "2",
            "adm0_sr": "1",
            "adm1_code": "ZAF-1210",
            "admin": "South Africa",
            "area_sqkm": "0",
            "check_me": "20",
            "code_local": "",
            "data_sources": [
                "natural"
            ],
            "datarank": "3",
            "diss_me": "1210",
            "featurecla": "Admin-1 scale rank",
            "fips": "SF09",
            "fips_alt": "SF09",
            "gadm_level": "1",
            "geonunit": "South Africa",
            "gn_a1_code": "ZA.09",
            "gn_id": "1085597",
            "gn_level": "1",
            "gn_name": "Limpopo",
            "gn_region": "",
            "gns_adm1": "SF09",
            "gns_id": "204232",
            "gns_lang": "khm",
            "gns_level": "1",
            "gns_name": "Limpopo Province",
            "gns_region": "",
            "gu_a3": "ZAF",
            "hasc_maybe": "",
            "labelrank": "2",
            "mapcolor9": "4",
            "mapcolor13": "2",
            "max_label": "10.1",
            "min_label": "4.6",
            "min_zoom": "4.6",
            "name_ar": "\u00d9\u0084\u00d9\u008a\u00d9\u0085\u00d8\u00a8\u00d9\u0088\u00d8\u00a8\u00d9\u0088",
            "name_bn": "\u00e0\u00a6\u00b2\u00e0\u00a6\u00bf\u00e0\u00a6\u00ae\u00e0\u00a7\u008d\u00e0\u00a6\u00aa\u00e0\u00a7\u008b\u00e0\u00a6\u00aa\u00e0\u00a7\u008b",
            "name_de": "Limpopo",
            "name_el": "\u00ce\u009b\u00ce\u00b9\u00ce\u00bc\u00cf\u0080\u00cf\u008c\u00cf\u0080\u00ce\u00bf",
            "name_en": "Limpopo",
            "name_es": "Provincia de Limpopo",
            "name_fr": "Limpopo",
            "name_hi": "\u00e0\u00a4\u00b2\u00e0\u00a4\u00bf\u00e0\u00a4\u00ae\u00e0\u00a5\u008d\u00e0\u00a4\u00aa\u00e0\u00a5\u008b\u00e0\u00a4\u00aa\u00e0\u00a5\u008b \u00e0\u00a4\u00aa\u00e0\u00a5\u008d\u00e0\u00a4\u00b0\u00e0\u00a4\u00be\u00e0\u00a4\u00a8\u00e0\u00a5\u008d\u00e0\u00a4\u00a4",
            "name_hu": "",
            "name_id": "Limpopo",
            "name_it": "provincia del Limpopo",
            "name_ja": "\u00e3\u0083\u00aa\u00e3\u0083\u00b3\u00e3\u0083\u009d\u00e3\u0083\u009d\u00e5\u00b7\u009e",
            "name_ko": "\u00eb\u00a6\u00bc\u00ed\u008f\u00ac\u00ed\u008f\u00ac \u00ec\u00a3\u00bc",
            "name_len": "7",
            "name_local": "",
            "name_nl": "Limpopo",
            "name_pl": "Limpopo",
            "name_pt": "Limpopo",
            "name_ru": "\u00d0\u009b\u00d0\u00b8\u00d0\u00bc\u00d0\u00bf\u00d0\u00be\u00d0\u00bf\u00d0\u00be",
            "name_sv": "Limpopoprovinsen",
            "name_tr": "Limpopo",
            "name_vi": "Limpopo",
            "name_zh": "\u00e6\u009e\u0097\u00e6\u00b3\u00a2\u00e6\u00b3\u00a2\u00e7\u009c\u0081",
            "ne_id": "1159309745",
            "note": "CSS 9, Formerly part of Transvaal",
            "provnum_ne": "5",
            "record_type": "state",
            "region": "",
            "region_cod": "",
            "region_sub": "",
            "sameascity": "-99",
            "scalerank": "2",
            "sov_a3": "ZAF",
            "sub_code": "",
            "wikidataid": "Q134907",
            "wikipedia": "",
            "woe_id": "2346986",
            "woe_label": "Limpopo, ZA, South Africa",
            "woe_name": "Limpopo"
        },
        "geo": {
            "latitude": -23.4012946,
            "longitude": 29.4179324,
            "max_latitude": -22.1250298,
            "max_longitude": 31.8838412,
            "min_latitude": -25.4227899,
            "min_longitude": 26.4075388
        },
        "iso_3166_2": "ZA-LP",
        "iso_a2": "ZA",
        "iso_a3": "ZAF",
        "name": "Limpopo",
        "postal": "LP",
        "type": "Provinsie",
        "type_en": "Province"
    },
    "MP": {
        "alt_names": [
            "eMpumalanga"
        ],
        "cca2": "ZA",
        "cca3": "ZAF",
        "code_hasc": "ZA.MP",
        "extra": {
            "abbrev": "",
            "adm0_a3": "ZAF",
            "adm0_label": "2",
            "adm0_sr": "1",
            "adm1_code": "ZAF-1209",
            "admin": "South Africa",
            "area_sqkm": "0",
            "check_me": "20",
            "code_local": "",
            "data_sources": [
                "natural"
            ],
            "datarank": "3",
            "diss_me": "1209",
            "featurecla": "Admin-1 scale rank",
            "fips": "SF07",
            "fips_alt": "SF07",
            "gadm_level": "1",
            "geonunit": "South Africa",
            "gn_a1_code": "ZA.07",
            "gn_id": "1085595",
            "gn_level": "1",
            "gn_name": "Mpumalanga",
            "gn_region": "",
            "gns_adm1": "SF07",
            "gns_id": "204230",
            "gns_lang": "khm",
            "gns_level": "1",
            "gns_name": "Mpumalanga",
            "gns_region": "",
            "gu_a3": "ZAF",
            "hasc_maybe": "",
            "labelrank": "2",
            "mapcolor9": "4",
            "mapcolor13": "2",
            "max_label": "10.1",
            "min_label": "4.6",
            "min_zoom": "4.6",
            "name_ar": "\u00d9\u0085\u00d8\u00a8\u00d9\u0088\u00d9\u0085\u00d8\u00a7\u00d9\u0084\u00d8\u00a7\u00d9\u0086\u00d8\u00ac\u00d8\u00a7",
            "name_bn": "\u00e0\u00a6\u008f\u00e0\u00a6\u00ae\u00e0\u00a7\u008d\u00e0\u00a6\u00aa\u00e0\u00a7\u008b\u00e0\u00a6\u00ae\u00e0\u00a6\u00be\u00e0\u00a6\u00b2\u00e0\u00a6\u00be\u00e0\u00a6\u0097\u00e0\u00a6\u00be",
            "name_de": "Mpumalanga",
            "name_el": "\u00ce\u009c\u00cf\u0080\u00ce\u00bf\u00cf\u0085\u00ce\u00bc\u00ce\u00b1\u00ce\u00bb\u00ce\u00ac\u00ce\u00bd\u00ce\u00b3\u00ce\u00ba\u00ce\u00b1",
            "name_en": "Mpumalanga",
            "name_es": "Mpumalanga",
            "name_fr": "Mpumalanga",
            "name_hi": "\u00e0\u00a4\u0085\u00e0\u00a4\u00ae\u00e0\u00a4\u00aa\u00e0\u00a5\u0082\u00e0\u00a4\u00ae\u00e0\u00a4\u00b2\u00e0\u00a4\u00be\u00e0\u00a4\u0082\u00e0\u00a4\u0097\u00e0\u00a4\u00be \u00e0\u00a4\u00aa\u00e0\u00a5\u008d\u00e0\u00a4\u00b0\u00e0\u00a4\u00be\u00e0\u00a4\u00a8\u00e0\u00a5\u008d\u00e0\u00a4\u00a4",
            "name_hu": "",
            "name_id": "Mpumalanga",
            "name_it": "Mpumalanga",
            "name_ja": "\u00e3\u0083\u00a0\u00e3\u0083\u0097\u00e3\u0083\u009e\u00e3\u0083\u00a9\u00e3\u0083\u00b3\u00e3\u0082\u00ac\u00e5\u00b7\u009e",
            "name_ko": "\u00ec\u009d\u008c\u00ed\u0091\u00b8\u00eb\u00a7\u0090\u00eb\u009e\u0091\u00ea\u00b0\u0080 \u00ec\u00a3\u00bc",
            "name_len": "10",
            "name_local": "",
            "name_nl": "Mpumalanga",
            "name_pl": "Mpumalanga",
            "name_pt": "Mpumalanga",
            "name_ru": "\u00d0\u009c\u00d0\u00bf\u00d1\u0083\u00d0\u00bc\u00d0\u00b0\u00d0\u00bb\u00d0\u00b0\u00d0\u00bd\u00d0\u00b3\u00d0\u00b0",
            "name_sv": "Mpumalanga",
            "name_tr": "Mpumalanga",
            "name_vi": "Mpumalanga",
            "name_zh": "\u00e6\u0099\u00ae\u00e9\u00a6\u00ac\u00e8\u0098\u00ad\u00e5\u008a\u00a0\u00e7\u009c\u0081",
            "ne_id": "1159309743",
            "note": "CSS 8, Formerly part of Transvaal",
            "provnum_ne": "8",
            "record_type": "state",
            "region": "",
            "region_cod": "",
            "region_sub": "",
            "sameascity": "-99",
            "scalerank": "2",
            "sov_a3": "ZAF",
            "sub_code": "",
            "wikidataid": "Q132410",
            "wikipedia": "",
            "woe_id": "2346983",
            "woe_label": "Mpumalanga, ZA, South Africa",
            "woe_name": "Mpumalanga"
        },
        "geo": {
            "latitude": -29.817,
            "longitude": 30.637,
            "max_latitude": -29.7785889,
            "max_longitude": 30.67445,
            "min_latitude": -29.853415,
            "min_longitude": 30.5890079
        },
        "iso_3166_2": "ZA-MP",
        "iso_a2": "ZA",
        "iso_a3": "ZAF",
        "name": "Mpumalanga",
        "postal": "MP",
        "type": "Provinsie",
        "type_en": "Province"
    },
    "NC": {
        "alt_names": [
            "Northern Cape"
        ],
        "cca2": "ZA",
        "cca3": "ZAF",
        "code_hasc": "ZA.NC",
        "extra": {
            "abbrev": "",
            "adm0_a3": "ZAF",
            "adm0_label": "2",
            "adm0_sr": "1",
            "adm1_code": "ZAF-1188",
            "admin": "South Africa",
            "area_sqkm": "0",
            "check_me": "20",
            "code_local": "",
            "data_sources": [
                "natural"
            ],
            "datarank": "3",
            "diss_me": "1188",
            "featurecla": "Admin-1 scale rank",
            "fips": "SF08",
            "fips_alt": "SF08",
            "gadm_level": "1",
            "geonunit": "South Africa",
            "gn_a1_code": "ZA.08",
            "gn_id": "1085596",
            "gn_level": "1",
            "gn_name": "Province of Northern Cape",
            "gn_region": "",
            "gns_adm1": "SF08",
            "gns_id": "204231",
            "gns_lang": "khm",
            "gns_level": "1",
            "gns_name": "Northern Cape",
            "gns_region": "",
            "gu_a3": "ZAF",
            "hasc_maybe": "",
            "labelrank": "2",
            "mapcolor9": "4",
            "mapcolor13": "2",
            "max_label": "10.1",
            "min_label": "4.6",
            "min_zoom": "4.6",
            "name_ar": "\u00d9\u0083\u00d9\u008a\u00d8\u00a8 \u00d8\u00a7\u00d9\u0084\u00d8\u00b4\u00d9\u0085\u00d8\u00a7\u00d9\u0084\u00d9\u008a\u00d8\u00a9",
            "name_bn": "\u00e0\u00a6\u0089\u00e0\u00a6\u00a4\u00e0\u00a7\u008d\u00e0\u00a6\u00a4\u00e0\u00a6\u00b0 \u00e0\u00a6\u0095\u00e0\u00a7\u0087\u00e0\u00a6\u00aa \u00e0\u00a6\u00aa\u00e0\u00a7\u008d\u00e0\u00a6\u00b0\u00e0\u00a6\u00a6\u00e0\u00a7\u0087\u00e0\u00a6\u00b6",
            "name_de": "Nordkap",
            "name_el": "\u00ce\u0092\u00ce\u00bf\u00cf\u0081\u00ce\u00b5\u00ce\u00b9\u00cf\u008c\u00cf\u0084\u00ce\u00b5\u00cf\u0081\u00ce\u00bf \u00ce\u0091\u00ce\u00ba\u00cf\u0081\u00cf\u0089\u00cf\u0084\u00ce\u00ae\u00cf\u0081\u00ce\u00b9\u00ce\u00bf",
            "name_en": "Northern Cape",
            "name_es": "Provincia Septentrional del Cabo",
            "name_fr": "Cap du Nord",
            "name_hi": "\u00e0\u00a4\u0089\u00e0\u00a4\u00a4\u00e0\u00a5\u008d\u00e0\u00a4\u00a4\u00e0\u00a4\u00b0\u00e0\u00a5\u0080 \u00e0\u00a4\u0095\u00e0\u00a5\u0087\u00e0\u00a4\u00aa \u00e0\u00a4\u00aa\u00e0\u00a5\u008d\u00e0\u00a4\u00b0\u00e0\u00a4\u00be\u00e0\u00a4\u00a8\u00e0\u00a5\u008d\u00e0\u00a4\u00a4",
            "name_hu": "\u00c3\u0089szak-Fokf\u00c3\u00b6ld",
            "name_id": "Northern Cape",
            "name_it": "provincia del Capo Settentrionale",
            "name_ja": "\u00e5\u008c\u0097\u00e3\u0082\u00b1\u00e3\u0083\u00bc\u00e3\u0083\u0097\u00e5\u00b7\u009e",
            "name_ko": "\u00eb\u0085\u00b8\u00eb\u008d\u0098\u00ec\u00bc\u0080\u00ec\u009d\u00b4\u00ed\u0094\u0084 \u00ec\u00a3\u00bc",
            "name_len": "13",
            "name_local": "",
            "name_nl": "Noord-Kaap",
            "name_pl": "Prowincja Przyl\u00c4\u0085dkowa P\u00c3\u00b3\u00c5\u0082nocna",
            "name_pt": "Cabo Setentrional",
            "name_ru": "\u00d0\u00a1\u00d0\u00b5\u00d0\u00b2\u00d0\u00b5\u00d1\u0080\u00d0\u00be-\u00d0\u009a\u00d0\u00b0\u00d0\u00bf\u00d1\u0081\u00d0\u00ba\u00d0\u00b0\u00d1\u008f \u00d0\u00bf\u00d1\u0080\u00d0\u00be\u00d0\u00b2\u00d0\u00b8\u00d0\u00bd\u00d1\u0086\u00d0\u00b8\u00d1\u008f",
            "name_sv": "Norra Kapprovinsen",
            "name_tr": "Kuzey Kap",
            "name_vi": "B\u00e1\u00ba\u00afc Cape",
            "name_zh": "\u00e5\u008c\u0097\u00e9\u0096\u008b\u00e6\u0099\u00ae\u00e7\u009c\u0081",
            "ne_id": "1159309731",
            "note": "CSS 3, Formerly part of Cape of Good Hope",
            "provnum_ne": "4",
            "record_type": "state",
            "region": "",
            "region_cod": "",
            "region_sub": "",
            "sameascity": "-99",
            "scalerank": "2",
            "sov_a3": "ZAF",
            "sub_code": "",
            "wikidataid": "Q132418",
            "wikipedia": "",
            "woe_id": "2346985",
            "woe_label": "Northern Cape, ZA, South Africa",
            "woe_name": "Northern Cape"
        },
        "geo": {
            "latitude": -29.0466808,
            "longitude": 21.8568586,
            "max_latitude": -24.76586,
            "max_longitude": 25.54933,
            "min_latitude": -32.9449877,
            "min_longitude": 16.451941
        },
        "iso_3166_2": "ZA-NC",
        "iso_a2": "ZA",
        "iso_a3": "ZAF",
        "name": "Northern Cape",
        "postal": "NC",
        "type": "Provinsie",
        "type_en": "Province"
    },
    "NL": {
        "alt_names": [
            "Kwazulu-Natal"
        ],
        "cca2": "ZA",
        "cca3": "ZAF",
        "code_hasc": "ZA.NL",
        "extra": {
            "abbrev": "",
            "adm0_a3": "ZAF",
            "adm0_label": "2",
            "adm0_sr": "1",
            "adm1_code": "ZAF-1216",
            "admin": "South Africa",
            "area_sqkm": "0",
            "check_me": "20",
            "code_local": "",
            "data_sources": [
                "natural"
            ],
            "datarank": "3",
            "diss_me": "1216",
            "featurecla": "Admin-1 scale rank",
            "fips": "SF02",
            "fips_alt": "SF02",
            "gadm_level": "1",
            "geonunit": "South Africa",
            "gn_a1_code": "ZA.02",
            "gn_id": "972062",
            "gn_level": "1",
            "gn_name": "Province of KwaZulu-Natal",
            "gn_region": "",
            "gns_adm1": "SF02",
            "gns_id": "-1264758",
            "gns_lang": "por",
            "gns_level": "1",
            "gns_name": "KwaZulu-Natal",
            "gns_region": "",
            "gu_a3": "ZAF",
            "hasc_maybe": "",
            "labelrank": "2",
            "mapcolor9": "4",
            "mapcolor13": "2",
            "max_label": "10.1",
            "min_label": "4.6",
            "min_zoom": "4.6",
            "name_ar": "\u00d9\u0083\u00d9\u0088\u00d8\u00a7\u00d8\u00b2\u00d9\u0088\u00d9\u0084\u00d9\u0088 \u00d9\u0086\u00d8\u00a7\u00d8\u00aa\u00d8\u00a7\u00d9\u0084",
            "name_bn": "\u00e0\u00a6\u0095\u00e0\u00a7\u008b\u00e0\u00a6\u00af\u00e0\u00a6\u00bc\u00e0\u00a6\u00be-\u00e0\u00a6\u009c\u00e0\u00a7\u0081\u00e0\u00a6\u00b2\u00e0\u00a7\u0081 \u00e0\u00a6\u00a8\u00e0\u00a6\u00be\u00e0\u00a6\u009f\u00e0\u00a6\u00be\u00e0\u00a6\u00b2 \u00e0\u00a6\u00aa\u00e0\u00a7\u008d\u00e0\u00a6\u00b0\u00e0\u00a6\u00a6\u00e0\u00a7\u0087\u00e0\u00a6\u00b6",
            "name_de": "KwaZulu-Natal",
            "name_el": "\u00ce\u009d\u00ce\u00b1\u00cf\u0084\u00ce\u00ac\u00ce\u00bb",
            "name_en": "KwaZulu-Natal",
            "name_es": "KwaZulu-Natal",
            "name_fr": "KwaZulu-Natal",
            "name_hi": "\u00e0\u00a4\u0095\u00e0\u00a5\u008d\u00e0\u00a4\u00b5\u00e0\u00a4\u00be\u00e0\u00a4\u009c\u00e0\u00a4\u00bc\u00e0\u00a5\u0082\u00e0\u00a4\u00b2\u00e0\u00a5\u0082-\u00e0\u00a4\u00a8\u00e0\u00a4\u00a4\u00e0\u00a4\u00be\u00e0\u00a4\u00b2 \u00e0\u00a4\u00aa\u00e0\u00a5\u008d\u00e0\u00a4\u00b0\u00e0\u00a4\u00be\u00e0\u00a4\u00a8\u00e0\u00a5\u008d\u00e0\u00a4\u00a4",
            "name_hu": "KwaZulu-Natal",
            "name_id": "KwaZulu-Natal",
            "name_it": "KwaZulu-Natal",
            "name_ja": "\u00e3\u0082\u00af\u00e3\u0083\u00af\u00e3\u0082\u00ba\u00e3\u0083\u00bc\u00e3\u0083\u00ab\u00e3\u0083\u00bb\u00e3\u0083\u008a\u00e3\u0082\u00bf\u00e3\u0083\u00bc\u00e3\u0083\u00ab\u00e5\u00b7\u009e",
            "name_ko": "\u00ec\u00bd\u00b0\u00ec\u00a4\u0084\u00eb\u00a3\u00a8\u00eb\u0082\u0098\u00ed\u0083\u0088 \u00ec\u00a3\u00bc",
            "name_len": "13",
            "name_local": "",
            "name_nl": "KwaZoeloe-Natal",
            "name_pl": "KwaZulu-Natal",
            "name_pt": "KwaZulu-Natal",
            "name_ru": "\u00d0\u009a\u00d0\u00b2\u00d0\u00b0\u00d0\u00b7\u00d1\u0083\u00d0\u00bb\u00d1\u0083-\u00d0\u009d\u00d0\u00b0\u00d1\u0082\u00d0\u00b0\u00d0\u00bb",
            "name_sv": "KwaZulu-Natal",
            "name_tr": "KwaZulu-Natal",
            "name_vi": "KwaZulu-Natal",
            "name_zh": "\u00e5\u00a4\u00b8\u00e7\u00a5\u0096\u00e9\u00ad\u00af-\u00e7\u00b4\u008d\u00e5\u00a1\u0094\u00e7\u0088\u00be\u00e7\u009c\u0081",
            "ne_id": "1159309747",
            "note": "CSS 5, Formerly part of Natal, Cape of Good Hope",
            "provnum_ne": "3",
            "record_type": "state",
            "region": "",
            "region_cod": "",
            "region_sub": "",
            "sameascity": "-99",
            "scalerank": "2",
            "sov_a3": "ZAF",
            "sub_code": "",
            "wikidataid": "Q81725",
            "wikipedia": "",
            "woe_id": "2346982",
            "woe_label": "Kwazulu Natal, ZA, South Africa",
            "woe_name": "KwaZulu-Natal"
        },
        "geo": {
            "latitude": -28.5305539,
            "longitude": 30.8958242,
            "max_latitude": -26.80442,
            "max_longitude": 32.8909911,
            "min_latitude": -31.0853648,
            "min_longitude": 28.8734801
        },
        "iso_3166_2": "ZA-NL",
        "iso_a2": "ZA",
        "iso_a3": "ZAF",
        "name": "Kwazulu-Natal",
        "postal": "NL",
        "type": "Provinsie",
        "type_en": "Province"
    },
    "NW": {
        "alt_names": [
            "North-West"
        ],
        "cca2": "ZA",
        "cca3": "ZAF",
        "code_hasc": "ZA.NW",
        "extra": {
            "abbrev": "",
            "adm0_a3": "ZAF",
            "adm0_label": "2",
            "adm0_sr": "1",
            "adm1_code": "ZAF-1201",
            "admin": "South Africa",
            "area_sqkm": "0",
            "check_me": "20",
            "code_local": "",
            "data_sources": [
                "natural"
            ],
            "datarank": "3",
            "diss_me": "1201",
            "featurecla": "Admin-1 scale rank",
            "fips": "SF10",
            "fips_alt": "SF10",
            "gadm_level": "1",
            "geonunit": "South Africa",
            "gn_a1_code": "ZA.10",
            "gn_id": "1085598",
            "gn_level": "1",
            "gn_name": "Province of North-West",
            "gn_region": "",
            "gns_adm1": "SF10",
            "gns_id": "204239",
            "gns_lang": "khm",
            "gns_level": "1",
            "gns_name": "North-West",
            "gns_region": "",
            "gu_a3": "ZAF",
            "hasc_maybe": "",
            "labelrank": "2",
            "mapcolor9": "4",
            "mapcolor13": "2",
            "max_label": "10.1",
            "min_label": "4.6",
            "min_zoom": "4.6",
            "name_ar": "\u00d8\u00a7\u00d9\u0084\u00d8\u00b4\u00d9\u0085\u00d8\u00a7\u00d9\u0084\u00d9\u008a\u00d8\u00a9 \u00d8\u00a7\u00d9\u0084\u00d8\u00ba\u00d8\u00b1\u00d8\u00a8\u00d9\u008a\u00d8\u00a9",
            "name_bn": "\u00e0\u00a6\u0089\u00e0\u00a6\u00a4\u00e0\u00a7\u008d\u00e0\u00a6\u00a4\u00e0\u00a6\u00b0 \u00e0\u00a6\u00aa\u00e0\u00a6\u00b6\u00e0\u00a7\u008d\u00e0\u00a6\u009a\u00e0\u00a6\u00bf\u00e0\u00a6\u00ae \u00e0\u00a6\u00aa\u00e0\u00a7\u008d\u00e0\u00a6\u00b0\u00e0\u00a6\u00a6\u00e0\u00a7\u0087\u00e0\u00a6\u00b6",
            "name_de": "Nordwest",
            "name_el": "\u00ce\u0092\u00ce\u00bf\u00cf\u0081\u00ce\u00b5\u00ce\u00b9\u00ce\u00bf\u00ce\u00b4\u00cf\u0085\u00cf\u0084\u00ce\u00b9\u00ce\u00ba\u00ce\u00ae \u00ce\u00a0\u00ce\u00b5\u00cf\u0081\u00ce\u00b9\u00cf\u0086\u00ce\u00ad\u00cf\u0081\u00ce\u00b5\u00ce\u00b9\u00ce\u00b1",
            "name_en": "North West",
            "name_es": "Provincia del Noroeste",
            "name_fr": "Nord-Ouest",
            "name_hi": "\u00e0\u00a4\u00aa\u00e0\u00a4\u00b6\u00e0\u00a5\u008d\u00e0\u00a4\u009a\u00e0\u00a4\u00bf\u00e0\u00a4\u00ae\u00e0\u00a5\u008b\u00e0\u00a4\u00a4\u00e0\u00a5\u008d\u00e0\u00a4\u00a4\u00e0\u00a4\u00b0 \u00e0\u00a4\u00aa\u00e0\u00a5\u008d\u00e0\u00a4\u00b0\u00e0\u00a4\u00be\u00e0\u00a4\u00a8\u00e0\u00a5\u008d\u00e0\u00a4\u00a4",
            "name_hu": "",
            "name_id": "North West",
            "name_it": "provincia del Nordovest",
            "name_ja": "\u00e5\u008c\u0097\u00e8\u00a5\u00bf\u00e5\u00b7\u009e",
            "name_ko": "\u00eb\u0085\u00b8\u00ec\u008a\u00a4\u00ec\u009b\u00a8\u00ec\u008a\u00a4\u00ed\u008a\u00b8 \u00ec\u00a3\u00bc",
            "name_len": "10",
            "name_local": "",
            "name_nl": "Noordwest",
            "name_pl": "Prowincja P\u00c3\u00b3\u00c5\u0082nocno-Zachodnia",
            "name_pt": "Noroeste",
            "name_ru": "\u00d0\u00a1\u00d0\u00b5\u00d0\u00b2\u00d0\u00b5\u00d1\u0080\u00d0\u00be-\u00d0\u0097\u00d0\u00b0\u00d0\u00bf\u00d0\u00b0\u00d0\u00b4\u00d0\u00bd\u00d0\u00b0\u00d1\u008f \u00d0\u00bf\u00d1\u0080\u00d0\u00be\u00d0\u00b2\u00d0\u00b8\u00d0\u00bd\u00d1\u0086\u00d0\u00b8\u00d1\u008f",
            "name_sv": "Nordv\u00c3\u00a4stprovinsen",
            "name_tr": "Kuzeybat\u00c4\u00b1",
            "name_vi": "T\u00c3\u00a2y B\u00e1\u00ba\u00afc",
            "name_zh": "\u00e8\u00a5\u00bf\u00e5\u008c\u0097\u00e7\u009c\u0081",
            "ne_id": "1159309735",
            "note": "CSS 6, Formerly part of Transvaal, Cape of Good Hope",
            "provnum_ne": "9",
            "record_type": "state",
            "region": "",
            "region_cod": "",
            "region_sub": "",
            "sameascity": "-99",
            "scalerank": "2",
            "sov_a3": "ZAF",
            "sub_code": "",
            "wikidataid": "Q165956",
            "wikipedia": "",
            "woe_id": "2346984",
            "woe_label": "North-west, ZA, South Africa",
            "woe_name": "North West"
        },
        "geo": {
            "latitude": -26.6638599,
            "longitude": 25.2837585,
            "max_latitude": -24.6366288,
            "max_longitude": 28.2983488,
            "min_latitude": -28.112206,
            "min_longitude": 22.6290299
        },
        "iso_3166_2": "ZA-NW",
        "iso_a2": "ZA",
        "iso_a3": "ZAF",
        "name": "North-West",
        "postal": "NW",
        "type": "Provinsie",
        "type_en": "Province"
    },
    "WC": {
        "alt_names": [
            "Wes Kaap"
        ],
        "cca2": "ZA",
        "cca3": "ZAF",
        "code_hasc": "ZA.WC",
        "extra": {
            "abbrev": "",
            "adm0_a3": "ZAF",
            "adm0_label": "2",
            "adm0_sr": "1",
            "adm1_code": "ZAF-1189",
            "admin": "South Africa",
            "area_sqkm": "0",
            "check_me": "20",
            "code_local": "",
            "data_sources": [
                "natural"
            ],
            "datarank": "3",
            "diss_me": "1189",
            "featurecla": "Admin-1 scale rank",
            "fips": "SF11",
            "fips_alt": "SF11",
            "gadm_level": "1",
            "geonunit": "South Africa",
            "gn_a1_code": "ZA.11",
            "gn_id": "1085599",
            "gn_level": "1",
            "gn_name": "Province of the Western Cape",
            "gn_region": "",
            "gns_adm1": "SF11",
            "gns_id": "204245",
            "gns_lang": "khm",
            "gns_level": "1",
            "gns_name": "Western Cape",
            "gns_region": "",
            "gu_a3": "ZAF",
            "hasc_maybe": "",
            "labelrank": "2",
            "mapcolor9": "4",
            "mapcolor13": "2",
            "max_label": "10.1",
            "min_label": "4.6",
            "min_zoom": "4.6",
            "name_ar": "\u00d9\u0083\u00d9\u008a\u00d8\u00a8 \u00d8\u00a7\u00d9\u0084\u00d8\u00ba\u00d8\u00b1\u00d8\u00a8\u00d9\u008a\u00d8\u00a9",
            "name_bn": "\u00e0\u00a6\u00aa\u00e0\u00a6\u00b6\u00e0\u00a7\u008d\u00e0\u00a6\u009a\u00e0\u00a6\u00bf\u00e0\u00a6\u00ae \u00e0\u00a6\u0095\u00e0\u00a7\u0087\u00e0\u00a6\u00aa \u00e0\u00a6\u00aa\u00e0\u00a7\u008d\u00e0\u00a6\u00b0\u00e0\u00a6\u00a6\u00e0\u00a7\u0087\u00e0\u00a6\u00b6",
            "name_de": "Westkap",
            "name_el": "\u00ce\u0094\u00cf\u0085\u00cf\u0084\u00ce\u00b9\u00ce\u00ba\u00cf\u008c\u00cf\u0084\u00ce\u00b5\u00cf\u0081\u00ce\u00bf \u00ce\u0091\u00ce\u00ba\u00cf\u0081\u00cf\u0089\u00cf\u0084\u00ce\u00ae\u00cf\u0081\u00ce\u00b9\u00ce\u00bf",
            "name_en": "Western Cape",
            "name_es": "Provincia Occidental del Cabo",
            "name_fr": "Cap occidental",
            "name_hi": "\u00e0\u00a4\u00aa\u00e0\u00a4\u00b6\u00e0\u00a5\u008d\u00e0\u00a4\u009a\u00e0\u00a4\u00bf\u00e0\u00a4\u00ae\u00e0\u00a5\u0080 \u00e0\u00a4\u0095\u00e0\u00a5\u0087\u00e0\u00a4\u00aa \u00e0\u00a4\u00aa\u00e0\u00a5\u008d\u00e0\u00a4\u00b0\u00e0\u00a4\u00be\u00e0\u00a4\u00a8\u00e0\u00a5\u008d\u00e0\u00a4\u00a4",
            "name_hu": "",
            "name_id": "Western Cape",
            "name_it": "provincia del Capo Occidentale",
            "name_ja": "\u00e8\u00a5\u00bf\u00e3\u0082\u00b1\u00e3\u0083\u00bc\u00e3\u0083\u0097\u00e5\u00b7\u009e",
            "name_ko": "\u00ec\u009b\u00a8\u00ec\u008a\u00a4\u00ed\u0084\u00b4\u00ec\u00bc\u0080\u00ec\u009d\u00b4\u00ed\u0094\u0084 \u00ec\u00a3\u00bc",
            "name_len": "12",
            "name_local": "",
            "name_nl": "West-Kaap",
            "name_pl": "Prowincja Przyl\u00c4\u0085dkowa Zachodnia",
            "name_pt": "Cabo Ocidental",
            "name_ru": "\u00d0\u0097\u00d0\u00b0\u00d0\u00bf\u00d0\u00b0\u00d0\u00b4\u00d0\u00bd\u00d0\u00be-\u00d0\u009a\u00d0\u00b0\u00d0\u00bf\u00d1\u0081\u00d0\u00ba\u00d0\u00b0\u00d1\u008f \u00d0\u00bf\u00d1\u0080\u00d0\u00be\u00d0\u00b2\u00d0\u00b8\u00d0\u00bd\u00d1\u0086\u00d0\u00b8\u00d1\u008f",
            "name_sv": "V\u00c3\u00a4stra Kapprovinsen",
            "name_tr": "Bat\u00c4\u00b1 Kap",
            "name_vi": "T\u00c3\u00a2y Cape",
            "name_zh": "\u00e8\u00a5\u00bf\u00e9\u0096\u008b\u00e6\u0099\u00ae\u00e7\u009c\u0081",
            "ne_id": "1159309733",
            "note": "CSS 1, Formerly part of Cape of Good Hope",
            "provnum_ne": "2",
            "record_type": "state",
            "region": "",
            "region_cod": "",
            "region_sub": "",
            "sameascity": "-99",
            "scalerank": "2",
            "sov_a3": "ZAF",
            "sub_code": "",
            "wikidataid": "Q127167",
            "wikipedia": "",
            "woe_id": "2346987",
            "woe_label": "Western Cape, ZA, South Africa",
            "woe_name": "Western Cape"
        },
        "geo": {
            "latitude": -33.2277918,
            "longitude": 21.8568586,
            "max_latitude": -30.4302599,
            "max_longitude": 24.22241,
            "min_latitude": -34.8330058,
            "min_longitude": 17.7575637
        },
        "iso_3166_2": "ZA-WC",
        "iso_a2": "ZA",
        "iso_a3": "ZAF",
        "name": "Western Cape",
        "postal": "WC",
        "type": "Provinsie",
        "type_en": "Province"
    }
}