{
    "01": {
        "alt_names": [
            "Western"
        ],
        "cca2": "ZM",
        "cca3": "ZMB",
        "code_hasc": "ZM.WE",
        "extra": {
            "abbrev": "",
            "adm0_a3": "ZMB",
            "adm0_label": "2",
            "adm0_sr": "1",
            "adm1_code": "ZMB-523",
            "admin": "Zambia",
            "area_sqkm": "0",
            "check_me": "0",
            "code_local": "",
            "data_sources": [
                "natural"
            ],
            "datarank": "6",
            "diss_me": "523",
            "featurecla": "Admin-1 scale rank",
            "fips": "ZA01",
            "fips_alt": "",
            "gadm_level": "1",
            "geonunit": "Zambia",
            "gn_a1_code": "ZM.01",
            "gn_id": "896140",
            "gn_level": "1",
            "gn_name": "Western Province",
            "gn_region": "",
            "gns_adm1": "ZA01",
            "gns_id": "-2306181",
            "gns_lang": "eng",
            "gns_level": "1",
            "gns_name": "Western",
            "gns_region": "",
            "gu_a3": "ZMB",
            "hasc_maybe": "",
            "labelrank": "4",
            "mapcolor9": "5",
            "mapcolor13": "13",
            "max_label": "11.0",
            "min_label": "6.6",
            "min_zoom": "6.6",
            "name_ar": "\u00d8\u00a7\u00d9\u0084\u00d9\u0085\u00d8\u00ad\u00d8\u00a7\u00d9\u0081\u00d8\u00b8\u00d8\u00a9 \u00d8\u00a7\u00d9\u0084\u00d8\u00ba\u00d8\u00b1\u00d8\u00a8\u00d9\u008a\u00d8\u00a9\u00d8\u008c \u00d8\u00b2\u00d8\u00a7\u00d9\u0085\u00d8\u00a8\u00d9\u008a\u00d8\u00a7",
            "name_bn": "\u00e0\u00a6\u0093\u00e0\u00a6\u00af\u00e0\u00a6\u00bc\u00e0\u00a7\u0087\u00e0\u00a6\u00b8\u00e0\u00a7\u008d\u00e0\u00a6\u009f\u00e0\u00a6\u00be\u00e0\u00a6\u00b0\u00e0\u00a7\u008d\u00e0\u00a6\u00a8 \u00e0\u00a6\u00aa\u00e0\u00a7\u008d\u00e0\u00a6\u00b0\u00e0\u00a6\u00a6\u00e0\u00a7\u0087\u00e0\u00a6\u00b6",
            "name_de": "Westprovinz",
            "name_el": "\u00ce\u0094\u00cf\u0085\u00cf\u0084\u00ce\u00b9\u00ce\u00ba\u00ce\u00ae \u00ce\u0095\u00cf\u0080\u00ce\u00b1\u00cf\u0081\u00cf\u0087\u00ce\u00af\u00ce\u00b1",
            "name_en": "Western Province",
            "name_es": "Provincia del Oeste",
            "name_fr": "Province Occidentale",
            "name_hi": "\u00e0\u00a4\u00aa\u00e0\u00a4\u00b6\u00e0\u00a5\u008d\u00e0\u00a4\u009a\u00e0\u00a4\u00bf\u00e0\u00a4\u00ae\u00e0\u00a5\u0080 \u00e0\u00a4\u00aa\u00e0\u00a5\u008d\u00e0\u00a4\u00b0\u00e0\u00a4\u00be\u00e0\u00a4\u0082\u00e0\u00a4\u00a4",
            "name_hu": "",
            "name_id": "Provinsi Barat",
            "name_it": "provincia Occidentale",
            "name_ja": "\u00e8\u00a5\u00bf\u00e9\u0083\u00a8\u00e5\u00b7\u009e",
            "name_ko": "\u00ec\u0084\u009c\u00eb\u00b6\u0080 \u00ec\u00a3\u00bc",
            "name_len": "7",
            "name_local": "",
            "name_nl": "Western",
            "name_pl": "Prowincja Zachodnia",
            "name_pt": "Prov\u00c3\u00adncia Ocidental",
            "name_ru": "\u00d0\u0097\u00d0\u00b0\u00d0\u00bf\u00d0\u00b0\u00d0\u00b4\u00d0\u00bd\u00d0\u00b0\u00d1\u008f \u00d0\u00bf\u00d1\u0080\u00d0\u00be\u00d0\u00b2\u00d0\u00b8\u00d0\u00bd\u00d1\u0086\u00d0\u00b8\u00d1\u008f",
            "name_sv": "Western",
            "name_tr": "Bat\u00c4\u00b1 B\u00c3\u00b6lgesi",
            "name_vi": "T\u00e1\u00bb\u0089nh Ph\u00c3\u00ada T\u00c3\u00a2y",
            "name_zh": "\u00e8\u00a5\u00bf\u00e6\u0096\u00b9\u00e7\u009c\u0081",
            "ne_id": "1159307895",
            "note": "",
            "provnum_ne": "2",
            "record_type": "state",
            "region": "",
            "region_cod": "",
            "region_sub": "",
            "sameascity": "-99",
            "scalerank": "4",
            "sov_a3": "ZMB",
            "sub_code": "",
            "wikidataid": "Q748486",
            "wikipedia": "",
            "woe_id": "2347803",
            "woe_label": "Western, ZM, Zambia",
            "woe_name": "Western"
        },
        "geo": {
            "latitude": -15.9454906,
            "longitude": 23.3823545,
            "max_latitude": -13.709041,
            "max_longitude": 25.52071,
            "min_latitude": -17.6392799,
            "min_longitude": 21.999371
        },
        "iso_3166_2": "ZM-01",
        "iso_a2": "ZM",
        "iso_a3": "ZMB",
        "name": "Western",
        "postal": "01",
        "type": "Province",
        "type_en": "Province"
    },
    "02": {
        "alt_names": [
            "Central"
        ],
        "cca2": "ZM",
        "cca3": "ZMB",
        "code_hasc": "ZM.CE",
        "extra": {
            "abbrev": "",
            "adm0_a3": "ZMB",
            "adm0_label": "2",
            "adm0_sr": "1",
            "adm1_code": "ZMB-516",
            "admin": "Zambia",
            "area_sqkm": "0",
            "check_me": "0",
            "code_local": "",
            "data_sources": [
                "natural"
            ],
            "datarank": "6",
            "diss_me": "516",
            "featurecla": "Admin-1 scale rank",
            "fips": "ZA02",
            "fips_alt": "",
            "gadm_level": "1",
            "geonunit": "Zambia",
            "gn_a1_code": "ZM.02",
            "gn_id": "921064",
            "gn_level": "1",
            "gn_name": "Central Province",
            "gn_region": "",
            "gns_adm1": "ZA02",
            "gns_id": "-2278356",
            "gns_lang": "eng",
            "gns_level": "1",
            "gns_name": "Central",
            "gns_region": "",
            "gu_a3": "ZMB",
            "hasc_maybe": "",
            "labelrank": "4",
            "mapcolor9": "5",
            "mapcolor13": "13",
            "max_label": "11.0",
            "min_label": "6.6",
            "min_zoom": "6.6",
            "name_ar": "\u00d8\u00a7\u00d9\u0084\u00d9\u0085\u00d8\u00ad\u00d8\u00a7\u00d9\u0081\u00d8\u00b8\u00d8\u00a9 \u00d8\u00a7\u00d9\u0084\u00d9\u0088\u00d8\u00b3\u00d8\u00b7\u00d9\u0089\u00d8\u008c \u00d8\u00b2\u00d8\u00a7\u00d9\u0085\u00d8\u00a8\u00d9\u008a\u00d8\u00a7",
            "name_bn": "\u00e0\u00a6\u00b8\u00e0\u00a7\u0087\u00e0\u00a6\u00a8\u00e0\u00a7\u008d\u00e0\u00a6\u009f\u00e0\u00a7\u008d\u00e0\u00a6\u00b0\u00e0\u00a6\u00be\u00e0\u00a6\u00b2 \u00e0\u00a6\u00aa\u00e0\u00a7\u008d\u00e0\u00a6\u00b0\u00e0\u00a6\u00a6\u00e0\u00a7\u0087\u00e0\u00a6\u00b6",
            "name_de": "Zentralprovinz",
            "name_el": "\u00ce\u009a\u00ce\u00b5\u00ce\u00bd\u00cf\u0084\u00cf\u0081\u00ce\u00b9\u00ce\u00ba\u00ce\u00ae \u00ce\u0095\u00cf\u0080\u00ce\u00b1\u00cf\u0081\u00cf\u0087\u00ce\u00af\u00ce\u00b1",
            "name_en": "Central Province",
            "name_es": "Provincia Central",
            "name_fr": "Province Centrale",
            "name_hi": "\u00e0\u00a4\u0095\u00e0\u00a5\u0087\u00e0\u00a4\u0082\u00e0\u00a4\u00a6\u00e0\u00a5\u008d\u00e0\u00a4\u00b0\u00e0\u00a5\u0080\u00e0\u00a4\u00af \u00e0\u00a4\u00aa\u00e0\u00a5\u008d\u00e0\u00a4\u00b0\u00e0\u00a4\u00be\u00e0\u00a4\u0082\u00e0\u00a4\u00a4",
            "name_hu": "",
            "name_id": "Provinsi Central",
            "name_it": "provincia Centrale",
            "name_ja": "\u00e4\u00b8\u00ad\u00e5\u00a4\u00ae\u00e5\u00b7\u009e",
            "name_ko": "\u00ec\u00a4\u0091\u00eb\u00b6\u0080 \u00ec\u00a3\u00bc",
            "name_len": "7",
            "name_local": "",
            "name_nl": "Central",
            "name_pl": "Prowincja Centralna",
            "name_pt": "Prov\u00c3\u00adncia Central",
            "name_ru": "\u00d0\u00a6\u00d0\u00b5\u00d0\u00bd\u00d1\u0082\u00d1\u0080\u00d0\u00b0\u00d0\u00bb\u00d1\u008c\u00d0\u00bd\u00d0\u00b0\u00d1\u008f \u00d0\u00bf\u00d1\u0080\u00d0\u00be\u00d0\u00b2\u00d0\u00b8\u00d0\u00bd\u00d1\u0086\u00d0\u00b8\u00d1\u008f",
            "name_sv": "Central",
            "name_tr": "Merkez B\u00c3\u00b6lgesi",
            "name_vi": "T\u00e1\u00bb\u0089nh Mi\u00e1\u00bb\u0081n Trung",
            "name_zh": "\u00e4\u00b8\u00ad\u00e5\u00a4\u00ae\u00e7\u009c\u0081",
            "ne_id": "1159307881",
            "note": "",
            "provnum_ne": "10",
            "record_type": "state",
            "region": "",
            "region_cod": "",
            "region_sub": "",
            "sameascity": "-99",
            "scalerank": "4",
            "sov_a3": "ZMB",
            "sub_code": "",
            "wikidataid": "Q190718",
            "wikipedia": "",
            "woe_id": "2347805",
            "woe_label": "Central, ZM, Zambia",
            "woe_name": "Central"
        },
        "geo": {
            "latitude": -14.3112263,
            "longitude": 28.299435,
            "max_latitude": -12.0036589,
            "max_longitude": 31.4494591,
            "min_latitude": -15.7121141,
            "min_longitude": 25.350383
        },
        "iso_3166_2": "ZM-02",
        "iso_a2": "ZM",
        "iso_a3": "ZMB",
        "name": "Central",
        "postal": "02",
        "type": "Province",
        "type_en": "Province"
    },
    "03": {
        "alt_names": [
            "Eastern"
        ],
        "cca2": "ZM",
        "cca3": "ZMB",
        "code_hasc": "ZM.ES",
        "extra": {
            "abbrev": "",
            "adm0_a3": "ZMB",
            "adm0_label": "2",
            "adm0_sr": "1",
            "adm1_code": "ZMB-518",
            "admin": "Zambia",
            "area_sqkm": "0",
            "check_me": "0",
            "code_local": "",
            "data_sources": [
                "natural"
            ],
            "datarank": "6",
            "diss_me": "518",
            "featurecla": "Admin-1 scale rank",
            "fips": "ZA03",
            "fips_alt": "",
            "gadm_level": "1",
            "geonunit": "Zambia",
            "gn_a1_code": "ZM.03",
            "gn_id": "917388",
            "gn_level": "1",
            "gn_name": "Eastern Province",
            "gn_region": "",
            "gns_adm1": "ZA03",
            "gns_id": "-2282596",
            "gns_lang": "eng",
            "gns_level": "1",
            "gns_name": "Eastern",
            "gns_region": "",
            "gu_a3": "ZMB",
            "hasc_maybe": "",
            "labelrank": "4",
            "mapcolor9": "5",
            "mapcolor13": "13",
            "max_label": "11.0",
            "min_label": "6.6",
            "min_zoom": "6.6",
            "name_ar": "\u00d8\u00a7\u00d9\u0084\u00d9\u0085\u00d8\u00ad\u00d8\u00a7\u00d9\u0081\u00d8\u00b8\u00d8\u00a9 \u00d8\u00a7\u00d9\u0084\u00d8\u00b4\u00d8\u00b1\u00d9\u0082\u00d9\u008a\u00d8\u00a9\u00d8\u008c \u00d8\u00b2\u00d8\u00a7\u00d9\u0085\u00d8\u00a8\u00d9\u008a\u00d8\u00a7",
            "name_bn": "\u00e0\u00a6\u0087\u00e0\u00a6\u00b8\u00e0\u00a7\u008d\u00e0\u00a6\u009f\u00e0\u00a6\u00be\u00e0\u00a6\u00b0\u00e0\u00a7\u008d\u00e0\u00a6\u00a8 \u00e0\u00a6\u00aa\u00e0\u00a7\u008d\u00e0\u00a6\u00b0\u00e0\u00a6\u00a6\u00e0\u00a7\u0087\u00e0\u00a6\u00b6",
            "name_de": "Ostprovinz",
            "name_el": "\u00ce\u0091\u00ce\u00bd\u00ce\u00b1\u00cf\u0084\u00ce\u00bf\u00ce\u00bb\u00ce\u00b9\u00ce\u00ba\u00ce\u00ae \u00ce\u0095\u00cf\u0080\u00ce\u00b1\u00cf\u0081\u00cf\u0087\u00ce\u00af\u00ce\u00b1",
            "name_en": "Eastern Province",
            "name_es": "Provincia del Este",
            "name_fr": "Province orientale",
            "name_hi": "\u00e0\u00a4\u00aa\u00e0\u00a5\u0082\u00e0\u00a4\u00b0\u00e0\u00a5\u008d\u00e0\u00a4\u00b5\u00e0\u00a5\u0080 \u00e0\u00a4\u00aa\u00e0\u00a5\u008d\u00e0\u00a4\u00b0\u00e0\u00a4\u00be\u00e0\u00a4\u0082\u00e0\u00a4\u00a4",
            "name_hu": "",
            "name_id": "Provinsi Timur",
            "name_it": "Zambia orientale",
            "name_ja": "\u00e6\u009d\u00b1\u00e9\u0083\u00a8\u00e5\u00b7\u009e",
            "name_ko": "\u00eb\u008f\u0099\u00eb\u00b6\u0080 \u00ec\u00a3\u00bc",
            "name_len": "7",
            "name_local": "",
            "name_nl": "Eastern",
            "name_pl": "Prowincja Wschodnia",
            "name_pt": "Prov\u00c3\u00adncia Oriental",
            "name_ru": "\u00d0\u0092\u00d0\u00be\u00d1\u0081\u00d1\u0082\u00d0\u00be\u00d1\u0087\u00d0\u00bd\u00d0\u00b0\u00d1\u008f \u00d0\u0097\u00d0\u00b0\u00d0\u00bc\u00d0\u00b1\u00d0\u00b8\u00d1\u008f",
            "name_sv": "Eastern",
            "name_tr": "Do\u00c4\u009fu B\u00c3\u00b6lgesi",
            "name_vi": "T\u00e1\u00bb\u0089nh Ph\u00c3\u00ada \u00c4\u0090\u00c3\u00b4ng",
            "name_zh": "\u00e4\u00b8\u009c\u00e6\u0096\u00b9\u00e7\u009c\u0081",
            "ne_id": "1159307887",
            "note": "",
            "provnum_ne": "5",
            "record_type": "state",
            "region": "",
            "region_cod": "",
            "region_sub": "",
            "sameascity": "-99",
            "scalerank": "4",
            "sov_a3": "ZMB",
            "sub_code": "",
            "wikidataid": "Q823810",
            "wikipedia": "",
            "woe_id": "2347806",
            "woe_label": "Eastern, ZM, Zambia",
            "woe_name": "Eastern"
        },
        "geo": {
            "latitude": -13.8056187,
            "longitude": 31.9928078,
            "max_latitude": -10.3251301,
            "max_longitude": 33.6895011,
            "min_latitude": -14.997233,
            "min_longitude": 29.9865299
        },
        "iso_3166_2": "ZM-03",
        "iso_a2": "ZM",
        "iso_a3": "ZMB",
        "name": "Eastern",
        "postal": "03",
        "type": "Province",
        "type_en": "Province"
    },
    "04": {
        "alt_names": [
            "Luapula"
        ],
        "cca2": "ZM",
        "cca3": "ZMB",
        "code_hasc": "ZM.LP",
        "extra": {
            "abbrev": "",
            "adm0_a3": "ZMB",
            "adm0_label": "2",
            "adm0_sr": "1",
            "adm1_code": "ZMB-514",
            "admin": "Zambia",
            "area_sqkm": "0",
            "check_me": "0",
            "code_local": "",
            "data_sources": [
                "natural"
            ],
            "datarank": "6",
            "diss_me": "514",
            "featurecla": "Admin-1 scale rank",
            "fips": "ZA04",
            "fips_alt": "",
            "gadm_level": "1",
            "geonunit": "Zambia",
            "gn_a1_code": "ZM.04",
            "gn_id": "909845",
            "gn_level": "1",
            "gn_name": "Luapula Province",
            "gn_region": "",
            "gns_adm1": "ZA04",
            "gns_id": "-2291074",
            "gns_lang": "eng",
            "gns_level": "1",
            "gns_name": "Luapula",
            "gns_region": "",
            "gu_a3": "ZMB",
            "hasc_maybe": "",
            "labelrank": "4",
            "mapcolor9": "5",
            "mapcolor13": "13",
            "max_label": "11.0",
            "min_label": "6.6",
            "min_zoom": "6.6",
            "name_ar": "\u00d9\u0084\u00d9\u0088\u00d8\u00a7\u00d8\u00a8\u00d9\u0088\u00d9\u0084\u00d8\u00a7",
            "name_bn": "\u00e0\u00a6\u00b2\u00e0\u00a7\u0081\u00e0\u00a6\u00af\u00e0\u00a6\u00bc\u00e0\u00a6\u00be\u00e0\u00a6\u00aa\u00e0\u00a7\u0081\u00e0\u00a6\u00b2\u00e0\u00a6\u00be \u00e0\u00a6\u00aa\u00e0\u00a7\u008d\u00e0\u00a6\u00b0\u00e0\u00a6\u00a6\u00e0\u00a7\u0087\u00e0\u00a6\u00b6",
            "name_de": "Luapula",
            "name_el": "\u00ce\u009b\u00ce\u00bf\u00cf\u0085\u00ce\u00b1\u00cf\u0080\u00ce\u00bf\u00cf\u008d\u00ce\u00bb\u00ce\u00b1",
            "name_en": "Luapula Province",
            "name_es": "Provincia de Luapula",
            "name_fr": "Province de Luapula",
            "name_hi": "\u00e0\u00a4\u00b2\u00e0\u00a5\u0081\u00e0\u00a4\u0086\u00e0\u00a4\u00aa\u00e0\u00a4\u00b2\u00e0\u00a4\u00be \u00e0\u00a4\u00aa\u00e0\u00a5\u008d\u00e0\u00a4\u00b0\u00e0\u00a4\u00be\u00e0\u00a4\u0082\u00e0\u00a4\u00a4",
            "name_hu": "",
            "name_id": "Provinsi Luapula",
            "name_it": "provincia di Luapula",
            "name_ja": "\u00e3\u0083\u00ab\u00e3\u0082\u00a2\u00e3\u0083\u0097\u00e3\u0083\u00a9\u00e5\u00b7\u009e",
            "name_ko": "\u00eb\u00a3\u00a8\u00ec\u0095\u0084\u00ed\u0092\u0080\u00eb\u009d\u00bc \u00ec\u00a3\u00bc",
            "name_len": "7",
            "name_local": "",
            "name_nl": "Luapula",
            "name_pl": "Prowincja Luapula",
            "name_pt": "Luapula",
            "name_ru": "\u00d0\u009b\u00d1\u0083\u00d0\u00b0\u00d0\u00bf\u00d1\u0083\u00d0\u00bb\u00d0\u00b0",
            "name_sv": "Luapula",
            "name_tr": "Luapula B\u00c3\u00b6lgesi",
            "name_vi": "T\u00e1\u00bb\u0089nh Luapula",
            "name_zh": "\u00e5\u008d\u00a2\u00e9\u0098\u00bf\u00e6\u0099\u00ae\u00e6\u008b\u0089\u00e7\u009c\u0081",
            "ne_id": "1159307877",
            "note": "",
            "provnum_ne": "8",
            "record_type": "state",
            "region": "",
            "region_cod": "",
            "region_sub": "",
            "sameascity": "-99",
            "scalerank": "4",
            "sov_a3": "ZMB",
            "sub_code": "",
            "wikidataid": "Q386667",
            "wikipedia": "",
            "woe_id": "2347808",
            "woe_label": "Luapula, ZM, Zambia",
            "woe_name": "Luapula"
        },
        "geo": {
            "latitude": -11.564831,
            "longitude": 29.0459927,
            "max_latitude": -8.3756929,
            "max_longitude": 30.466128,
            "min_latitude": -12.471966,
            "min_longitude": 28.3809699
        },
        "iso_3166_2": "ZM-04",
        "iso_a2": "ZM",
        "iso_a3": "ZMB",
        "name": "Luapula",
        "postal": "04",
        "type": "Province",
        "type_en": "Province"
    },
    "05": {
        "alt_names": [
            "Northern"
        ],
        "cca2": "ZM",
        "cca3": "ZMB",
        "code_hasc": "ZM.NR",
        "extra": {
            "abbrev": "",
            "adm0_a3": "ZMB",
            "adm0_label": "2",
            "adm0_sr": "1",
            "adm1_code": "ZMB-515",
            "admin": "Zambia",
            "area_sqkm": "0",
            "check_me": "0",
            "code_local": "",
            "data_sources": [
                "natural"
            ],
            "datarank": "6",
            "diss_me": "515",
            "featurecla": "Admin-1 scale rank",
            "fips": "ZA05",
            "fips_alt": "",
            "gadm_level": "1",
            "geonunit": "Zambia",
            "gn_a1_code": "ZM.05",
            "gn_id": "900601",
            "gn_level": "1",
            "gn_name": "Northern Province",
            "gn_region": "",
            "gns_adm1": "ZA05",
            "gns_id": "-2301341",
            "gns_lang": "eng",
            "gns_level": "1",
            "gns_name": "Northern",
            "gns_region": "",
            "gu_a3": "ZMB",
            "hasc_maybe": "",
            "labelrank": "4",
            "mapcolor9": "5",
            "mapcolor13": "13",
            "max_label": "11.0",
            "min_label": "6.6",
            "min_zoom": "6.6",
            "name_ar": "\u00d8\u00a7\u00d9\u0084\u00d9\u0085\u00d8\u00ad\u00d8\u00a7\u00d9\u0081\u00d8\u00b8\u00d8\u00a9 \u00d8\u00a7\u00d9\u0084\u00d8\u00b4\u00d9\u0085\u00d8\u00a7\u00d9\u0084\u00d9\u008a\u00d8\u00a9\u00d8\u008c \u00d8\u00b2\u00d8\u00a7\u00d9\u0085\u00d8\u00a8\u00d9\u008a\u00d8\u00a7",
            "name_bn": "\u00e0\u00a6\u00a8\u00e0\u00a6\u00b0\u00e0\u00a7\u008d\u00e0\u00a6\u00a6\u00e0\u00a6\u00be\u00e0\u00a6\u00a8 \u00e0\u00a6\u00aa\u00e0\u00a7\u008d\u00e0\u00a6\u00b0\u00e0\u00a6\u00a6\u00e0\u00a7\u0087\u00e0\u00a6\u00b6",
            "name_de": "Nordprovinz",
            "name_el": "\u00ce\u0092\u00cf\u008c\u00cf\u0081\u00ce\u00b5\u00ce\u00b9\u00ce\u00b1 \u00ce\u0095\u00cf\u0080\u00ce\u00b1\u00cf\u0081\u00cf\u0087\u00ce\u00af\u00ce\u00b1",
            "name_en": "Northern Province",
            "name_es": "Provincia del Norte",
            "name_fr": "Province Septentrionale",
            "name_hi": "\u00e0\u00a4\u0089\u00e0\u00a4\u00a4\u00e0\u00a5\u008d\u00e0\u00a4\u00a4\u00e0\u00a4\u00b0\u00e0\u00a5\u0080 \u00e0\u00a4\u00aa\u00e0\u00a5\u008d\u00e0\u00a4\u00b0\u00e0\u00a4\u00be\u00e0\u00a4\u0082\u00e0\u00a4\u00a4",
            "name_hu": "",
            "name_id": "Provinsi Utara",
            "name_it": "provincia Settentrionale",
            "name_ja": "\u00e5\u008c\u0097\u00e9\u0083\u00a8\u00e5\u00b7\u009e",
            "name_ko": "\u00eb\u00b6\u0081\u00eb\u00b6\u0080 \u00ec\u00a3\u00bc",
            "name_len": "8",
            "name_local": "",
            "name_nl": "Northern",
            "name_pl": "Prowincja P\u00c3\u00b3\u00c5\u0082nocna",
            "name_pt": "Prov\u00c3\u00adncia do Norte",
            "name_ru": "\u00d0\u00a1\u00d0\u00b5\u00d0\u00b2\u00d0\u00b5\u00d1\u0080\u00d0\u00bd\u00d0\u00b0\u00d1\u008f \u00d0\u00bf\u00d1\u0080\u00d0\u00be\u00d0\u00b2\u00d0\u00b8\u00d0\u00bd\u00d1\u0086\u00d0\u00b8\u00d1\u008f",
            "name_sv": "Northern",
            "name_tr": "Kuzey B\u00c3\u00b6lgesi",
            "name_vi": "T\u00e1\u00bb\u0089nh Ph\u00c3\u00ada B\u00e1\u00ba\u00afc",
            "name_zh": "\u00e5\u008c\u0097\u00e6\u0096\u00b9\u00e7\u009c\u0081",
            "ne_id": "1159307879",
            "note": "",
            "provnum_ne": "4",
            "record_type": "state",
            "region": "",
            "region_cod": "",
            "region_sub": "",
            "sameascity": "-99",
            "scalerank": "4",
            "sov_a3": "ZMB",
            "sub_code": "",
            "wikidataid": "Q778738",
            "wikipedia": "",
            "woe_id": "2347807",
            "woe_label": "Northern, ZM, Zambia",
            "woe_name": "Northern"
        },
        "geo": {
            "latitude": -9.7670177,
            "longitude": 30.8958242,
            "max_latitude": -8.251887,
            "max_longitude": 33.705704,
            "min_latitude": -13.4275721,
            "min_longitude": 29.10338
        },
        "iso_3166_2": "ZM-05",
        "iso_a2": "ZM",
        "iso_a3": "ZMB",
        "name": "Northern",
        "postal": "05",
        "type": "Province",
        "type_en": "Province"
    },
    "06": {
        "alt_names": [
            "North-Western"
        ],
        "cca2": "ZM",
        "cca3": "ZMB",
        "code_hasc": "ZM.NW",
        "extra": {
            "abbrev": "",
            "adm0_a3": "ZMB",
            "adm0_label": "2",
            "adm0_sr": "1",
            "adm1_code": "ZMB-521",
            "admin": "Zambia",
            "area_sqkm": "0",
            "check_me": "0",
            "code_local": "",
            "data_sources": [
                "natural"
            ],
            "datarank": "6",
            "diss_me": "521",
            "featurecla": "Admin-1 scale rank",
            "fips": "ZA06",
            "fips_alt": "",
            "gadm_level": "1",
            "geonunit": "Zambia",
            "gn_a1_code": "ZM.06",
            "gn_id": "900594",
            "gn_level": "1",
            "gn_name": "North-Western Province",
            "gn_region": "",
            "gns_adm1": "ZA06",
            "gns_id": "-2301348",
            "gns_lang": "eng",
            "gns_level": "1",
            "gns_name": "North-Western",
            "gns_region": "",
            "gu_a3": "ZMB",
            "hasc_maybe": "",
            "labelrank": "4",
            "mapcolor9": "5",
            "mapcolor13": "13",
            "max_label": "11.0",
            "min_label": "6.6",
            "min_zoom": "6.6",
            "name_ar": "\u00d8\u00a7\u00d9\u0084\u00d9\u0085\u00d8\u00ad\u00d8\u00a7\u00d9\u0081\u00d8\u00b8\u00d8\u00a9 \u00d8\u00a7\u00d9\u0084\u00d8\u00b4\u00d9\u0085\u00d8\u00a7\u00d9\u0084\u00d9\u008a\u00d8\u00a9 \u00d8\u00a7\u00d9\u0084\u00d8\u00ba\u00d8\u00b1\u00d8\u00a8\u00d9\u008a\u00d8\u00a9\u00d8\u008c \u00d8\u00b2\u00d8\u00a7\u00d9\u0085\u00d8\u00a8\u00d9\u008a\u00d8\u00a7",
            "name_bn": "\u00e0\u00a6\u00a8\u00e0\u00a6\u00b0\u00e0\u00a7\u008d\u00e0\u00a6\u00a5-\u00e0\u00a6\u0093\u00e0\u00a6\u00af\u00e0\u00a6\u00bc\u00e0\u00a7\u0087\u00e0\u00a6\u00b8\u00e0\u00a7\u008d\u00e0\u00a6\u009f\u00e0\u00a6\u00be\u00e0\u00a6\u00b0\u00e0\u00a7\u008d\u00e0\u00a6\u00a8 \u00e0\u00a6\u00aa\u00e0\u00a7\u008d\u00e0\u00a6\u00b0\u00e0\u00a6\u00a6\u00e0\u00a7\u0087\u00e0\u00a6\u00b6",
            "name_de": "Nordwestprovinz",
            "name_el": "\u00ce\u0092\u00ce\u00bf\u00cf\u0081\u00ce\u00b5\u00ce\u00b9\u00ce\u00bf\u00ce\u00b4\u00cf\u0085\u00cf\u0084\u00ce\u00b9\u00ce\u00ba\u00ce\u00ae \u00ce\u0095\u00cf\u0080\u00ce\u00b1\u00cf\u0081\u00cf\u0087\u00ce\u00af\u00ce\u00b1",
            "name_en": "Northwestern Province",
            "name_es": "Provincia del Noroeste",
            "name_fr": "Province Nord-Occidentale",
            "name_hi": "\u00e0\u00a4\u0089\u00e0\u00a4\u00a4\u00e0\u00a5\u008d\u00e0\u00a4\u00a4\u00e0\u00a4\u00b0 \u00e0\u00a4\u00aa\u00e0\u00a4\u00b6\u00e0\u00a5\u008d\u00e0\u00a4\u009a\u00e0\u00a4\u00bf\u00e0\u00a4\u00ae\u00e0\u00a5\u0080 \u00e0\u00a4\u00aa\u00e0\u00a5\u008d\u00e0\u00a4\u00b0\u00e0\u00a4\u00be\u00e0\u00a4\u0082\u00e0\u00a4\u00a4",
            "name_hu": "",
            "name_id": "Provinsi Barat Laut",
            "name_it": "provincia Nord-Occidentale",
            "name_ja": "\u00e5\u008c\u0097\u00e8\u00a5\u00bf\u00e5\u00b7\u009e",
            "name_ko": "\u00eb\u00b6\u0081\u00ec\u0084\u009c\u00eb\u00b6\u0080 \u00ec\u00a3\u00bc",
            "name_len": "13",
            "name_local": "",
            "name_nl": "North-Western",
            "name_pl": "Prowincja P\u00c3\u00b3\u00c5\u0082nocno-Zachodnia",
            "name_pt": "Noroeste",
            "name_ru": "\u00d0\u00a1\u00d0\u00b5\u00d0\u00b2\u00d0\u00b5\u00d1\u0080\u00d0\u00be-\u00d0\u0097\u00d0\u00b0\u00d0\u00bf\u00d0\u00b0\u00d0\u00b4\u00d0\u00bd\u00d0\u00b0\u00d1\u008f \u00d0\u00bf\u00d1\u0080\u00d0\u00be\u00d0\u00b2\u00d0\u00b8\u00d0\u00bd\u00d1\u0086\u00d0\u00b8\u00d1\u008f",
            "name_sv": "North-Western",
            "name_tr": "Kuzeybat\u00c4\u00b1 B\u00c3\u00b6lgesi",
            "name_vi": "T\u00e1\u00bb\u0089nh T\u00c3\u00a2y B\u00e1\u00ba\u00afc",
            "name_zh": "\u00e8\u00a5\u00bf\u00e5\u008c\u0097\u00e7\u009c\u0081",
            "ne_id": "1159307891",
            "note": "",
            "provnum_ne": "7",
            "record_type": "state",
            "region": "",
            "region_cod": "",
            "region_sub": "",
            "sameascity": "-99",
            "scalerank": "4",
            "sov_a3": "ZMB",
            "sub_code": "",
            "wikidataid": "Q846320",
            "wikipedia": "",
            "woe_id": "2347801",
            "woe_label": "North-Western, ZM, Zambia",
            "woe_name": "North-Western"
        },
        "geo": {
            "latitude": -13.0050258,
            "longitude": 24.9042208,
            "max_latitude": -10.885152,
            "max_longitude": 27.6016581,
            "min_latitude": -14.72759,
            "min_longitude": 21.999899
        },
        "iso_3166_2": "ZM-06",
        "iso_a2": "ZM",
        "iso_a3": "ZMB",
        "name": "North-Western",
        "postal": "06",
        "type": "Province",
        "type_en": "Province"
    },
    "07": {
        "alt_names": [
            "Southern"
        ],
        "cca2": "ZM",
        "cca3": "ZMB",
        "code_hasc": "ZM.SO",
        "extra": {
            "abbrev": "",
            "adm0_a3": "ZMB",
            "adm0_label": "2",
            "adm0_sr": "1",
            "adm1_code": "ZMB-522",
            "admin": "Zambia",
            "area_sqkm": "0",
            "check_me": "0",
            "code_local": "",
            "data_sources": [
                "natural"
            ],
            "datarank": "6",
            "diss_me": "522",
            "featurecla": "Admin-1 scale rank",
            "fips": "ZA07",
            "fips_alt": "",
            "gadm_level": "1",
            "geonunit": "Zambia",
            "gn_a1_code": "ZM.07",
            "gn_id": "896972",
            "gn_level": "1",
            "gn_name": "Southern Province",
            "gn_region": "",
            "gns_adm1": "ZA07",
            "gns_id": "-2305240",
            "gns_lang": "eng",
            "gns_level": "1",
            "gns_name": "Southern",
            "gns_region": "",
            "gu_a3": "ZMB",
            "hasc_maybe": "",
            "labelrank": "4",
            "mapcolor9": "5",
            "mapcolor13": "13",
            "max_label": "11.0",
            "min_label": "6.6",
            "min_zoom": "6.6",
            "name_ar": "\u00d8\u00a7\u00d9\u0084\u00d9\u0085\u00d8\u00ad\u00d8\u00a7\u00d9\u0081\u00d8\u00b8\u00d8\u00a9 \u00d8\u00a7\u00d9\u0084\u00d8\u00ac\u00d9\u0086\u00d9\u0088\u00d8\u00a8\u00d9\u008a\u00d8\u00a9\u00d8\u008c \u00d8\u00b2\u00d8\u00a7\u00d9\u0085\u00d8\u00a8\u00d9\u008a\u00d8\u00a7",
            "name_bn": "\u00e0\u00a6\u00b8\u00e0\u00a6\u00be\u00e0\u00a6\u0089\u00e0\u00a6\u00a6\u00e0\u00a6\u00be\u00e0\u00a6\u00b0\u00e0\u00a7\u008d\u00e0\u00a6\u00a8 \u00e0\u00a6\u00aa\u00e0\u00a7\u008d\u00e0\u00a6\u00b0\u00e0\u00a6\u00a6\u00e0\u00a7\u0087\u00e0\u00a6\u00b6",
            "name_de": "S\u00c3\u00bcdprovinz",
            "name_el": "\u00ce\u009d\u00cf\u008c\u00cf\u0084\u00ce\u00b9\u00ce\u00b1 \u00ce\u0095\u00cf\u0080\u00ce\u00b1\u00cf\u0081\u00cf\u0087\u00ce\u00af\u00ce\u00b1",
            "name_en": "Southern Province",
            "name_es": "Provincia del Sur",
            "name_fr": "Province M\u00c3\u00a9ridionale",
            "name_hi": "\u00e0\u00a4\u00a6\u00e0\u00a4\u0095\u00e0\u00a5\u008d\u00e0\u00a4\u00b7\u00e0\u00a4\u00bf\u00e0\u00a4\u00a3\u00e0\u00a5\u0080 \u00e0\u00a4\u00aa\u00e0\u00a5\u008d\u00e0\u00a4\u00b0\u00e0\u00a4\u00be\u00e0\u00a4\u0082\u00e0\u00a4\u00a4",
            "name_hu": "",
            "name_id": "Provinsi Selatan",
            "name_it": "provincia Meridionale",
            "name_ja": "\u00e5\u008d\u0097\u00e9\u0083\u00a8\u00e5\u00b7\u009e",
            "name_ko": "\u00eb\u0082\u00a8\u00eb\u00b6\u0080 \u00ec\u00a3\u00bc",
            "name_len": "8",
            "name_local": "",
            "name_nl": "Southern",
            "name_pl": "Prowincja Po\u00c5\u0082udniowa",
            "name_pt": "Prov\u00c3\u00adncia do Sul",
            "name_ru": "\u00d0\u00ae\u00d0\u00b6\u00d0\u00bd\u00d0\u00b0\u00d1\u008f \u00d0\u00bf\u00d1\u0080\u00d0\u00be\u00d0\u00b2\u00d0\u00b8\u00d0\u00bd\u00d1\u0086\u00d0\u00b8\u00d1\u008f",
            "name_sv": "Southern",
            "name_tr": "G\u00c3\u00bcney B\u00c3\u00b6lgesi",
            "name_vi": "T\u00e1\u00bb\u0089nh Ph\u00c3\u00ada Nam",
            "name_zh": "\u00e5\u008d\u0097\u00e9\u0083\u00a8\u00e7\u009c\u0081",
            "ne_id": "1159307893",
            "note": "",
            "provnum_ne": "3",
            "record_type": "state",
            "region": "",
            "region_cod": "",
            "region_sub": "",
            "sameascity": "-99",
            "scalerank": "4",
            "sov_a3": "ZMB",
            "sub_code": "",
            "wikidataid": "Q738382",
            "wikipedia": "",
            "woe_id": "2347804",
            "woe_label": "Southern, ZM, Zambia",
            "woe_name": "Southern"
        },
        "geo": {
            "latitude": -16.9620634,
            "longitude": 26.419389,
            "max_latitude": -15.293982,
            "max_longitude": 28.912453,
            "min_latitude": -18.079473,
            "min_longitude": 24.9715499
        },
        "iso_3166_2": "ZM-07",
        "iso_a2": "ZM",
        "iso_a3": "ZMB",
        "name": "Southern",
        "postal": "07",
        "type": "Province",
        "type_en": "Province"
    },
    "08": {
        "alt_names": [
            "Western"
        ],
        "cca2": "ZM",
        "cca3": "ZMB",
        "code_hasc": "ZM.CO",
        "extra": {
            "abbrev": "",
            "adm0_a3": "ZMB",
            "adm0_label": "2",
            "adm0_sr": "1",
            "adm1_code": "ZMB-517",
            "admin": "Zambia",
            "area_sqkm": "0",
            "check_me": "0",
            "code_local": "",
            "data_sources": [
                "natural"
            ],
            "datarank": "6",
            "diss_me": "517",
            "featurecla": "Admin-1 scale rank",
            "fips": "ZA08",
            "fips_alt": "",
            "gadm_level": "1",
            "geonunit": "Zambia",
            "gn_a1_code": "ZM.08",
            "gn_id": "917524",
            "gn_level": "1",
            "gn_name": "Copperbelt Province",
            "gn_region": "",
            "gns_adm1": "ZA08",
            "gns_id": "-2282443",
            "gns_lang": "eng",
            "gns_level": "1",
            "gns_name": "Copperbelt",
            "gns_region": "",
            "gu_a3": "ZMB",
            "hasc_maybe": "",
            "labelrank": "4",
            "mapcolor9": "5",
            "mapcolor13": "13",
            "max_label": "11.0",
            "min_label": "6.6",
            "min_zoom": "6.6",
            "name_ar": "\u00d9\u0083\u00d9\u0088\u00d8\u00a8\u00d8\u00b1\u00d8\u00a8\u00d9\u008a\u00d9\u0084\u00d8\u00aa",
            "name_bn": "\u00e0\u00a6\u0095\u00e0\u00a6\u00aa\u00e0\u00a6\u00be\u00e0\u00a6\u00b0\u00e0\u00a6\u00ac\u00e0\u00a7\u0087\u00e0\u00a6\u00b2\u00e0\u00a6\u00be\u00e0\u00a6\u009f \u00e0\u00a6\u00aa\u00e0\u00a7\u008d\u00e0\u00a6\u00b0\u00e0\u00a6\u00a6\u00e0\u00a7\u0087\u00e0\u00a6\u00b6",
            "name_de": "Copperbelt",
            "name_el": "\u00ce\u009a\u00cf\u008c\u00cf\u0080\u00cf\u0080\u00ce\u00b5\u00cf\u0081\u00ce\u00bc\u00cf\u0080\u00ce\u00b5\u00ce\u00bb\u00cf\u0084",
            "name_en": "Copperbelt Province",
            "name_es": "Provincia de Copperbelt",
            "name_fr": "Copperbelt",
            "name_hi": "\u00e0\u00a4\u0095\u00e0\u00a5\u0089\u00e0\u00a4\u00aa\u00e0\u00a4\u00b0\u00e0\u00a4\u00ac\u00e0\u00a5\u0087\u00e0\u00a4\u00b2\u00e0\u00a5\u008d\u00e0\u00a4\u009f \u00e0\u00a4\u00aa\u00e0\u00a5\u008d\u00e0\u00a4\u00b0\u00e0\u00a4\u00be\u00e0\u00a4\u0082\u00e0\u00a4\u00a4",
            "name_hu": "",
            "name_id": "Provinsi Copperbelt",
            "name_it": "provincia di Copperbelt",
            "name_ja": "\u00e3\u0082\u00ab\u00e3\u0083\u0083\u00e3\u0083\u0091\u00e3\u0083\u00bc\u00e3\u0083\u0099\u00e3\u0083\u00ab\u00e3\u0083\u0088\u00e5\u00b7\u009e",
            "name_ko": "\u00ec\u00bd\u0094\u00ed\u008d\u00bc\u00eb\u00b2\u00a8\u00ed\u008a\u00b8 \u00ec\u00a3\u00bc",
            "name_len": "10",
            "name_local": "",
            "name_nl": "Copperbelt",
            "name_pl": "Prowincja Pasa Miedziono\u00c5\u009bnego",
            "name_pt": "Copperbelt",
            "name_ru": "\u00d0\u009a\u00d0\u00be\u00d0\u00bf\u00d0\u00bf\u00d0\u00b5\u00d1\u0080\u00d0\u00b1\u00d0\u00b5\u00d0\u00bb\u00d1\u0082",
            "name_sv": "Copperbelt",
            "name_tr": "Copperbelt B\u00c3\u00b6lgesi",
            "name_vi": "T\u00e1\u00bb\u0089nh Copperbelt",
            "name_zh": "\u00e9\u0093\u009c\u00e5\u00b8\u00a6\u00e7\u009c\u0081",
            "ne_id": "1159307885",
            "note": "",
            "provnum_ne": "9",
            "record_type": "state",
            "region": "",
            "region_cod": "",
            "region_sub": "",
            "sameascity": "-99",
            "scalerank": "4",
            "sov_a3": "ZMB",
            "sub_code": "",
            "wikidataid": "Q1131523",
            "wikipedia": "",
            "woe_id": "2347802",
            "woe_label": "Copperbelt, ZM, Zambia",
            "woe_name": "Copperbelt"
        },
        "geo": {
            "latitude": -15.9454906,
            "longitude": 23.3823545,
            "max_latitude": -13.709041,
            "max_longitude": 25.52071,
            "min_latitude": -17.6392799,
            "min_longitude": 21.999371
        },
        "iso_3166_2": "ZM-08",
        "iso_a2": "ZM",
        "iso_a3": "ZMB",
        "name": "Western",
        "postal": "08",
        "type": "Province",
        "type_en": "Province"
    },
    "09": {
        "alt_names": [
            "Lusaka"
        ],
        "cca2": "ZM",
        "cca3": "ZMB",
        "code_hasc": "ZM.LS",
        "extra": {
            "abbrev": "",
            "adm0_a3": "ZMB",
            "adm0_label": "2",
            "adm0_sr": "1",
            "adm1_code": "ZMB-520",
            "admin": "Zambia",
            "area_sqkm": "0",
            "check_me": "10",
            "code_local": "",
            "data_sources": [
                "natural"
            ],
            "datarank": "6",
            "diss_me": "520",
            "featurecla": "Admin-1 scale rank",
            "fips": "ZA09",
            "fips_alt": "",
            "gadm_level": "1",
            "geonunit": "Zambia",
            "gn_a1_code": "ZM.09",
            "gn_id": "909129",
            "gn_level": "1",
            "gn_name": "Lusaka Province",
            "gn_region": "",
            "gns_adm1": "ZA09",
            "gns_id": "-2291869",
            "gns_lang": "eng",
            "gns_level": "1",
            "gns_name": "Lusaka",
            "gns_region": "",
            "gu_a3": "ZMB",
            "hasc_maybe": "",
            "labelrank": "7",
            "mapcolor9": "5",
            "mapcolor13": "13",
            "max_label": "11.0",
            "min_label": "6.6",
            "min_zoom": "6.6",
            "name_ar": "\u00d9\u0084\u00d9\u0088\u00d8\u00b3\u00d8\u00a7\u00d9\u0083\u00d8\u00a7",
            "name_bn": "\u00e0\u00a6\u00b2\u00e0\u00a7\u0081\u00e0\u00a6\u0095\u00e0\u00a6\u00be\u00e0\u00a6\u0095\u00e0\u00a6\u00be \u00e0\u00a6\u00aa\u00e0\u00a7\u008d\u00e0\u00a6\u00b0\u00e0\u00a6\u00a6\u00e0\u00a7\u0087\u00e0\u00a6\u00b6",
            "name_de": "Lusaka",
            "name_el": "\u00ce\u009b\u00ce\u00bf\u00cf\u0085\u00cf\u0083\u00ce\u00ac\u00ce\u00ba\u00ce\u00b1",
            "name_en": "Lusaka Province",
            "name_es": "Provincia de Lusaka",
            "name_fr": "Province de Lusaka",
            "name_hi": "\u00e0\u00a4\u00b2\u00e0\u00a5\u0081\u00e0\u00a4\u00b8\u00e0\u00a4\u00be\u00e0\u00a4\u0095\u00e0\u00a4\u00be \u00e0\u00a4\u00aa\u00e0\u00a5\u008d\u00e0\u00a4\u00b0\u00e0\u00a4\u00be\u00e0\u00a4\u0082\u00e0\u00a4\u00a4",
            "name_hu": "",
            "name_id": "Provinsi Lusaka",
            "name_it": "provincia di Lusaka",
            "name_ja": "\u00e3\u0083\u00ab\u00e3\u0082\u00b5\u00e3\u0082\u00ab\u00e5\u00b7\u009e",
            "name_ko": "\u00eb\u00a3\u00a8\u00ec\u0082\u00ac\u00ec\u00b9\u00b4 \u00ec\u00a3\u00bc",
            "name_len": "6",
            "name_local": "",
            "name_nl": "Lusaka",
            "name_pl": "Prowincja Lusaka",
            "name_pt": "Lusaca",
            "name_ru": "\u00d0\u009b\u00d1\u0083\u00d1\u0081\u00d0\u00b0\u00d0\u00ba\u00d0\u00b0",
            "name_sv": "Lusaka",
            "name_tr": "Lusaka B\u00c3\u00b6lgesi",
            "name_vi": "T\u00e1\u00bb\u0089nh Lusaka",
            "name_zh": "\u00e5\u008d\u00a2\u00e8\u0090\u00a8\u00e5\u008d\u00a1\u00e7\u009c\u0081",
            "ne_id": "1159307889",
            "note": "",
            "provnum_ne": "1",
            "record_type": "state",
            "region": "",
            "region_cod": "",
            "region_sub": "",
            "sameascity": "7",
            "scalerank": "4",
            "sov_a3": "ZMB",
            "sub_code": "",
            "wikidataid": "Q819998",
            "wikipedia": "",
            "woe_id": "2347809",
            "woe_label": "Lusaka, ZM, Zambia",
            "woe_name": "Lusaka"
        },
        "geo": {
            "latitude": -15.416667,
            "longitude": 28.283333,
            "max_latitude": -15.2992532,
            "max_longitude": 28.4887506,
            "min_latitude": -15.5344065,
            "min_longitude": 28.1987555
        },
        "iso_3166_2": "ZM-09",
        "iso_a2": "ZM",
        "iso_a3": "ZMB",
        "name": "Lusaka",
        "postal": "09",
        "type": "Province",
        "type_en": "Province"
    },
    "10": {
        "alt_names": [
            ""
        ],
        "cca2": "ZM",
        "cca3": "ZMB",
        "code_hasc": "ZM.MU",
        "extra": {
            "abbrev": "",
            "adm0_a3": "ZMB",
            "adm0_label": "2",
            "adm0_sr": "1",
            "adm1_code": "ZMB-5511",
            "admin": "Zambia",
            "area_sqkm": "0",
            "check_me": "0",
            "code_local": "",
            "data_sources": [
                "natural"
            ],
            "datarank": "6",
            "diss_me": "5511",
            "featurecla": "Admin-1 scale rank",
            "fips": "ZA10",
            "fips_alt": "",
            "gadm_level": "1",
            "geonunit": "Zambia",
            "gn_a1_code": "ZM.",
            "gn_id": "-99",
            "gn_level": "0",
            "gn_name": "",
            "gn_region": "",
            "gns_adm1": "ZA10",
            "gns_id": "11664636",
            "gns_lang": "kor",
            "gns_level": "1",
            "gns_name": "Muchinga",
            "gns_region": "",
            "gu_a3": "ZMB",
            "hasc_maybe": "",
            "labelrank": "4",
            "mapcolor9": "5",
            "mapcolor13": "13",
            "max_label": "11.0",
            "min_label": "6.6",
            "min_zoom": "6.6",
            "name_ar": "\u00d9\u0085\u00d8\u00ad\u00d8\u00a7\u00d9\u0081\u00d8\u00b8\u00d8\u00a9 \u00d9\u0085\u00d9\u0088\u00d8\u00aa\u00d8\u00b4\u00d9\u008a\u00d9\u0086\u00d8\u00ba\u00d8\u00a7",
            "name_bn": "\u00e0\u00a6\u00ae\u00e0\u00a7\u008b\u00e0\u00a6\u00b8\u00e0\u00a6\u00bf\u00e0\u00a6\u0099\u00e0\u00a7\u008d\u00e0\u00a6\u0097\u00e0\u00a6\u00be \u00e0\u00a6\u00aa\u00e0\u00a7\u008d\u00e0\u00a6\u00b0\u00e0\u00a6\u00a6\u00e0\u00a7\u0087\u00e0\u00a6\u00b6",
            "name_de": "Provinz Muchinga",
            "name_el": "\u00ce\u009c\u00ce\u00bf\u00cf\u0085\u00cf\u0084\u00cf\u0083\u00ce\u00af\u00ce\u00bd\u00ce\u00b3\u00ce\u00ba\u00ce\u00b1",
            "name_en": "Muchinga Province",
            "name_es": "Provincia de Muchinga",
            "name_fr": "province de Muchinga",
            "name_hi": "\u00e0\u00a4\u00ae\u00e0\u00a5\u0081\u00e0\u00a4\u00b6\u00e0\u00a4\u00bf\u00e0\u00a4\u0082\u00e0\u00a4\u0097\u00e0\u00a4\u00be \u00e0\u00a4\u00aa\u00e0\u00a5\u008d\u00e0\u00a4\u00b0\u00e0\u00a4\u00be\u00e0\u00a4\u0082\u00e0\u00a4\u00a4",
            "name_hu": "",
            "name_id": "Provinsi Muchinga",
            "name_it": "Provincia di Muchinga",
            "name_ja": "\u00e3\u0083\u00a0\u00e3\u0083\u0081\u00e3\u0083\u00b3\u00e3\u0082\u00ac\u00e5\u00b7\u009e",
            "name_ko": "\u00eb\u00ac\u00b4\u00ec\u00b9\u00ad\u00ea\u00b0\u0080 \u00ec\u00a3\u00bc",
            "name_len": "8",
            "name_local": "",
            "name_nl": "Muchinga Province",
            "name_pl": "Prowincja Muchinga",
            "name_pt": "Prov\u00c3\u00adncia de Muchinga",
            "name_ru": "\u00d0\u009c\u00d1\u0083\u00d1\u0087\u00d0\u00b8\u00d0\u00bd\u00d0\u00b3\u00d0\u00b0",
            "name_sv": "Muchinga",
            "name_tr": "Muchinga B\u00c3\u00b6lgesi",
            "name_vi": "T\u00e1\u00bb\u0089nh Muchinga",
            "name_zh": "",
            "ne_id": "1159317173",
            "note": "",
            "provnum_ne": "4",
            "record_type": "state",
            "region": "",
            "region_cod": "",
            "region_sub": "",
            "sameascity": "-99",
            "scalerank": "4",
            "sov_a3": "ZMB",
            "sub_code": "",
            "wikidataid": "Q6714242",
            "wikipedia": "",
            "woe_id": "2347807",
            "woe_label": "Northern, ZM, Zambia",
            "woe_name": "Northern"
        },
        "geo": {
            "latitude": "-11.37010000",
            "longitude": "32.0234000"
        },
        "iso_3166_2": "ZM-10",
        "iso_a2": "ZM",
        "iso_a3": "ZMB",
        "name": "Muchinga",
        "postal": "10",
        "type": "Province",
        "type_en": "Province"
    }
}