{
    "abbrev": "EU",
    "abbrev_len": "2.00",
    "adm0_a3": "EUR",
    "adm0_a3_is": "EUR",
    "adm0_a3_un": "-99.00",
    "adm0_a3_us": "EUR",
    "adm0_a3_wb": "-99.00",
    "adm0_dif": "1.00",
    "admin": "Europe Union",
    "alt_spellings": [
        "EU"
    ],
    "brk_a3": "EUR",
    "brk_diff": "0.00",
    "brk_group": "",
    "brk_name": "Europe Union",
    "capital": "",
    "cca2": "EU",
    "cca3": "EUR",
    "ccn3": "250",
    "cioc": "EUR",
    "currency": [
        "EUR"
    ],
    "demonym": "European",
    "dialling": {
    },
    "economy": "1. Developed region: G7",
    "extra": {
        "address_format": "{{recipient}}\n{{street}}\n{{postalcode}} {{city}}\n{{country}}",
        "emoji": "🇪🇺"
    },
    "flag": {
        "emoji": "🇪🇺"
    },
    "formal_en": "Europe Union",
    "geo": {
        "area": 4475757,
        "pop_est": "511805088.00",
        "pop_year": "2017.00",
        "borders": [
            "AUT",
            "BEL",
            "BGR",
            "HRV",
            "CYP",
            "CZE",
            "DNK",
            "EST",
            "FIN",
            "FRA",
            "DEU",
            "GRC",
            "HUN",
            "IRL",
            "ITA",
            "LVA",
            "LTU",
            "LUX",
            "MLT",
            "NLD",
            "POL",
            "PRT",
            "ROU",
            "SVK",
            "SVN",
            "ESP",
            "SWE",
            "GBR"
        ],
        "continent": {
            "EU": "Europe"
        },
        "independent": "Yes",
        "landlocked": false,
        "latitude": "42 43 N",
        "latitude_desc": "42.678693",
        "latlng": [
            42,
            23
        ],
        "longitude": "23 18 E",
        "longitude_desc": "23.321737",
        "postal_code": false,
        "region": "Europe",
        "region_code": "150",
        "region_un": "Europe",
        "region_wb": "Europe & Central Asia",
        "subregion": "Western Europe",
        "subregion_code": "155",
        "world_region": "EMEA"
    },
    "geou_dif": "0.00",
    "geounit": "Europe Union",
    "gu_a3": "EUR",
    "homepart": "1.00",
    "income_grp": "1. High income: OECD",
    "iso_3166_1_alpha2": "EU",
    "iso_3166_1_alpha3": "EUR",
    "iso_3166_1_numeric": "250",
    "iso_a2": "EU",
    "iso_a3": "EUR",
    "iso_a3_eh": "EUR",
    "iso_n3": "250",
    "labelrank": "2.00",
    "type": "Political and economic union",
    "scripts": [
        "Latin",
        "Greek",
        "Cyrillic"
    ],
    "religion": [
        "Roman Catholic",
        "irreligious",
        "Protestant",
        "Eastern Orthodox",
        "other Christian",
        "Muslim",
        "other faiths"
    ],
    "languages": {
        "eng": "English",
        "deu": "German",
        "fra": "French",
        "ita": "Italian",
        "spa": "Spanish",
        "pol": "Polish",
        "ron": "Romanian",
        "nld": "Dutch",
        "ell": "Greek",
        "hun": "Hungarian",
        "por": "Portuguese",
        "ces": "Czech",
        "swe": "Swedish",
        "bul": "Bulgarian",
        "slk": "Slovak",
        "dan": "Danish",
        "fin": "Finnish",
        "lit": "Lithuanian",
        "hrv": "Croatian",
        "slv": "Slovenian",
        "est": "Estonian",
        "gle": "Irish",
        "lav": "Latvian",
        "mlt": "Maltese"
    },
    "name": {
        "common": "Europe Union",
        "native": {
            "en": {
                "common": "Europe Union",
                "official": "Europe Union"
            }
        },
        "official": "Europe Union"
    },
    "name_alt": "",
    "name_ciawf": "Europe Union",
    "name_len": "12.00",
    "name_long": "Europe Union",
    "name_sort": "Europe Union",
    "note_adm0": "",
    "note_brk": "",
    "postal": "",
    "sovereignt": "Europe Union",
    "su_a3": "EUR",
    "su_dif": "0.00",
    "subunit": "Europe Union",
    "tiny": "-99.00",
    "tld": [
        ".eu"
    ],
    "translations": {
        "deu": {
            "common": "Frankreich",
            "official": "Franz\u00f6sische Republik"
        },
        "est": {
            "common": "Prantsusmaa",
            "official": "Prantsuse Vabariik"
        },
        "fin": {
            "common": "Ranska",
            "official": "Ranskan tasavalta"
        },
        "fra": {
            "common": "Europe Union",
            "official": "R\u00e9publique fran\u00e7aise"
        },
        "hrv": {
            "common": "Francuska",
            "official": "Francuska Republika"
        },
        "ita": {
            "common": "Francia",
            "official": "Repubblica francese"
        },
        "jpn": {
            "common": "\u30d5\u30e9\u30f3\u30b9",
            "official": "\u30d5\u30e9\u30f3\u30b9\u5171\u548c\u56fd"
        },
        "nld": {
            "common": "Frankrijk",
            "official": "Franse Republiek"
        },
        "por": {
            "common": "Fran\u00e7a",
            "official": "Rep\u00fablica Francesa"
        },
        "rus": {
            "common": "\u0424\u0440\u0430\u043d\u0446\u0438\u044f",
            "official": "\u0424\u0440\u0430\u043d\u0446\u0443\u0437\u0441\u043a\u0430\u044f \u0420\u0435\u0441\u043f\u0443\u0431\u043b\u0438\u043a\u0430"
        },
        "slk": {
            "common": "Franc\u00fazsko",
            "official": "Franc\u00fazska republika"
        },
        "spa": {
            "common": "Francia",
            "official": "Rep\u00fablica franc\u00e9s"
        },
        "zho": {
            "common": "\u6cd5\u56fd",
            "official": "\u6cd5\u5170\u897f\u5171\u548c\u56fd"
        }
    },
    "un_a3": "250",
    "wb_a2": "EU",
    "wb_a3": "EUR",
    "wikipedia": "-99.00",
    "woe_id": "-90.00",
    "woe_id_eh": "23424819.00",
    "woe_note": "Includes only Metropolitan France (including Corsica)"
}
